{
    "provider": "google",
    "id": "107989843880872837447",
    "displayName": "Serge Da Silva",
    "name": {
        "familyName": "Da Silva",
        "givenName": "Serge"
    },
    "emails": [
        {
            "value": "dasilvasoa@gmail.com",
            "type": "account"
        }
    ],
    "photos": [
        {
            "value": "https://lh6.googleusercontent.com/-hRhcMsZ9-Fs/AAAAAAAAAAI/AAAAAAAA68s/2xmOYwVMO3w/photo.jpg?sz=50"
        }
    ],
    "gender": "male",
    "_raw": "{\n \"kind\": \"plus#person\",\n \"etag\": \"\\\"4OZ_Kt6ujOh1jaML_U6RM6APqoE/W_vaIZaUSJmONhIhBdbsOlmvqZ8\\\"\",\n \"gender\": \"male\",\n \"emails\": [\n  {\n   \"value\": \"dasilvasoa@gmail.com\",\n   \"type\": \"account\"\n  }\n ],\n \"objectType\": \"person\",\n \"id\": \"107989843880872837447\",\n \"displayName\": \"Serge Da Silva\",\n \"name\": {\n  \"familyName\": \"Da Silva\",\n  \"givenName\": \"Serge\"\n },\n \"url\": \"https://plus.google.com/107989843880872837447\",\n \"image\": {\n  \"url\": \"https://lh6.googleusercontent.com/-hRhcMsZ9-Fs/AAAAAAAAAAI/AAAAAAAA68s/2xmOYwVMO3w/photo.jpg?sz=50\",\n  \"isDefault\": false\n },\n \"placesLived\": [\n  {\n   \"value\": \"Genève\"\n  }\n ],\n \"isPlusUser\": true,\n \"language\": \"fr\",\n \"circledByCount\": 29,\n \"verified\": false\n}\n",
    "_json": {
        "kind": "plus#person",
        "etag": "\"4OZ_Kt6ujOh1jaML_U6RM6APqoE/W_vaIZaUSJmONhIhBdbsOlmvqZ8\"",
        "gender": "male",
        "emails": [
            {
                "value": "dasilvasoa@gmail.com",
                "type": "account"
            }
        ],
        "objectType": "person",
        "id": "107989843880872837447",
        "displayName": "Serge Da Silva",
        "name": {
            "familyName": "Da Silva",
            "givenName": "Serge"
        },
        "url": "https://plus.google.com/107989843880872837447",
        "image": {
            "url": "https://lh6.googleusercontent.com/-hRhcMsZ9-Fs/AAAAAAAAAAI/AAAAAAAA68s/2xmOYwVMO3w/photo.jpg?sz=50",
            "isDefault": false
        },
        "placesLived": [
            {
                "value": "Genève"
            }
        ],
        "isPlusUser": true,
        "language": "fr",
        "circledByCount": 29,
        "verified": false
    }
}