<?xml version="1.0" standalone="no"?>
<!DOCTYPE svg PUBLIC "-//W3C//DTD SVG 20010904//EN"
 "http://www.w3.org/TR/2001/REC-SVG-20010904/DTD/svg10.dtd">
<svg version="1.0" xmlns="http://www.w3.org/2000/svg"
 width="312.959503pt" height="249.000000pt" viewBox="0 0 312.959503 249.000000"
 preserveAspectRatio="xMidYMid meet">
<metadata>
Created by potrace 1.13, written by Peter Selinger 2001-2015
</metadata>
<g transform="translate(-2.000000,253.000000) scale(0.010000,-0.010000)"
fill="#000000" stroke="none">
<path d="M8200 25206 c0 -52 45 -122 100 -156 55 -34 100 -259 100 -500 0
-241 -45 -466 -100 -500 -197 -122 -95 -250 200 -250 295 0 397 128 200 250
-55 34 -100 149 -100 256 0 140 69 194 250 194 181 0 250 -54 250 -194 0 -107
-46 -222 -102 -257 -155 -96 -13 -249 233 -249 206 0 219 45 219 750 l0 750
-275 0 c-273 0 -366 -132 -175 -250 199 -123 101 -350 -150 -350 -251 0 -349
227 -150 350 197 122 95 250 -200 250 -165 0 -300 -42 -300 -94z"/>
<path d="M10950 25154 c-858 -308 -1404 -1410 -1156 -2331 219 -813 975 -1423
1764 -1423 l364 0 -587 -432 c-323 -238 -825 -699 -1116 -1025 l-529 -593 65
404 c98 620 -113 1230 -593 1711 -666 666 -1541 711 -2219 115 -607 -532 -837
-1255 -638 -2004 314 -1179 1425 -1755 2413 -1250 l467 239 -280 -557 c-154
-307 -382 -895 -506 -1308 -124 -412 -248 -818 -275 -900 -30 -91 -87 -12
-145 200 -241 881 -1109 1478 -1963 1350 -901 -135 -1628 -1211 -1473 -2181
269 -1680 2171 -2214 3137 -881 l294 406 55 -1272 c31 -700 88 -1384 128
-1522 l72 -250 -290 263 c-424 385 -672 487 -1187 487 -528 0 -886 -160 -1271
-566 -878 -928 -512 -2687 651 -3127 588 -223 1303 -91 1756 325 302 276 605
928 615 1318 6 258 64 188 413 -494 223 -436 580 -1030 794 -1319 l388 -526
-306 107 c-796 277 -1750 -172 -2115 -996 -568 -1284 263 -2721 1573 -2721
592 0 1003 220 1413 757 249 326 287 464 287 1034 0 362 -39 767 -87 900 -78
216 -39 202 378 -140 256 -210 846 -572 1311 -806 l846 -424 -351 -66 c-425
-80 -967 -535 -1186 -997 -90 -190 -161 -593 -161 -915 0 -1235 1023 -2134
2099 -1844 1395 375 1867 2228 831 3263 l-359 359 320 -70 c417 -92 2128 -91
2427 1 l232 72 -213 -238 c-382 -425 -569 -914 -569 -1487 0 -1972 2406 -2621
3272 -882 143 287 260 659 259 827 -1 857 -522 1652 -1244 1898 l-394 135 699
352 c385 194 932 536 1217 761 284 225 539 409 565 409 26 0 -22 -168 -108
-373 -319 -764 63 -1884 795 -2331 483 -294 1319 -268 1797 57 734 499 1050
1727 645 2507 -201 388 -795 917 -1122 999 -280 70 -907 13 -1185 -108 -116
-51 -9 157 290 559 261 352 636 978 832 1390 l357 750 56 -462 c114 -926 854
-1588 1775 -1588 1441 0 2232 1833 1329 3080 -284 392 -1019 820 -1407 820
-289 0 -785 -267 -1186 -636 -209 -193 -317 -248 -280 -143 118 333 288 2294
222 2560 -59 240 -26 221 310 -169 618 -720 1411 -909 2126 -507 1087 611
1304 2170 429 3089 -712 748 -1721 748 -2433 1 -201 -211 -397 -526 -435 -699
-89 -405 -175 -296 -385 487 -93 349 -318 935 -501 1303 l-331 670 451 -228
c542 -274 836 -283 1371 -40 509 231 908 700 1053 1237 472 1753 -1467 3194
-2764 2055 -506 -444 -677 -832 -679 -1537 l-1 -607 -630 667 c-346 367 -817
797 -1048 957 l-419 290 519 64 c1604 199 2188 2350 925 3413 -1108 931 -2665
218 -2789 -1278 -55 -666 2 -908 332 -1394 210 -309 224 -366 78 -302 -1783
783 -3922 860 -5556 202 -316 -128 -575 -216 -575 -198 0 19 110 196 245 395
984 1450 -406 3473 -1995 2902z m1554 -721 c424 -456 553 -950 398 -1527 -311
-1155 -1514 -1553 -2339 -775 -648 611 -684 1656 -79 2304 362 389 581 469
1159 427 424 -31 546 -92 861 -429z m8367 271 c389 -238 729 -868 729 -1353 0
-761 -557 -1478 -1250 -1608 -808 -151 -1650 650 -1650 1571 1 1211 1202 1980
2171 1390z m-3187 -3021 c2688 -830 4586 -2965 5273 -5933 206 -893 152 -3202
-97 -4100 -712 -2570 -2613 -4627 -5010 -5420 -1121 -371 -2842 -391 -3950
-47 -1886 587 -3436 1887 -4430 3717 -1130 2082 -1289 4962 -397 7197 1457
3650 5193 5640 8611 4586z m-9080 -208 c1453 -733 967 -2975 -644 -2975 -385
0 -523 57 -848 351 -866 783 -689 2197 334 2661 521 237 622 233 1158 -37z
m15598 0 c568 -288 841 -750 841 -1424 0 -922 -602 -1551 -1483 -1551 -385 0
-523 57 -848 351 -873 788 -699 2192 328 2659 527 239 627 236 1162 -35z
m-17204 -4654 c589 -369 867 -1084 690 -1772 -186 -726 -697 -1149 -1385
-1149 -603 1 -1064 293 -1307 827 -240 529 -242 911 -10 1423 217 475 386 629
888 805 412 144 743 105 1124 -134z m19247 -216 c436 -422 611 -1026 461
-1584 -315 -1169 -1512 -1573 -2343 -790 -680 641 -692 1719 -28 2347 408 385
518 424 1096 384 381 -27 550 -101 814 -357z m-752 -4551 c991 -513 1192
-1749 419 -2578 -320 -343 -447 -408 -869 -444 -582 -51 -1026 177 -1349 692
-285 454 -235 1397 99 1866 398 559 1130 759 1700 464z m-18091 -139 c525
-280 815 -844 769 -1494 -42 -589 -253 -944 -770 -1296 -1183 -805 -2628 837
-1916 2177 391 734 1201 993 1917 613z m2596 -4297 c934 -691 935 -2056 2
-2693 -939 -641 -2200 135 -2200 1353 0 1224 1292 2011 2198 1340z m13193 4
c898 -669 848 -2063 -96 -2706 -280 -190 -437 -225 -838 -188 -419 39 -551
107 -867 447 -606 649 -611 1586 -11 2260 429 483 1296 572 1812 187z m-9000
-2501 c676 -504 873 -1272 527 -2053 -482 -1090 -1880 -1170 -2524 -144 -267
425 -235 1397 59 1801 462 634 1371 820 1938 396z m4698 120 c652 -386 945
-1262 666 -1992 -333 -872 -1087 -1221 -1879 -871 -588 260 -876 725 -876
1414 0 704 375 1346 900 1537 306 112 928 66 1189 -88z"/>
<path d="M10575 24131 c-96 -25 -175 -112 -175 -193 0 -84 74 -134 175 -117
143 24 181 -58 205 -438 27 -409 4 -472 -179 -500 -396 -62 -203 -233 298
-263 399 -24 501 1 501 125 0 88 -86 155 -200 155 -179 0 -200 67 -200 650 0
664 -17 688 -425 581z"/>
<path d="M11720 24080 c-129 -129 -164 -380 -53 -380 37 0 143 69 236 152 185
168 497 102 497 -105 0 -72 -208 -310 -463 -527 -266 -228 -434 -444 -394
-508 100 -162 1186 -149 1133 13 -23 69 -184 139 -359 156 l-318 32 359 338
c287 271 344 385 287 569 -40 126 -122 263 -183 303 -175 115 -609 90 -742
-43z"/>
<path d="M19819 24095 c-255 -102 -204 -317 64 -273 133 22 173 -67 197 -439
27 -418 7 -471 -192 -500 -122 -18 -241 -89 -264 -158 -29 -90 116 -125 518
-125 553 0 769 163 358 271 -174 45 -200 136 -200 691 0 673 -35 712 -481 533z"/>
<path d="M7175 20875 c-320 -107 -366 -275 -75 -275 173 0 200 -67 200 -493 0
-435 -26 -497 -225 -525 -423 -60 -226 -232 300 -262 421 -24 525 0 525 125 0
87 -85 155 -196 155 -172 0 -199 82 -225 684 l-29 683 -275 -92z"/>
<path d="M8418 20877 c-330 -86 -405 -355 -83 -298 135 24 165 -61 165 -475 0
-444 -25 -504 -208 -504 -123 0 -191 -52 -167 -125 26 -77 227 -125 525 -125
298 0 499 48 525 125 24 73 -44 125 -162 125 -183 0 -207 72 -234 682 l-29
681 -332 -86z"/>
<path d="M23324 20846 c-123 -87 -224 -222 -224 -302 0 -187 92 -182 313 18
199 180 487 123 487 -97 0 -77 -202 -307 -450 -510 -625 -512 -599 -673 101
-635 607 33 745 201 230 280 l-327 50 257 202 c357 280 483 552 380 823 -46
124 -127 225 -180 225 -52 0 -155 23 -229 51 -73 29 -234 -19 -358 -105z"/>
<path d="M5375 16231 c-96 -25 -175 -112 -175 -193 0 -84 74 -134 175 -117
143 24 181 -58 205 -438 27 -409 4 -472 -179 -500 -409 -64 -193 -233 299
-233 503 0 744 172 325 232 -207 29 -225 84 -225 675 0 657 -17 681 -425 574z"/>
<path d="M6587 16135 c-75 -91 -137 -377 -137 -635 0 -533 169 -800 507 -800
303 0 543 354 543 800 0 664 -563 1056 -913 635z m613 -635 c0 -314 -47 -497
-138 -531 -213 -82 -362 135 -362 531 0 396 149 613 362 531 91 -34 138 -217
138 -531z"/>
<path d="M24957 16143 c-221 -221 -203 -240 207 -215 444 27 542 -150 163
-292 l-277 -104 275 -132 c160 -77 275 -213 275 -327 0 -166 -57 -189 -403
-156 -321 31 -397 8 -374 -114 42 -221 707 -258 915 -51 180 180 215 503 65
596 -53 33 -70 193 -37 356 35 174 8 357 -66 446 -162 195 -544 192 -743 -7z"/>
<path d="M24575 10999 c-367 -665 -361 -834 25 -778 165 25 300 7 300 -38 0
-46 -45 -83 -100 -83 -55 0 -100 -45 -100 -100 0 -55 158 -100 350 -100 343 0
472 134 225 234 -97 39 -95 72 11 146 94 66 102 116 25 163 -61 38 -111 291
-111 563 0 675 -250 672 -625 -7z m325 -249 c0 -154 -57 -250 -148 -250 -121
0 -127 45 -34 250 63 138 129 250 148 250 19 0 34 -112 34 -250z"/>
<path d="M6515 11240 c-294 -207 -299 -788 -7 -944 114 -61 272 -87 350 -57
78 30 142 10 142 -45 0 -127 -409 -283 -575 -220 -69 26 -125 -25 -125 -113 0
-251 525 -203 783 70 524 558 20 1720 -568 1309z m435 -448 c0 -175 -55 -242
-199 -242 -234 0 -334 336 -136 461 207 131 335 47 335 -219z"/>
<path d="M8865 6917 c-189 -209 -215 -474 -56 -572 78 -49 78 -98 0 -176 -156
-156 -134 -429 48 -612 370 -370 1080 11 873 468 -69 152 -69 298 0 450 211
472 -506 838 -865 442z m585 -317 c0 -82 -101 -164 -225 -182 -173 -25 -225
17 -225 182 0 165 52 207 225 182 124 -18 225 -99 225 -182z m31 -726 c25
-129 -33 -174 -224 -174 -244 0 -344 180 -187 337 121 120 376 19 411 -163z"/>
<path d="M21900 6651 l0 -460 340 64 c293 55 351 32 411 -158 92 -291 -106
-418 -537 -343 -411 72 -396 -143 20 -282 380 -127 766 133 766 515 0 325
-321 665 -546 578 -94 -36 -154 -4 -154 82 0 85 127 153 325 172 492 47 389
227 -150 261 l-475 31 0 -460z"/>
<path d="M12900 4300 c0 -211 145 -269 250 -100 71 116 451 137 449 25 -1 -41
-68 -296 -150 -566 -173 -571 -186 -759 -53 -759 88 0 504 1225 504 1486 0 70
-192 114 -500 114 -433 0 -500 -27 -500 -200z"/>
<path d="M18102 4572 c-335 -170 -519 -552 -460 -956 65 -446 223 -616 572
-616 381 0 576 372 399 761 -98 215 -171 253 -416 217 -163 -24 -297 -13 -297
24 0 148 402 419 543 364 199 -76 322 131 145 244 -177 112 -191 111 -486 -38z
m298 -1072 c0 -212 -335 -286 -450 -100 -92 149 36 300 256 300 127 0 194 -69
194 -200z"/>
<path d="M22245 25191 c-37 -60 -17 -159 44 -220 61 -61 111 -273 111 -471 0
-198 -50 -410 -111 -471 -146 -146 -28 -329 211 -329 219 0 391 220 218 277
-65 22 -118 126 -118 231 0 138 70 192 250 192 180 0 250 -54 250 -192 0 -105
-56 -212 -125 -237 -189 -70 61 -298 280 -255 150 29 177 147 177 784 0 637
-27 755 -177 784 -219 43 -469 -185 -280 -255 228 -84 135 -329 -125 -329
-255 0 -357 248 -132 323 173 57 1 277 -218 277 -104 0 -218 -49 -255 -109z"/>
<path d="M28620 22780 c-211 -211 -129 -291 230 -223 273 51 350 32 350 -84 0
-82 -90 -173 -200 -202 -264 -69 -254 -200 25 -322 377 -166 281 -398 -169
-406 -217 -3 -411 -58 -432 -121 -54 -163 454 -268 765 -159 243 86 262 136
269 724 9 687 -114 913 -495 913 -123 0 -277 -54 -343 -120z"/>
<path d="M4998 22648 c-169 -203 -65 -291 186 -156 230 122 543 40 487 -129
-20 -62 -134 -127 -254 -145 -291 -43 -275 -201 33 -318 465 -177 183 -558
-350 -474 -82 13 -172 -21 -200 -76 -29 -58 150 -113 425 -130 420 -27 487 -3
585 212 78 171 80 300 5 439 -57 108 -79 294 -48 413 31 120 1 284 -67 367
-161 194 -640 192 -802 -3z"/>
<path d="M25503 22704 c-126 -80 -123 -103 25 -159 242 -93 247 -995 5 -1088
-280 -107 3 -274 406 -239 411 36 533 215 180 265 -294 41 -231 256 89 302
798 114 571 1018 -255 1013 -167 0 -369 -43 -450 -94z m897 -302 c132 -83 130
-115 -17 -262 -207 -207 -483 -117 -483 157 0 219 240 269 500 105z"/>
<path d="M27232 22610 c-31 -115 -95 -210 -144 -210 -48 0 -88 -67 -88 -150 0
-82 45 -150 100 -150 55 0 100 -152 100 -338 0 -442 201 -603 649 -519 483 91
484 366 1 288 -336 -55 -350 -45 -350 249 0 253 44 312 253 338 139 18 253 77
253 132 0 55 -114 114 -253 132 -139 17 -253 93 -253 169 0 234 -210 281 -268
59z"/>
<path d="M2057 22508 c-215 -238 -250 -926 -58 -1156 155 -188 986 -209 1053
-27 25 69 57 238 72 375 23 223 -11 250 -316 250 -188 0 -360 -56 -383 -125
-24 -73 44 -125 167 -125 236 0 281 -178 66 -261 -383 -147 -678 331 -497 803
66 173 639 225 639 58 0 -55 71 -100 157 -100 105 0 146 73 125 222 -46 320
-759 380 -1025 86z"/>
<path d="M3629 22525 c-35 -96 -112 -207 -171 -246 -73 -49 -68 -109 18 -195
68 -68 124 -244 124 -392 0 -350 210 -513 611 -474 448 44 518 294 73 259
-296 -24 -338 4 -365 241 -26 226 11 273 242 300 394 46 433 282 47 282 -241
0 -308 43 -308 200 0 246 -183 263 -271 25z"/>
<path d="M3650 17216 c-258 -48 -462 -215 -396 -323 29 -46 118 -59 199 -28
117 45 147 -46 147 -454 0 -451 -24 -511 -208 -511 -122 0 -192 -52 -167 -125
24 -73 256 -138 558 -155 414 -24 517 1 517 125 0 87 -85 155 -196 155 -172 0
-199 82 -225 677 -26 615 -47 673 -229 639z"/>
<path d="M1963 16896 c-106 -213 -132 -356 -67 -378 57 -19 104 -183 104 -364
0 -434 204 -594 649 -511 483 91 484 366 1 288 -336 -55 -350 -45 -350 249 0
253 44 312 253 338 321 41 330 222 13 262 -132 17 -283 127 -336 245 -91 205
-103 199 -267 -129z"/>
<path d="M30535 17046 c-83 -215 13 -281 237 -161 216 116 488 -7 385 -174
-38 -61 -134 -111 -213 -111 -79 0 -144 -67 -144 -150 0 -82 62 -150 138 -150
76 0 189 -62 251 -137 172 -207 -119 -402 -489 -328 -371 74 -400 -102 -41
-239 184 -69 337 -61 525 29 281 134 408 523 229 702 -69 69 -71 165 -5 288
165 308 -55 585 -465 585 -223 0 -371 -56 -408 -154z"/>
<path d="M200 17011 c0 -49 68 -116 150 -147 200 -77 201 -797 1 -963 -223
-185 -87 -301 355 -301 284 0 394 42 394 150 0 85 -90 150 -208 150 -287 0
-188 241 116 285 133 19 298 80 367 137 159 130 162 501 5 658 -138 138 -1180
165 -1180 31z m978 -229 c151 -151 -24 -382 -290 -382 -134 0 -188 72 -188
250 0 272 264 346 478 132z"/>
<path d="M27354 17007 c-31 -51 -12 -121 44 -156 132 -81 133 -1051 2 -1051
-55 0 -100 -45 -100 -100 0 -55 158 -100 350 -100 193 0 350 45 350 100 0 55
-45 100 -100 100 -130 0 -130 370 0 450 55 34 194 -98 310 -294 194 -329 590
-501 590 -256 0 55 -41 100 -90 100 -50 0 -189 167 -310 372 l-219 372 262
209 c287 229 250 347 -110 347 -161 0 -233 -58 -233 -188 0 -103 -67 -244
-150 -312 -122 -102 -150 -96 -150 32 0 86 45 184 100 218 55 34 100 104 100
156 0 122 -570 123 -646 1z"/>
<path d="M29200 16911 c0 -104 -79 -220 -175 -257 -167 -65 -167 -74 0 -197
101 -75 175 -260 175 -440 0 -375 249 -540 653 -432 444 119 430 315 -20 288
-348 -21 -386 2 -414 245 -27 238 6 272 300 300 389 38 404 217 23 265 -160
19 -285 109 -315 225 -65 247 -227 249 -227 3z"/>
<path d="M3775 11178 c-320 -110 -365 -278 -75 -278 173 0 200 -67 200 -500 0
-440 -25 -500 -208 -500 -123 0 -191 -52 -167 -125 26 -77 227 -125 525 -125
298 0 499 48 525 125 24 73 -44 125 -167 125 -189 0 -208 58 -208 644 0 354
-34 663 -75 687 -41 23 -199 -1 -350 -53z"/>
<path d="M703 11003 c-295 -295 -283 -1035 19 -1247 437 -306 900 -138 1018
369 61 265 49 275 -338 275 -419 0 -552 -179 -202 -271 273 -72 253 -229 -30
-229 -302 0 -470 179 -470 500 0 471 372 646 715 336 165 -149 186 -149 242
-3 105 273 -3 395 -384 434 -271 28 -421 -15 -570 -164z"/>
<path d="M2300 11036 c0 -90 -79 -225 -175 -300 -167 -130 -167 -141 0 -241
112 -67 175 -228 175 -448 0 -285 43 -354 257 -408 288 -72 786 110 697 255
-32 51 -214 67 -406 36 -335 -54 -348 -45 -348 257 0 283 30 313 308 313 383
0 349 236 -41 282 -186 22 -267 90 -267 225 0 106 -45 193 -100 193 -55 0
-100 -74 -100 -164z"/>
<path d="M30375 11131 c-241 -63 -221 -331 25 -331 170 0 200 -67 200 -443 0
-369 -34 -448 -204 -475 -392 -61 -195 -232 303 -262 327 -20 501 9 501 84 0
63 -90 138 -200 167 -174 45 -200 136 -200 691 0 652 -18 676 -425 569z"/>
<path d="M27054 11007 c-31 -51 -12 -121 44 -156 56 -35 102 -260 102 -501 0
-241 -46 -466 -102 -501 -174 -108 0 -249 308 -249 311 0 368 86 181 273 -63
63 -84 190 -48 284 61 159 78 159 261 -7 107 -97 222 -260 254 -363 33 -103
146 -187 253 -187 219 0 256 151 66 270 -70 44 -211 211 -314 372 l-185 291
263 192 c345 251 333 375 -37 375 -227 0 -300 -46 -300 -188 0 -103 -67 -244
-150 -312 -123 -102 -150 -95 -150 38 0 89 45 162 100 162 55 0 100 68 100
150 0 168 -547 216 -646 57z"/>
<path d="M28900 10908 c0 -105 -56 -212 -125 -237 -100 -37 -100 -72 0 -178
69 -73 126 -248 127 -388 0 -140 39 -314 85 -387 109 -173 832 -116 893 71 36
108 -32 123 -317 70 -351 -66 -363 -58 -363 230 0 244 46 303 253 329 323 41
330 222 10 263 -140 17 -264 113 -293 225 -66 250 -270 252 -270 2z"/>
<path d="M27500 5800 c-110 -110 -200 -245 -200 -300 0 -158 216 -117 350 66
139 191 450 118 450 -105 0 -80 -180 -299 -400 -488 -578 -494 -538 -673 150
-673 422 0 550 35 550 150 0 105 -106 150 -357 150 l-357 0 357 337 c196 185
357 410 357 500 0 204 -350 563 -550 563 -82 0 -240 -90 -350 -200z"/>
<path d="M4300 5691 c0 -61 90 -133 200 -162 161 -42 200 -136 200 -479 0
-343 -39 -437 -200 -479 -388 -101 -204 -271 294 -271 514 0 782 173 416 268
-172 45 -210 133 -210 482 0 343 39 437 200 479 408 107 196 271 -350 271
-331 0 -550 -43 -550 -109z"/>
<path d="M5868 5620 c-231 -255 -222 -940 15 -1155 213 -192 724 -218 897 -45
205 205 134 270 -229 211 -405 -66 -651 90 -651 411 0 436 505 625 757 283
123 -167 132 -167 197 0 114 295 -14 434 -425 458 -277 16 -442 -32 -561 -163z"/>
<path d="M24300 5711 c0 -49 68 -116 150 -147 213 -82 208 -920 -6 -1003 -269
-103 -50 -261 362 -261 284 0 394 42 394 150 0 83 -89 150 -200 150 -110 0
-200 45 -200 100 0 55 80 100 178 100 471 0 802 580 502 880 -138 138 -1180
165 -1180 31z m1032 -277 c103 -103 -136 -334 -344 -334 -121 0 -188 71 -188
200 0 143 67 200 233 200 129 0 263 -30 299 -66z"/>
<path d="M26100 5608 c0 -105 -56 -218 -125 -250 -100 -46 -100 -70 0 -116 69
-32 125 -203 125 -380 0 -177 54 -376 120 -442 139 -139 568 -156 768 -30 220
140 48 281 -284 232 -283 -42 -304 -23 -304 267 0 279 31 311 300 311 165 0
300 45 300 100 0 55 -130 100 -288 100 -205 0 -304 58 -341 200 -67 255 -271
261 -271 8z"/>
<path d="M11364 1889 c-195 -278 -103 -455 129 -246 95 87 248 157 340 157
299 0 178 -358 -233 -688 -571 -459 -531 -612 158 -612 403 0 547 35 517 125
-24 70 -159 111 -309 93 -346 -42 -336 51 53 452 279 287 307 365 224 605
-131 373 -651 441 -879 114z"/>
<path d="M22520 1980 c-143 -143 -159 -380 -26 -380 52 0 122 45 156 100 85
138 422 126 512 -19 45 -73 -107 -277 -394 -530 -258 -227 -468 -466 -468
-531 0 -79 190 -120 550 -120 418 0 550 35 550 148 0 110 -75 132 -300 87
-165 -33 -300 -29 -300 9 0 38 135 183 300 321 492 414 372 1035 -200 1035
-143 0 -314 -54 -380 -120z"/>
<path d="M8410 1741 c-437 -556 -139 -1281 527 -1281 412 0 510 76 602 465 62
265 50 275 -337 275 -221 0 -402 -45 -402 -100 0 -55 90 -100 200 -100 111 0
200 -67 200 -150 0 -181 -407 -203 -580 -30 -129 129 -157 467 -59 722 70 182
446 211 610 47 143 -143 349 -18 310 186 -21 103 -171 169 -446 195 -354 33
-445 -1 -625 -229z"/>
<path d="M10029 1800 c-29 -110 -92 -200 -141 -200 -48 0 -88 -67 -88 -150 0
-82 45 -150 100 -150 55 0 100 -132 100 -293 0 -279 216 -607 401 -607 197 0
599 203 599 302 0 68 -127 83 -350 41 -338 -63 -350 -55 -350 239 0 251 45
310 253 336 139 18 253 77 253 132 0 55 -114 114 -253 132 -173 21 -253 93
-253 225 0 254 -204 249 -271 -7z"/>
<path d="M19300 1850 c0 -82 45 -150 100 -150 55 0 100 -225 100 -500 0 -275
-45 -500 -100 -500 -55 0 -100 -45 -100 -100 0 -55 158 -100 350 -100 388 0
435 66 179 253 -150 109 -153 147 -29 296 132 160 153 157 321 -50 98 -122
179 -284 179 -360 0 -133 309 -196 419 -86 29 29 -101 220 -289 425 l-343 372
307 258 c330 276 312 392 -61 392 -162 0 -233 -58 -233 -189 0 -104 -71 -217
-158 -250 -258 -99 -282 -71 -107 122 201 222 125 317 -252 317 -185 0 -283
-52 -283 -150z"/>
<path d="M21200 1811 c0 -104 -79 -220 -175 -257 -167 -65 -167 -74 0 -197
101 -75 175 -260 175 -440 0 -375 249 -540 653 -432 444 119 430 315 -20 288
-350 -21 -386 1 -415 252 -28 247 0 275 275 275 206 0 307 49 307 150 0 100
-100 150 -300 150 -233 0 -300 44 -300 200 0 110 -45 200 -100 200 -55 0 -100
-85 -100 -189z"/>
</g>
</svg>
