<?xml version="1.0" standalone="no"?>
<!DOCTYPE svg PUBLIC "-//W3C//DTD SVG 20010904//EN"
 "http://www.w3.org/TR/2001/REC-SVG-20010904/DTD/svg10.dtd">
<svg version="1.0" xmlns="http://www.w3.org/2000/svg"
 width="294.921224pt" height="264.921501pt" viewBox="0 0 294.921224 264.921501"
 preserveAspectRatio="xMidYMid meet">
<metadata>
Created by potrace 1.13, written by Peter Selinger 2001-2015
</metadata>
<g transform="translate(-2.979262,269.921501) scale(0.010000,-0.010000)"
fill="#000000" stroke="none">
<path d="M23075 26884 c-320 -117 -364 -284 -75 -284 173 0 200 -67 200 -500
0 -440 -25 -500 -208 -500 -123 0 -191 -52 -167 -125 26 -77 227 -125 525
-125 298 0 499 48 525 125 24 73 -44 125 -167 125 -191 0 -208 57 -208 700 0
385 -34 696 -75 692 -41 -4 -199 -53 -350 -108z"/>
<path d="M21501 26721 c-329 -266 -336 -970 -13 -1231 432 -350 930 -192 1052
335 61 265 49 275 -338 275 -419 0 -552 -179 -202 -271 273 -72 253 -229 -30
-229 -302 0 -470 179 -470 500 0 471 372 646 715 336 165 -149 186 -149 242
-3 105 272 -2 395 -374 433 -240 25 -431 -23 -582 -145z"/>
<path d="M18200 26146 c-1400 -628 -1832 -2517 -866 -3784 l258 -338 -771 260
c-684 231 -928 260 -2171 260 -1312 0 -1455 -19 -2276 -310 -1155 -410 -1855
-837 -2746 -1674 -822 -774 -1306 -1394 -1793 -2297 -285 -529 -331 -574 -333
-332 -5 615 -232 1180 -668 1666 -521 579 -935 741 -1743 683 -467 -34 -665
-105 -964 -346 -1110 -893 -1318 -2367 -489 -3467 800 -1061 2202 -1151 3174
-204 l363 353 -142 -533 c-292 -1094 -278 -3079 31 -4283 62 -244 55 -242
-275 70 -933 881 -2171 816 -3004 -156 -1143 -1336 -515 -3523 1125 -3916 693
-167 1443 65 1919 592 474 525 586 753 659 1348 l62 502 478 -823 c524 -901
1637 -2143 2340 -2608 l448 -297 -383 -69 c-833 -152 -1376 -574 -1725 -1343
-685 -1513 390 -3389 1947 -3398 911 -5 1934 854 2105 1766 123 655 -3 1486
-292 1923 -149 225 -243 409 -210 409 34 0 316 -77 627 -172 829 -253 2839
-229 3715 43 358 111 737 239 844 283 147 62 116 -15 -126 -317 -515 -641
-657 -1495 -396 -2375 161 -542 898 -1279 1440 -1440 536 -159 708 -154 1270
37 553 189 1214 880 1366 1429 157 564 118 1417 -85 1862 -370 813 -1381 1436
-2149 1323 -292 -42 -294 -40 -92 117 1084 839 1403 1135 1896 1762 313 397
711 1000 886 1341 l317 618 56 -544 c247 -2396 3023 -2978 4135 -867 263 501
246 1614 -34 2150 -417 796 -1136 1250 -1980 1250 -543 0 -964 -194 -1468
-676 l-370 -354 154 490 c308 986 291 3437 -33 4640 -63 236 -48 231 273 -89
1088 -1086 2854 -685 3473 789 189 450 189 1450 0 1900 -474 1128 -1765 1709
-2805 1262 -733 -315 -1372 -1313 -1372 -2141 0 -342 -15 -328 -482 450 -758
1260 -1435 1999 -2621 2858 l-247 180 285 -59 c156 -32 516 9 800 91 1385 403
2036 2156 1292 3479 -540 960 -1735 1427 -2627 1026z m1222 -250 c486 -135
936 -522 1193 -1025 299 -587 233 -1587 -143 -2155 -666 -1008 -2042 -1096
-2843 -184 -542 617 -675 1505 -332 2218 307 639 577 893 1177 1107 463 165
488 166 948 39z m-3089 -4056 c1333 -342 2528 -1079 3530 -2176 1331 -1458
2003 -3123 2108 -5222 126 -2532 -686 -4683 -2415 -6394 -1783 -1764 -4239
-2453 -6595 -1851 -2552 653 -4609 2817 -5373 5653 -173 639 -216 1082 -217
2200 -1 1236 31 1505 269 2295 1242 4113 4950 6456 8693 5495z m8544 -2008
c144 -107 397 -362 563 -567 248 -307 308 -485 342 -1009 53 -835 -98 -1253
-628 -1742 -872 -804 -2042 -632 -2725 400 -241 364 -279 520 -279 1145 0 642
34 773 301 1157 577 831 1742 1127 2426 616z m-18730 -60 c1603 -908 1220
-3493 -565 -3824 -818 -151 -1769 498 -2034 1388 -507 1706 1148 3257 2599
2436z m195 -7956 c216 -146 501 -468 633 -716 200 -374 234 -562 205 -1111
-61 -1143 -784 -1889 -1831 -1889 -1676 0 -2478 2271 -1239 3510 627 627 1494
707 2232 206z m18596 -109 c556 -343 896 -1003 905 -1754 6 -520 -41 -696
-293 -1103 -1045 -1687 -3398 -920 -3400 1108 -1 1557 1538 2522 2788 1749z
m-5138 -5800 c193 -96 485 -366 650 -600 271 -383 300 -499 300 -1199 0 -684
-33 -822 -276 -1174 -371 -535 -923 -834 -1538 -834 -2161 2 -2531 3382 -436
3984 414 118 820 63 1300 -177z m-8343 -11 c1199 -580 1417 -2484 388 -3387
-1159 -1018 -2849 -275 -3015 1325 -68 660 87 1165 504 1639 564 642 1348 799
2123 423z"/>
<path d="M18775 24584 c-320 -117 -364 -284 -75 -284 173 0 200 -67 200 -500
0 -440 -25 -500 -208 -500 -123 0 -191 -52 -167 -125 26 -77 227 -125 525
-125 298 0 499 48 525 125 24 73 -44 125 -167 125 -191 0 -208 57 -208 700 0
385 -34 696 -75 692 -41 -4 -199 -53 -350 -108z"/>
<path d="M23722 18844 c-122 -85 -222 -220 -222 -300 0 -187 92 -182 313 18
202 183 487 121 487 -104 0 -82 -180 -293 -400 -470 -220 -177 -400 -404 -400
-505 0 -156 84 -183 558 -183 622 0 730 211 155 300 l-322 50 355 333 c406
382 435 536 154 817 -241 241 -384 250 -678 44z"/>
<path d="M4800 18450 c0 -137 45 -250 100 -250 55 0 100 45 100 100 0 55 113
100 250 100 292 0 293 -2 99 -641 -173 -571 -186 -759 -53 -759 98 0 504 1238
504 1536 0 130 -103 164 -500 164 -467 0 -500 -17 -500 -250z"/>
<path d="M5336 10895 c-747 -282 -687 -1595 72 -1595 229 0 320 61 397 263
141 371 -124 776 -464 711 -132 -26 -241 -14 -241 24 0 152 401 423 543 368
83 -31 176 -16 207 33 89 145 -279 285 -514 196z m243 -1109 c36 -189 -191
-302 -378 -187 -181 112 -41 423 173 382 95 -18 188 -106 205 -195z"/>
<path d="M23725 10696 c-124 -49 -225 -129 -225 -176 0 -167 123 -207 298 -98
209 131 536 30 477 -147 -22 -69 -138 -139 -258 -157 -291 -43 -275 -201 33
-318 138 -52 250 -164 250 -248 0 -159 -156 -198 -636 -159 -200 16 -273 -17
-242 -110 24 -74 223 -146 448 -163 487 -36 784 192 676 520 -38 115 -66 345
-61 510 5 165 -23 350 -63 412 -110 169 -446 234 -697 134z"/>
<path d="M18660 4457 c-353 -601 -339 -756 65 -760 272 -3 296 -20 148 -106
-242 -141 -124 -291 229 -291 274 0 288 21 257 375 -17 206 -38 566 -45 800
-19 591 -302 583 -654 -18z m340 -257 c0 -113 -67 -200 -154 -200 -122 0 -131
40 -46 200 59 110 128 200 154 200 25 0 46 -90 46 -200z"/>
<path d="M10271 4838 c-39 -39 -71 -249 -71 -467 0 -384 9 -394 291 -338 333
67 569 -133 468 -395 -49 -128 -151 -152 -461 -110 -219 29 -398 21 -398 -18
0 -147 250 -310 477 -310 414 0 623 179 623 534 0 384 -151 566 -470 566 -366
0 -282 282 95 319 179 17 325 76 325 131 0 116 -773 194 -879 88z"/>
<path d="M27698 21248 c-169 -203 -65 -291 186 -156 212 113 516 51 516 -105
0 -51 -112 -135 -250 -187 -316 -120 -315 -180 7 -303 402 -152 281 -447 -183
-447 -412 0 -515 -169 -155 -255 559 -135 969 183 818 634 -41 121 -62 325
-48 451 15 127 -27 296 -93 375 -158 190 -638 186 -798 -7z"/>
<path d="M26340 21222 c-348 -229 -438 -885 -165 -1205 335 -393 1068 -294
1154 157 29 151 13 300 -36 330 -165 102 -626 47 -668 -79 -25 -74 46 -125
175 -125 271 0 214 -238 -67 -280 -280 -41 -452 207 -415 598 25 259 83 339
263 365 126 18 297 -23 379 -91 179 -148 397 15 313 235 -58 149 -744 220
-933 95z"/>
<path d="M1138 20281 c-40 -66 -20 -137 44 -158 156 -52 156 -994 0 -1046
-194 -64 12 -277 268 -277 256 0 462 213 268 277 -173 58 -144 423 34 423 83
0 227 -159 320 -353 97 -205 230 -342 315 -325 204 39 265 278 71 278 -87 0
-158 53 -158 117 0 65 -78 204 -174 310 -167 184 -162 202 106 433 298 256
281 440 -40 440 -116 0 -235 -99 -288 -240 -110 -288 -304 -431 -304 -224 0
81 53 165 118 187 194 64 -12 277 -268 277 -131 0 -271 -54 -312 -119z"/>
<path d="M29448 19793 c-92 -421 5 -475 195 -107 193 373 194 414 15 414 -78
0 -172 -138 -210 -307z"/>
<path d="M26925 18236 c-199 -84 -145 -219 100 -254 187 -27 230 -104 256
-457 27 -380 2 -436 -231 -525 -388 -148 -207 -300 356 -300 372 0 494 37 494
150 0 83 -89 150 -200 150 -173 0 -200 67 -200 500 0 440 25 500 208 500 122
0 192 52 168 125 -42 127 -724 207 -951 111z"/>
<path d="M28502 18102 c-194 -194 -202 -239 -75 -430 78 -118 287 -252 464
-298 364 -94 368 -306 7 -358 -142 -21 -288 35 -365 140 -115 158 -133 159
-190 13 -106 -277 3 -397 397 -438 446 -45 660 97 660 439 0 194 -84 279 -400
403 -220 87 -400 197 -400 245 0 175 311 203 487 44 246 -223 313 -204 313 88
0 138 -56 251 -125 251 -69 1 -222 28 -341 60 -144 38 -287 -14 -432 -159z"/>
<path d="M1957 9443 c-181 -182 -199 -305 -56 -393 55 -35 127 8 160 94 74
190 539 210 539 22 0 -73 -202 -323 -450 -555 -248 -232 -450 -465 -450 -517
0 -51 274 -94 608 -94 443 0 597 34 567 125 -26 77 -171 112 -379 90 l-337
-34 371 410 c421 466 426 484 214 787 -181 259 -561 290 -787 65z"/>
<path d="M471 9323 c-225 -248 -232 -1048 -12 -1231 184 -152 800 -177 928
-37 48 52 116 219 152 370 62 265 50 275 -337 275 -221 0 -402 -45 -402 -100
0 -55 90 -100 200 -100 111 0 200 -67 200 -150 0 -181 -407 -203 -580 -30 -66
66 -120 237 -120 380 0 143 54 314 120 380 145 145 580 160 580 20 0 -55 71
-100 157 -100 105 0 146 73 125 222 -45 310 -758 381 -1011 101z"/>
<path d="M27092 9450 c-4 -27 -11 -376 -16 -775 -7 -617 19 -730 169 -759 219
-43 469 185 280 255 -69 25 -125 132 -125 237 0 138 70 192 250 192 180 0 250
-54 250 -192 0 -105 -53 -209 -118 -231 -173 -57 -1 -277 218 -277 239 0 357
183 211 329 -61 61 -111 273 -111 471 0 198 50 410 111 471 146 146 28 329
-211 329 -219 0 -391 -220 -218 -277 225 -75 123 -323 -132 -323 -255 0 -357
248 -132 323 176 58 -1 277 -224 277 -107 0 -198 -22 -202 -50z"/>
<path d="M7500 1900 c0 -55 45 -100 100 -100 143 0 126 -975 -18 -1023 -249
-83 48 -277 424 -277 284 0 394 42 394 150 0 83 -89 150 -200 150 -294 0 -244
167 74 247 151 38 331 116 400 173 160 132 163 503 6 660 -144 144 -1180 162
-1180 20z m950 -350 c0 -131 -77 -211 -225 -232 -185 -26 -225 16 -225 232 0
216 40 258 225 232 148 -21 225 -101 225 -232z"/>
<path d="M20850 1250 l0 -750 275 0 c151 0 275 45 275 100 0 55 -45 100 -100
100 -55 0 -100 90 -100 200 0 147 67 200 250 200 183 0 250 -53 250 -200 0
-110 -45 -200 -100 -200 -55 0 -100 -45 -100 -100 0 -55 124 -100 275 -100
l275 0 0 750 c0 705 -13 750 -219 750 -242 0 -435 -215 -249 -277 225 -75 123
-323 -132 -323 -255 0 -357 248 -132 323 186 62 -7 277 -249 277 -206 0 -219
-45 -219 -750z"/>
</g>
</svg>
