<?xml version="1.0" standalone="no"?>
<!DOCTYPE svg PUBLIC "-//W3C//DTD SVG 20010904//EN"
 "http://www.w3.org/TR/2001/REC-SVG-20010904/DTD/svg10.dtd">
<svg version="1.0" xmlns="http://www.w3.org/2000/svg"
 width="232.512101pt" height="241.334235pt" viewBox="0 0 232.512101 241.334235"
 preserveAspectRatio="xMidYMid meet">
<metadata>
Created by potrace 1.13, written by Peter Selinger 2001-2015
</metadata>
<g transform="translate(-2.000000,246.448168) scale(0.010000,-0.010000)"
fill="#000000" stroke="none">
<path d="M8297 24568 c-306 -152 -362 -480 -155 -915 87 -183 158 -398 158
-476 0 -79 32 -175 70 -214 39 -39 86 -182 104 -319 28 -211 -35 -277 -429
-446 -254 -109 -511 -198 -570 -198 -60 0 -180 -61 -267 -135 -87 -74 -361
-243 -608 -375 -247 -132 -690 -431 -984 -665 -294 -234 -586 -424 -650 -423
-64 1 -408 294 -765 650 -651 650 -858 751 -1081 528 -253 -253 -123 -563 480
-1138 330 -315 600 -637 600 -716 0 -79 -146 -316 -325 -525 -814 -954 -1808
-2954 -2061 -4151 -264 -1244 -268 -1250 -815 -1250 -730 0 -799 -116 -799
-1355 0 -972 15 -1049 225 -1178 124 -75 403 -146 620 -156 500 -25 616 -124
690 -588 154 -964 1018 -2981 1612 -3765 170 -224 412 -575 536 -778 l227
-370 -605 -580 c-587 -562 -692 -787 -544 -1172 122 -317 493 -166 1081 442
319 330 637 600 706 600 118 0 540 -290 834 -573 73 -70 190 -127 260 -127 71
0 268 -133 438 -296 171 -163 718 -486 1215 -718 1030 -480 1032 -483 689
-1439 -241 -673 -202 -1093 109 -1174 293 -77 459 190 660 1062 100 431 232
804 294 828 62 23 448 -28 858 -115 1213 -256 2359 -292 3223 -100 1068 238
1153 210 1365 -448 98 -302 220 -707 271 -900 75 -283 147 -356 376 -383 157
-18 325 8 374 57 53 53 -15 493 -166 1074 -141 541 -220 1015 -177 1052 44 37
236 128 429 201 193 74 469 216 615 316 146 101 313 183 370 183 170 0 838
414 1237 766 674 595 1014 541 1784 -285 426 -456 790 -504 1032 -135 89 136
162 277 162 313 0 36 -292 355 -650 709 -357 354 -650 700 -650 768 0 69 147
286 328 483 180 196 454 608 609 914 155 306 311 570 347 587 36 16 209 323
384 680 537 1096 1032 3107 1032 4190 0 505 35 623 222 754 122 86 319 156
438 156 403 0 458 198 330 1196 -134 1042 -252 1225 -779 1201 -198 -9 -417
-12 -486 -7 -68 6 -324 426 -567 935 -454 949 -1057 1933 -1456 2375 -583 647
-595 825 -77 1215 813 614 887 702 855 1023 -24 252 -80 318 -291 342 -204 24
-419 -113 -976 -625 -392 -360 -730 -655 -749 -655 -19 0 -148 101 -286 225
-497 444 -713 601 -1416 1026 -391 237 -949 508 -1239 602 -289 94 -552 214
-584 266 -33 51 86 496 263 987 341 944 326 1111 -107 1224 -297 78 -453 -145
-642 -919 -254 -1036 -284 -1061 -1088 -921 -907 158 -2856 145 -3733 -25
l-717 -139 -208 769 c-114 423 -207 815 -207 871 0 57 -80 175 -178 264 -148
134 -219 140 -425 38z m6191 -2372 c1017 -277 2173 -726 2312 -897 28 -34 298
-203 600 -375 1021 -581 2433 -1945 2905 -2807 111 -202 333 -592 493 -867
161 -275 415 -849 564 -1275 291 -828 274 -815 1053 -779 437 20 469 3 527
-263 91 -414 100 -984 18 -1117 -40 -64 -218 -116 -397 -116 -578 0 -633 -119
-702 -1509 -91 -1830 -486 -3187 -1338 -4591 -678 -1119 -937 -1432 -2023
-2447 -2617 -2446 -6660 -3190 -10150 -1867 -751 285 -2104 1053 -2697 1532
-1308 1057 -2451 2636 -2989 4132 -99 275 -216 590 -261 700 -153 377 -303
1023 -305 1312 -2 479 -136 584 -819 638 l-629 50 -30 638 c-37 774 143 1012
764 1012 215 0 436 56 491 125 54 69 155 440 225 825 69 385 235 1038 370
1450 252 772 1112 2436 1443 2791 103 110 188 236 189 280 1 79 672 797 1112
1190 363 325 1794 1264 2291 1504 1070 516 1391 632 2145 775 440 84 890 172
1000 197 110 25 847 28 1638 6 1042 -29 1648 -97 2200 -247z m5112 -1946 c0
-27 -22 -50 -50 -50 -27 0 -50 23 -50 50 0 28 23 50 50 50 28 0 50 -22 50 -50z
m150 -15550 c34 -55 39 -100 12 -100 -28 0 -78 45 -112 100 -34 55 -39 100
-12 100 28 0 78 -45 112 -100z m317 -467 c-37 -36 -67 -6 -67 67 0 73 30 103
67 67 36 -37 36 -97 0 -134z"/>
<path d="M9118 21494 c-304 -122 -250 -433 83 -477 496 -67 447 -224 -226
-726 -341 -255 -351 -518 -29 -729 289 -190 962 -214 1134 -42 184 184 143
459 -81 530 -184 59 -188 82 -50 279 243 347 192 824 -112 1064 -290 227 -375
239 -719 101z"/>
<path d="M14161 21347 c-182 -183 -103 -462 126 -440 331 32 378 -11 334 -306
-30 -211 4 -317 117 -360 275 -106 76 -231 -275 -174 -436 71 -590 -222 -258
-491 382 -309 820 -210 1052 237 191 371 92 1238 -172 1502 -224 224 -714 241
-924 32z"/>
<path d="M5447 18972 c-32 -126 -44 -519 -27 -875 27 -584 52 -650 255 -679
124 -18 228 16 231 75 4 59 7 355 7 657 0 1050 0 1050 -211 1050 -123 0 -220
-87 -255 -228z"/>
<path d="M17375 18655 c-261 -288 -475 -599 -475 -692 0 -191 455 -398 722
-328 98 25 178 10 178 -34 0 -202 357 -202 521 0 167 207 174 617 21 1374 -77
379 -442 258 -967 -320z m425 -405 c0 -27 -22 -50 -50 -50 -27 0 -50 23 -50
50 0 28 23 50 50 50 28 0 50 -22 50 -50z"/>
<path d="M5724 7796 c-314 -126 -406 -445 -328 -1134 80 -701 267 -885 853
-841 543 40 682 328 567 1170 -112 824 -442 1067 -1092 805z m343 -663 c-37
-36 -97 -36 -134 0 -36 37 -6 67 67 67 73 0 103 -30 67 -67z m233 -733 c0 -55
-67 -100 -150 -100 -82 0 -150 45 -150 100 0 55 68 100 150 100 83 0 150 -45
150 -100z"/>
<path d="M17271 7730 c-26 -44 -78 -223 -116 -398 -53 -249 -23 -364 138 -525
114 -114 297 -207 407 -207 115 0 200 -67 200 -156 0 -116 -82 -149 -312 -125
-420 42 -625 -243 -336 -467 262 -203 840 -110 1081 174 220 260 162 745 -118
977 -157 131 -163 173 -44 285 272 254 110 460 -388 492 -256 17 -486 -6 -512
-50z"/>
<path d="M8838 5554 c-89 -230 145 -454 474 -454 159 0 288 -23 288 -51 0 -28
-95 -253 -211 -500 -217 -462 -200 -749 45 -749 213 0 915 1500 793 1694 -143
227 -1306 277 -1389 60z"/>
<path d="M13918 5417 c-362 -338 -485 -861 -320 -1361 205 -622 1001 -622
1261 0 153 365 101 581 -232 963 -80 92 -116 218 -78 279 70 113 -111 402
-251 402 -42 0 -213 -127 -380 -283z m482 -1117 c91 -170 76 -200 -96 -200
-112 0 -204 19 -204 42 0 23 -27 113 -61 200 -90 236 232 199 361 -42z"/>
</g>
</svg>
