<?xml version="1.0" standalone="no"?>
<!DOCTYPE svg PUBLIC "-//W3C//DTD SVG 20010904//EN"
 "http://www.w3.org/TR/2001/REC-SVG-20010904/DTD/svg10.dtd">
<svg version="1.0" xmlns="http://www.w3.org/2000/svg"
 width="212.396129pt" height="213.698469pt" viewBox="0 0 212.396129 213.698469"
 preserveAspectRatio="xMidYMid meet">
<metadata>
Created by potrace 1.13, written by Peter Selinger 2001-2015
</metadata>
<g transform="translate(-0.070507,214.636689) scale(0.010000,-0.010000)"
fill="#000000" stroke="none">
<path d="M9250 21409 c-1361 -164 -3018 -753 -4018 -1427 -230 -155 -462 -282
-517 -282 -54 0 -113 -34 -132 -75 -18 -41 -258 -253 -533 -471 -1265 -1003
-2300 -2337 -3155 -4066 -191 -385 -604 -1699 -645 -2052 -25 -213 -91 -566
-147 -786 -231 -903 -13 -4182 312 -4700 34 -55 252 -550 484 -1100 232 -550
590 -1225 795 -1500 205 -275 433 -612 507 -750 152 -286 1647 -1800 1777
-1800 47 0 240 -138 429 -306 387 -346 445 -381 1613 -969 465 -234 931 -425
1037 -426 106 0 322 -68 481 -150 158 -83 540 -179 850 -213 309 -35 631 -99
715 -142 85 -43 670 -86 1300 -97 973 -17 1341 27 2431 285 707 167 1539 424
1850 571 1175 556 1978 983 2316 1232 740 546 2103 2054 2480 2744 126 232
306 534 398 671 210 312 652 1405 982 2429 257 796 443 2585 371 3554 -59 786
-245 1817 -327 1817 -43 0 -99 214 -124 475 -76 787 -695 2065 -1590 3283
-1473 2006 -3621 3416 -6154 4040 -962 237 -2747 337 -3786 211z m2050 -470
c358 -23 763 -60 900 -82 138 -22 475 -71 750 -109 275 -39 622 -133 770 -209
149 -76 351 -139 450 -139 99 0 440 -157 758 -349 318 -192 693 -378 833 -413
140 -35 279 -125 308 -201 29 -75 115 -137 193 -137 112 0 926 -661 1488
-1208 1226 -1193 2142 -2630 2544 -3992 121 -412 259 -862 306 -1000 247 -723
290 -2625 90 -3990 -356 -2432 -1891 -4926 -3990 -6482 -578 -429 -2105 -1228
-2700 -1413 -1269 -396 -1453 -430 -3050 -569 -1233 -108 -3074 243 -4514 860
-462 198 -466 204 -253 353 194 136 217 244 217 1000 0 685 -31 859 -160 909
-257 98 -337 -160 -338 -1103 l-2 -884 -575 324 c-1032 582 -1957 1416 -2825
2549 -1447 1888 -2107 3819 -2108 6170 -2 2223 547 3966 1770 5628 323 440
637 889 698 999 133 242 1746 1638 1900 1644 60 3 218 101 350 218 282 250
1169 685 1402 686 88 1 274 90 411 198 138 108 273 173 302 145 28 -29 206 35
394 141 345 193 802 290 1735 367 278 22 615 85 750 139 135 54 314 75 396 46
83 -30 443 -73 800 -96z"/>
<path d="M10807 20712 c-273 -49 -360 -123 -426 -362 -136 -490 -28 -733 344
-769 208 -20 325 -85 325 -181 0 -105 -83 -140 -275 -118 -321 38 -470 -207
-295 -487 86 -138 76 -207 -45 -307 -424 -352 -395 -1050 54 -1316 768 -453
1484 527 915 1251 l-197 249 247 231 c141 134 246 345 246 497 0 259 -296 618
-600 729 -102 38 -81 58 64 63 256 10 385 278 225 471 -62 75 -142 131 -176
124 -35 -7 -217 -41 -406 -75z m333 -2543 c282 -205 175 -612 -171 -651 -275
-32 -569 120 -569 294 0 110 372 488 481 488 44 0 161 -59 259 -131z"/>
<path d="M5117 18801 c-629 -715 -644 -937 -66 -983 219 -18 473 -100 564
-182 148 -133 188 -125 380 82 145 155 194 297 149 431 -37 111 -95 426 -130
700 -42 328 -115 509 -214 528 -83 15 -390 -244 -683 -576z m383 -451 c0 -27
-22 -50 -50 -50 -27 0 -50 23 -50 50 0 28 23 50 50 50 28 0 50 -22 50 -50z"/>
<path d="M15637 18725 c-530 -694 -298 -1625 405 -1625 602 0 895 899 416
1275 -170 135 -215 232 -151 333 332 524 -271 539 -670 17z m597 -980 c-68
-177 -347 -157 -409 30 -26 78 54 125 214 125 189 0 239 -40 195 -155z"/>
<path d="M6764 17736 c-316 -315 -336 -666 -65 -1111 162 -266 261 -325 545
-325 861 0 1198 1166 449 1554 -407 210 -630 182 -929 -118z m882 -472 c83
-235 67 -307 -92 -423 -162 -119 -223 -120 -398 -4 -270 179 -306 399 -99 606
231 231 470 159 589 -179z"/>
<path d="M13669 17520 c-744 -777 227 -1933 986 -1175 309 310 325 826 38
1192 -279 354 -675 347 -1024 -17z m824 -406 c140 -263 -83 -543 -398 -498
-246 34 -359 272 -257 540 80 208 536 179 655 -42z"/>
<path d="M16288 14703 c-577 -576 -237 -1503 550 -1503 421 0 633 192 719 653
126 669 -71 973 -704 1088 -212 38 -345 -17 -565 -238z m878 -580 c120 -481
-590 -736 -766 -274 -122 322 -38 530 233 575 330 53 463 -21 533 -301z"/>
<path d="M3936 14701 c-523 -211 -673 -825 -337 -1376 160 -263 262 -325 535
-325 500 0 866 379 866 895 0 388 -255 805 -492 805 -50 0 -152 20 -225 44
-73 24 -229 5 -347 -43z m747 -733 c42 -221 -251 -568 -478 -568 -354 0 -531
434 -280 685 185 185 716 103 758 -117z"/>
<path d="M1656 13942 c-198 -198 -116 -342 194 -342 131 0 266 -45 300 -100
34 -55 9 -100 -57 -100 -78 0 -98 -102 -58 -300 50 -248 27 -300 -127 -300
-263 0 -346 -293 -145 -514 204 -226 357 -233 742 -33 279 144 295 186 295
777 0 784 -173 1070 -649 1070 -185 0 -408 -71 -495 -158z m644 -1192 c0 -27
-22 -50 -50 -50 -27 0 -50 23 -50 50 0 28 23 50 50 50 28 0 50 -22 50 -50z"/>
<path d="M18950 14026 c-778 -59 -901 -388 -166 -444 182 -14 354 -62 381
-107 28 -44 -65 -279 -207 -521 -306 -521 -342 -884 -83 -836 186 34 641 802
815 1375 99 326 4 641 -177 589 -35 -10 -288 -35 -563 -56z"/>
<path d="M3403 10276 c-527 -275 -632 -885 -231 -1341 362 -410 1106 -332
1321 139 165 363 129 875 -75 1059 -253 230 -722 296 -1015 143z m622 -415
c264 -200 221 -548 -82 -663 -374 -143 -435 -126 -567 164 -105 231 -92 284
114 450 273 221 305 224 535 49z"/>
<path d="M16956 9747 c-310 -335 -364 -680 -167 -1074 143 -287 214 -326 633
-353 604 -39 845 95 968 539 123 446 -20 800 -405 998 -412 214 -764 176
-1029 -110z m990 -381 c135 -99 166 -205 117 -400 -53 -211 -126 -266 -357
-266 -434 0 -606 97 -606 341 0 428 462 605 846 325z"/>
<path d="M1953 8364 c-292 -213 -127 -484 271 -445 453 43 422 -170 -74 -506
-488 -331 -605 -770 -230 -864 258 -65 953 -9 1046 83 122 123 -68 368 -288
371 -223 3 -222 8 47 209 217 161 275 286 275 591 0 589 -582 902 -1047 561z"/>
<path d="M18044 7955 c-106 -161 -135 -324 -85 -475 41 -127 66 -377 55 -557
-15 -242 49 -391 247 -575 346 -320 569 -313 890 27 204 216 247 339 200 575
-33 165 -86 458 -118 650 -79 488 -199 600 -643 600 -299 0 -422 -55 -546
-245z m656 -299 c0 -24 -45 -72 -100 -106 -55 -34 -100 -14 -100 44 0 58 45
106 100 106 55 0 100 -20 100 -44z m232 -722 c107 -106 -133 -327 -289 -267
-207 79 -176 333 40 333 101 0 213 -30 249 -66z"/>
<path d="M5325 6175 c-116 -124 -240 -344 -276 -489 -75 -303 155 -828 405
-924 220 -84 673 -76 798 15 215 154 448 628 448 912 0 620 -940 952 -1375
486z m903 -570 c81 -311 -151 -546 -462 -468 -192 48 -266 131 -266 298 0 299
73 365 405 365 185 0 288 -62 323 -195z"/>
<path d="M14540 5949 c-203 -203 -246 -332 -221 -672 26 -347 88 -459 360
-641 558 -375 1175 -97 1285 581 45 277 3 407 -213 664 -347 412 -839 440
-1211 68z m977 -414 c226 -205 230 -318 18 -552 -259 -286 -590 -233 -735 117
-99 239 -99 331 0 450 164 198 489 191 717 -15z"/>
<path d="M14543 3654 c-195 -299 -115 -792 161 -986 122 -85 181 -233 167
-421 -15 -208 29 -300 159 -326 556 -115 1046 1308 615 1785 -267 294 -894
265 -1102 -52z m699 -315 c226 -87 195 -339 -42 -339 -133 0 -200 67 -200 200
0 220 12 227 242 139z"/>
</g>
</svg>
