<?xml version="1.0" standalone="no"?>
<!DOCTYPE svg PUBLIC "-//W3C//DTD SVG 20010904//EN"
 "http://www.w3.org/TR/2001/REC-SVG-20010904/DTD/svg10.dtd">
<svg version="1.0" xmlns="http://www.w3.org/2000/svg"
 width="213.017694pt" height="213.083199pt" viewBox="0 0 213.017694 213.083199"
 preserveAspectRatio="xMidYMid meet">
<metadata>
Created by potrace 1.13, written by Peter Selinger 2001-2015
</metadata>
<g transform="translate(-4.191106,215.452752) scale(0.010000,-0.010000)"
fill="#000000" stroke="none">
<path d="M10800 21536 c-1053 -49 -1982 -227 -3100 -598 -3187 -1056 -5622
-3494 -6730 -6738 -454 -1329 -602 -2395 -536 -3850 33 -715 103 -1435 157
-1600 53 -165 151 -502 218 -750 332 -1235 1383 -3282 1801 -3505 105 -56 190
-170 190 -254 0 -204 1436 -1638 2000 -1998 248 -158 632 -378 854 -490 222
-112 537 -299 700 -417 560 -404 2044 -819 3720 -1039 2252 -295 5322 519
6976 1849 220 177 625 492 900 700 1194 905 2433 2669 3033 4319 991 2729 984
5139 -23 7709 -759 1937 -2232 3743 -4048 4963 -460 310 -873 563 -918 563
-44 0 -364 131 -712 292 -802 369 -2596 805 -3282 796 -82 -2 -240 15 -350 37
-110 22 -492 27 -850 11z m1242 -411 c41 -41 374 -150 741 -241 l667 -167
-519 -8 c-286 -5 -549 -58 -586 -118 -109 -176 128 -331 505 -331 395 0 396
-40 23 -841 -157 -336 -174 -457 -80 -550 93 -92 155 -74 275 81 227 294 632
1226 655 1507 24 286 85 293 734 84 1161 -373 2616 -1237 3613 -2145 1528
-1391 2701 -3504 3134 -5646 198 -975 146 -2964 -105 -4031 -118 -505 -260
-945 -316 -979 -55 -35 -245 78 -421 249 -400 387 -598 391 -970 19 -401 -402
-412 -1022 -23 -1428 147 -154 372 -280 500 -280 341 0 291 -233 -216 -995
-646 -972 -1976 -2284 -2957 -2916 -719 -464 -2021 -1097 -2746 -1336 -1095
-361 -3762 -476 -4900 -210 -1161 271 -1412 351 -2157 691 -797 363 -1601 850
-2218 1344 -414 331 -353 422 283 422 275 0 342 39 342 200 0 136 -67 200
-208 200 l-208 0 208 337 c248 402 262 642 52 941 -184 263 -656 299 -850 64
-109 -130 -107 -173 12 -248 79 -50 220 -92 313 -92 350 -4 284 -229 -205
-698 l-506 -485 -402 465 c-221 257 -502 578 -625 715 -122 137 -394 531 -604
876 -1552 2555 -1886 5584 -940 8525 341 1060 428 1240 1094 2250 582 884
2351 2750 2608 2750 68 0 215 85 326 189 285 265 1466 892 2212 1174 762 288
2063 540 3273 634 495 39 949 78 1008 87 60 9 142 -18 184 -59z m8101 -13482
c183 -183 199 -378 53 -650 -229 -428 -772 -111 -649 380 107 426 336 530 596
270z"/>
<path d="M9366 20587 c-217 -126 -466 -675 -466 -1026 0 -135 116 -383 258
-552 l257 -306 -265 -121 c-285 -130 -550 -549 -550 -869 0 -236 435 -779 688
-859 99 -32 343 11 544 95 692 289 856 1167 284 1524 -146 92 -284 179 -306
195 -22 16 79 148 225 294 343 343 350 766 17 1055 -181 157 -232 278 -189
449 46 183 18 233 -127 231 -102 -2 -269 -51 -370 -110z m427 -1028 c84 -101
86 -160 7 -209 -160 -99 -400 19 -400 197 0 192 237 199 393 12z m187 -1379
c170 -170 149 -637 -37 -823 -359 -359 -943 -83 -943 445 0 169 72 330 175
390 240 140 660 133 805 -12z"/>
<path d="M5006 18512 c-235 -441 -83 -761 393 -827 139 -20 264 -112 282 -210
27 -140 -37 -175 -324 -175 -431 0 -491 -243 -103 -420 177 -81 233 -163 184
-273 -322 -722 0 -1407 661 -1407 212 0 457 28 547 62 205 79 454 555 454 870
0 340 -347 740 -710 820 -283 62 -304 94 -249 385 66 350 -149 763 -397 763
-220 0 -172 169 67 232 343 90 157 316 -287 348 -327 25 -433 -10 -518 -168z
m1594 -2112 c241 -241 250 -384 44 -678 -98 -140 -259 -222 -437 -222 -319 0
-461 131 -557 514 -52 206 -16 299 164 425 307 215 544 203 786 -39z"/>
<path d="M12465 18355 c-527 -488 -274 -1349 442 -1507 393 -86 688 63 918
464 247 430 218 709 -105 1019 -371 355 -887 365 -1255 24z m918 -215 c563
-394 -63 -1272 -638 -896 -301 198 -321 580 -45 856 242 242 384 250 683 40z"/>
<path d="M16526 18521 c-383 -59 -504 -354 -451 -1099 l48 -672 -309 -115
c-435 -163 -690 -711 -520 -1121 205 -494 481 -664 1017 -626 89 7 280 131
425 276 204 203 264 362 264 694 0 236 -50 461 -111 499 -68 42 14 148 213
274 l323 205 -65 699 c-83 900 -235 1080 -834 986z m219 -630 c-32 -52 -101
-68 -154 -36 -52 32 -68 101 -36 154 32 52 101 68 154 36 52 -32 68 -101 36
-154z m230 -666 c55 -164 -259 -281 -393 -147 -58 58 -73 156 -34 219 88 143
371 95 427 -72z m-497 -981 c310 -217 299 -689 -23 -900 -210 -138 -283 -141
-525 -26 -335 160 -409 496 -185 838 184 281 417 310 733 88z"/>
<path d="M2322 14172 c-287 -291 -522 -600 -522 -688 0 -163 276 -280 664
-283 118 0 241 -69 272 -151 82 -212 212 -187 533 103 l281 253 -225 159
c-181 128 -225 255 -225 647 0 331 -41 488 -128 488 -71 0 -364 -238 -650
-528z m378 -422 c0 -27 -22 -50 -50 -50 -27 0 -50 23 -50 50 0 28 23 50 50 50
28 0 50 -22 50 -50z"/>
<path d="M19057 14343 c-243 -243 -198 -782 88 -1058 172 -164 229 -302 189
-460 -80 -321 166 -290 505 64 354 369 457 1000 222 1359 -195 297 -749 349
-1004 95z m726 -576 c27 -142 -18 -176 -198 -150 -129 18 -248 114 -268 216
-27 142 18 176 198 150 129 -18 248 -114 268 -216z"/>
<path d="M10200 14146 c-2105 -590 -3140 -3047 -2094 -4972 284 -521 1069
-1234 1515 -1374 565 -178 779 -371 779 -703 0 -332 174 -489 621 -562 401
-65 541 65 654 610 71 343 128 397 609 577 661 246 1602 1139 1892 1796 694
1572 182 3238 -1306 4244 -586 397 -720 444 -1384 488 -496 34 -916 -1 -1286
-104z m2281 -536 c1431 -731 2067 -2572 1366 -3958 -352 -694 -855 -1177
-1646 -1578 -659 -335 -748 -430 -849 -905 -49 -236 -103 -277 -330 -250 -180
21 -280 98 -300 231 -84 565 -124 614 -694 850 -672 279 -1421 939 -1739 1533
-179 334 -224 586 -228 1267 -4 737 33 926 279 1425 288 584 848 1175 1113
1175 81 0 147 40 147 88 0 86 353 251 750 351 460 116 1720 -20 2131 -229z"/>
<path d="M4150 13722 c-110 -23 -305 -139 -434 -257 -513 -471 -16 -1465 732
-1465 348 0 671 286 807 716 169 531 -492 1133 -1105 1006z m646 -515 c149
-278 128 -569 -53 -750 -294 -294 -756 -131 -888 313 -141 474 710 869 941
437z"/>
<path d="M17484 13375 c-146 -124 -312 -319 -369 -434 -226 -452 178 -1093
758 -1202 621 -116 1177 659 919 1281 -124 298 -544 580 -862 580 -99 -1 -300
-102 -446 -225z m925 -384 c205 -205 204 -610 -2 -822 -157 -161 -733 -105
-872 84 -447 612 338 1274 874 738z"/>
<path d="M17383 9829 c-351 -218 -465 -500 -374 -927 113 -523 500 -775 1091
-709 83 9 274 150 425 314 371 400 365 818 -17 1201 -335 334 -715 375 -1125
121z m1061 -563 c161 -256 -130 -708 -481 -748 -333 -39 -664 222 -661 522 4
643 783 796 1142 226z"/>
<path d="M3608 9641 c-562 -472 -294 -1358 454 -1501 738 -141 1284 1014 738
1560 -287 287 -812 261 -1192 -59z m1028 -361 c171 -273 -34 -702 -380 -794
-181 -49 -344 -37 -425 30 -166 138 -170 705 -6 869 169 169 681 104 811 -105z"/>
<path d="M1954 8539 c-224 -224 -40 -417 344 -361 310 46 421 -111 152 -214
-199 -77 -191 -331 14 -446 238 -133 86 -300 -220 -241 -229 43 -257 20 -228
-189 28 -195 101 -244 403 -269 299 -25 399 16 527 212 226 344 109 1319 -183
1523 -272 191 -609 185 -809 -15z"/>
<path d="M18400 7311 c0 -585 36 -804 140 -843 227 -87 260 22 260 849 0 716
-17 783 -200 783 -183 0 -200 -67 -200 -789z"/>
<path d="M15809 6913 c-301 -84 -587 -463 -670 -886 -54 -278 -14 -372 289
-675 421 -421 740 -450 1151 -104 553 465 465 1269 -176 1600 -161 84 -307
148 -323 142 -17 -5 -138 -40 -271 -77z m634 -570 c196 -196 203 -611 14 -800
-174 -174 -672 -188 -837 -23 -66 66 -120 231 -120 367 0 515 595 803 943 456z"/>
<path d="M5455 6475 c-352 -310 -413 -744 -162 -1147 240 -385 597 -498 1021
-322 383 158 628 670 493 1026 -121 318 -575 668 -865 668 -127 0 -346 -101
-487 -225z m862 -340 c252 -228 231 -599 -44 -779 -490 -321 -1044 219 -724
706 181 277 508 308 768 73z"/>
<path d="M12827 5023 c-123 -20 -314 -152 -425 -293 -379 -482 -186 -1227 373
-1439 239 -91 243 -106 75 -229 -233 -170 -104 -379 189 -306 145 36 276 -3
365 -111 146 -176 172 -142 -579 -751 -175 -142 -156 -263 75 -494 257 -257
1074 -285 1168 -40 73 192 -121 334 -368 269 -234 -61 -338 119 -167 290 315
315 380 566 224 867 -82 159 -251 315 -376 348 -223 58 -222 63 96 374 339
332 418 727 220 1098 -133 248 -585 465 -870 417z m553 -543 c177 -177 146
-588 -55 -741 -398 -302 -825 -70 -825 449 0 349 618 554 880 292z"/>
<path d="M8723 4933 c-169 -68 -423 -570 -423 -836 0 -117 132 -344 292 -505
542 -541 1312 -295 1465 470 92 456 -346 941 -841 930 -201 -4 -423 -31 -493
-59z m958 -819 c26 -254 -16 -334 -226 -430 -395 -180 -775 56 -735 458 66
666 894 642 961 -28z"/>
<path d="M15969 4735 c-102 -101 -84 -1614 20 -1678 204 -126 319 249 291 951
-27 663 -132 907 -311 727z"/>
<path d="M16820 4680 c-72 -72 -120 -416 -120 -853 0 -580 33 -746 160 -795
245 -94 326 139 306 882 -19 715 -137 975 -346 766z"/>
<path d="M12016 2976 c-166 -166 -151 -1422 18 -1563 216 -179 266 -28 266
798 0 784 -72 977 -284 765z"/>
<path d="M8164 2625 c-133 -803 -55 -1325 197 -1325 108 0 139 190 139 850 0
653 -32 850 -137 850 -80 0 -162 -154 -199 -375z"/>
</g>
</svg>
