<?xml version="1.0" standalone="no"?>
<!DOCTYPE svg PUBLIC "-//W3C//DTD SVG 20010904//EN"
 "http://www.w3.org/TR/2001/REC-SVG-20010904/DTD/svg10.dtd">
<svg version="1.0" xmlns="http://www.w3.org/2000/svg"
 width="203.885375pt" height="203.669451pt" viewBox="0 0 203.885375 203.669451"
 preserveAspectRatio="xMidYMid meet">
<metadata>
Created by potrace 1.13, written by Peter Selinger 2001-2015
</metadata>
<g transform="translate(-8.173332,208.703139) scale(0.010000,-0.010000)"
fill="#000000" stroke="none">
<path d="M9600 20788 c-2341 -270 -4853 -1664 -6451 -3580 -329 -394 -616
-772 -637 -838 -21 -66 -96 -188 -166 -270 -495 -579 -1248 -2565 -1449 -3824
-150 -936 -79 -2945 137 -3876 562 -2423 2178 -4791 4162 -6100 125 -82 325
-224 444 -315 719 -549 2532 -1208 3792 -1379 971 -132 2800 -138 3211 -11
169 52 622 165 1007 251 1048 235 1691 523 2834 1269 1238 808 1815 1331 2488
2256 2487 3419 2903 7102 1221 10810 -161 356 -293 705 -293 776 0 71 135 226
300 343 165 117 300 304 300 414 0 216 -1047 1672 -1261 1754 -71 27 -282 -67
-469 -209 -186 -143 -396 -259 -466 -259 -70 0 -380 217 -690 482 -2186 1870
-4935 2661 -8014 2306z m3210 -524 c198 -19 401 -56 450 -83 50 -28 305 -108
568 -179 262 -71 501 -168 530 -216 30 -47 121 -86 204 -86 149 0 1195 -475
1388 -630 55 -44 370 -255 700 -468 330 -213 825 -589 1099 -835 481 -431 510
-442 775 -304 152 78 276 182 276 231 0 210 536 5 803 -306 358 -418 370 -684
47 -988 -329 -309 -316 -472 94 -1222 395 -721 792 -1861 948 -2721 161 -887
134 -2830 -50 -3626 -206 -889 -804 -2479 -1100 -2927 -474 -716 -867 -1259
-1052 -1454 -104 -110 -337 -358 -517 -550 -464 -496 -1858 -1600 -2021 -1600
-31 0 -224 -104 -429 -231 -384 -238 -1386 -608 -2518 -930 -487 -138 -980
-182 -2000 -180 -2126 5 -3818 509 -5385 1602 -346 241 -668 439 -714 439
-141 0 -1592 1591 -1999 2191 -718 1057 -1181 2101 -1481 3336 -246 1010 -239
3461 11 4367 245 884 473 1546 554 1606 38 28 209 329 381 669 542 1072 1668
2424 2609 3132 181 137 419 323 527 413 108 90 331 219 495 287 163 68 297
157 297 198 0 40 214 151 475 245 261 94 565 209 675 255 110 47 290 108 400
138 110 29 515 146 900 259 385 114 993 234 1350 268 358 34 660 69 672 79 12
10 395 -19 850 -64 455 -45 990 -96 1188 -115z"/>
<path d="M12622 18220 c-321 -247 -395 -815 -159 -1214 210 -357 483 -457 987
-363 651 123 856 943 364 1458 -334 349 -828 399 -1192 119z m958 -440 c313
-313 -58 -757 -533 -638 -278 70 -412 409 -243 613 146 176 610 191 776 25z"/>
<path d="M13042 15966 c-28 -74 -38 -468 -22 -875 27 -664 51 -741 230 -741
179 0 203 77 230 734 18 455 -15 788 -88 875 -147 178 -283 180 -350 7z"/>
<path d="M16136 15801 c-310 -125 -536 -495 -536 -879 0 -403 464 -879 923
-947 620 -91 1140 757 852 1389 -197 433 -758 631 -1239 437z m885 -757 c90
-199 78 -280 -71 -444 -434 -480 -1232 30 -873 559 265 392 739 334 944 -115z"/>
<path d="M14925 13585 c-155 -155 37 -521 233 -446 165 64 442 -24 442 -140 0
-44 -202 -199 -450 -344 -477 -279 -595 -610 -305 -851 153 -127 973 -167
1151 -56 175 108 116 368 -96 423 -236 62 -254 160 -56 324 237 196 294 682
113 959 -125 189 -248 246 -539 246 -208 0 -430 -52 -493 -115z"/>
<path d="M5505 13156 c-169 -203 46 -592 292 -528 370 97 425 -68 210 -635
-178 -468 -186 -557 -61 -682 202 -202 420 -2 572 526 65 227 178 502 250 610
274 411 173 609 -376 736 -651 150 -742 147 -887 -27z"/>
<path d="M3495 13072 c-565 -446 -653 -1129 -203 -1580 161 -160 375 -297 475
-303 769 -47 1138 253 1208 984 44 455 24 510 -272 759 -347 292 -929 359
-1208 140z m922 -537 c214 -194 229 -416 44 -660 -261 -343 -961 -145 -961
271 0 490 548 722 917 389z"/>
<path d="M6210 9247 c-248 -284 -310 -443 -310 -804 0 -785 474 -1265 986
-1000 485 251 572 1018 153 1348 -160 125 -239 265 -203 357 77 202 -26 452
-186 452 -71 0 -269 -159 -440 -353z m528 -927 c79 -128 -105 -352 -227 -277
-160 99 -137 357 33 357 79 0 166 -36 194 -80z"/>
<path d="M3650 9387 c-554 -314 -691 -877 -363 -1488 371 -692 1362 -590 1677
172 86 209 226 458 311 554 142 159 141 175 -11 175 -92 0 -290 133 -440 296
-308 332 -861 469 -1174 291z m828 -543 c390 -273 83 -944 -432 -944 -529 0
-696 805 -208 1002 307 124 392 116 640 -58z"/>
<path d="M13044 7556 c-155 -115 -172 -181 -84 -325 61 -100 207 -195 325
-213 316 -47 308 -591 -9 -636 -241 -34 -329 -250 -190 -465 47 -73 261 -156
475 -184 308 -42 429 -10 574 150 164 181 172 274 77 884 -68 434 -169 727
-278 807 -230 168 -651 159 -890 -18z m623 -1323 c-37 -36 -67 -6 -67 67 0 73
30 103 67 67 36 -37 36 -97 0 -134z"/>
<path d="M8003 7411 c-348 -97 -501 -637 -257 -906 96 -107 284 -208 418 -224
384 -49 324 -228 -89 -262 -592 -49 -432 -519 176 -519 785 0 1017 964 299
1239 -187 71 -181 86 83 226 184 97 263 202 225 301 -32 82 -58 169 -58 192 0
62 -514 32 -797 -47z"/>
<path d="M10162 6836 c-307 -322 -559 -656 -560 -741 -3 -245 210 -395 562
-395 178 0 352 -45 386 -100 34 -55 150 -100 258 -100 255 0 433 437 289 706
-57 106 -93 351 -80 544 15 216 -38 414 -136 512 -147 147 -207 112 -719 -426z
m438 -486 c0 -27 -22 -50 -50 -50 -27 0 -50 23 -50 50 0 28 23 50 50 50 28 0
50 -22 50 -50z"/>
<path d="M5338 6409 c-644 -393 -614 -1357 54 -1748 273 -159 380 -171 692
-78 871 261 970 1463 153 1853 -436 208 -518 205 -899 -27z m942 -429 c66 -66
120 -259 120 -430 0 -170 -54 -364 -120 -430 -66 -66 -259 -120 -430 -120
-371 0 -550 155 -550 477 0 414 179 623 534 623 179 0 380 -54 446 -120z"/>
<path d="M8450 4805 c-446 -182 -722 -810 -550 -1250 169 -431 489 -655 935
-655 502 0 791 222 961 739 150 454 -51 869 -532 1098 -378 179 -515 191 -814
68z m850 -505 c344 -344 201 -791 -305 -952 -282 -89 -695 200 -695 485 0 560
618 849 1000 467z"/>
<path d="M12711 4805 c-323 -79 -632 -665 -557 -1055 93 -482 253 -729 557
-855 818 -339 1658 594 1249 1387 -87 168 -209 337 -271 375 -206 127 -736
207 -978 148z m629 -419 c292 -133 425 -578 263 -880 -216 -403 -1103 -165
-1103 296 0 191 365 698 503 698 48 0 200 -51 337 -114z"/>
</g>
</svg>
