<?xml version="1.0" standalone="no"?>
<!DOCTYPE svg PUBLIC "-//W3C//DTD SVG 20010904//EN"
 "http://www.w3.org/TR/2001/REC-SVG-20010904/DTD/svg10.dtd">
<svg version="1.0" xmlns="http://www.w3.org/2000/svg"
 width="364.621730pt" height="370.610107pt" viewBox="0 0 364.621730 370.610107"
 preserveAspectRatio="xMidYMid meet">
<metadata>
Created by potrace 1.13, written by Peter Selinger 2001-2015
</metadata>
<g transform="translate(-0.781728,372.960695) scale(0.010000,-0.010000)"
fill="#000000" stroke="none">
<path d="M18675 37175 c-23 -69 -195 -128 -383 -132 -338 -8 -2695 -171 -2792
-193 -27 -7 -320 -69 -650 -138 -1985 -416 -3836 -1084 -5162 -1861 -329 -193
-622 -351 -651 -351 -93 0 -1169 -732 -1737 -1182 -806 -638 -2583 -2254
-2592 -2357 -4 -49 -69 -139 -143 -200 -152 -124 -1365 -1722 -1365 -1797 0
-27 -203 -352 -452 -722 -1080 -1611 -2032 -4060 -2506 -6442 -129 -653 -167
-1377 -164 -3125 5 -2224 68 -2852 436 -4325 55 -220 137 -557 183 -750 90
-378 257 -864 469 -1365 74 -173 134 -367 134 -431 0 -129 991 -2226 1089
-2304 35 -27 152 -221 262 -429 261 -498 1412 -2059 2051 -2783 670 -758 1284
-1388 1354 -1388 30 0 176 -127 325 -283 659 -694 2462 -1890 3869 -2568 550
-265 1079 -520 1175 -567 724 -349 3097 -995 4225 -1150 838 -115 4256 -133
5000 -26 1252 180 2948 570 3500 804 227 96 1000 373 1300 465 110 34 259 121
332 193 73 73 219 132 325 132 106 0 193 45 193 100 0 55 51 100 114 100 63 0
489 225 946 500 456 275 857 500 889 500 33 0 114 47 180 104 67 58 436 338
821 623 890 658 2193 1908 2996 2873 611 734 1687 2281 1964 2823 826 1613
1290 2613 1290 2777 0 66 63 262 141 435 77 173 162 428 187 565 49 267 444
1752 530 1996 321 906 187 6638 -165 7062 -64 78 -96 142 -69 142 105 0 -222
1286 -620 2439 -198 575 -629 1561 -813 1861 -51 83 -118 218 -149 300 -31 83
-99 218 -151 300 -51 83 -143 274 -202 425 -60 151 -144 275 -188 275 -44 0
-105 101 -136 225 -52 205 -809 1252 -1599 2209 -845 1024 -2804 2866 -3049
2866 -64 0 -117 45 -117 100 0 55 -67 100 -150 100 -82 0 -150 41 -150 91 0
201 -1894 1279 -3350 1908 -275 118 -578 257 -674 308 -95 51 -255 93 -355 93
-99 0 -224 41 -276 90 -99 95 -1109 381 -1795 509 -220 41 -602 126 -850 188
-247 62 -892 139 -1432 173 -707 43 -997 99 -1036 200 -66 174 -301 184 -357
15z m2325 -555 c413 -54 975 -153 1250 -221 972 -238 2745 -811 2803 -904 32
-52 137 -95 233 -95 208 0 2032 -928 2482 -1263 175 -130 345 -237 377 -237
109 0 1855 -1335 1855 -1418 0 -45 68 -82 150 -82 83 0 150 -67 150 -150 0
-82 45 -150 100 -150 112 0 645 -535 1250 -1255 220 -262 457 -534 527 -605
249 -254 823 -1043 823 -1133 0 -49 34 -105 75 -124 114 -50 525 -661 525
-779 0 -57 36 -104 79 -104 44 0 204 -247 357 -548 153 -302 319 -574 371
-606 51 -32 93 -140 93 -240 0 -100 68 -238 150 -306 83 -68 150 -202 150
-297 0 -95 73 -318 162 -496 278 -559 754 -1936 844 -2442 47 -267 128 -627
181 -800 52 -173 120 -540 151 -815 30 -275 80 -612 111 -750 31 -137 85 -861
119 -1609 82 -1816 -234 -4184 -774 -5791 -357 -1064 -431 -1256 -761 -1974
-183 -398 -333 -786 -333 -863 0 -76 -67 -195 -150 -263 -82 -68 -150 -188
-150 -265 0 -78 -67 -167 -150 -199 -82 -31 -150 -137 -150 -233 0 -158 -1150
-1963 -1435 -2255 -63 -64 -295 -336 -515 -605 -487 -593 -1704 -1843 -1795
-1843 -37 0 -187 -127 -336 -282 -288 -301 -1062 -918 -1152 -918 -30 0 -350
-202 -712 -450 -361 -247 -677 -450 -702 -450 -24 0 -272 -134 -551 -299 -278
-164 -618 -326 -754 -360 -136 -35 -248 -103 -248 -152 0 -49 -81 -89 -181
-89 -99 0 -268 -66 -375 -147 -107 -81 -284 -150 -394 -153 -110 -3 -287 -72
-394 -153 -107 -81 -312 -147 -455 -147 -144 0 -313 -52 -376 -115 -63 -63
-309 -152 -545 -196 -237 -45 -655 -127 -930 -183 -1819 -372 -2434 -429
-4154 -382 -1737 48 -2792 171 -3746 438 -996 280 -1606 472 -1915 604 -173
73 -350 134 -392 134 -224 0 -2645 1229 -3343 1696 -1304 874 -1507 1032
-2222 1729 -268 261 -530 475 -583 475 -52 0 -95 46 -95 103 0 56 -198 300
-440 542 -468 468 -1475 1763 -1844 2373 -123 202 -256 382 -295 400 -88 40
-322 463 -927 1682 -576 1159 -1280 3219 -1503 4400 -167 880 -170 908 -235
1810 -34 473 -77 945 -95 1050 -18 104 4 820 49 1590 84 1443 298 2863 548
3650 79 248 143 542 142 655 0 113 38 248 85 300 47 52 190 433 319 845 277
890 564 1569 699 1652 53 33 97 144 97 247 0 103 68 254 150 337 83 82 150
218 150 301 0 83 44 178 97 211 54 33 171 216 262 406 90 190 204 346 252 346
49 0 89 47 89 104 0 58 45 159 100 225 55 67 419 548 809 1071 1000 1340 2676
2931 4106 3898 652 441 1253 802 1336 802 82 0 149 34 149 76 0 80 911 524
1077 524 54 0 155 68 223 150 68 83 222 150 342 150 120 0 261 40 313 89 113
106 2059 732 2845 915 1564 365 4591 466 6500 216z"/>
<path d="M16300 35149 c-577 -69 -1275 -182 -1550 -251 -801 -201 -2352 -691
-2742 -865 -677 -303 -1758 -849 -2058 -1040 -165 -105 -362 -221 -439 -258
-198 -96 -1086 -699 -1258 -854 -80 -72 -496 -446 -924 -831 -1153 -1036
-2280 -2326 -2644 -3025 -64 -124 -155 -225 -201 -225 -46 0 -84 -62 -84 -138
0 -76 -67 -194 -150 -262 -82 -68 -150 -209 -150 -312 0 -104 -37 -188 -82
-188 -102 0 -1123 -2040 -1225 -2449 -42 -166 -171 -548 -287 -851 -253 -660
-560 -2217 -678 -3441 -118 -1221 26 -3795 278 -4970 226 -1056 971 -3268
1242 -3689 206 -319 452 -848 452 -971 0 -71 42 -129 93 -129 52 0 122 -90
157 -199 35 -110 116 -257 182 -327 65 -70 204 -284 310 -476 766 -1386 2793
-3481 4452 -4598 949 -639 947 -638 2106 -1205 578 -283 1177 -577 1333 -654
156 -78 372 -141 480 -141 108 0 318 -60 467 -133 259 -128 958 -291 2661
-622 867 -168 3684 -193 4147 -37 144 48 577 132 962 185 1128 157 2263 462
2865 771 146 75 355 136 463 136 109 0 254 68 322 150 68 83 180 150 247 150
287 0 2372 1242 3398 2025 501 382 2455 2341 2455 2461 0 63 35 114 78 114 96
0 1122 1362 1122 1490 0 51 38 108 84 127 94 37 159 152 839 1497 260 515 536
1116 612 1336 632 1813 760 2284 1009 3700 225 1283 208 3796 -34 5150 -229
1280 -389 1946 -572 2378 -76 181 -139 406 -141 500 -2 95 -69 259 -150 366
-81 107 -147 258 -147 335 0 139 -233 728 -404 1021 -48 83 -202 384 -342 669
-140 286 -296 545 -347 576 -50 32 -121 191 -157 355 -36 164 -174 383 -308
488 -133 105 -242 219 -242 254 0 107 -738 1058 -821 1058 -44 0 -79 44 -79
97 0 249 -3014 3003 -3286 3003 -54 0 -112 35 -131 79 -32 77 -428 319 -1433
876 -984 546 -1483 769 -2200 987 -330 101 -676 221 -770 268 -264 132 -1551
405 -2380 504 -1260 151 -3293 167 -4400 35z m3992 -197 c1744 -251 3101 -616
4458 -1199 721 -310 1850 -905 1850 -976 0 -42 43 -77 95 -77 91 0 930 -533
1173 -746 65 -57 302 -236 525 -398 224 -162 407 -331 407 -375 0 -45 43 -81
97 -81 252 0 2603 -2609 2603 -2889 0 -61 41 -111 90 -111 50 0 137 -135 195
-300 58 -165 152 -300 210 -300 58 0 105 -53 105 -117 0 -65 66 -190 146 -279
236 -260 1005 -1884 1328 -2804 765 -2178 929 -3182 932 -5702 2 -1072 -44
-2173 -102 -2448 -58 -275 -147 -732 -198 -1016 -176 -982 -596 -2220 -1224
-3609 -155 -344 -282 -666 -282 -715 0 -49 -58 -111 -129 -138 -71 -27 -277
-332 -457 -676 -436 -832 -1307 -1958 -2298 -2971 -444 -454 -829 -825 -856
-825 -27 0 -176 -118 -330 -263 -614 -576 -3158 -2237 -3425 -2237 -49 0 -216
-64 -372 -141 -1078 -539 -2116 -873 -3633 -1172 -1007 -199 -4701 -232 -5500
-50 -357 81 -863 177 -1123 211 -260 35 -499 106 -531 158 -32 52 -156 94
-277 94 -246 0 -1055 287 -1847 655 -290 135 -566 245 -612 245 -47 0 -142 67
-210 150 -68 82 -183 150 -255 150 -71 0 -504 228 -962 506 -1174 713 -1197
727 -1384 894 -93 83 -477 420 -854 750 -377 330 -777 705 -890 834 -113 129
-355 399 -538 600 -393 433 -1517 1882 -1517 1956 0 28 -117 222 -259 431
-599 877 -1941 4094 -1941 4653 0 104 -63 399 -139 657 -440 1480 -436 4797 8
6769 211 935 625 2277 739 2395 51 52 92 154 92 226 0 72 227 592 504 1155
667 1356 811 1618 912 1657 46 19 84 97 84 175 0 78 42 142 93 142 52 0 121
88 155 195 34 107 195 337 357 510 162 174 295 352 295 397 0 127 2458 2598
2585 2598 63 0 115 41 115 91 0 81 881 692 1150 798 55 22 258 157 450 301
193 143 530 344 750 446 220 102 468 226 550 275 83 49 263 135 400 191 138
56 340 141 450 188 447 192 1554 586 2050 728 652 188 3133 532 4086 566 549
20 1436 -36 2106 -132z"/>
<path d="M15225 32780 c-188 -92 -226 -195 -233 -620 -4 -281 -23 -592 -42
-693 -89 -472 832 -773 1183 -386 132 146 151 309 101 849 -35 368 -113 711
-174 762 -193 160 -602 203 -835 88z m625 -480 c0 -185 -333 -257 -485 -105
-85 85 -75 138 36 209 204 131 449 75 449 -104z m-43 -604 c269 -144 241 -380
-54 -454 -169 -43 -330 4 -513 148 -193 152 -222 210 -103 210 89 0 163 45
163 100 0 130 261 128 507 -4z"/>
<path d="M18178 32146 c-1361 -372 -2079 -1794 -1547 -3065 245 -588 1056
-1280 1500 -1281 256 0 114 179 -268 338 -178 75 -445 247 -592 383 -310 288
-666 1019 -669 1376 -2 298 291 1102 469 1285 71 73 129 167 129 209 0 43 223
199 495 347 411 223 586 262 1025 224 716 -60 971 -174 1364 -608 382 -422
516 -803 516 -1472 0 -631 -118 -903 -594 -1365 -317 -307 -536 -419 -1029
-526 l-627 -136 447 -35 c641 -48 1194 257 1642 907 334 485 361 580 361 1255
0 649 -34 782 -310 1199 -346 523 -881 919 -1241 919 -130 0 -265 45 -299 100
-74 120 -158 114 -772 -54z"/>
<path d="M18173 31500 c-152 -46 -445 -252 -650 -457 -362 -362 -373 -394
-373 -1102 0 -643 29 -757 243 -960 488 -464 746 -580 1292 -580 642 -1 1026
233 1317 803 240 471 267 1313 48 1532 -82 82 -150 198 -150 257 0 59 -63 107
-139 107 -77 0 -164 65 -195 144 -54 141 -671 363 -966 347 -82 -5 -275 -46
-427 -91z m1001 -275 c234 -96 425 -226 426 -289 0 -63 63 -139 140 -168 175
-67 299 -762 209 -1170 -262 -1197 -2040 -1315 -2530 -168 -308 723 -13 1402
782 1794 436 214 454 214 973 1z"/>
<path d="M10199 29044 c-1814 -572 -2180 -2889 -625 -3961 397 -274 587 -335
1148 -367 581 -33 732 -4 1107 216 1000 586 1423 1564 1124 2595 -156 536
-611 1173 -837 1173 -64 0 -116 43 -116 96 0 97 -507 263 -1055 346 -162 24
-498 -20 -746 -98z m1451 -309 c382 -168 650 -378 650 -510 0 -57 59 -126 130
-154 72 -27 215 -300 320 -606 184 -542 184 -574 7 -1136 -206 -653 -490 -965
-1132 -1240 -528 -226 -818 -234 -1453 -42 -518 157 -580 206 -1023 792 -266
351 -294 461 -288 1124 5 504 54 791 158 911 83 97 179 255 213 351 34 96 131
175 215 175 84 0 153 41 153 92 0 88 641 357 1050 439 244 50 601 -20 1000
-196z"/>
<path d="M10332 28430 c-119 -23 -271 -107 -337 -186 -66 -79 -181 -144 -257
-144 -76 0 -138 -48 -138 -107 0 -59 -65 -172 -144 -251 -79 -80 -176 -355
-214 -613 -58 -384 -30 -546 158 -899 357 -674 866 -906 1858 -848 343 20
1042 634 1042 915 0 90 50 213 111 274 192 192 -103 1093 -478 1460 -432 423
-892 537 -1601 399z m981 -278 c185 -82 405 -206 488 -275 372 -312 520 -1172
274 -1595 -311 -536 -493 -632 -1193 -632 -600 0 -700 29 -969 287 -712 683
-411 1992 524 2278 347 106 520 93 876 -63z"/>
<path d="M6819 28025 c24 -127 139 -179 414 -190 209 -8 401 -36 426 -60 24
-25 -23 -176 -107 -335 -83 -160 -151 -327 -151 -372 -1 -45 -68 -150 -151
-232 -82 -83 -150 -237 -150 -343 0 -106 68 -193 150 -193 83 0 150 68 150
150 0 83 42 150 93 150 52 0 124 101 162 225 38 124 123 293 190 375 67 83
182 300 254 484 171 431 56 512 -731 514 -501 2 -578 -22 -549 -173z"/>
<path d="M16839 27024 c-748 -164 -1617 -431 -1939 -595 -137 -70 -306 -128
-375 -128 -69 -1 -125 -43 -125 -94 0 -52 -101 -126 -225 -165 -356 -113
-2175 -1604 -2175 -1783 0 -26 -135 -194 -300 -375 -165 -181 -300 -384 -300
-451 0 -68 -56 -159 -125 -203 -279 -178 -946 -1760 -1217 -2885 -300 -1245
-150 -3444 307 -4510 74 -173 135 -345 135 -381 0 -98 416 -997 489 -1054 34
-27 152 -224 262 -436 109 -212 255 -408 324 -436 69 -27 125 -91 125 -141 0
-120 1241 -1361 1750 -1749 606 -462 1999 -1090 2944 -1327 1131 -283 2580
-285 3760 -4 478 113 943 244 1033 291 90 47 478 232 863 413 385 180 955 521
1266 757 619 470 1784 1709 1784 1897 0 65 34 133 77 152 106 46 788 1213 876
1499 39 129 103 279 142 334 136 194 392 1309 483 2100 101 882 -82 3094 -272
3284 -58 58 -106 200 -106 315 0 115 -90 385 -200 601 -110 216 -200 450 -200
521 0 71 -45 129 -100 129 -55 0 -100 47 -100 105 0 58 -197 407 -438 775
-414 632 -1949 2220 -2146 2220 -50 0 -148 68 -216 150 -68 83 -209 150 -312
150 -104 0 -188 34 -188 76 0 73 -515 320 -1350 648 -1195 470 -2891 591
-4211 300z m3527 -319 c652 -174 1656 -574 2034 -811 83 -52 251 -138 375
-192 124 -53 225 -143 225 -200 0 -56 56 -102 125 -103 205 -2 1975 -1877
1975 -2092 0 -50 36 -105 79 -124 44 -18 203 -273 355 -565 1691 -3266 1105
-7284 -1432 -9820 -754 -754 -1082 -1020 -1605 -1301 -246 -132 -514 -293
-597 -358 -82 -64 -296 -148 -475 -186 -179 -38 -325 -110 -325 -161 0 -51
-114 -92 -253 -92 -139 0 -421 -73 -625 -162 -596 -260 -3039 -238 -4039 37
-1466 403 -2510 1027 -3624 2168 -793 810 -1759 2232 -1759 2588 0 49 -62 231
-138 404 -381 873 -462 1389 -462 2938 0 1765 47 1981 803 3702 127 289 257
526 289 526 32 1 139 170 237 375 203 422 1316 1624 1921 2076 505 376 691
488 1250 756 248 119 540 263 650 321 110 58 357 140 550 183 193 43 508 120
700 172 660 180 2977 131 3766 -79z"/>
<path d="M20775 25433 c-151 -25 -428 -191 -616 -368 l-341 -322 -1345 -2
c-1351 -3 -1650 -60 -2638 -500 -173 -78 -365 -141 -425 -141 -61 0 -110 -42
-110 -93 0 -52 -92 -123 -205 -159 -113 -35 -339 -196 -504 -356 -164 -161
-319 -292 -344 -292 -89 0 -447 -401 -447 -500 0 -55 -39 -100 -86 -100 -174
0 -828 -1156 -1117 -1973 -262 -744 -297 -976 -297 -1969 0 -972 39 -1243 285
-1981 157 -470 427 -1064 600 -1321 173 -256 315 -484 315 -506 0 -80 1011
-1050 1094 -1050 47 0 111 -67 142 -150 32 -82 112 -150 178 -150 66 0 191
-62 278 -137 87 -76 540 -289 1008 -474 797 -315 924 -336 2050 -337 1505 -1
2256 225 3563 1074 578 375 1487 1321 1487 1547 0 70 36 127 81 127 281 0
1143 2516 934 2725 -53 53 -118 -66 -159 -293 -250 -1372 -1176 -2987 -2087
-3639 -230 -165 -488 -357 -573 -427 -84 -70 -377 -230 -650 -356 -1385 -637
-2208 -742 -3646 -466 -1443 277 -2263 763 -3409 2022 -1356 1489 -1701 4608
-701 6334 48 83 147 285 222 450 192 428 1091 1550 1242 1550 30 0 144 83 252
185 727 676 2920 1325 3959 1171 1306 -193 1220 -199 1352 92 138 303 745 652
1133 652 494 0 1030 -368 1255 -860 202 -445 203 -473 36 -938 l-172 -479 315
-337 c173 -185 315 -367 316 -404 0 -37 57 -127 126 -200 390 -410 1115 -2274
949 -2440 -121 -121 -271 73 -378 487 -115 444 -342 1020 -502 1271 -53 83
-139 251 -193 375 -53 124 -143 225 -200 225 -56 0 -102 47 -102 105 0 58
-164 256 -365 439 l-365 335 215 347 c130 210 215 513 215 764 0 567 -515
1110 -1053 1110 -561 0 -962 -263 -1149 -755 -99 -260 -121 -267 -625 -198
-1305 180 -2293 113 -3023 -203 -684 -296 -1117 -511 -1400 -694 -280 -180
-1676 -1550 -1581 -1550 24 0 -42 -169 -148 -375 -815 -1595 -816 -3922 -3
-5425 436 -806 1349 -1767 1949 -2051 179 -85 352 -198 385 -252 33 -53 129
-97 214 -97 84 0 296 -61 469 -135 886 -380 2100 -468 3065 -222 723 185 1278
395 1423 540 64 64 164 118 222 119 58 0 263 139 455 308 853 747 1100 979
1100 1037 0 86 435 696 525 736 41 19 75 102 75 185 0 83 62 271 137 417 221
427 390 1025 454 1607 60 555 309 850 309 366 0 -269 143 -351 228 -130 109
286 -89 1531 -401 2522 -165 520 -930 1811 -1200 2021 -131 103 -137 188 -40
550 90 334 86 538 -16 922 -225 850 -981 1263 -1996 1090z m1074 -850 c255
-201 271 -256 220 -750 -30 -293 -125 -604 -212 -690 -221 -221 -202 -283 193
-630 193 -169 350 -348 350 -399 0 -51 59 -115 130 -143 163 -62 631 -946 881
-1662 265 -759 265 -2559 0 -3318 -222 -637 -578 -1318 -831 -1589 -99 -107
-180 -241 -180 -298 0 -57 -34 -105 -75 -107 -41 -1 -298 -201 -571 -444 -869
-773 -2379 -1353 -3521 -1353 -678 0 -2216 495 -2899 933 -1651 1057 -2568
3260 -2243 5386 69 457 161 876 203 931 42 55 125 244 185 421 254 757 1600
2326 1996 2328 69 1 125 45 125 99 0 54 121 128 268 166 148 37 384 127 525
201 142 73 325 135 407 136 83 1 348 71 591 155 463 162 1776 120 2127 -66
434 -231 971 87 979 578 5 370 928 448 1352 115z m2118 -5550 c-37 -36 -67 -6
-67 67 0 73 30 103 67 67 36 -37 36 -97 0 -134z"/>
<path d="M27600 27029 c-637 -108 -975 -246 -1275 -521 -179 -163 -325 -341
-325 -394 0 -54 -45 -112 -99 -131 -55 -18 -161 -269 -235 -557 -383 -1478
614 -2826 2090 -2826 1575 0 2643 1536 2090 3007 -204 542 -942 1249 -1380
1323 -174 29 -383 73 -466 97 -82 25 -262 26 -400 2z m956 -367 c305 -142 643
-408 850 -670 323 -408 344 -480 344 -1188 0 -851 -147 -1149 -821 -1664 -328
-250 -466 -289 -1029 -290 -357 0 -764 32 -903 71 -632 179 -1199 1048 -1248
1914 -41 738 608 1626 1392 1904 579 206 839 192 1415 -77z"/>
<path d="M27271 26318 c-463 -113 -952 -673 -1028 -1177 -105 -705 21 -1115
480 -1551 361 -344 467 -390 897 -390 598 0 1181 280 1492 716 254 357 406
1484 200 1484 -62 0 -112 59 -112 130 0 72 -146 272 -325 444 -251 242 -439
325 -825 363 -275 27 -626 18 -779 -19z m1067 -257 c508 -212 762 -641 762
-1286 0 -488 -37 -582 -355 -910 -354 -364 -491 -409 -1136 -374 -871 48
-1453 1057 -1084 1878 324 722 1065 1005 1813 692z"/>
<path d="M31157 25981 c-95 -305 -128 -1365 -46 -1492 160 -250 286 112 287
830 2 607 -138 990 -241 662z"/>
<path d="M6693 21763 c-1080 -267 -1693 -1048 -1693 -2156 0 -866 362 -1483
1197 -2042 351 -234 1493 -225 1943 17 1039 557 1546 1840 1125 2849 -227 543
-904 1143 -1483 1315 -285 85 -544 149 -575 142 -31 -6 -263 -63 -514 -125z
m1130 -228 c1509 -583 1834 -2405 623 -3483 -438 -389 -909 -503 -1653 -401
-425 58 -579 145 -984 549 -491 492 -609 783 -609 1506 0 866 598 1586 1600
1927 284 97 597 67 1023 -98z"/>
<path d="M6631 21094 c-180 -54 -476 -288 -675 -531 -314 -382 -356 -500 -356
-992 0 -533 22 -580 494 -1064 463 -476 523 -507 995 -507 559 0 1176 256
1266 525 32 96 95 175 139 175 44 0 137 205 207 455 262 934 -352 1891 -1274
1987 -262 27 -621 6 -796 -48z m1241 -313 c262 -126 725 -867 727 -1166 2
-239 -338 -858 -597 -1087 -199 -175 -377 -222 -845 -225 -555 -3 -614 20
-925 360 -294 321 -332 427 -332 927 0 478 43 611 275 863 507 549 1026 649
1697 328z"/>
<path d="M3596 20820 c-333 -334 -396 -462 -396 -808 0 -492 268 -813 675
-810 367 2 496 96 578 424 105 419 -20 762 -305 833 -278 70 -325 218 -98 305
83 31 150 117 150 191 0 292 -227 242 -604 -135z m510 -832 c163 -304 -90
-557 -394 -394 -204 109 -283 402 -145 539 137 138 430 59 539 -145z"/>
<path d="M28515 18847 c-848 -369 -1320 -1016 -1392 -1913 -40 -507 -8 -702
181 -1093 360 -744 730 -1035 1566 -1235 912 -217 1919 239 2462 1115 274 442
231 1587 -80 2116 -593 1012 -1750 1438 -2737 1010z m2013 -470 c695 -549 973
-1442 706 -2269 -91 -280 -203 -508 -249 -508 -47 0 -85 -68 -85 -150 0 -82
-67 -150 -150 -150 -82 0 -150 -39 -150 -88 0 -134 -951 -513 -1269 -504 -514
14 -1531 521 -1531 764 0 70 -43 128 -96 128 -111 0 -404 923 -404 1274 0 419
485 1260 879 1526 723 487 1715 478 2349 -23z"/>
<path d="M28995 18324 c-474 -45 -1086 -590 -1192 -1060 -229 -1017 247 -1851
1169 -2049 312 -67 621 -74 811 -20 349 100 809 409 814 547 2 51 78 176 171
277 217 240 203 1179 -22 1523 -383 584 -990 855 -1751 782z m1223 -588 c397
-376 503 -675 425 -1199 -167 -1112 -1527 -1535 -2347 -730 -88 86 -216 356
-284 600 -143 512 -3 984 404 1358 471 433 1328 420 1802 -29z"/>
<path d="M32211 17374 c-353 -183 -221 -329 264 -291 372 29 425 8 425 -170 0
-112 -118 -285 -262 -383 -444 -304 -738 -614 -738 -775 0 -125 135 -155 700
-155 556 0 700 31 700 150 0 104 -105 150 -344 150 -420 0 -554 168 -233 290
508 193 712 775 386 1101 -236 236 -546 264 -898 83z"/>
<path d="M9050 13572 c-751 -436 -947 -605 -1152 -989 -183 -343 -232 -591
-232 -1192 0 -675 32 -808 295 -1200 599 -894 1874 -1257 2786 -793 451 230
953 684 953 862 0 68 55 142 122 164 77 26 137 322 161 805 32 629 1 839 -174
1192 -268 542 -450 779 -595 779 -63 0 -114 43 -114 96 0 139 -965 405 -1443
398 -224 -3 -497 -58 -607 -122z m1484 -232 c325 -111 580 -295 829 -599 311
-380 367 -530 413 -1103 46 -565 27 -678 -123 -762 -140 -79 -149 -116 -44
-182 107 -66 100 -118 -38 -271 -94 -104 -171 -241 -171 -305 0 -63 -191 -238
-425 -387 -362 -231 -530 -271 -1133 -267 -634 3 -759 38 -1186 332 -776 534
-973 1191 -707 2363 146 646 1062 1323 1808 1336 169 3 519 -67 777 -155z"/>
<path d="M9300 12968 c-443 -141 -981 -720 -1061 -1143 -251 -1327 988 -2392
2196 -1888 180 76 477 326 660 556 318 402 329 446 278 1085 -29 366 -103 682
-163 702 -61 20 -110 82 -110 137 0 148 -423 476 -619 480 -93 2 -197 48 -231
103 -78 126 -497 112 -950 -32z m1132 -280 c861 -443 1007 -1613 281 -2263
-416 -372 -934 -431 -1544 -177 -394 165 -460 243 -643 752 -147 410 19 1300
243 1300 72 0 131 59 131 131 0 294 1100 478 1532 257z"/>
<path d="M6160 12011 c-110 -121 -162 -312 -142 -516 28 -287 71 -327 379
-361 416 -45 532 -142 443 -374 -50 -130 -162 -167 -449 -146 -464 34 -609
-80 -347 -272 492 -360 1056 -74 1056 533 0 356 -32 411 -274 472 -573 144
-658 453 -126 453 159 0 318 48 354 107 86 139 62 155 -362 231 -281 51 -396
23 -532 -127z"/>
<path d="M24139 11638 c-516 -183 -991 -602 -1244 -1097 -220 -432 -276 -1720
-83 -1913 61 -61 163 -214 225 -340 322 -646 1459 -1112 2284 -935 500 107
1279 596 1279 804 0 32 59 116 131 189 72 72 191 381 265 687 111 463 111 635
-1 1033 -241 862 -633 1282 -1495 1601 -443 165 -840 156 -1361 -29z m1333
-198 c1280 -427 1785 -1895 1045 -3037 -144 -222 -314 -403 -379 -403 -64 0
-138 -56 -165 -125 -72 -188 -933 -408 -1337 -342 -525 85 -1037 383 -1374
800 -275 340 -299 432 -299 1152 0 1085 224 1436 1237 1936 439 216 671 220
1272 19z"/>
<path d="M24750 11200 c-32 -52 -238 -143 -457 -202 -857 -231 -1243 -1318
-796 -2242 460 -950 1793 -1066 2630 -229 180 180 215 335 219 973 4 735 -7
770 -346 1117 -374 381 -1151 744 -1250 583z m743 -462 c810 -403 956 -1733
250 -2264 -570 -430 -1639 -279 -2007 283 -267 408 -241 1227 50 1598 415 527
1107 683 1707 383z"/>
<path d="M28000 10629 c-309 -115 -409 -248 -291 -390 80 -96 165 -107 295
-37 101 54 231 98 289 98 164 0 127 -399 -43 -464 -226 -87 -181 -229 108
-339 412 -157 236 -350 -294 -323 -493 26 -600 -98 -289 -335 231 -175 471
-172 826 12 282 145 290 171 265 812 -21 554 -63 693 -257 850 -237 192 -347
213 -609 116z"/>
<path d="M16350 9508 c-345 -86 -940 -382 -1098 -546 -60 -62 -216 -292 -348
-512 -319 -534 -345 -1629 -50 -2141 493 -857 1010 -1156 1996 -1153 871 3
1361 253 1825 932 298 437 325 540 325 1257 0 978 -203 1386 -954 1916 -333
235 -1226 365 -1696 247z m1350 -311 c370 -9 946 -760 1096 -1427 213 -952
-291 -1959 -1168 -2333 -373 -159 -1287 -184 -1378 -37 -34 55 -147 100 -251
100 -223 0 -877 640 -1022 1000 -244 607 -134 1543 248 2107 201 296 963 705
1475 791 205 35 454 6 600 -69 138 -70 318 -130 400 -132z"/>
<path d="M16047 8702 c-167 -107 -405 -331 -529 -499 -428 -580 -235 -1889
304 -2060 98 -31 178 -93 178 -137 0 -44 196 -135 435 -202 683 -191 1360 70
1793 693 228 328 231 1284 5 1677 -399 695 -1508 963 -2186 528z m1794 -397
c275 -274 305 -368 307 -930 2 -726 -170 -1025 -746 -1300 -466 -222 -623
-220 -1081 14 -958 489 -1154 1501 -432 2221 357 355 478 393 1104 343 440
-34 600 -100 848 -348z"/>
<path d="M16900 4516 c0 -45 -206 -292 -458 -547 -570 -579 -561 -807 34 -850
343 -25 424 -68 424 -225 0 -260 135 -244 458 54 262 244 264 253 92 516 -152
233 -218 504 -244 1011 -7 137 -306 177 -306 41z m0 -866 c0 -156 -57 -250
-150 -250 -180 0 -197 213 -30 380 166 166 180 155 180 -130z"/>
</g>
</svg>
