<?xml version="1.0" standalone="no"?>
<!DOCTYPE svg PUBLIC "-//W3C//DTD SVG 20010904//EN"
 "http://www.w3.org/TR/2001/REC-SVG-20010904/DTD/svg10.dtd">
<svg version="1.0" xmlns="http://www.w3.org/2000/svg"
 width="415.604079pt" height="417.735518pt" viewBox="0 0 415.604079 417.735518"
 preserveAspectRatio="xMidYMid meet">
<metadata>
Created by potrace 1.13, written by Peter Selinger 2001-2015
</metadata>
<g transform="translate(-1.083270,420.866190) scale(0.010000,-0.010000)"
fill="#000000" stroke="none">
<path d="M18900 41939 c-852 -74 -1808 -202 -2123 -286 -316 -84 -685 -153
-820 -153 -135 0 -271 -41 -302 -91 -31 -51 -239 -122 -462 -160 -406 -69
-1320 -358 -1793 -567 -137 -60 -385 -169 -550 -240 -1212 -527 -2636 -1298
-3021 -1636 -66 -58 -147 -106 -179 -106 -84 0 -694 -436 -733 -525 -19 -41
-80 -75 -136 -75 -130 0 -847 -549 -1200 -918 -149 -155 -292 -282 -318 -282
-93 0 -2015 -1954 -2411 -2450 -219 -275 -433 -515 -475 -533 -42 -19 -77 -94
-77 -167 0 -73 -38 -148 -85 -167 -47 -18 -216 -231 -375 -473 -160 -242 -323
-489 -364 -550 -323 -478 -1289 -2226 -1337 -2419 -33 -132 -101 -241 -150
-241 -49 0 -89 -87 -89 -193 0 -106 -61 -254 -135 -328 -75 -75 -160 -269
-189 -432 -29 -163 -153 -545 -274 -847 -122 -302 -259 -707 -305 -900 -134
-564 -293 -1217 -415 -1700 -62 -247 -146 -697 -187 -1000 -42 -302 -120 -821
-174 -1151 -241 -1462 -81 -4490 338 -6399 84 -385 174 -801 199 -925 25 -124
90 -225 144 -225 139 0 121 382 -44 957 -78 271 -171 761 -207 1089 -36 329
-85 627 -108 665 -210 341 -202 4049 13 5291 84 491 163 1096 174 1345 11 249
52 453 92 453 39 0 48 63 18 140 -29 77 -6 169 53 206 59 36 107 173 107 304
0 131 40 263 88 293 49 30 121 269 160 531 39 262 105 521 146 576 41 55 133
314 203 575 71 261 163 475 204 475 42 0 99 101 127 225 119 520 635 1754 784
1875 33 27 95 159 137 292 41 134 158 331 258 439 101 108 211 325 246 483 35
157 116 287 180 287 118 1 395 394 669 949 81 165 170 323 198 350 27 28 297
343 600 700 576 681 2164 2300 2256 2300 30 0 153 104 274 230 121 127 378
338 570 468 193 131 429 318 526 417 98 99 531 407 964 685 2859 1833 5451
2795 8771 3254 1941 267 5166 104 6989 -355 1172 -294 1619 -424 1928 -557
181 -78 399 -142 485 -142 86 0 299 -63 472 -140 1458 -649 1733 -776 1865
-859 83 -52 420 -235 750 -406 675 -351 2382 -1481 2433 -1610 19 -47 72 -85
119 -85 270 0 3498 -3219 3498 -3489 0 -52 41 -109 91 -128 86 -31 1209 -1550
1209 -1635 0 -21 114 -207 253 -412 139 -205 480 -849 756 -1430 276 -581 568
-1183 647 -1339 79 -156 145 -358 147 -450 2 -92 69 -254 150 -361 81 -107
147 -270 147 -364 0 -93 67 -298 149 -456 83 -157 150 -413 150 -568 1 -154
47 -368 104 -473 56 -106 129 -384 162 -619 33 -234 99 -530 147 -657 141
-373 388 -2854 388 -3904 1 -2490 -484 -5214 -1283 -7219 -391 -981 -548
-1347 -859 -2002 -194 -409 -489 -969 -654 -1244 -166 -275 -354 -601 -419
-725 -64 -124 -155 -225 -201 -225 -46 0 -84 -61 -84 -135 0 -73 -90 -215
-200 -315 -110 -100 -200 -242 -200 -315 0 -74 -35 -135 -77 -135 -43 0 -274
-270 -515 -600 -240 -330 -475 -600 -522 -600 -47 0 -86 -49 -86 -110 0 -151
-2135 -2244 -2612 -2560 -213 -141 -388 -296 -388 -343 0 -48 -67 -87 -150
-87 -82 0 -150 -36 -150 -80 0 -103 -1414 -1019 -2024 -1311 -261 -124 -500
-267 -531 -318 -31 -50 -129 -91 -218 -91 -89 0 -232 -58 -319 -130 -87 -71
-518 -277 -958 -458 -440 -180 -948 -392 -1128 -470 -181 -78 -377 -142 -435
-142 -59 0 -249 -61 -422 -135 -419 -180 -1236 -390 -2775 -715 -1254 -264
-5801 -237 -6689 41 -192 60 -479 109 -637 109 -158 0 -564 86 -901 191 -337
104 -883 269 -1213 366 -330 97 -735 230 -900 296 -834 333 -1119 441 -1325
498 -124 34 -225 104 -225 156 0 51 -110 93 -244 93 -134 0 -270 41 -301 91
-31 51 -270 195 -531 321 -260 126 -519 265 -574 308 -190 151 -1170 780
-1216 780 -64 0 -1499 1098 -1975 1511 -1008 873 -2580 2569 -2981 3214 -162
261 -336 475 -387 475 -50 0 -91 47 -91 105 0 58 -203 416 -450 795 -248 379
-450 733 -450 786 0 54 -42 112 -93 131 -231 82 -1450 3019 -1771 4266 -91
352 -300 407 -258 67 73 -574 722 -2428 1034 -2950 49 -82 115 -217 147 -300
241 -631 1418 -2722 1631 -2900 99 -83 510 -687 510 -751 0 -32 102 -158 227
-279 125 -121 344 -377 487 -570 342 -460 1610 -1745 2220 -2250 266 -220 626
-527 800 -682 174 -155 507 -396 741 -535 234 -138 425 -287 425 -331 0 -43
79 -106 175 -139 96 -33 310 -151 475 -260 165 -110 412 -249 548 -308 136
-59 271 -138 300 -176 102 -135 2007 -1019 2652 -1231 220 -72 489 -189 597
-260 109 -70 297 -128 419 -128 122 0 246 -39 276 -86 29 -48 245 -135 480
-194 1004 -253 1760 -417 2228 -483 275 -38 568 -92 650 -119 83 -27 1275 -68
2650 -91 2015 -34 2684 -10 3450 123 1358 236 2268 448 2900 677 302 109 708
255 900 325 1219 443 2800 1185 3573 1678 233 149 469 270 525 270 56 0 102
40 102 88 0 48 135 144 300 212 165 68 300 164 300 212 0 48 68 88 150 88 83
0 150 38 150 84 0 46 101 132 225 191 320 151 940 705 2268 2025 1058 1052
1707 1759 1707 1860 0 22 79 123 175 225 316 334 525 616 525 708 0 50 35 105
79 124 265 112 2321 3986 2321 4373 0 57 63 251 140 432 194 452 704 2181 894
3028 462 2056 443 6039 -39 8400 -124 605 -763 2772 -901 3050 -40 83 -153
352 -250 600 -266 680 -903 1988 -1241 2550 -165 275 -332 568 -370 650 -112
239 -1364 1965 -1793 2470 -752 887 -2446 2494 -3065 2906 -206 138 -375 290
-375 337 0 48 -67 87 -150 87 -82 0 -150 40 -150 88 0 48 -135 144 -300 212
-165 68 -300 159 -300 200 0 42 -79 106 -175 141 -175 64 -320 147 -1075 616
-220 137 -524 297 -675 356 -151 58 -275 147 -275 197 0 49 -72 90 -160 90
-87 0 -279 62 -425 138 -251 132 -459 225 -1343 601 -209 89 -459 161 -556
161 -98 0 -265 66 -372 147 -107 81 -276 148 -375 150 -100 2 -392 66 -650
143 -1383 413 -3713 764 -4939 746 -512 -8 -1627 -74 -2480 -147z"/>
<path d="M19500 40289 c-742 -33 -1477 -112 -1632 -175 -154 -63 -406 -114
-559 -114 -866 0 -4423 -1316 -5757 -2129 -2552 -1558 -4376 -3151 -5643
-4932 -132 -186 -279 -339 -325 -339 -46 0 -84 -50 -84 -111 0 -60 -135 -281
-300 -489 -165 -208 -300 -408 -300 -443 0 -60 -384 -641 -500 -757 -131 -131
-1000 -1974 -1000 -2121 0 -92 -40 -192 -90 -223 -49 -30 -207 -419 -350 -863
-143 -444 -307 -895 -365 -1002 -57 -107 -121 -340 -143 -518 -38 -311 -144
-824 -366 -1773 -58 -247 -139 -1024 -180 -1725 -146 -2489 23 -4381 563
-6325 138 -495 288 -1035 334 -1200 145 -523 408 -1197 504 -1295 51 -52 93
-167 93 -255 0 -196 988 -2137 1111 -2183 49 -19 89 -89 89 -156 0 -128 955
-1537 1160 -1711 65 -55 286 -325 492 -600 502 -671 2614 -2750 2794 -2750 24
0 168 -115 319 -255 152 -141 548 -433 880 -650 333 -217 650 -428 705 -470
129 -96 1832 -939 2556 -1264 702 -315 1372 -563 1694 -628 138 -28 453 -109
700 -180 645 -185 1836 -431 2656 -548 1774 -253 2761 -236 5294 92 973 126
2521 506 3115 766 173 75 363 137 422 137 183 0 3302 1460 3413 1598 27 35
230 170 450 302 1405 839 3381 2633 4464 4050 378 495 732 954 786 1021 55 66
100 147 100 179 0 32 83 147 184 256 101 108 247 320 325 471 77 150 168 296
200 323 72 60 339 544 511 925 68 151 181 275 252 275 73 0 128 119 128 278 0
153 59 366 132 475 72 108 211 422 309 697 98 275 241 642 318 815 78 173 141
381 141 462 0 81 93 434 206 785 211 653 250 830 394 1788 46 303 131 865 190
1250 158 1041 135 3620 -43 4738 -249 1560 -1042 4435 -1262 4571 -47 29 -85
118 -85 197 0 79 -135 429 -300 778 -165 350 -300 687 -300 751 0 63 -43 115
-95 115 -52 0 -211 233 -354 517 -240 477 -375 692 -1059 1684 -439 637 -1138
1499 -1216 1499 -42 0 -76 68 -76 150 0 83 -67 150 -150 150 -82 0 -150 43
-150 95 0 96 -967 1105 -1058 1105 -27 0 -177 132 -335 292 -378 387 -1852
1477 -2106 1558 -111 35 -201 100 -201 145 0 45 -79 109 -175 142 -96 33 -310
148 -475 256 -667 434 -2214 1110 -3900 1705 -1920 678 -4105 924 -7050 791z
m4432 -477 c154 -62 427 -112 605 -112 178 0 614 -92 969 -204 1936 -615 2563
-830 2744 -941 110 -68 324 -154 475 -191 151 -37 275 -112 275 -166 0 -54 87
-98 193 -98 106 0 253 -56 326 -125 74 -69 313 -215 533 -325 219 -110 585
-324 813 -475 227 -151 464 -275 525 -275 60 0 110 -41 110 -90 0 -50 191
-205 425 -345 234 -139 560 -370 725 -512 1282 -1107 1794 -1606 2355 -2295
355 -435 724 -874 820 -975 96 -100 175 -201 175 -224 0 -22 202 -348 450
-725 247 -376 450 -736 450 -801 0 -64 37 -131 83 -150 174 -69 1031 -1689
1368 -2583 93 -248 232 -598 309 -778 77 -181 140 -419 140 -530 0 -111 60
-323 133 -472 134 -271 333 -1296 616 -3174 172 -1145 194 -2988 47 -3946 -55
-357 -123 -875 -153 -1150 -71 -673 -497 -2357 -797 -3150 -73 -193 -225 -608
-337 -923 -195 -547 -259 -692 -527 -1202 -66 -124 -186 -360 -267 -525 -82
-165 -310 -548 -507 -850 -197 -303 -448 -724 -558 -936 -110 -212 -256 -408
-325 -436 -69 -27 -125 -91 -125 -143 0 -105 -45 -166 -545 -747 -195 -227
-355 -436 -355 -465 0 -95 -1871 -1941 -2265 -2234 -212 -159 -408 -317 -435
-352 -102 -129 -1405 -987 -1501 -987 -54 0 -99 -36 -99 -79 0 -44 -259 -209
-575 -368 -316 -158 -598 -314 -625 -345 -66 -76 -669 -356 -1800 -835 -1448
-612 -3066 -993 -5227 -1228 -1347 -147 -1755 -155 -2800 -54 -2494 242 -2591
259 -4523 807 -165 46 -547 183 -850 302 -302 120 -696 266 -875 326 -179 59
-325 145 -325 191 0 46 -62 83 -137 83 -145 0 -1611 729 -2113 1051 -308 198
-1505 1065 -1721 1247 -66 56 -146 102 -176 102 -164 0 -2543 2497 -3135 3292
-148 197 -302 373 -343 391 -41 19 -75 94 -75 167 0 73 -34 148 -75 167 -84
37 -451 553 -558 783 -38 83 -159 285 -268 450 -109 165 -248 424 -308 575
-61 151 -151 275 -201 275 -49 0 -90 72 -90 160 0 87 -63 279 -139 425 -77
146 -212 456 -300 690 -89 234 -225 594 -302 800 -276 730 -733 2388 -918
3325 -254 1290 -257 5383 -5 6431 90 375 164 792 164 927 0 134 42 323 93 418
51 96 191 512 311 924 121 413 281 869 357 1015 77 146 139 344 139 440 0 154
1165 2617 1298 2745 105 101 502 694 502 750 0 66 372 598 600 857 259 296
725 972 712 1034 -13 62 358 459 428 459 23 0 452 405 955 900 502 495 945
900 984 900 39 1 215 136 391 300 175 165 346 300 379 300 33 0 148 83 257
184 108 101 320 247 471 325 150 77 296 163 323 191 295 296 2898 1630 3426
1756 152 37 301 106 331 155 30 49 141 89 246 89 104 0 338 63 519 140 411
175 1624 504 2478 672 1354 266 5559 266 6232 0z"/>
<path d="M14203 35782 c-356 -50 -671 -128 -700 -173 -29 -45 -158 -115 -287
-155 -308 -96 -1135 -911 -1374 -1354 -443 -818 -457 -2216 -33 -3082 216
-440 819 -1118 994 -1118 54 0 97 -37 97 -83 0 -46 233 -192 518 -325 721
-336 2099 -340 2812 -7 548 256 1470 1145 1470 1417 0 100 44 196 99 215 160
53 327 1186 265 1790 -31 306 -126 689 -210 850 -84 161 -153 351 -153 422 -1
194 -919 1058 -1379 1298 -222 116 -577 240 -788 276 -211 35 -452 77 -534 92
-82 15 -441 -13 -797 -63z m1278 -296 c258 -63 540 -175 627 -250 87 -75 201
-136 255 -136 179 0 902 -771 1137 -1213 192 -360 234 -597 241 -1344 10
-1066 -133 -1429 -844 -2140 -750 -749 -1006 -853 -2097 -853 -1056 1 -1428
136 -2112 766 -1501 1384 -1138 4064 662 4890 854 391 1385 461 2131 280z"/>
<path d="M14244 33897 c-376 -114 -680 -439 -830 -887 -165 -492 -142 -738
111 -1214 309 -582 593 -745 1279 -736 930 13 1422 535 1410 1499 -7 559 -147
847 -565 1163 -271 204 -1007 295 -1405 175z m1208 -760 c207 -273 190 -1070
-27 -1260 -460 -404 -1139 -328 -1397 156 -93 174 -157 385 -143 467 48 274
315 783 441 839 257 115 985 -16 1126 -202z"/>
<path d="M25950 35486 c-671 -269 -1550 -942 -1550 -1186 0 -55 -37 -100 -81
-100 -45 0 -180 -225 -300 -501 -169 -387 -219 -696 -219 -1356 0 -1532 638
-2476 2136 -3166 504 -231 1648 -236 2261 -9 768 284 1171 610 1636 1319 1164
1779 417 4219 -1533 5004 -576 232 -1766 230 -2350 -5z m2014 -246 c453 -154
1324 -716 1332 -860 2 -38 115 -189 250 -335 274 -296 556 -1148 550 -1660 -5
-385 -194 -1101 -402 -1529 -175 -358 -725 -956 -881 -956 -62 0 -113 -36
-113 -81 0 -179 -885 -464 -1550 -498 -874 -45 -1596 244 -2268 908 -540 533
-782 1175 -782 2073 0 1463 662 2411 2027 2902 647 233 1223 245 1837 36z"/>
<path d="M26510 33745 c-187 -82 -455 -263 -595 -402 -220 -221 -255 -344
-259 -924 -7 -759 209 -1161 791 -1474 353 -191 1265 -160 1333 45 20 61 78
110 128 110 194 0 498 420 611 843 96 356 91 524 -24 873 -158 477 -306 649
-787 909 -391 211 -744 217 -1198 20z m1114 -718 c259 -233 382 -774 244
-1068 -133 -282 -556 -559 -853 -559 -112 0 -326 105 -476 234 -393 338 -360
882 83 1339 351 362 643 378 1002 54z"/>
<path d="M15725 28734 c-275 -111 -124 -334 225 -334 244 0 350 -45 350 -150
0 -83 -89 -150 -200 -150 -301 0 -260 -363 50 -441 138 -35 250 -126 250 -204
0 -180 -300 -245 -523 -113 -217 130 -411 -38 -320 -275 45 -117 183 -167 460
-167 687 0 783 110 783 898 0 600 -29 711 -222 846 -216 152 -600 192 -853 90z"/>
<path d="M24897 28358 c-860 -917 -893 -1158 -161 -1158 391 0 450 -30 507
-257 79 -317 392 -294 439 33 18 123 96 224 175 224 79 0 143 90 143 200 0
110 -65 200 -145 200 -106 0 -153 153 -175 574 -39 746 -217 788 -783 184z
m268 -726 c-28 -29 -99 -23 -157 13 -72 45 -67 109 18 200 104 113 130 111
158 -13 18 -81 10 -171 -19 -200z"/>
<path d="M33250 24423 c-717 -58 -1664 -652 -2303 -1445 -283 -351 -463 -1109
-457 -1925 5 -727 45 -920 281 -1356 332 -616 967 -1286 1435 -1516 476 -235
1257 -481 1523 -481 434 0 1597 396 1956 666 459 346 911 845 913 1009 1 69
41 125 88 125 149 0 514 1099 514 1547 0 237 -67 559 -149 717 -83 157 -150
410 -150 561 -1 151 -43 275 -94 275 -52 0 -122 89 -156 198 -108 338 -775
971 -1356 1285 -563 305 -1190 409 -2045 340z m1586 -474 c158 -82 324 -149
369 -149 152 0 995 -829 1159 -1141 624 -1185 381 -2895 -527 -3711 -307 -276
-488 -384 -1248 -743 -275 -130 -1299 -98 -1841 58 -307 88 -1248 718 -1248
835 0 35 -80 152 -178 258 -553 601 -694 2081 -284 2976 285 623 937 1302
1501 1562 527 243 1876 275 2297 55z"/>
<path d="M33000 22438 c-469 -293 -650 -643 -650 -1254 0 -481 45 -621 305
-942 792 -978 2148 -745 2538 436 193 586 4 1227 -480 1626 -303 250 -444 296
-911 293 -324 -1 -655 -67 -802 -159z m1393 -701 c354 -450 256 -1106 -206
-1379 -335 -197 -697 -153 -982 121 -541 520 -140 1521 610 1521 281 0 420
-64 578 -263z"/>
<path d="M6855 24308 c-32 -51 -197 -123 -369 -161 -192 -42 -546 -304 -924
-683 -747 -751 -963 -1283 -962 -2377 1 -1953 1426 -3287 3514 -3287 672 0
1634 464 2145 1035 514 576 631 785 800 1433 177 681 177 1159 -1 1732 -324
1039 -828 1650 -1727 2094 -552 273 -718 306 -1519 306 -495 0 -926 -42 -957
-92z m2244 -386 c1047 -516 1673 -1405 1774 -2521 119 -1309 -517 -2457 -1659
-2995 -255 -120 -531 -253 -614 -294 -290 -147 -1055 -115 -1550 65 -1034 376
-1423 696 -1906 1570 -237 427 -276 617 -284 1350 -12 1142 214 1631 1121
2425 171 150 425 301 565 336 140 35 254 101 254 147 0 223 1812 157 2299 -83z"/>
<path d="M7200 22450 c-68 -82 -175 -151 -237 -153 -62 -2 -203 -126 -312
-275 -297 -405 -280 -1361 32 -1799 252 -353 783 -626 1204 -618 374 7 910
298 1152 625 279 377 303 1518 36 1714 -96 70 -175 168 -176 217 -2 354 -1442
599 -1699 289z m1393 -740 c351 -494 230 -1003 -330 -1387 -417 -286 -571
-281 -908 31 -335 311 -458 712 -320 1046 200 484 370 600 874 600 413 0 505
-39 684 -290z"/>
<path d="M28606 22057 c-65 -79 -105 -315 -87 -525 29 -356 55 -384 380 -415
393 -37 500 -148 425 -437 -43 -164 -108 -187 -389 -134 -261 49 -352 26 -401
-101 -88 -230 144 -352 611 -321 320 21 428 83 570 326 159 274 161 329 23
614 -103 212 -247 333 -445 372 -404 81 -369 264 51 264 189 0 376 52 415 115
193 312 -904 542 -1153 242z"/>
<path d="M12125 21997 c-124 -50 -225 -162 -225 -250 0 -132 77 -148 450 -92
405 61 450 48 450 -132 0 -194 -580 -723 -793 -723 -59 0 -107 -129 -107 -287
0 -268 32 -292 487 -352 268 -35 563 -36 655 0 257 99 143 385 -168 421 -258
29 -400 218 -165 218 187 0 484 437 488 718 6 501 -479 717 -1072 479z"/>
<path d="M8100 17450 c0 -27 22 -50 50 -50 28 0 50 23 50 50 0 28 -22 50 -50
50 -28 0 -50 -22 -50 -50z"/>
<path d="M25031 14922 c-423 -362 -599 -1000 -388 -1408 236 -456 879 -576
1198 -224 251 278 181 920 -118 1068 -346 171 -374 232 -174 379 198 145 149
465 -71 460 -70 -1 -271 -125 -447 -275z m522 -1032 c37 -116 20 -257 -36
-313 -167 -167 -417 -5 -417 270 0 320 354 354 453 43z"/>
<path d="M16521 14083 c23 -750 58 -933 179 -933 122 0 150 167 150 899 0 783
-23 903 -179 933 -163 31 -176 -48 -150 -899z"/>
<path d="M26450 12861 c-275 -73 -619 -198 -764 -277 -362 -197 -986 -755
-986 -881 0 -57 -45 -103 -99 -103 -132 0 -452 -720 -611 -1374 -168 -691 16
-1696 423 -2306 158 -237 287 -473 287 -525 0 -52 56 -96 125 -97 69 -1 228
-110 354 -243 472 -498 1086 -700 2121 -699 853 2 1001 31 1450 282 698 391
1077 782 1453 1497 294 561 323 694 322 1515 0 783 -35 970 -273 1436 -737
1445 -2301 2176 -3802 1775z m2002 -462 c504 -242 1448 -1123 1448 -1352 0
-68 67 -253 149 -411 206 -394 188 -1568 -33 -2112 -95 -234 -295 -565 -445
-735 -149 -170 -271 -350 -271 -399 0 -50 -67 -90 -150 -90 -82 0 -150 -37
-150 -83 0 -46 -233 -192 -517 -325 -677 -317 -1939 -333 -2483 -31 -630 349
-900 560 -900 701 0 76 -59 138 -130 138 -176 0 -558 810 -678 1438 -170 897
165 1926 845 2591 963 942 2217 1196 3315 670z"/>
<path d="M26300 12002 c-510 -202 -1207 -854 -1442 -1349 -236 -497 -209
-1560 53 -2082 495 -987 1588 -1625 2539 -1481 590 90 1250 356 1250 505 0 58
67 105 149 105 208 0 729 747 864 1240 147 533 128 986 -64 1552 -154 455
-654 1108 -848 1108 -55 0 -101 39 -101 88 0 48 -222 183 -494 300 -594 256
-1281 261 -1906 14z m1500 -802 c0 -55 65 -100 144 -100 295 0 729 -541 843
-1050 61 -275 96 -567 78 -650 -193 -852 -808 -1398 -1575 -1399 -893 -2
-1578 774 -1586 1796 -4 533 10 561 510 1025 481 447 549 478 1050 478 295 0
536 -45 536 -100z"/>
<path d="M14100 12807 c-727 -171 -1448 -665 -2019 -1383 -526 -661 -673
-2450 -265 -3232 119 -228 344 -555 500 -726 156 -171 284 -346 284 -388 0
-43 68 -78 150 -78 82 0 150 -46 150 -101 0 -106 598 -397 1207 -588 861 -268
2163 39 2920 689 1464 1258 1573 3502 240 4925 -142 151 -305 275 -362 275
-58 0 -105 37 -105 82 0 44 -239 180 -532 302 -588 243 -1627 350 -2168 223z
m1540 -310 c233 -9 1029 -441 1337 -725 314 -291 668 -934 818 -1488 160 -593
-17 -1781 -333 -2226 -636 -897 -1024 -1186 -1912 -1422 -681 -182 -1010 -170
-1640 60 -770 282 -1169 581 -1569 1179 -601 897 -669 2191 -166 3125 260 484
960 1200 1171 1200 71 0 183 65 249 144 141 170 655 244 1355 196 275 -20 585
-39 690 -43z"/>
<path d="M14123 11971 c-1054 -442 -1630 -1180 -1685 -2156 -107 -1901 1838
-3285 3562 -2533 409 178 1026 804 1221 1240 276 616 260 1714 -32 2282 -576
1123 -1939 1641 -3066 1167z m1527 -908 c587 -336 850 -778 850 -1430 0 -958
-674 -1634 -1628 -1632 -468 0 -839 202 -1190 649 -191 243 -232 415 -232 971
0 642 18 694 357 1033 334 334 949 637 1293 637 82 0 330 -103 550 -228z"/>
<path d="M41300 1850 c0 -27 23 -50 50 -50 28 0 50 23 50 50 0 27 -22 50 -50
50 -27 0 -50 -23 -50 -50z"/>
</g>
</svg>
