<?xml version="1.0" standalone="no"?>
<!DOCTYPE svg PUBLIC "-//W3C//DTD SVG 20010904//EN"
 "http://www.w3.org/TR/2001/REC-SVG-20010904/DTD/svg10.dtd">
<svg version="1.0" xmlns="http://www.w3.org/2000/svg"
 width="355.445312pt" height="357.257648pt" viewBox="0 0 355.445312 357.257648"
 preserveAspectRatio="xMidYMid meet">
<metadata>
Created by potrace 1.13, written by Peter Selinger 2001-2015
</metadata>
<g transform="translate(-10.169488,366.481164) scale(0.010000,-0.010000)"
fill="#000000" stroke="none">
<path d="M17300 36608 c-1402 -82 -2396 -245 -3179 -521 -291 -103 -606 -187
-700 -188 -94 0 -300 -67 -457 -150 -158 -82 -341 -149 -408 -149 -129 0
-1739 -675 -1906 -799 -55 -41 -370 -222 -700 -402 -797 -435 -1572 -949
-1863 -1236 -131 -129 -298 -253 -372 -277 -226 -72 -1427 -1189 -2115 -1968
-357 -405 -729 -822 -825 -927 -96 -105 -175 -237 -175 -294 0 -57 -67 -129
-150 -161 -82 -31 -150 -102 -150 -157 0 -55 -135 -271 -300 -479 -165 -208
-300 -429 -300 -489 0 -61 -41 -111 -90 -111 -50 0 -138 -124 -197 -275 -59
-151 -232 -504 -385 -785 -865 -1584 -1518 -3515 -1839 -5440 -212 -1270 -233
-4290 -37 -5450 261 -1551 821 -3547 1290 -4600 74 -165 262 -592 419 -950
156 -357 409 -837 562 -1065 152 -227 277 -441 277 -473 0 -33 64 -139 143
-236 79 -97 427 -558 775 -1025 611 -821 2233 -2520 2837 -2971 162 -121 551
-425 863 -675 313 -250 591 -455 618 -455 28 0 312 -172 632 -381 493 -323
993 -602 1825 -1018 438 -219 1031 -454 2007 -795 1905 -665 5631 -978 7793
-656 636 95 1315 217 1507 270 193 53 508 134 700 179 193 45 508 139 700 209
1368 497 1745 650 2500 1017 468 227 865 449 883 494 19 44 82 81 142 81 231
0 2477 1589 2558 1810 19 49 76 90 128 90 140 0 1830 1737 2475 2544 310 388
643 765 739 837 96 72 175 218 175 325 0 107 34 194 75 195 41 0 124 101 185
225 60 123 263 494 450 824 372 656 759 1715 662 1812 -34 33 -201 -226 -371
-576 -304 -624 -400 -810 -602 -1161 -55 -96 -131 -242 -169 -325 -97 -212
-1029 -1636 -1112 -1698 -37 -29 -246 -277 -464 -552 -659 -830 -2253 -2336
-3103 -2930 -441 -308 -824 -585 -851 -615 -98 -108 -693 -505 -756 -505 -36
0 -265 -135 -510 -300 -244 -165 -499 -300 -567 -300 -67 0 -211 -61 -320
-135 -108 -75 -466 -236 -796 -358 -329 -122 -644 -258 -700 -302 -55 -44
-236 -103 -401 -130 -165 -28 -705 -163 -1200 -301 -1659 -462 -2516 -574
-4375 -574 -961 0 -1990 49 -2286 109 -2440 496 -2638 543 -3289 794 -302 117
-666 248 -807 292 -141 44 -344 126 -450 181 -106 55 -418 203 -693 329 -275
126 -522 255 -550 287 -27 32 -230 148 -450 257 -220 110 -422 222 -450 250
-27 28 -171 118 -319 201 -147 83 -786 544 -1419 1026 -1173 894 -2472 2212
-3201 3247 -223 317 -441 592 -483 610 -43 19 -78 94 -78 167 0 73 -34 148
-75 167 -114 50 -525 661 -525 779 0 57 -45 104 -100 104 -55 0 -100 52 -100
116 0 64 -153 435 -339 825 -187 390 -417 912 -512 1159 -95 248 -211 540
-257 650 -212 502 -492 1413 -492 1602 0 114 -42 251 -94 303 -52 52 -139 433
-193 845 -55 413 -152 1127 -218 1588 -118 840 -84 3707 50 4212 37 138 104
525 150 861 45 337 129 764 187 950 57 187 181 609 274 939 357 1256 906 2540
1542 3600 165 275 331 568 369 650 38 83 407 600 820 1150 755 1007 2090 2412
2900 3054 240 190 579 466 753 612 174 147 538 384 809 529 271 144 518 297
547 340 30 44 549 318 1154 609 1434 690 1311 638 2000 848 330 100 748 244
928 320 181 76 429 138 551 138 122 0 519 85 881 189 578 165 2114 321 3340
339 1155 18 2839 -184 3690 -440 159 -49 384 -88 500 -89 115 0 339 -67 496
-150 158 -82 383 -149 500 -150 118 0 343 -67 500 -150 158 -82 346 -149 417
-149 72 0 258 -62 414 -138 156 -76 463 -214 683 -308 220 -94 527 -235 683
-313 156 -77 345 -141 420 -141 75 0 173 -56 217 -125 44 -69 238 -211 430
-315 193 -105 771 -488 1285 -850 514 -363 1021 -704 1125 -759 105 -54 190
-155 190 -225 0 -69 42 -126 94 -126 87 0 1406 -1264 1406 -1347 0 -20 182
-226 404 -457 222 -231 470 -549 552 -708 82 -158 193 -288 247 -288 53 0 97
-67 97 -150 0 -82 46 -150 102 -150 57 0 148 -101 202 -225 54 -124 186 -360
293 -525 338 -524 445 -716 815 -1466 450 -912 688 -1443 688 -1534 0 -38 62
-212 137 -385 164 -375 582 -1969 764 -2915 280 -1449 339 -4253 117 -5550
-241 -1406 -451 -2300 -540 -2300 -50 0 -65 -41 -34 -90 31 -50 -56 -421 -193
-825 -281 -826 -291 -885 -153 -885 54 0 129 124 166 275 37 151 125 365 196
475 70 110 245 605 389 1100 764 2639 814 5679 147 8900 -68 330 -185 742
-260 915 -75 173 -136 401 -136 505 0 105 -40 233 -88 285 -48 52 -145 275
-214 495 -70 220 -233 633 -362 919 -130 285 -236 562 -236 616 0 54 -34 113
-75 132 -41 18 -210 292 -375 608 -165 316 -334 574 -375 575 -41 0 -75 61
-75 135 0 147 -1075 1694 -1215 1748 -47 19 -85 80 -85 136 0 147 -2426 2577
-2575 2579 -69 1 -125 45 -125 98 0 52 -202 214 -450 359 -248 145 -450 305
-450 355 0 49 -50 90 -111 90 -60 0 -274 126 -475 281 -200 154 -679 435
-1064 625 -385 189 -715 378 -733 419 -19 41 -81 75 -139 75 -97 0 -749 280
-1217 522 -337 174 -2604 877 -2831 877 -121 1 -468 65 -770 144 -697 182
-2742 259 -4360 165z"/>
<path d="M16950 35038 c-1409 -141 -2784 -447 -3682 -821 -154 -64 -317 -117
-362 -117 -166 0 -1573 -648 -1972 -909 -228 -149 -509 -301 -625 -338 -115
-37 -209 -108 -209 -160 0 -51 -50 -93 -111 -93 -60 0 -281 -135 -489 -300
-208 -165 -425 -300 -481 -300 -56 0 -117 -34 -136 -75 -18 -41 -258 -254
-533 -473 -982 -782 -2195 -2115 -3005 -3301 -619 -907 -1557 -2725 -1834
-3551 -119 -357 -255 -740 -301 -850 -84 -199 -265 -1016 -543 -2450 -312
-1606 -179 -4394 290 -6059 79 -280 143 -576 143 -658 0 -249 592 -1945 892
-2557 156 -317 314 -677 352 -801 38 -124 111 -225 163 -225 51 0 93 -53 93
-119 0 -156 1025 -1781 1123 -1781 43 0 77 -64 77 -142 0 -78 34 -156 75 -175
41 -18 252 -258 468 -533 216 -275 531 -627 700 -781 169 -155 487 -451 708
-659 434 -410 2403 -1910 2506 -1910 35 0 251 -124 478 -275 663 -440 2553
-1325 2828 -1325 86 0 299 -61 472 -136 308 -133 1054 -317 2365 -582 674
-137 3337 -180 4050 -65 220 35 625 93 900 128 996 128 3250 802 4000 1196
165 87 356 158 425 158 69 1 125 39 125 86 0 46 169 156 375 243 359 151 1060
537 1274 700 55 42 512 381 1014 752 1182 875 2317 2020 3245 3273 928 1255
882 1179 1525 2497 775 1586 815 1695 1299 3550 472 1808 563 3743 272 5787
-120 845 -256 1632 -301 1750 -46 117 -160 506 -255 863 -94 358 -227 785
-296 950 -470 1128 -1066 2367 -1239 2576 -183 221 -391 572 -473 799 -35 96
-102 175 -149 175 -47 0 -151 124 -230 275 -79 151 -227 365 -328 475 -102
110 -342 402 -534 648 -446 572 -1576 1702 -1702 1702 -54 0 -97 35 -97 79 0
101 -962 821 -1097 821 -57 0 -103 41 -103 91 0 79 -253 257 -1250 877 -110
68 -267 152 -350 185 -82 34 -217 103 -300 155 -82 51 -217 121 -300 155 -82
34 -436 194 -786 355 -730 335 -2367 882 -2642 882 -102 0 -269 45 -371 99
-182 98 -1882 270 -3251 329 -385 16 -1240 -24 -1900 -90z m3600 -332 c1007
-94 2450 -382 2595 -517 52 -49 218 -89 369 -89 151 0 300 -42 331 -92 32 -51
203 -123 381 -161 397 -84 2077 -874 2624 -1234 220 -145 574 -353 786 -463
212 -110 408 -256 436 -325 27 -69 108 -125 180 -125 72 0 146 -34 165 -75 18
-41 281 -277 583 -523 1244 -1013 2697 -2716 3458 -4052 157 -275 343 -559
414 -632 70 -73 128 -174 128 -225 0 -51 128 -374 284 -718 468 -1028 594
-1375 899 -2475 1038 -3747 667 -7752 -1045 -11262 -483 -992 -1514 -2638
-1652 -2638 -47 0 -86 -45 -86 -101 0 -226 -1463 -1774 -2300 -2432 -357 -282
-673 -537 -700 -568 -117 -130 -1404 -1007 -1617 -1101 -128 -57 -570 -286
-983 -509 -736 -398 -993 -506 -2100 -878 -2004 -675 -4911 -986 -6650 -713
-330 52 -900 141 -1267 197 -367 56 -772 142 -900 190 -128 49 -503 166 -833
260 -330 94 -727 235 -883 313 -156 78 -361 142 -455 142 -95 0 -215 40 -267
89 -52 49 -365 231 -695 405 -1086 573 -2550 1504 -2550 1622 0 46 -46 84
-103 84 -213 0 -2697 2383 -2697 2588 0 62 -35 112 -79 112 -146 0 -1442 2047
-1812 2861 -704 1552 -911 2131 -1249 3489 -565 2274 -551 5731 33 7697 49
167 190 641 312 1053 194 656 537 1534 781 2000 277 529 498 913 786 1367 180
284 328 546 328 583 0 72 708 1007 1162 1535 279 324 1274 1309 1888 1868 576
524 2450 1692 3250 2025 718 299 1280 547 1533 677 156 80 373 145 482 145
109 0 296 53 417 117 380 204 1472 395 2968 520 1467 123 1733 121 3350 -31z"/>
<path d="M18250 33889 c-275 -111 -515 -244 -533 -296 -19 -51 -73 -93 -122
-93 -129 0 -718 -621 -910 -959 -91 -160 -241 -551 -333 -868 -194 -670 -112
-1267 294 -2124 434 -917 1166 -1462 2266 -1686 542 -111 712 -106 1233 33
680 182 1255 460 1255 607 0 53 56 97 125 97 134 0 775 881 775 1066 0 61 67
240 149 398 283 541 157 1480 -325 2427 -180 354 -698 930 -937 1043 -75 36
-204 103 -287 150 -529 300 -727 354 -1400 379 -571 22 -869 -20 -1250 -174z
m2293 -332 c848 -387 1295 -907 1589 -1843 210 -671 211 -951 3 -1571 -426
-1278 -1432 -2043 -2685 -2043 -456 0 -1142 185 -1358 367 -87 73 -207 133
-266 133 -203 0 -910 909 -1068 1373 -189 552 -201 1326 -31 1879 477 1554
2334 2383 3816 1705z"/>
<path d="M18826 32334 c-621 -220 -876 -630 -876 -1408 0 -600 16 -639 426
-1050 418 -417 441 -426 1077 -419 594 7 680 36 985 331 869 843 588 2225
-528 2598 -423 142 -554 136 -1084 -52z m1186 -723 c310 -252 326 -917 30
-1214 -315 -315 -836 -359 -1167 -99 -225 177 -275 296 -275 652 0 351 51 476
263 643 329 258 842 266 1149 18z"/>
<path d="M8918 29565 c-568 -198 -1518 -904 -1518 -1130 0 -40 -82 -165 -182
-279 -183 -207 -435 -1053 -478 -1601 -25 -323 427 -1555 571 -1555 49 0 89
-65 89 -144 0 -211 915 -965 1418 -1169 276 -113 711 -178 1204 -181 974 -7
1685 298 2305 992 774 866 1008 2261 554 3301 -120 276 -255 501 -300 501 -44
0 -81 44 -81 97 0 121 -595 708 -902 889 -409 241 -1319 514 -1689 506 -197
-4 -643 -106 -991 -227z m1761 -244 c780 -220 1508 -817 1867 -1531 330 -657
352 -1644 52 -2321 -255 -578 -940 -1249 -1509 -1480 -622 -252 -1639 -244
-2230 17 -973 431 -1758 1603 -1759 2628 -2 1114 942 2377 2010 2691 705 207
823 207 1569 -4z"/>
<path d="M9643 28100 c-1132 -247 -1579 -1397 -919 -2363 358 -524 1517 -875
1733 -525 30 48 134 88 231 88 270 0 586 399 724 914 106 399 100 527 -48 913
-94 247 -255 525 -358 618 -267 242 -1003 433 -1363 355z m700 -741 c401 -167
533 -574 359 -1103 -223 -676 -1167 -687 -1488 -17 -198 414 -10 1009 363
1145 371 136 383 135 766 -25z"/>
<path d="M27028 28589 c-1135 -548 -1731 -1503 -1737 -2783 -5 -942 235 -1531
892 -2189 744 -744 1643 -1084 2556 -966 1421 183 2511 1205 2750 2578 122
700 3 1571 -256 1879 -73 87 -134 222 -136 300 -4 173 -342 592 -477 592 -54
0 -123 63 -152 139 -29 77 -349 279 -711 450 -917 434 -1831 434 -2729 0z
m2553 -191 c489 -255 1219 -875 1219 -1036 0 -67 56 -178 124 -246 387 -387
384 -1972 -4 -2648 -222 -386 -732 -968 -848 -968 -50 0 -211 -83 -357 -185
-620 -431 -2010 -431 -2630 0 -146 102 -292 185 -324 185 -152 0 -736 702
-936 1128 -300 637 -309 1656 -20 2309 112 255 247 463 300 463 52 0 95 68 95
150 0 83 34 150 75 150 41 1 210 124 375 275 506 464 930 612 1772 619 589 4
864 -42 1159 -196z"/>
<path d="M27911 27211 c-639 -260 -1005 -743 -1008 -1332 -3 -503 266 -1172
472 -1177 69 -1 125 -45 125 -98 0 -158 806 -326 1248 -259 644 96 1150 751
1151 1487 1 579 -330 1077 -912 1375 -455 232 -514 232 -1076 4z m1144 -876
c300 -323 308 -559 37 -998 -184 -297 -258 -337 -635 -337 -736 0 -1100 518
-804 1142 162 341 287 401 927 443 134 9 332 -95 475 -250z"/>
<path d="M18861 26803 c-682 -715 -705 -939 -99 -983 323 -24 434 -82 522
-275 152 -333 259 -309 509 116 144 243 182 399 116 478 -53 64 -111 363 -128
663 -42 744 -211 744 -920 1z m439 -397 c0 -118 -195 -244 -267 -173 -71 72
55 267 173 267 52 0 94 -42 94 -94z"/>
<path d="M13606 26057 c-95 -114 -78 -165 83 -251 112 -60 238 -103 282 -96
238 40 251 -36 34 -203 -209 -161 -226 -211 -113 -348 73 -87 217 -159 320
-159 104 0 188 -67 188 -150 0 -113 -122 -150 -500 -150 -564 0 -669 -171
-229 -375 329 -153 579 -159 840 -19 263 141 429 576 285 749 -62 74 -81 276
-44 472 47 250 20 387 -101 508 -205 204 -882 219 -1045 22z"/>
<path d="M23620 25680 c-66 -66 -120 -286 -120 -489 0 -388 115 -491 547 -491
128 0 257 -67 289 -148 83 -217 -266 -374 -571 -258 -193 74 -261 60 -308 -62
-95 -248 135 -432 540 -432 470 0 703 245 703 738 0 341 -35 388 -423 561
-437 196 -374 335 127 279 189 -22 253 24 278 197 29 207 -7 225 -455 225
-268 0 -541 -54 -607 -120z"/>
<path d="M6805 19783 c-912 -448 -1471 -1095 -1712 -1983 -142 -521 -136 -931
26 -1700 336 -1601 2187 -2727 3704 -2253 926 289 1433 659 1928 1403 254 384
534 1211 542 1607 8 370 -251 1282 -478 1684 -494 874 -1554 1481 -2665 1529
-617 26 -776 -8 -1345 -287z m2174 -158 c2002 -642 2589 -3180 1081 -4673
-884 -876 -2291 -1108 -3260 -540 -82 49 -244 130 -360 180 -115 50 -366 310
-558 577 -309 429 -388 605 -553 1231 -82 310 -43 1027 73 1333 381 1010 624
1328 1281 1670 814 424 1468 487 2296 222z"/>
<path d="M7650 18378 c-526 -187 -815 -458 -997 -935 -152 -397 -160 -525 -56
-879 242 -824 908 -1237 1794 -1115 364 50 560 146 785 384 869 918 548 2147
-666 2553 -398 134 -462 133 -860 -8z m1062 -839 c131 -119 188 -307 188 -622
0 -579 -206 -817 -707 -817 -540 0 -669 75 -796 459 -132 399 12 975 286 1142
224 138 797 48 1029 -162z"/>
<path d="M28600 18968 c-793 -275 -1352 -738 -1769 -1468 -290 -507 -471
-1406 -395 -1961 74 -541 501 -1539 658 -1539 59 0 106 -68 106 -150 0 -82 63
-150 139 -150 77 0 164 -63 193 -139 29 -77 349 -279 711 -450 1211 -573 2469
-373 3412 543 796 772 984 1212 982 2296 -1 740 -41 974 -226 1318 -329 614
-991 1266 -1561 1539 -580 277 -1686 356 -2250 161z m2200 -455 c566 -296
1096 -836 1333 -1359 254 -559 256 -1884 5 -2418 -284 -603 -1042 -1269 -1667
-1466 -1323 -417 -2462 -40 -3206 1061 -799 1184 -674 2631 313 3635 181 184
363 334 405 334 43 0 131 54 197 120 428 428 1879 480 2620 93z"/>
<path d="M28950 17427 c-576 -144 -1077 -1197 -904 -1901 249 -1014 1492
-1434 2404 -813 192 130 349 288 349 350 1 62 69 169 151 237 219 182 188 920
-57 1392 -325 622 -1147 933 -1943 735z m842 -690 c586 -118 795 -906 363
-1372 -306 -330 -814 -355 -1192 -58 -458 361 -315 1216 237 1421 211 79 238
79 592 9z"/>
<path d="M12025 17434 c-69 -28 -125 -164 -125 -303 0 -202 35 -238 175 -179
96 41 280 96 409 124 387 84 247 -385 -179 -598 -396 -198 -701 -623 -552
-770 142 -140 1073 -232 1237 -122 216 145 50 413 -262 422 -153 4 -216 32
-140 62 507 202 725 1109 319 1326 -200 107 -662 127 -882 38z"/>
<path d="M25071 16861 c-278 -240 -471 -706 -471 -1135 0 -330 344 -626 725
-624 469 2 599 124 610 574 12 442 -162 724 -447 724 -253 0 -240 205 17 272
232 61 227 360 -6 403 -82 15 -275 -81 -428 -214z m336 -865 c106 -56 193
-191 193 -300 0 -151 -68 -196 -300 -196 -267 0 -300 33 -300 300 0 319 94
364 407 196z"/>
<path d="M14910 13818 c-54 -100 -89 -494 -79 -875 17 -620 40 -693 219 -693
183 0 203 76 229 875 24 725 3 875 -122 875 -82 0 -194 -82 -247 -182z"/>
<path d="M20950 13600 c-107 -173 137 -386 482 -419 275 -27 313 -65 284 -281
-19 -137 -97 -320 -174 -407 -176 -197 -292 -751 -172 -824 152 -95 266 53
670 871 485 981 443 1098 -417 1140 -360 17 -633 -15 -673 -80z"/>
<path d="M12750 11607 c-423 -83 -1013 -359 -1230 -574 -71 -71 -206 -186
-300 -257 -210 -160 -364 -397 -627 -972 -309 -675 -287 -2025 43 -2674 262
-518 690 -1030 859 -1030 58 0 105 -43 105 -95 0 -53 214 -197 475 -320 678
-320 2079 -329 2725 -18 482 233 1100 754 1100 927 0 58 43 106 95 106 53 0
194 214 315 475 284 614 316 2103 56 2575 -90 165 -165 351 -165 414 -1 63
-69 141 -151 172 -82 32 -150 108 -150 169 0 190 -689 734 -1168 922 -536 211
-1421 291 -1982 180z m2038 -542 c459 -224 1112 -924 1112 -1192 0 -86 44
-171 98 -190 155 -52 304 -1039 236 -1560 -34 -260 -130 -608 -212 -773 -231
-462 -857 -1241 -1001 -1246 -70 -2 -248 -83 -395 -179 -205 -134 -479 -175
-1174 -175 -851 0 -937 20 -1410 323 -994 638 -1358 1291 -1358 2438 0 1422
786 2485 2066 2794 488 118 1564 -8 2038 -240z"/>
<path d="M12740 10819 c-939 -387 -1480 -1026 -1685 -1988 -120 -563 207
-1469 705 -1952 470 -455 1109 -765 1597 -773 330 -6 1198 259 1428 436 730
561 1197 1541 1066 2238 -193 1026 -872 1787 -1836 2058 -700 196 -757 195
-1275 -19z m1601 -1069 c238 -181 375 -409 504 -832 l176 -583 -254 -502
c-336 -663 -613 -833 -1356 -833 -545 0 -626 29 -929 336 -535 541 -582 632
-582 1115 0 557 188 946 623 1289 464 366 1346 370 1818 10z"/>
<path d="M22347 11115 c-710 -290 -1547 -988 -1547 -1290 0 -69 -41 -125 -91
-125 -98 0 -379 -857 -447 -1369 -57 -423 217 -1505 475 -1881 626 -912 1597
-1445 2634 -1448 539 -2 1629 278 1629 419 0 43 42 79 94 79 130 0 716 575
1019 1000 312 438 531 1344 465 1928 -91 802 -692 1795 -1435 2372 -611 475
-2017 633 -2796 315z m2166 -354 c591 -263 1340 -989 1443 -1401 37 -144 106
-287 155 -317 49 -30 89 -417 89 -860 0 -707 -37 -875 -308 -1383 -477 -896
-1748 -1656 -2561 -1532 -1035 157 -1864 576 -2205 1113 -94 148 -195 291
-224 319 -116 111 -402 1097 -402 1385 0 757 663 2028 1243 2379 977 594 1884
691 2770 297z"/>
<path d="M22539 10338 c-935 -331 -1461 -1112 -1474 -2188 -8 -743 133 -1121
627 -1674 618 -694 1881 -903 2808 -465 812 384 1369 1379 1274 2276 -173
1630 -1698 2597 -3235 2051z m1500 -819 c492 -264 629 -432 817 -1008 166
-508 165 -522 -69 -978 -352 -683 -625 -847 -1420 -852 -624 -3 -685 17 -1003
335 -788 788 -518 2175 495 2536 528 188 780 181 1180 -33z"/>
</g>
</svg>
