<?xml version="1.0" standalone="no"?>
<!DOCTYPE svg PUBLIC "-//W3C//DTD SVG 20010904//EN"
 "http://www.w3.org/TR/2001/REC-SVG-20010904/DTD/svg10.dtd">
<svg version="1.0" xmlns="http://www.w3.org/2000/svg"
 width="358.099595pt" height="359.571487pt" viewBox="0 0 358.099595 359.571487"
 preserveAspectRatio="xMidYMid meet">
<metadata>
Created by potrace 1.13, written by Peter Selinger 2001-2015
</metadata>
<g transform="translate(-6.091280,366.734138) scale(0.010000,-0.010000)"
fill="#000000" stroke="none">
<path d="M16800 36633 c-671 -48 -2100 -365 -2100 -466 0 -49 121 -58 269 -21
301 75 1596 235 2731 337 1186 107 4409 -165 4645 -392 52 -50 206 -91 341
-91 274 0 1192 -254 1679 -464 173 -75 347 -136 385 -136 38 0 234 -71 435
-157 772 -333 1070 -468 1215 -549 83 -46 352 -185 600 -308 504 -250 1033
-597 1083 -711 19 -41 88 -75 154 -75 66 0 276 -133 467 -296 190 -163 391
-298 446 -300 153 -7 1562 -1300 2250 -2063 961 -1068 1900 -2266 1900 -2425
0 -55 36 -114 81 -133 209 -86 1042 -1724 1555 -3058 906 -2352 1294 -4338
1297 -6625 2 -1108 -179 -2924 -343 -3450 -103 -330 -188 -679 -189 -775 -1
-173 -620 -2140 -795 -2525 -50 -110 -170 -425 -268 -700 -98 -275 -212 -524
-255 -554 -42 -29 -184 -254 -316 -500 -592 -1105 -837 -1497 -1401 -2238
-627 -827 -1473 -1771 -2059 -2299 -188 -170 -515 -478 -725 -684 -210 -206
-408 -375 -439 -375 -32 0 -126 -69 -211 -153 -167 -168 -1618 -1127 -2049
-1355 -928 -492 -1789 -892 -1919 -892 -84 0 -176 -38 -205 -85 -85 -138
-1809 -665 -3209 -982 -660 -150 -1228 -180 -3250 -174 -2129 6 -2588 36
-3500 229 -1131 238 -1564 358 -2078 574 -181 76 -393 138 -472 138 -79 0
-614 225 -1190 500 -576 275 -1091 500 -1145 500 -54 0 -113 34 -132 75 -18
41 -213 163 -433 271 -220 108 -564 322 -764 475 -201 154 -415 279 -475 279
-61 0 -111 44 -111 97 0 54 -133 167 -296 251 -434 224 -1270 1017 -3129 2968
-96 101 -175 229 -175 284 0 55 -38 100 -84 100 -46 0 -304 326 -575 725 -270
399 -513 748 -541 775 -144 144 -761 1350 -1408 2750 -170 369 -714 2095 -803
2550 -590 3017 -616 5290 -88 7900 211 1041 745 2786 901 2942 54 54 98 160
98 236 0 176 861 1913 1054 2126 80 89 146 196 146 237 0 88 867 1300 1125
1574 96 102 175 207 175 234 0 145 2406 2651 2545 2651 35 0 155 85 267 189
302 282 50 361 -281 89 -678 -555 -2831 -2782 -2831 -2927 0 -28 -79 -134
-175 -236 -324 -342 -525 -617 -525 -716 0 -55 -42 -99 -93 -99 -52 0 -122
-90 -157 -199 -35 -110 -116 -256 -182 -325 -65 -69 -222 -328 -348 -576 -127
-248 -313 -588 -413 -757 -242 -406 -907 -1946 -907 -2099 0 -67 -67 -250
-149 -408 -83 -157 -150 -372 -150 -477 -1 -105 -65 -420 -144 -700 -614
-2190 -731 -5824 -254 -7914 680 -2979 1765 -5447 3169 -7205 181 -226 328
-436 328 -467 0 -143 2710 -2973 2847 -2973 38 0 257 -152 486 -338 364 -295
1189 -854 1817 -1230 465 -278 2117 -1059 2637 -1247 310 -111 705 -266 878
-344 173 -77 386 -141 473 -141 87 0 328 -63 535 -140 961 -356 2212 -473
4677 -438 1478 21 2630 85 3000 165 1199 262 2512 639 3216 924 573 232 2788
1340 2910 1456 69 66 215 148 325 183 109 35 199 105 199 157 0 51 47 93 104
93 58 0 159 46 225 103 67 57 347 270 624 475 1076 795 2436 2143 3252 3222
270 358 537 704 593 771 56 66 102 147 102 179 0 60 407 662 507 750 31 28
159 264 284 524 124 261 262 497 306 524 44 28 110 208 146 401 36 193 98 351
138 351 85 0 419 743 419 932 0 71 66 217 147 324 81 107 148 271 150 366 2
94 65 319 142 500 223 529 561 1722 562 1985 1 134 73 446 159 693 125 357
158 915 159 2702 2 2372 -118 3430 -524 4623 -107 317 -195 654 -196 750 0 96
-67 304 -150 461 -82 158 -149 363 -149 457 0 94 -135 434 -300 757 -165 323
-300 659 -300 748 0 89 -44 206 -97 259 -54 54 -274 437 -488 852 -451 872
-644 1221 -715 1291 -28 27 -180 241 -339 475 -158 234 -327 425 -375 425 -47
0 -86 51 -86 114 0 234 -1095 1441 -2305 2540 -617 560 -2061 1646 -2189 1646
-58 0 -106 41 -106 90 0 50 -124 140 -275 201 -151 60 -410 197 -575 303 -336
216 -901 501 -1500 757 -220 94 -535 230 -700 303 -997 438 -2961 918 -4300
1051 -777 77 -3038 93 -3950 28z"/>
<path d="M13800 36095 c-137 -46 -520 -160 -850 -254 -330 -94 -689 -232 -797
-306 -109 -74 -257 -135 -330 -135 -166 0 -1661 -723 -1706 -825 -19 -41 -85
-75 -148 -75 -132 0 -2016 -1266 -2182 -1466 -170 -205 50 -162 340 66 140
110 304 200 364 200 60 0 109 42 109 93 0 52 98 125 218 163 120 38 397 198
615 356 218 159 454 288 524 288 69 0 141 34 160 75 45 103 1541 825 1708 825
74 0 180 45 236 101 55 55 323 162 595 238 963 269 1644 550 1644 678 0 99
-160 92 -500 -22z"/>
<path d="M14500 36050 c0 -27 23 -50 50 -50 28 0 50 23 50 50 0 28 -22 50 -50
50 -27 0 -50 -22 -50 -50z"/>
<path d="M18325 32164 c-124 -61 -225 -166 -225 -232 0 -181 202 -270 329
-143 125 125 536 150 603 36 87 -148 -123 -509 -336 -576 -338 -108 -596 -372
-596 -611 0 -185 66 -223 433 -253 239 -19 511 -20 606 -2 257 50 135 262
-172 299 -336 39 -339 145 -9 322 343 184 469 444 391 803 -101 458 -522 605
-1024 357z"/>
<path d="M17812 29429 c-186 -92 -467 -345 -625 -563 -247 -341 -287 -487
-286 -1056 0 -798 196 -1155 896 -1639 337 -233 1317 -230 1731 4 324 184 672
485 672 582 0 32 68 125 150 207 104 104 150 359 150 828 0 595 -37 729 -301
1093 -165 228 -348 415 -407 415 -58 0 -174 68 -256 150 -209 209 -1284 196
-1724 -21z m1745 -271 c63 -87 155 -159 204 -161 245 -9 475 -553 480 -1140 6
-666 -170 -1067 -617 -1400 -365 -272 -1354 -276 -1801 -8 -787 472 -944 1784
-294 2450 175 178 409 364 520 413 315 137 1374 29 1508 -154z"/>
<path d="M8703 23019 c-387 -188 -703 -467 -703 -619 0 -55 -43 -100 -95 -100
-123 0 -304 -650 -304 -1093 -1 -501 354 -1161 752 -1395 1326 -783 2947 36
2947 1488 0 1333 -1435 2283 -2597 1719z m1637 -397 c701 -489 942 -1279 595
-1952 -223 -434 -549 -766 -754 -768 -93 -1 -197 -47 -231 -102 -88 -142 -909
-124 -1176 25 -607 339 -974 895 -974 1475 0 458 436 1300 674 1300 56 0 158
68 226 150 84 102 306 149 687 147 447 -3 643 -60 953 -275z"/>
<path d="M26950 22631 c-164 -27 -322 -80 -350 -117 -27 -38 -171 -146 -320
-240 -401 -255 -630 -820 -623 -1532 6 -503 55 -670 282 -969 883 -1157 2537
-1004 3198 297 362 712 96 1752 -580 2268 -342 261 -1030 386 -1607 293z
m1041 -256 c375 -132 565 -285 840 -678 235 -336 229 -1354 -10 -1717 -434
-657 -723 -764 -1871 -692 -344 22 -900 625 -1041 1131 -104 370 -106 541 -8
847 132 412 654 1034 869 1034 71 0 130 45 130 100 0 140 666 125 1091 -25z"/>
<path d="M6011 22074 c-321 -167 -235 -331 154 -292 384 38 517 -129 239 -303
-261 -163 -263 -379 -4 -379 233 0 264 -222 56 -395 -109 -91 -195 -91 -360
-3 -272 146 -547 -46 -295 -205 293 -185 770 -149 1023 77 243 217 144 1198
-146 1451 -236 206 -346 214 -667 49z"/>
<path d="M30375 21086 c-206 -223 -375 -426 -375 -452 0 -27 -71 -119 -157
-206 -206 -205 -34 -324 470 -326 279 -2 376 -49 416 -202 70 -269 232 -252
426 43 121 186 134 291 52 444 -59 110 -107 405 -107 656 0 590 -206 602 -725
43z m425 -439 c0 -161 -266 -314 -369 -212 -71 71 155 365 281 365 49 0 88
-69 88 -153z"/>
<path d="M17900 11357 c-571 -136 -843 -316 -1157 -768 -204 -293 -251 -483
-255 -1024 -5 -596 27 -705 304 -1055 591 -746 1510 -1003 2293 -641 493 228
748 499 948 1008 213 545 211 921 -8 1395 -391 844 -1262 1290 -2125 1085z
m1350 -476 c399 -269 650 -787 650 -1340 0 -538 -182 -924 -604 -1279 -271
-228 -402 -262 -1007 -262 -526 0 -709 37 -753 150 -31 83 -109 150 -172 151
-165 1 -550 603 -625 979 -77 386 128 1206 358 1431 608 594 1428 659 2153
170z"/>
<path d="M18100 5950 c0 -665 31 -850 141 -850 101 0 151 163 175 575 47 798
-3 1125 -173 1125 -113 0 -143 -179 -143 -850z"/>
</g>
</svg>
