<?xml version="1.0" standalone="no"?>
<!DOCTYPE svg PUBLIC "-//W3C//DTD SVG 20010904//EN"
 "http://www.w3.org/TR/2001/REC-SVG-20010904/DTD/svg10.dtd">
<svg version="1.0" xmlns="http://www.w3.org/2000/svg"
 width="357.112424pt" height="359.723828pt" viewBox="0 0 357.112424 359.723828"
 preserveAspectRatio="xMidYMid meet">
<metadata>
Created by potrace 1.13, written by Peter Selinger 2001-2015
</metadata>
<g transform="translate(-3.935337,363.845277) scale(0.010000,-0.010000)"
fill="#000000" stroke="none">
<path d="M15894 36191 c-1594 -206 -2797 -488 -3659 -856 -173 -74 -363 -135
-421 -135 -157 0 -1601 -699 -1668 -807 -32 -51 -123 -93 -203 -93 -79 0 -331
-135 -559 -300 -228 -165 -470 -300 -538 -300 -69 0 -151 -67 -182 -150 -32
-82 -123 -150 -204 -150 -80 0 -205 -58 -278 -129 -73 -71 -537 -439 -1032
-819 -495 -380 -1102 -910 -1350 -1180 -247 -269 -623 -676 -835 -906 -212
-229 -523 -607 -692 -841 -169 -234 -344 -425 -390 -425 -46 0 -83 -50 -83
-111 0 -60 -124 -274 -275 -475 -285 -378 -396 -557 -808 -1314 -654 -1201
-1174 -2395 -1370 -3150 -72 -275 -222 -837 -334 -1250 -541 -1992 -768 -4766
-519 -6350 240 -1525 725 -3514 1073 -4400 86 -220 192 -490 235 -600 263
-669 1350 -2766 1509 -2910 104 -94 189 -227 189 -295 0 -68 68 -150 150 -181
83 -32 150 -125 150 -207 0 -83 124 -278 275 -434 151 -156 530 -596 841 -978
545 -669 1939 -2045 2072 -2045 35 0 179 -106 319 -236 693 -643 2934 -1970
4343 -2573 573 -245 2294 -740 3250 -934 966 -197 2651 -320 2569 -187 -33 53
-230 104 -437 111 -1452 55 -3665 568 -5282 1224 -616 250 -1952 915 -2266
1128 -200 136 -458 277 -574 314 -115 36 -210 108 -210 160 0 51 -64 93 -142
93 -78 0 -156 34 -175 75 -43 97 -651 524 -754 529 -43 3 -189 138 -324 300
-135 163 -284 296 -331 296 -47 0 -525 439 -1062 975 -920 918 -1881 2113
-2346 2918 -114 196 -232 380 -262 407 -101 93 -296 448 -660 1200 -733 1517
-944 1999 -944 2154 0 88 -48 249 -107 360 -295 550 -690 2546 -829 4186 -120
1419 -49 3583 145 4400 59 248 142 675 184 950 95 614 301 1442 416 1668 46
93 180 453 296 800 414 1237 1959 4082 2215 4082 44 0 80 45 80 99 0 177 794
1160 1650 2041 622 641 2090 1860 2239 1860 61 0 111 40 111 89 0 48 326 283
725 521 399 239 748 458 775 487 99 107 1553 804 1675 803 69 0 125 40 125 89
0 48 124 111 275 139 151 27 568 161 925 296 357 136 1010 325 1450 420 440
95 977 218 1193 274 1186 305 4600 289 6157 -29 1817 -372 3271 -803 3969
-1177 99 -53 496 -246 881 -429 385 -183 759 -389 832 -458 73 -69 174 -125
224 -125 186 0 2394 -1587 2394 -1721 0 -44 68 -79 150 -79 83 0 150 -67 150
-150 0 -82 45 -150 100 -150 98 0 439 -330 1250 -1211 762 -827 1573 -1946
2420 -3341 126 -207 436 -853 695 -1448 84 -192 216 -477 294 -633 77 -156
141 -383 141 -505 0 -122 41 -265 90 -317 141 -148 533 -1696 708 -2795 145
-909 291 -2720 254 -3133 -19 -202 -63 -817 -98 -1367 -100 -1554 -455 -3386
-817 -4215 -75 -173 -137 -347 -137 -385 0 -38 -71 -234 -158 -435 -87 -201
-222 -513 -300 -693 -78 -181 -142 -395 -142 -475 0 -81 -34 -147 -76 -147
-42 0 -188 -236 -323 -525 -269 -574 -1127 -1889 -1357 -2080 -79 -66 -144
-181 -144 -257 0 -76 -37 -138 -83 -138 -46 0 -236 -214 -422 -475 -443 -621
-2467 -2625 -2652 -2625 -79 0 -143 -35 -143 -79 0 -97 -960 -821 -1089 -821
-52 0 -109 -34 -128 -75 -51 -115 -1163 -764 -1833 -1070 -330 -150 -780 -355
-1000 -456 -220 -100 -647 -261 -950 -358 -302 -96 -692 -235 -865 -308 -173
-73 -407 -133 -519 -133 -111 0 -323 -46 -471 -102 -293 -111 -1399 -272
-2492 -363 -384 -32 -789 -98 -900 -148 -327 -144 2223 15 2739 172 252 76
559 139 683 140 124 1 709 159 1300 353 1086 355 1358 460 1840 710 146 76
338 138 425 138 88 0 160 45 160 100 0 55 42 100 93 100 139 0 517 176 857
400 165 108 405 243 533 299 282 124 1554 1017 1600 1124 19 42 73 77 121 77
163 0 2693 2424 2698 2585 1 36 161 245 356 465 195 220 588 761 873 1202 692
1070 726 1127 986 1648 124 248 276 518 340 600 63 83 141 240 173 350 32 110
222 650 423 1200 201 550 403 1211 449 1468 46 258 126 550 177 650 52 100
120 362 152 582 31 220 106 670 166 1000 60 330 108 1478 108 2550 -2 1979
-123 3019 -550 4700 -168 662 -203 762 -491 1428 -90 209 -164 427 -164 485 0
112 -254 731 -405 987 -49 83 -180 352 -291 600 -111 248 -248 518 -304 600
-57 83 -152 274 -211 425 -60 151 -149 275 -199 275 -49 0 -90 50 -90 111 0
60 -135 281 -300 489 -165 208 -300 406 -300 439 0 34 -79 151 -175 261 -96
110 -254 290 -350 400 -96 110 -175 220 -175 244 0 155 -1770 1937 -2564 2581
-322 261 -640 520 -707 575 -66 55 -164 100 -216 100 -53 0 -111 34 -130 75
-30 68 -837 612 -1333 899 -328 189 -1464 726 -2000 944 -275 112 -635 262
-800 332 -515 221 -2339 663 -3714 900 -1147 198 -2928 176 -4742 -59z"/>
<path d="M17622 31744 c-271 -190 -309 -502 -47 -391 641 272 871 -190 285
-573 -449 -294 -662 -655 -459 -781 130 -80 1091 -40 1181 49 103 103 -126
252 -388 252 -162 0 -294 45 -294 100 0 55 66 100 146 100 220 0 554 406 554
674 0 237 -432 726 -642 726 -63 0 -214 -70 -336 -156z"/>
<path d="M17036 29115 c-633 -459 -784 -760 -785 -1565 -1 -780 179 -1144 778
-1571 263 -188 448 -228 1025 -225 618 3 750 39 1082 292 446 340 787 959 800
1452 9 340 -292 1092 -561 1402 -268 309 -791 500 -1368 500 -476 0 -646 -50
-971 -285z m1629 -21 c152 -58 420 -266 595 -462 778 -875 385 -2303 -725
-2634 -536 -160 -1011 -66 -1515 299 -341 247 -422 378 -528 848 -100 450 -99
631 7 953 137 413 635 946 962 1030 347 89 923 73 1204 -34z"/>
<path d="M26425 22767 c-1110 -403 -1507 -1948 -754 -2936 846 -1109 2531
-931 3124 330 256 545 274 919 71 1480 -357 988 -1442 1488 -2441 1126z m1243
-218 c427 -178 742 -478 968 -919 317 -618 176 -1249 -412 -1855 -353 -364
-386 -375 -1069 -375 -657 1 -729 23 -1063 330 -313 288 -682 970 -525 970 32
0 6 62 -57 139 -88 105 -77 254 48 625 192 572 371 796 787 982 665 297 828
310 1323 103z"/>
<path d="M8300 22250 c-68 -82 -164 -150 -212 -150 -132 0 -458 -352 -624
-673 -263 -508 -292 -948 -96 -1433 262 -647 422 -828 963 -1087 969 -465
2116 -37 2525 942 358 856 21 1887 -777 2382 -361 224 -1598 237 -1779 19z
m1811 -358 c339 -241 685 -893 685 -1292 0 -342 -319 -1005 -608 -1263 -758
-678 -1903 -476 -2509 443 -188 286 -259 1420 -89 1420 50 0 135 128 190 284
64 186 250 362 534 506 548 280 1327 237 1797 -98z"/>
<path d="M29847 21196 c-555 -721 -536 -896 100 -896 336 0 453 -39 453 -150
0 -251 286 -168 438 127 123 238 124 304 3 469 -78 106 -141 315 -141 465 0
767 -255 763 -853 -15z m553 -296 c0 -110 -19 -200 -42 -200 -23 0 -113 -27
-200 -61 -189 -72 -209 112 -33 311 176 201 275 183 275 -50z"/>
<path d="M5617 21195 c-355 -144 -213 -348 216 -311 281 24 367 -6 367 -126 0
-87 -67 -158 -150 -158 -223 0 -181 -310 50 -371 212 -55 251 -195 114 -410
-53 -84 -176 -107 -343 -65 -375 94 -536 -40 -271 -225 275 -193 762 -103
1013 186 218 251 227 305 73 459 -62 62 -124 298 -137 523 -13 226 -40 426
-61 445 -111 101 -669 135 -871 53z"/>
<path d="M17350 20037 c-538 -349 -736 -635 -848 -1228 -235 -1238 547 -2213
1769 -2206 464 3 657 58 969 275 667 464 810 738 810 1554 0 634 -33 761 -283
1088 -623 814 -1628 1029 -2417 517z m1847 -235 c341 -242 558 -640 651 -1189
79 -466 -180 -1122 -597 -1513 -234 -219 -357 -250 -987 -250 -601 0 -768 38
-1016 233 -622 487 -812 1308 -470 2028 186 390 651 831 972 921 371 103 1153
-21 1447 -230z"/>
<path d="M17775 15625 c-57 -451 69 -643 372 -567 265 67 572 -192 488 -411
-36 -95 -195 -147 -446 -147 -279 0 -389 -42 -389 -150 0 -111 116 -150 444
-150 465 0 756 236 756 615 0 209 -459 585 -713 585 -103 0 -187 68 -187 150
0 105 106 150 350 150 244 0 350 45 350 150 0 113 -121 150 -489 150 l-489 0
-47 -375z"/>
<path d="M17750 10934 c-433 -228 -850 -643 -850 -847 0 -96 -50 -206 -111
-244 -69 -43 -95 -287 -69 -648 90 -1251 1158 -2024 2353 -1702 508 136 1127
758 1278 1283 220 761 -156 1687 -872 2149 -347 223 -1312 228 -1729 9z m1363
-76 c566 -238 1187 -1053 1187 -1559 0 -309 -351 -1019 -618 -1249 -663 -572
-1634 -582 -2282 -24 -432 372 -633 1312 -408 1904 157 413 605 815 1041 935
570 158 691 157 1080 -7z"/>
<path d="M18400 5606 c0 -730 82 -990 275 -872 41 26 60 411 42 856 -25 619
-66 810 -175 810 -111 0 -142 -174 -142 -794z"/>
<path d="M17681 432 c72 -29 159 -26 192 8 33 33 -26 56 -131 52 -117 -5 -141
-28 -61 -60z"/>
<path d="M18125 431 c96 -25 254 -25 350 0 96 25 18 46 -175 46 -192 0 -271
-21 -175 -46z"/>
</g>
</svg>
