<?xml version="1.0" standalone="no"?>
<!DOCTYPE svg PUBLIC "-//W3C//DTD SVG 20010904//EN"
 "http://www.w3.org/TR/2001/REC-SVG-20010904/DTD/svg10.dtd">
<svg version="1.0" xmlns="http://www.w3.org/2000/svg"
 width="89.183687pt" height="89.090547pt" viewBox="0 0 89.183687 89.090547"
 preserveAspectRatio="xMidYMid meet">
<metadata>
Created by potrace 1.13, written by Peter Selinger 2001-2015
</metadata>
<g transform="translate(-9.201069,96.847820) scale(0.010000,-0.010000)"
fill="#000000" stroke="none">
<path d="M4064 9554 c-158 -85 -354 -154 -436 -154 -82 0 -349 -135 -594 -300
-244 -165 -464 -300 -489 -300 -88 0 -445 -402 -445 -500 0 -55 -41 -100 -91
-100 -143 0 -736 -1000 -890 -1500 -241 -784 -268 -2153 -55 -2819 102 -320
214 -581 249 -581 34 0 119 -135 187 -300 68 -165 164 -300 212 -300 48 0 88
-46 88 -103 0 -225 984 -1082 1550 -1350 795 -376 1914 -556 2700 -433 677
106 1434 364 1632 557 73 71 163 129 200 129 240 0 1518 1518 1518 1802 0 58
63 205 140 327 298 470 391 1691 195 2571 -322 1448 -1139 2499 -2435 3130
-597 291 -745 319 -1800 347 -889 24 -1215 -4 -1436 -123z m3011 -362 c289
-132 525 -275 525 -316 0 -42 57 -76 128 -76 70 0 199 -79 287 -175 88 -96
301 -303 473 -458 171 -156 312 -348 312 -425 0 -78 37 -142 81 -142 118 0
519 -960 519 -1242 0 -229 -24 -238 -512 -190 -356 36 -491 18 -444 -59 37
-60 174 -109 304 -109 130 0 371 -78 537 -173 257 -148 293 -216 245 -475
-110 -604 -288 -681 -1649 -717 -677 -17 -1492 -5 -1811 27 l-579 59 161 246
c192 292 119 778 -133 893 -212 97 698 211 1881 236 540 12 777 47 650 98
-213 85 -5576 46 -6375 -46 -261 -30 -475 -20 -475 24 -1 128 343 1074 410
1128 34 28 131 185 216 350 187 365 626 850 769 850 58 0 105 46 105 102 0 56
124 157 275 223 151 67 298 146 325 176 82 90 831 388 1100 438 138 25 678 34
1200 20 754 -21 1058 -76 1475 -267z m-4729 -3285 c31 -51 12 -121 -44 -156
-154 -95 -122 -578 54 -829 154 -220 152 -222 -325 -219 -265 2 -560 63 -656
136 -179 136 -234 614 -96 831 163 255 948 430 1067 237z m2599 -152 c-312
-313 -308 -464 19 -791 l263 -264 -855 0 c-471 0 -916 -22 -989 -49 -73 -27
-200 -6 -282 46 -119 75 -124 120 -25 219 166 166 157 493 -22 749 -81 115
-119 237 -84 272 35 35 549 63 1142 63 l1079 0 -246 -245z m-1974 -418 c49
-146 -202 -241 -368 -139 -71 44 -96 132 -56 196 86 140 371 102 424 -57z
m2429 69 c0 -118 -195 -244 -267 -173 -71 72 55 267 173 267 52 0 94 -42 94
-94z m-3879 -961 c86 -85 7290 -87 7664 -1 l335 76 -70 -335 c-38 -184 -133
-435 -210 -556 -77 -122 -140 -275 -140 -340 0 -255 -1139 -1489 -1374 -1489
-69 0 -126 -42 -126 -93 0 -243 -1403 -708 -2130 -705 -678 3 -1719 264 -2159
541 -224 141 -428 257 -454 257 -26 0 -263 218 -527 485 -522 527 -794 982
-893 1492 -34 180 -102 351 -150 381 -137 84 -102 342 46 342 74 0 158 -25
188 -55z"/>
<path d="M7600 5918 c0 -152 291 -418 457 -418 176 0 191 -267 18 -325 -204
-69 -475 38 -475 187 0 76 -45 138 -100 138 -139 0 -125 -335 20 -480 66 -66
247 -120 402 -120 383 0 550 398 316 755 -89 135 -197 245 -241 245 -44 0
-152 27 -239 61 -87 33 -158 14 -158 -43z"/>
</g>
</svg>
