<?xml version="1.0" standalone="no"?>
<!DOCTYPE svg PUBLIC "-//W3C//DTD SVG 20010904//EN"
 "http://www.w3.org/TR/2001/REC-SVG-20010904/DTD/svg10.dtd">
<svg version="1.0" xmlns="http://www.w3.org/2000/svg"
 width="228.681252pt" height="230.557675pt" viewBox="0 0 228.681252 230.557675"
 preserveAspectRatio="xMidYMid meet">
<metadata>
Created by potrace 1.13, written by Peter Selinger 2001-2015
</metadata>
<g transform="translate(-10.031163,238.396408) scale(0.010000,-0.010000)"
fill="#000000" stroke="none">
<path d="M11350 23797 c-1602 -221 -1822 -276 -3100 -769 -692 -267 -1850
-858 -1850 -945 0 -46 -67 -83 -150 -83 -82 0 -150 -40 -150 -88 0 -48 -135
-144 -300 -212 -165 -68 -300 -164 -300 -212 0 -48 -67 -88 -150 -88 -82 0
-150 -67 -150 -150 0 -82 -63 -150 -140 -150 -77 0 -403 -296 -725 -658 -322
-361 -752 -845 -956 -1075 -205 -229 -429 -529 -499 -667 -70 -137 -251 -457
-404 -711 -152 -254 -276 -535 -276 -625 0 -90 -34 -164 -76 -164 -127 0 -724
-1606 -724 -1948 0 -85 -42 -233 -93 -328 -150 -281 -307 -1547 -304 -2443 5
-1392 328 -3226 745 -4231 361 -869 1125 -2273 1271 -2333 45 -19 81 -97 81
-175 0 -78 34 -142 75 -143 41 0 188 -169 325 -375 350 -524 1970 -2124 2151
-2124 82 0 149 -38 149 -85 0 -148 1612 -1115 1859 -1115 64 0 173 -67 241
-150 68 -83 204 -150 301 -150 97 0 305 -67 463 -149 157 -83 376 -152 486
-154 110 -2 313 -68 450 -147 138 -79 408 -145 601 -146 193 -2 508 -49 700
-105 700 -201 2892 -129 4172 139 778 162 2477 798 2735 1024 87 76 193 138
235 138 43 0 278 135 523 300 244 165 487 300 539 300 52 0 95 37 95 83 0 46
199 226 442 400 243 175 556 441 696 592 1108 1196 1359 1490 1360 1592 1 64
36 131 77 150 111 49 747 1140 1098 1883 539 1143 913 2562 984 3733 90 1484
-258 4408 -560 4710 -54 54 -97 174 -97 269 0 94 -65 299 -144 455 -79 156
-221 463 -315 683 -165 386 -1125 1910 -1371 2175 -66 72 -345 376 -620 677
-275 302 -725 725 -1000 942 -275 217 -515 430 -533 475 -19 45 -77 81 -129
81 -86 0 -661 368 -788 503 -52 56 -1229 627 -1750 849 -630 269 -1323 468
-1929 553 -346 48 -664 110 -706 136 -156 96 -1984 136 -2565 56z m3400 -414
c275 -87 836 -260 1246 -383 787 -237 2022 -845 2376 -1168 71 -66 219 -147
329 -182 109 -35 199 -105 199 -157 0 -51 41 -93 92 -93 167 0 1313 -1056
2065 -1904 352 -396 1116 -1579 1355 -2096 474 -1028 668 -1558 795 -2176 48
-235 129 -505 179 -600 98 -187 214 -1194 257 -2231 29 -689 -168 -2387 -352
-3043 -314 -1118 -1090 -2827 -1466 -3230 -69 -74 -125 -173 -125 -220 0 -47
-56 -145 -125 -218 -69 -73 -305 -357 -525 -632 -491 -614 -964 -1087 -1608
-1604 -271 -218 -514 -420 -542 -448 -242 -253 -2201 -1266 -2700 -1396 -2069
-540 -2443 -602 -3584 -596 -641 3 -1368 44 -1616 91 -247 46 -717 133 -1043
191 -326 59 -638 153 -695 210 -56 56 -202 102 -324 102 -122 0 -349 64 -505
141 -156 78 -462 224 -681 325 -959 442 -2091 1220 -2907 1998 -488 466 -1445
1573 -1445 1673 0 39 -92 170 -204 291 -245 262 -1396 2590 -1396 2822 0 90
-43 243 -95 340 -286 535 -515 3296 -361 4360 137 950 253 1556 384 2000 194
656 562 1575 679 1695 51 52 93 151 93 220 0 69 135 325 300 569 165 245 300
476 300 513 0 138 933 1275 1564 1905 1612 1613 3707 2633 6336 3086 623 108
3267 -2 3750 -155z"/>
<path d="M12015 20844 c-228 -251 -415 -495 -415 -542 0 -47 -51 -102 -113
-123 -69 -23 -86 -125 -44 -258 57 -180 146 -221 473 -221 319 0 414 -42 455
-200 29 -110 127 -200 219 -200 206 0 448 584 310 750 -52 63 -121 334 -154
602 -96 806 -157 822 -731 192z m198 -671 c-167 -167 -261 -1 -106 186 94 112
148 126 176 43 22 -66 -10 -169 -70 -229z"/>
<path d="M11866 18772 c-708 -608 107 -1840 881 -1333 346 227 481 528 409
912 -115 613 -805 838 -1290 421z m877 -229 c313 -313 93 -948 -325 -940 -436
8 -706 669 -398 977 168 168 536 149 723 -37z"/>
<path d="M17862 18471 c-129 -94 -168 -236 -144 -525 31 -389 39 -397 463
-427 379 -27 428 -58 400 -250 -25 -180 -97 -219 -397 -219 -201 0 -398 -33
-439 -73 -138 -136 179 -377 492 -374 815 8 1039 950 299 1259 -396 166 -360
338 70 338 227 0 294 45 294 200 0 169 -67 200 -431 200 -237 0 -510 -58 -607
-129z"/>
<path d="M6125 18288 c-429 -124 -459 -440 -34 -355 355 71 505 -174 205 -335
-257 -138 -252 -398 7 -398 245 0 381 -287 191 -404 -74 -45 -260 -58 -414
-27 -216 43 -280 18 -280 -109 0 -377 779 -397 1085 -28 185 222 46 1297 -201
1562 -106 113 -201 202 -213 197 -12 -5 -167 -51 -346 -103z"/>
<path d="M7761 17285 c-101 -118 -207 -384 -235 -592 -42 -315 -5 -423 219
-648 229 -228 331 -261 664 -216 529 70 812 401 746 871 -95 682 -990 1058
-1394 585z m934 -329 c287 -306 220 -672 -155 -842 -217 -99 -307 -93 -502 35
-355 232 -316 834 62 978 270 103 362 76 595 -171z"/>
<path d="M16231 17253 c-542 -235 -581 -1066 -67 -1403 178 -117 360 -149 594
-105 771 144 885 1160 174 1539 -270 143 -305 142 -701 -31z m701 -297 c288
-219 192 -777 -154 -897 -215 -76 -314 -57 -475 88 -525 475 66 1235 629 809z"/>
<path d="M19861 13355 c-317 -309 -361 -410 -361 -838 0 -586 204 -817 721
-817 268 0 396 61 517 246 180 275 216 654 62 654 -55 0 -100 63 -100 140 0
77 -146 196 -325 264 -228 87 -275 136 -159 166 226 56 302 290 139 425 -101
85 -217 28 -494 -240z m575 -905 c74 -193 -25 -451 -172 -447 -192 6 -464 259
-464 433 0 214 555 227 636 14z"/>
<path d="M17940 13317 c-299 -249 -484 -849 -336 -1087 207 -331 577 -441 955
-283 518 217 589 905 138 1356 -241 241 -480 246 -757 14z m577 -342 c263
-212 293 -465 81 -677 -265 -265 -460 -249 -657 52 -152 232 -152 268 0 500
182 277 343 312 576 125z"/>
<path d="M4067 13133 c-37 -36 -67 -127 -67 -201 0 -100 99 -119 385 -73 300
48 399 26 447 -99 95 -248 -2 -391 -434 -638 -295 -169 -398 -292 -398 -475 0
-235 29 -247 600 -247 467 0 600 33 600 150 0 90 -93 150 -233 150 -364 0
-381 101 -61 370 316 266 405 779 174 1010 -126 126 -899 167 -1013 53z"/>
<path d="M6055 12645 c-332 -331 -322 -593 37 -953 330 -329 601 -366 962
-130 197 129 246 245 246 584 0 745 -714 1031 -1245 499z m992 -236 c34 -106
32 -308 -4 -450 -51 -203 -126 -259 -352 -259 -393 0 -661 391 -473 692 174
279 742 290 829 17z"/>
<path d="M16004 8654 c-183 -194 -217 -313 -166 -568 129 -644 658 -882 1131
-509 322 255 371 615 135 998 -259 418 -749 453 -1100 79z m876 -174 c290
-290 31 -780 -412 -780 -270 0 -428 354 -315 709 69 219 533 265 727 71z"/>
<path d="M8504 8627 c-135 -26 -303 -121 -372 -212 -150 -197 -174 -715 -32
-715 55 0 100 -67 100 -150 0 -82 87 -150 194 -150 107 0 221 -43 253 -96 61
-99 240 -64 628 122 339 162 316 788 -38 1067 -268 210 -297 215 -733 134z
m579 -314 c219 -139 105 -658 -153 -694 -332 -47 -630 155 -630 427 0 298 477
461 783 267z"/>
<path d="M17700 7550 c0 -111 117 -150 450 -150 386 0 450 -29 450 -204 0
-111 -64 -303 -143 -425 -211 -328 -320 -1009 -153 -953 73 24 165 109 206
188 152 298 390 877 390 951 0 43 69 153 152 246 84 92 124 242 90 333 -89
230 -1442 244 -1442 14z"/>
<path d="M7300 6500 c0 -733 28 -900 150 -900 122 0 150 167 150 900 0 733
-28 900 -150 900 -122 0 -150 -167 -150 -900z"/>
<path d="M10900 2550 c0 -27 23 -50 50 -50 28 0 50 23 50 50 0 28 -22 50 -50
50 -27 0 -50 -22 -50 -50z"/>
</g>
</svg>
