<?xml version="1.0" standalone="no"?>
<!DOCTYPE svg PUBLIC "-//W3C//DTD SVG 20010904//EN"
 "http://www.w3.org/TR/2001/REC-SVG-20010904/DTD/svg10.dtd">
<svg version="1.0" xmlns="http://www.w3.org/2000/svg"
 width="354.257351pt" height="353.498569pt" viewBox="0 0 354.257351 353.498569"
 preserveAspectRatio="xMidYMid meet">
<metadata>
Created by potrace 1.13, written by Peter Selinger 2001-2015
</metadata>
<g transform="translate(-5.140023,357.376345) scale(0.010000,-0.010000)"
fill="#000000" stroke="none">
<path d="M16450 35605 c-825 -100 -1627 -232 -1782 -293 -154 -62 -385 -112
-513 -112 -315 0 -2268 -593 -2633 -799 -94 -54 -532 -262 -972 -462 -440
-201 -822 -393 -850 -427 -27 -34 -259 -164 -514 -289 -255 -124 -520 -293
-587 -375 -68 -81 -185 -148 -261 -148 -76 0 -138 -41 -138 -90 0 -50 -214
-215 -475 -367 -261 -152 -574 -381 -695 -509 -121 -129 -245 -234 -274 -234
-108 0 -1956 -1876 -1956 -1986 0 -63 -37 -114 -82 -114 -83 0 -1320 -1621
-1450 -1900 -39 -82 -158 -285 -265 -450 -185 -285 -769 -1452 -1051 -2100
-366 -843 -452 -1067 -452 -1172 0 -63 -83 -298 -184 -521 -215 -477 -415
-1205 -521 -1907 -42 -275 -125 -792 -184 -1150 -222 -1349 -39 -4845 307
-5850 57 -165 138 -480 181 -700 230 -1180 1914 -4915 2361 -5234 50 -36 176
-227 280 -424 103 -197 327 -518 499 -713 171 -195 559 -638 861 -984 499
-570 871 -940 1750 -1744 165 -150 593 -482 950 -736 358 -253 665 -496 683
-538 19 -42 76 -77 127 -77 52 0 284 -123 517 -273 643 -415 803 -509 1053
-622 126 -57 486 -219 800 -361 313 -141 638 -292 720 -335 83 -43 623 -223
1200 -400 578 -177 1153 -364 1280 -415 126 -52 374 -94 550 -95 176 -1 545
-70 820 -154 384 -118 1023 -154 2750 -157 1238 -2 2363 38 2500 90 138 52
475 126 750 164 610 84 2471 632 3115 918 173 77 347 140 385 140 81 0 731
276 950 404 83 48 375 198 650 334 275 135 671 362 879 504 209 142 399 258
423 258 85 0 1501 1050 1718 1273 121 125 242 227 269 227 57 0 1661 1594
1661 1650 0 22 160 210 355 419 398 427 1845 2549 1845 2705 0 56 68 158 150
226 83 68 150 209 150 312 0 104 44 188 98 188 54 0 128 124 164 275 36 151
101 320 144 376 102 131 282 637 891 2499 53 165 197 773 319 1350 190 901
221 1369 224 3300 2 1509 -41 2448 -130 2850 -73 330 -167 803 -210 1050 -42
248 -123 585 -180 750 -56 165 -183 570 -281 900 -97 330 -236 689 -308 797
-72 109 -131 260 -131 336 0 75 -231 594 -514 1152 -766 1513 -778 1534 -938
1667 -81 67 -148 184 -148 260 0 76 -42 138 -93 138 -52 0 -119 79 -150 175
-30 96 -202 340 -381 541 -179 202 -574 668 -876 1036 -302 368 -955 1033
-1450 1476 -495 444 -915 845 -933 890 -19 45 -94 82 -167 82 -73 0 -148 36
-167 80 -18 45 -393 326 -833 626 -1281 874 -3187 1748 -4850 2225 -889 256
-1811 457 -2400 525 -302 35 -617 76 -700 91 -733 136 -2334 117 -3650 -42z
m3800 -311 c1356 -156 3093 -546 3815 -858 173 -75 359 -136 413 -136 166 0
1998 -839 2467 -1129 107 -67 411 -267 674 -446 263 -179 502 -325 530 -325
28 0 130 -70 226 -155 96 -86 443 -367 772 -625 612 -482 2453 -2259 2453
-2369 0 -33 101 -160 225 -281 422 -413 1567 -2139 2031 -3061 464 -923 844
-1809 844 -1968 0 -74 63 -282 141 -463 77 -180 208 -598 291 -928 512 -2046
510 -2022 511 -4450 1 -2725 -112 -3476 -855 -5700 -119 -357 -274 -807 -344
-1000 -181 -494 -963 -2024 -1116 -2182 -70 -73 -250 -343 -399 -600 -149
-257 -307 -483 -350 -501 -44 -19 -79 -97 -79 -175 0 -78 -67 -142 -150 -142
-82 0 -150 -59 -150 -130 0 -315 -1359 -1816 -2550 -2816 -385 -324 -715 -626
-733 -671 -19 -46 -74 -83 -124 -83 -50 0 -350 -193 -667 -429 -317 -235 -755
-517 -974 -625 -220 -108 -459 -252 -533 -321 -73 -69 -191 -125 -261 -125
-71 0 -345 -115 -611 -257 -532 -283 -907 -426 -2097 -804 -440 -139 -903
-295 -1030 -346 -126 -51 -351 -93 -500 -94 -148 -1 -495 -73 -770 -161 -368
-118 -1077 -174 -2682 -212 -1978 -48 -2292 -31 -3350 172 -642 123 -1280 270
-1418 327 -137 56 -407 137 -600 179 -434 95 -966 281 -1315 460 -146 75 -320
136 -386 136 -134 0 -2117 977 -2198 1082 -28 38 -208 155 -401 261 -412 226
-1901 1326 -2061 1522 -61 74 -138 135 -172 135 -149 0 -1717 1676 -2289 2448
-205 276 -418 556 -475 623 -57 66 -103 167 -103 225 0 57 -42 104 -93 104
-52 0 -122 90 -157 199 -35 110 -116 257 -182 326 -323 344 -1668 3102 -1668
3422 0 80 -63 294 -139 475 -666 1568 -1086 5639 -752 7289 60 297 144 809
187 1139 80 616 651 2588 955 3300 388 909 753 1641 848 1699 55 35 101 129
101 210 0 177 1007 1741 1120 1741 44 0 80 48 80 107 0 491 3258 3571 4498
4252 192 105 405 243 474 307 68 64 474 289 901 500 428 211 800 411 827 444
28 34 218 116 424 183 205 67 399 163 431 214 31 51 164 93 295 93 131 0 264
41 295 92 31 50 270 140 531 200 261 59 789 197 1174 306 1106 313 3684 609
4700 540 330 -23 1005 -88 1500 -144z"/>
<path d="M16600 32998 c-1271 -213 -2024 -382 -2118 -476 -157 -157 -5 -334
198 -230 764 393 4495 548 6120 254 943 -170 1780 -393 2278 -606 181 -77 384
-140 451 -140 132 0 2189 -986 2271 -1089 27 -35 224 -152 436 -262 212 -109
408 -255 436 -324 27 -69 94 -125 149 -125 280 0 2029 -1608 2792 -2568 1565
-1966 2375 -3619 3033 -6182 194 -757 389 -2500 375 -3350 -13 -778 -198
-2393 -337 -2950 -55 -220 -137 -580 -181 -800 -45 -220 -180 -647 -300 -950
-120 -302 -256 -673 -303 -822 -95 -306 -564 -1247 -886 -1778 -117 -192 -244
-417 -283 -500 -39 -82 -108 -195 -152 -250 -45 -55 -238 -310 -428 -566 -649
-873 -2178 -2484 -2358 -2484 -51 0 -93 -42 -93 -93 0 -139 -1828 -1314 -2800
-1800 -2450 -1225 -4858 -1677 -7900 -1484 -1340 85 -2940 432 -3900 846 -193
83 -485 208 -650 278 -989 418 -2595 1323 -2952 1662 -81 77 -305 259 -498
404 -569 427 -1961 1832 -2255 2276 -149 226 -311 411 -358 411 -48 0 -87 64
-87 142 0 78 -34 156 -75 175 -106 47 -444 563 -677 1033 -109 220 -254 436
-323 480 -69 44 -125 130 -125 190 0 61 -110 343 -244 626 -387 818 -777 1968
-952 2804 -45 220 -141 670 -212 1000 -161 754 -160 4102 2 4800 64 275 158
703 207 950 114 566 554 1901 783 2376 551 1145 796 1592 1242 2266 288 436
569 862 624 948 125 194 2121 2197 2427 2435 124 96 270 175 324 175 55 0 99
39 99 86 0 89 1067 814 1199 814 42 0 130 65 196 144 65 79 251 172 412 208
161 35 293 95 293 134 0 100 526 321 1896 797 876 304 1137 517 635 517 -500
0 -3125 -1154 -3129 -1375 -1 -69 -106 -125 -234 -125 -128 0 -409 -134 -625
-297 -216 -164 -449 -299 -518 -300 -69 -2 -125 -42 -125 -90 0 -47 -169 -200
-375 -339 -206 -138 -532 -396 -725 -572 -192 -176 -417 -373 -500 -437 -150
-116 -830 -861 -1295 -1419 -416 -499 -1105 -1518 -1105 -1635 0 -61 -42 -111
-93 -111 -52 0 -124 -97 -162 -215 -37 -119 -198 -436 -357 -705 -158 -269
-288 -568 -288 -664 0 -97 -42 -219 -93 -271 -184 -188 -662 -1705 -956 -3035
-245 -1108 -224 -4249 37 -5460 252 -1170 449 -1872 716 -2550 119 -302 239
-650 267 -772 28 -122 114 -274 190 -337 76 -64 139 -197 139 -297 0 -100 41
-208 91 -239 51 -31 190 -258 309 -506 120 -247 256 -449 302 -449 47 0 116
-101 155 -225 72 -226 765 -1182 1239 -1707 627 -696 1421 -1468 1508 -1468
53 0 96 -67 96 -150 0 -82 49 -150 108 -150 90 0 928 -619 1092 -807 28 -32
118 -90 200 -129 151 -72 216 -111 950 -566 1571 -974 3918 -1691 6222 -1902
1743 -159 3991 59 5378 522 165 55 435 138 600 184 808 227 1811 675 2650
1184 193 117 418 244 500 282 895 418 2745 2028 3655 3182 217 275 453 561
524 636 353 373 1236 1883 1645 2814 487 1107 642 1566 912 2700 629 2639 521
5488 -304 8000 -155 471 -182 541 -528 1350 -340 795 -1039 2095 -1267 2358
-75 87 -137 210 -137 275 0 64 -34 117 -75 117 -41 0 -203 203 -359 450 -156
248 -325 450 -375 450 -50 0 -91 45 -91 100 0 125 -1882 2000 -2008 2000 -50
0 -92 39 -92 86 0 164 -1834 1315 -2900 1819 -357 169 -728 350 -824 401 -95
52 -255 94 -355 94 -99 0 -229 48 -289 108 -129 129 -465 219 -2232 600 -1146
247 -1554 289 -2700 278 -742 -7 -1552 -47 -1800 -88z"/>
<path d="M23900 27910 c-1035 -219 -1804 -1016 -2102 -2179 -111 -435 -110
-612 5 -1094 244 -1018 549 -1446 1434 -2015 368 -238 510 -267 1313 -268 746
-1 969 37 1307 223 1030 568 1543 1404 1543 2515 0 1089 -543 2024 -1465 2520
-531 287 -1451 421 -2035 298z m1580 -474 c39 -60 172 -141 298 -180 304 -95
922 -742 922 -965 0 -99 42 -205 93 -237 51 -31 146 -293 209 -581 104 -465
92 -587 -100 -1098 -119 -316 -281 -639 -359 -718 -79 -78 -143 -191 -143
-250 0 -59 -67 -107 -150 -107 -82 0 -150 -37 -150 -83 0 -46 -222 -187 -493
-314 -412 -193 -606 -223 -1176 -182 -966 69 -1618 471 -2074 1279 -272 481
-268 1709 5 2200 345 619 483 800 612 800 69 0 126 43 126 96 0 53 191 187
425 297 326 154 595 195 1155 177 402 -14 762 -74 800 -134z"/>
<path d="M23650 27104 c-233 -110 -565 -406 -796 -710 -374 -492 -396 -561
-400 -1232 -4 -653 26 -756 350 -1237 457 -679 928 -925 1771 -925 937 0 1492
332 1951 1165 255 462 235 1482 -37 1935 -633 1055 -1832 1479 -2839 1004z
m1683 -968 c370 -277 470 -488 482 -1022 13 -585 -191 -932 -685 -1167 -426
-202 -997 -153 -1371 117 -502 364 -589 1594 -139 1980 456 391 1255 434 1713
92z"/>
<path d="M11383 27620 c-257 -17 -521 -95 -587 -175 -66 -80 -196 -145 -288
-145 -226 0 -831 -642 -1149 -1219 -337 -610 -362 -1624 -57 -2313 260 -588
903 -1234 1469 -1477 657 -282 1597 -257 2289 59 579 265 1240 845 1240 1088
0 80 44 160 99 179 152 51 326 1170 255 1643 -235 1567 -1493 2475 -3271 2360z
m1546 -495 c480 -271 762 -535 1093 -1024 276 -408 304 -525 307 -1262 4 -887
-115 -1163 -775 -1789 -1191 -1132 -3303 -729 -3969 758 -250 559 -247 1528 7
2048 264 543 790 1099 1208 1278 507 217 1738 212 2129 -9z"/>
<path d="M11282 26302 c-335 -101 -610 -360 -819 -772 -664 -1305 893 -2774
2137 -2016 491 299 675 540 749 980 100 595 -32 1062 -406 1427 -462 452
-1009 578 -1661 381z m1187 -819 c534 -503 138 -1483 -600 -1483 -742 0 -1130
842 -662 1437 273 347 916 370 1262 46z"/>
<path d="M13775 22192 c-306 -178 -211 -392 175 -392 381 0 470 -148 150 -250
-110 -35 -200 -125 -200 -200 0 -75 90 -165 200 -200 113 -36 200 -151 200
-266 0 -180 -43 -194 -400 -134 -307 52 -400 35 -400 -71 0 -239 226 -379 608
-379 525 0 716 313 631 1037 -72 609 -98 662 -413 838 -266 149 -322 150 -551
17z"/>
<path d="M22591 21674 c-366 -386 -489 -590 -469 -774 24 -216 84 -254 443
-280 312 -23 427 -79 465 -225 64 -242 254 -253 342 -20 36 96 136 231 222
300 140 113 139 139 -19 261 -125 98 -175 278 -175 639 0 725 -192 749 -809
99z m359 -474 c-34 -55 -107 -100 -162 -100 -55 0 -72 45 -38 100 34 55 107
100 162 100 55 0 72 -45 38 -100z"/>
<path d="M13725 15934 c-147 -60 -167 -396 -29 -481 53 -33 189 -2 303 69 173
107 223 103 303 -22 168 -266 106 -392 -295 -596 -424 -217 -619 -572 -393
-715 177 -112 996 -111 1174 1 181 115 54 310 -203 310 -192 0 -189 17 56 308
304 361 324 656 65 967 -181 217 -650 292 -981 159z"/>
<path d="M22745 15674 c-30 -79 -41 -476 -25 -883 23 -579 63 -741 180 -741
121 0 150 160 150 842 0 584 -38 854 -125 883 -69 23 -150 -23 -180 -101z"/>
<path d="M10955 14108 c-32 -51 -185 -121 -341 -155 -354 -78 -1051 -738
-1306 -1236 -723 -1419 -187 -3097 1229 -3843 335 -176 583 -218 1313 -219
820 -1 939 24 1341 283 989 638 1409 1384 1409 2504 0 785 -179 1261 -681
1803 -667 722 -1195 955 -2166 955 -408 0 -767 -42 -798 -92z m1875 -433
c1419 -784 1894 -2353 1076 -3552 -185 -271 -547 -636 -804 -812 -410 -279
-556 -321 -1160 -330 -767 -11 -1342 86 -1342 227 0 51 -59 92 -130 92 -165 0
-663 542 -919 1000 -276 493 -275 1713 2 2191 716 1239 2204 1777 3277 1184z"/>
<path d="M10995 12723 c-662 -448 -736 -582 -736 -1318 0 -741 103 -924 763
-1349 558 -360 1480 -189 2021 374 436 453 282 1683 -277 2218 -289 276 -1406
324 -1771 75z m1091 -580 c566 -335 665 -998 206 -1384 -359 -303 -555 -322
-895 -90 -332 227 -394 331 -395 663 -3 378 147 634 476 812 339 185 293 185
608 -1z"/>
<path d="M23600 13338 c-813 -317 -1400 -710 -1400 -938 0 -55 -35 -100 -77
-100 -42 0 -189 -204 -325 -454 -205 -376 -246 -583 -238 -1201 13 -917 220
-1424 840 -2052 552 -560 1146 -794 2003 -790 1005 6 1722 420 2314 1335 361
559 383 637 383 1379 0 652 -44 871 -259 1282 -519 992 -1317 1506 -2427 1563
-365 19 -731 8 -814 -24z m1351 -392 c612 -179 1342 -768 1586 -1282 230 -485
237 -1729 12 -2173 -242 -478 -687 -865 -1334 -1161 -1171 -536 -2510 -12
-3127 1222 -176 352 -204 559 -173 1252 25 541 81 845 162 872 67 22 124 93
126 157 9 298 954 1066 1315 1069 128 0 300 45 382 98 210 136 438 124 1051
-54z"/>
<path d="M23338 12562 c-857 -490 -1169 -1023 -1175 -2005 -3 -602 37 -770
268 -1131 740 -1159 2465 -1377 3430 -434 727 711 868 1896 329 2772 -222 361
-805 836 -1027 836 -83 0 -179 45 -213 100 -124 201 -1177 111 -1612 -138z
m1490 -774 c548 -285 803 -819 698 -1464 -134 -829 -1110 -1281 -1838 -851
-415 245 -728 931 -640 1403 142 755 1119 1256 1780 912z"/>
<path d="M1500 31950 c0 -27 23 -50 50 -50 28 0 50 23 50 50 0 27 -22 50 -50
50 -27 0 -50 -23 -50 -50z"/>
</g>
</svg>
