{
    "filename": "composition1.json",
    "tubeGraph": {
        "c": [{
            "p": [{
                "va": 0,
                "vg1": -400,
                "ig1": 0,
                "vg2": null,
                "ig2": 0,
                "ik": 0
            }, {
                "va": 1841.5802075019953,
                "vg1": -400,
                "ig1": 0,
                "vg2": null,
                "ig2": 0,
                "ik": 0.0011920529801324503
            }, {
                "va": 2088.986432561852,
                "vg1": -400,
                "ig1": 0,
                "vg2": null,
                "ig2": 0,
                "ik": 0.009735099337748345
            }, {
                "va": 2202.7134876296886,
                "vg1": -400,
                "ig1": 0,
                "vg2": null,
                "ig2": 0,
                "ik": 0.03516556291390729
            }],
            "vg1": -400
        }, {
            "p": [{
                "va": 0,
                "vg1": -350,
                "ig1": 0,
                "vg2": null,
                "ig2": 0,
                "ik": 0
            }, {
                "va": 1725.8579409417398,
                "vg1": -350,
                "ig1": 0,
                "vg2": null,
                "ig2": 0,
                "ik": 0.0023841059602649007
            }, {
                "va": 1885.4748603351957,
                "vg1": -350,
                "ig1": 0,
                "vg2": null,
                "ig2": 0,
                "ik": 0.017880794701986755
            }, {
                "va": 1993.2162809257782,
                "vg1": -350,
                "ig1": 0,
                "vg2": null,
                "ig2": 0,
                "ik": 0.04728476821192053
            }],
            "vg1": -350
        }, {
            "p": [{
                "va": 0,
                "vg1": -300,
                "ig1": 0,
                "vg2": null,
                "ig2": 0,
                "ik": 0
            }, {
                "va": 1388.6671987230648,
                "vg1": -300,
                "ig1": 0,
                "vg2": null,
                "ig2": 0,
                "ik": 0.0011920529801324503
            }, {
                "va": 1590.1835594573026,
                "vg1": -300,
                "ig1": 0,
                "vg2": null,
                "ig2": 0,
                "ik": 0.007947019867549669
            }, {
                "va": 1769.7525937749401,
                "vg1": -300,
                "ig1": 0,
                "vg2": null,
                "ig2": 0,
                "ik": 0.060198675496688746
            }],
            "vg1": -300
        }, {
            "p": [{
                "va": 0,
                "vg1": -250,
                "ig1": 0,
                "vg2": null,
                "ig2": 0,
                "ik": 0
            }, {
                "va": 1227.0550678371908,
                "vg1": -250,
                "ig1": 0,
                "vg2": null,
                "ig2": 0,
                "ik": 0.0009933774834437086
            }, {
                "va": 1414.6049481245013,
                "vg1": -250,
                "ig1": 0,
                "vg2": null,
                "ig2": 0,
                "ik": 0.022251655629139073
            }, {
                "va": 1546.2889066241023,
                "vg1": -250,
                "ig1": 0,
                "vg2": null,
                "ig2": 0,
                "ik": 0.07490066225165563
            }],
            "vg1": -250
        }, {
            "p": [{
                "va": 0,
                "vg1": -200,
                "ig1": 0,
                "vg2": null,
                "ig2": 0,
                "ik": 0
            }, {
                "va": 873.90263367917,
                "vg1": -200,
                "ig1": 0,
                "vg2": null,
                "ig2": 0,
                "ik": 0.0005960264900662252
            }, {
                "va": 1103.3519553072626,
                "vg1": -200,
                "ig1": 0,
                "vg2": null,
                "ig2": 0,
                "ik": 0.010529801324503311
            }, {
                "va": 1312.8491620111733,
                "vg1": -200,
                "ig1": 0,
                "vg2": null,
                "ig2": 0,
                "ik": 0.08841059602649007
            }],
            "vg1": -200
        }, {
            "p": [{
                "va": 0,
                "vg1": -150,
                "ig1": 0,
                "vg2": null,
                "ig2": 0,
                "ik": 0
            }, {
                "va": 650.438946528332,
                "vg1": -150,
                "ig1": 0,
                "vg2": null,
                "ig2": 0,
                "ik": 0.0005960264900662252
            }, {
                "va": 818.0367118914605,
                "vg1": -150,
                "ig1": 0,
                "vg2": null,
                "ig2": 0,
                "ik": 0.00576158940397351
            }, {
                "va": 1073.4237829209897,
                "vg1": -150,
                "ig1": 0,
                "vg2": null,
                "ig2": 0,
                "ik": 0.10370860927152319
            }],
            "vg1": -150
        }, {
            "p": [{
                "va": 0,
                "vg1": -100,
                "ig1": 0,
                "vg2": null,
                "ig2": 0,
                "ik": 0
            }, {
                "va": 303.27214684756586,
                "vg1": -100,
                "ig1": 0,
                "vg2": null,
                "ig2": 0,
                "ik": 0
            }, {
                "va": 550.6783719074222,
                "vg1": -100,
                "ig1": 0,
                "vg2": null,
                "ig2": 0,
                "ik": 0.003576158940397351
            }, {
                "va": 837.9888268156425,
                "vg1": -100,
                "ig1": 0,
                "vg2": null,
                "ig2": 0,
                "ik": 0.11880794701986755
            }],
            "vg1": -100
        }, {
            "p": [{
                "va": 0,
                "vg1": -50,
                "ig1": 0,
                "vg2": null,
                "ig2": 0,
                "ik": 0
            }, {
                "va": 173.5833998403831,
                "vg1": -50,
                "ig1": 0,
                "vg2": null,
                "ig2": 0,
                "ik": 0.000794701986754967
            }, {
                "va": 287.31045490822027,
                "vg1": -50,
                "ig1": 0,
                "vg2": null,
                "ig2": 0,
                "ik": 0.002781456953642384
            }, {
                "va": 594.5730247406225,
                "vg1": -50,
                "ig1": 0,
                "vg2": null,
                "ig2": 0,
                "ik": 0.1333112582781457
            }],
            "vg1": -50
        }, {
            "p": [{
                "va": 0,
                "vg1": 0,
                "ig1": 0,
                "vg2": null,
                "ig2": 0,
                "ik": 0
            }, {
                "va": 51.8754988028731,
                "vg1": 0,
                "ig1": 0,
                "vg2": null,
                "ig2": 0,
                "ik": 0.008344370860927153
            }, {
                "va": 351.15722266560255,
                "vg1": 0,
                "ig1": 0,
                "vg2": null,
                "ig2": 0,
                "ik": 0.1490066225165563
            }],
            "vg1": 0
        }],
        "vg2": null,
        "logX": false,
        "logY": false,
        "name": "Composition1",
        "raw": false,
        "unit": null,
        "triode": false
    }
}
