<?xml version="1.0" standalone="no"?>
<!DOCTYPE svg PUBLIC "-//W3C//DTD SVG 20010904//EN"
 "http://www.w3.org/TR/2001/REC-SVG-20010904/DTD/svg10.dtd">
<svg version="1.0" xmlns="http://www.w3.org/2000/svg"
 width="274.947430pt" height="274.000000pt" viewBox="0 0 274.947430 274.000000"
 preserveAspectRatio="xMidYMid meet">
<metadata>
Created by potrace 1.13, written by Peter Selinger 2001-2015
</metadata>
<g transform="translate(-1.392031,276.000000) scale(0.010000,-0.010000)"
fill="#fff" stroke="none">
<path d="M17005 27405 c-263 -263 -147 -536 293 -689 166 -58 302 -148 302
-200 0 -176 -328 -222 -497 -68 -233 210 -303 191 -303 -82 0 -207 50 -235
446 -250 350 -14 469 25 550 176 150 281 33 483 -355 611 -369 122 -438 266
-177 366 98 38 214 -4 286 -103 171 -233 250 -207 250 84 0 149 -57 250 -142
250 -78 0 -209 26 -292 58 -83 32 -245 -37 -361 -153z"/>
<path d="M22600 27411 c0 -104 -79 -220 -175 -257 -163 -64 -163 -77 -8 -191
92 -68 182 -278 200 -467 36 -371 203 -463 641 -353 358 90 294 275 -83 238
-287 -27 -329 0 -356 237 -26 223 12 273 228 300 333 41 337 222 6 264 -173
21 -253 93 -253 225 0 106 -45 193 -100 193 -55 0 -100 -85 -100 -189z"/>
<path d="M25200 27500 c0 -55 68 -100 150 -100 113 0 150 -121 150 -488 0
-405 -34 -498 -200 -541 -408 -107 -196 -271 350 -271 546 0 758 164 350 271
-171 45 -200 136 -200 641 0 587 -1 588 -300 588 -165 0 -300 -45 -300 -100z"/>
<path d="M12857 27411 c-30 -48 35 -112 144 -140 166 -44 199 -137 199 -562 0
-479 -15 -509 -256 -509 -145 0 -229 -43 -194 -100 78 -126 1150 -133 1150 -7
0 51 -101 107 -225 125 -202 29 -228 96 -255 657 -28 584 -45 625 -269 625
-131 0 -264 -40 -294 -89z"/>
<path d="M4300 27306 c0 -52 45 -122 100 -156 55 -34 100 -262 100 -506 0
-244 -45 -444 -100 -444 -55 0 -100 -45 -100 -100 0 -55 135 -100 300 -100
320 0 375 85 180 280 -91 91 -92 148 -4 236 139 139 382 -26 477 -325 62 -195
447 -273 447 -91 0 55 -41 100 -90 100 -50 0 -183 157 -297 350 l-206 350 246
161 c326 214 313 360 -28 321 -151 -18 -265 -84 -253 -147 27 -144 -253 -387
-343 -298 -36 37 -12 120 53 185 193 193 137 278 -182 278 -165 0 -300 -42
-300 -94z"/>
<path d="M10229 27225 c-35 -96 -113 -212 -172 -258 -74 -57 -69 -98 18 -133
69 -28 126 -171 127 -317 2 -394 142 -549 487 -539 345 10 511 85 511 232 0
59 -142 72 -350 33 -339 -63 -350 -56 -350 246 0 265 37 311 250 311 138 0
250 45 250 100 0 55 -112 100 -250 100 -183 0 -250 53 -250 200 0 246 -183
263 -271 25z"/>
<path d="M18550 27100 c-82 -132 38 -319 157 -246 121 75 121 346 -1 346 -52
0 -122 -45 -156 -100z"/>
<path d="M19353 27105 c-31 -50 -11 -119 45 -154 56 -35 102 -170 102 -301 0
-131 -46 -266 -102 -301 -162 -100 -8 -249 258 -249 277 0 290 29 128 288
-124 200 -56 512 113 512 57 0 103 -174 103 -386 0 -385 2 -387 402 -387 l402
0 -61 362 c-118 703 -103 689 -742 698 -326 5 -617 -33 -648 -82z m1047 -511
c0 -178 -42 -280 -100 -244 -55 34 -100 172 -100 306 0 134 45 244 100 244 55
0 100 -138 100 -306z"/>
<path d="M21075 27092 c-215 -126 -237 -716 -32 -886 189 -157 879 -95 938 84
35 109 -25 126 -267 78 -171 -34 -391 -30 -488 10 -118 48 -12 88 324 122 431
43 496 78 468 250 -63 392 -552 570 -943 342z m675 -292 c37 -60 -84 -100
-300 -100 -216 0 -337 40 -300 100 34 55 169 100 300 100 131 0 266 -45 300
-100z"/>
<path d="M23867 27133 c-146 -145 -51 -233 258 -241 340 -8 311 -33 -156 -137
-236 -52 -276 -106 -250 -333 29 -254 66 -273 553 -292 497 -20 748 84 530
219 -56 35 -102 186 -102 337 0 151 -54 328 -120 394 -128 128 -603 164 -713
53z m533 -622 c0 -118 -292 -227 -411 -154 -51 31 -66 99 -35 150 74 119 446
122 446 4z"/>
<path d="M7275 27019 c-314 -37 -320 -50 -151 -320 99 -158 99 -240 0 -398
-178 -285 -173 -290 365 -286 l489 4 -52 391 c-34 254 -13 390 61 390 65 0
113 -169 113 -400 0 -333 33 -400 200 -400 212 0 269 146 99 251 -56 34 -92
184 -81 333 38 488 -99 545 -1043 435z m325 -519 c0 -165 -45 -300 -100 -300
-111 0 -138 429 -33 533 113 113 133 78 133 -233z"/>
<path d="M8828 26998 c-327 -131 -405 -566 -148 -823 281 -281 1020 -258 1020
32 0 55 -165 69 -387 33 -241 -38 -414 -19 -456 49 -47 75 79 111 387 111 385
0 456 30 456 194 0 193 -350 512 -547 500 -57 -4 -203 -47 -325 -96z m572
-298 c0 -55 -138 -100 -306 -100 -178 0 -280 42 -244 100 34 55 172 100 306
100 134 0 244 -45 244 -100z"/>
<path d="M11544 26953 c-181 -137 -168 -147 206 -158 409 -11 399 -34 -64
-135 -283 -62 -415 -269 -324 -506 40 -105 211 -144 597 -140 508 6 671 94
441 236 -55 34 -100 185 -100 336 0 481 -368 660 -756 367z m456 -653 c-196
-126 -400 -126 -400 0 0 55 124 99 275 98 214 -1 242 -22 125 -98z"/>
<path d="M6200 26842 c0 -87 53 -141 119 -119 185 62 216 277 39 277 -87 0
-158 -71 -158 -158z"/>
<path d="M18523 26281 c62 -185 277 -216 277 -39 0 87 -71 158 -158 158 -87 0
-141 -53 -119 -119z"/>
<path d="M6200 26150 c0 -82 68 -150 150 -150 83 0 150 68 150 150 0 83 -67
150 -150 150 -82 0 -150 -67 -150 -150z"/>
<path d="M8700 25557 c0 -87 68 -157 150 -157 113 0 150 -122 150 -500 0 -440
-25 -500 -208 -500 -123 0 -191 -52 -167 -125 54 -162 994 -169 1047 -8 22 65
-60 132 -181 150 -199 30 -222 94 -231 633 -10 577 -20 601 -285 632 -196 22
-275 -13 -275 -125z"/>
<path d="M22500 25612 c0 -49 93 -113 206 -142 178 -47 201 -120 175 -537 -27
-414 -63 -488 -256 -515 -445 -63 -214 -218 325 -218 303 0 550 45 550 100 0
55 -90 100 -200 100 -179 0 -200 67 -200 650 l0 650 -300 0 c-165 0 -300 -40
-300 -88z"/>
<path d="M154 25507 c-31 -51 -12 -121 44 -156 139 -86 130 -922 -11 -1009
-171 -106 177 -267 415 -191 204 64 276 249 98 249 -55 0 -100 90 -100 200 0
306 184 239 413 -150 114 -192 245 -350 291 -350 144 0 238 236 112 278 -66
22 -192 180 -281 350 -152 295 -150 318 53 482 283 230 268 390 -38 390 -146
0 -250 -57 -250 -138 0 -76 -68 -194 -150 -262 -95 -79 -150 -85 -150 -18 0
58 46 134 102 169 160 99 9 249 -252 249 -131 0 -264 -42 -296 -93z"/>
<path d="M3100 25450 c0 -83 89 -150 200 -150 170 0 200 -67 200 -450 0 -389
-28 -450 -208 -450 -123 0 -191 -52 -167 -125 25 -74 217 -125 475 -125 258 0
450 51 475 125 24 73 -44 125 -167 125 -179 0 -208 61 -208 438 0 355 38 449
200 491 390 102 203 271 -300 271 -378 0 -500 -37 -500 -150z"/>
<path d="M4606 25457 c-199 -240 -79 -495 325 -685 207 -97 350 -221 317 -275
-79 -128 -548 -126 -548 3 0 55 -67 100 -150 100 -82 0 -150 -85 -150 -189 0
-136 97 -207 349 -254 790 -148 1077 557 326 803 -151 50 -283 135 -293 190
-28 156 334 186 427 36 107 -174 342 36 266 236 -74 191 -718 217 -869 35z"/>
<path d="M16700 25506 c0 -52 50 -125 111 -163 69 -43 95 -273 67 -606 -44
-533 -43 -537 239 -537 302 0 381 141 133 236 -151 58 -217 564 -74 564 42 0
188 -180 324 -400 348 -564 500 -521 500 142 0 298 27 613 61 700 47 123 -8
158 -250 158 -304 0 -411 -127 -211 -250 55 -34 100 -203 100 -375 l0 -314
-298 469 c-194 307 -368 470 -500 470 -111 0 -202 -42 -202 -94z"/>
<path d="M18356 25378 c-287 -410 -145 -1014 275 -1170 271 -100 769 63 769
252 0 169 -119 181 -273 27 -64 -64 -224 -84 -376 -46 -231 58 -259 109 -232
427 39 461 292 643 558 403 256 -232 323 -215 323 79 0 229 -37 250 -444 250
-346 0 -479 -49 -600 -222z"/>
<path d="M21219 25142 c-242 -169 -297 -624 -99 -822 66 -66 246 -120 400
-120 357 0 367 -176 13 -218 -379 -45 -427 -282 -57 -282 415 0 624 276 624
825 0 276 50 476 125 503 193 69 64 138 -381 206 -285 44 -470 17 -625 -92z
m563 -417 c41 -287 -241 -409 -453 -196 -213 212 -91 494 196 453 145 -21 236
-112 257 -257z"/>
<path d="M24075 25231 c-291 -76 -197 -230 150 -245 274 -11 286 -20 75 -59
-137 -25 -306 -92 -375 -149 -169 -139 -158 -450 20 -549 186 -104 1055 -37
1055 81 0 50 -45 90 -100 90 -55 0 -100 156 -100 346 0 241 -59 379 -193 450
-202 108 -242 111 -532 35z m375 -731 c-34 -55 -149 -100 -256 -100 -107 0
-194 45 -194 100 0 55 115 100 256 100 145 0 229 -43 194 -100z"/>
<path d="M25453 25164 c-255 -186 -131 -453 245 -529 166 -33 302 -99 302
-147 0 -127 -476 -108 -555 21 -49 78 -98 78 -176 0 -161 -161 42 -320 423
-331 415 -11 696 245 512 467 -71 85 -210 155 -310 155 -100 0 -214 52 -254
116 -51 82 19 97 244 52 375 -75 458 171 91 269 -306 82 -312 81 -522 -73z"/>
<path d="M26853 25164 c-255 -186 -131 -453 245 -529 166 -33 302 -99 302
-147 0 -129 -441 -107 -577 29 -89 89 -132 76 -182 -55 -87 -227 -35 -265 390
-281 461 -17 703 168 563 430 -55 104 -178 190 -273 191 -94 0 -238 49 -321
108 -113 80 -58 94 225 55 423 -59 546 166 150 272 -306 82 -312 81 -522 -73z"/>
<path d="M6200 25050 c0 -82 68 -150 150 -150 83 0 150 68 150 150 0 83 -67
150 -150 150 -82 0 -150 -67 -150 -150z"/>
<path d="M7257 25043 c-350 -350 24 -1020 502 -900 139 35 241 17 241 -44 0
-57 -135 -131 -300 -164 -378 -76 -392 -235 -20 -235 404 0 520 171 520 770 0
292 45 530 100 530 55 0 100 45 100 100 0 167 -967 119 -1143 -57z m643 -193
c99 -120 99 -180 0 -300 -250 -301 -606 -71 -464 300 32 83 121 150 199 150
77 0 197 -67 265 -150z"/>
<path d="M10053 25105 c-73 -118 -30 -131 397 -116 l300 10 -340 -124 c-457
-167 -623 -440 -379 -621 217 -161 990 -141 1046 27 22 65 -6 119 -63 119 -56
0 -116 169 -133 375 -29 353 -53 377 -397 405 -201 17 -395 -17 -431 -75z
m597 -605 c-34 -55 -149 -100 -256 -100 -107 0 -194 45 -194 100 0 55 115 100
256 100 145 0 229 -43 194 -100z"/>
<path d="M11500 25050 c-166 -199 33 -450 356 -450 128 0 264 -52 303 -115 52
-83 -45 -100 -344 -60 -306 41 -415 21 -415 -77 0 -182 543 -286 794 -151 363
194 183 603 -264 603 -126 0 -230 45 -230 100 0 131 370 130 451 -2 82 -132
249 -27 249 158 0 199 -734 194 -900 -6z"/>
<path d="M12836 25049 c-82 -212 143 -449 426 -449 131 0 238 -51 238 -113 0
-73 -123 -93 -350 -56 -256 41 -350 20 -350 -79 0 -185 541 -291 794 -155 363
194 183 603 -264 603 -126 0 -230 45 -230 100 0 134 332 128 469 -9 129 -129
281 47 181 209 -101 164 -848 122 -914 -51z"/>
<path d="M20022 25085 c52 -156 275 -183 283 -35 3 55 -69 116 -161 135 -105
21 -150 -16 -122 -100z"/>
<path d="M2048 24193 c-92 -421 5 -475 195 -107 193 373 194 414 15 414 -78 0
-172 -138 -210 -307z"/>
<path d="M6200 24358 c0 -87 71 -158 158 -158 177 0 146 215 -39 277 -66 22
-119 -32 -119 -119z"/>
<path d="M20054 24407 c-74 -120 114 -238 248 -156 111 69 38 249 -102 249
-49 0 -114 -42 -146 -93z"/>
<path d="M8800 23746 c-1195 -537 -1702 -2018 -1095 -3198 347 -673 919 -1067
1636 -1126 l549 -46 -570 -421 c-314 -231 -742 -613 -953 -847 -427 -475
-1202 -1638 -1383 -2074 -116 -282 -118 -280 -190 216 -40 275 -118 615 -173
756 -277 701 -1119 1295 -1821 1284 -1767 -27 -2710 -2308 -1526 -3691 858
-1002 2164 -1041 2972 -88 263 310 282 318 221 89 -214 -809 -288 -1646 -238
-2691 62 -1317 297 -2269 836 -3394 l352 -734 -817 -837 c-536 -549 -791 -881
-741 -965 187 -321 871 -1079 973 -1079 63 0 458 342 878 760 l764 760 633
-510 c348 -281 669 -510 713 -510 44 0 80 -35 80 -79 0 -43 -134 -89 -297
-101 -1602 -122 -2411 -2213 -1397 -3612 705 -973 2090 -1090 2933 -247 719
718 867 1826 370 2771 l-290 552 415 -155 c683 -256 2662 -284 3516 -51 385
105 780 226 878 268 135 59 101 -47 -142 -437 -1175 -1891 648 -4260 2523
-3278 1576 825 1534 3244 -71 4029 -364 178 -646 249 -883 222 -191 -23 -338
-33 -326 -23 11 9 303 243 649 518 907 724 1550 1494 2122 2541 l271 494 61
-516 c122 -1032 892 -1867 1817 -1971 1279 -144 2365 1044 2222 2431 -190
1838 -2127 2664 -3359 1432 l-385 -384 137 573 c290 1210 277 2813 -32 4123
l-59 250 288 -264 c930 -849 2233 -745 2942 235 691 952 613 2153 -191 2984
-767 791 -1736 882 -2575 242 -411 -314 -836 -1171 -839 -1692 l-2 -405 -283
513 c-649 1179 -1449 2087 -2540 2887 l-273 200 553 8 c728 11 1277 383 1668
1130 359 688 372 1360 41 2062 -379 804 -1031 1250 -1827 1250 -1680 0 -2644
-2369 -1497 -3679 306 -350 308 -355 62 -278 -137 43 -610 176 -1050 295
l-800 216 -30 673 -29 673 -696 0 -695 0 0 -676 0 -676 -825 -215 c-454 -119
-907 -248 -1008 -288 -137 -54 -103 40 138 382 265 376 328 572 366 1139 40
605 12 747 -238 1233 -501 973 -1573 1434 -2433 1047z m1613 -496 c720 -469
996 -1630 597 -2508 -470 -1036 -1744 -1345 -2567 -622 -873 766 -967 2023
-212 2842 605 656 1447 767 2182 288z m7855 156 c1171 -532 1380 -2275 384
-3194 -523 -481 -1048 -600 -1613 -364 -1310 547 -1640 2145 -659 3189 535
570 1172 694 1888 369z m-3229 -3703 c1089 -279 2087 -835 2927 -1632 1701
-1614 2535 -3760 2399 -6171 -75 -1319 -254 -2001 -841 -3200 -392 -800 -608
-1092 -1370 -1855 -1357 -1359 -2560 -1922 -4304 -2013 -3958 -209 -7149 3147
-7149 7518 0 1946 537 3530 1687 4977 1660 2089 4210 3000 6651 2376z m7974
-1861 c570 -292 985 -1048 986 -1797 1 -470 -462 -1306 -859 -1551 -1120 -692
-2487 47 -2618 1416 -64 663 121 1195 567 1626 567 548 1240 655 1924 306z
m-17545 -36 c264 -120 523 -348 700 -616 244 -368 282 -523 282 -1149 0 -644
-33 -771 -303 -1155 -558 -794 -1481 -980 -2258 -456 -1054 710 -1165 2143
-236 3037 587 565 1105 661 1815 339z m17236 -7406 c694 -192 1296 -1082 1296
-1915 0 -1534 -1675 -2415 -2768 -1456 -1117 981 -902 2673 418 3282 463 214
573 223 1054 89z m-14898 -3325 c456 -578 460 -553 -216 -1235 -349 -352 -681
-639 -737 -637 -57 2 -257 207 -444 456 l-341 453 638 644 c351 354 685 644
741 644 57 0 218 -146 359 -325z m10504 -2330 c574 -297 988 -1050 989 -1800
1 -168 -115 -538 -256 -822 -444 -890 -1306 -1225 -2171 -843 -1197 529 -1430
2243 -436 3206 535 519 1194 610 1874 259z m-7830 14 c363 -189 783 -646 914
-991 270 -716 41 -1725 -509 -2236 -994 -924 -2572 -269 -2836 1177 -132 726
314 1668 949 2006 415 220 1106 240 1482 44z"/>
<path d="M9129 22275 c-53 -69 -100 -386 -105 -706 -8 -519 16 -592 229 -689
188 -85 293 -73 493 58 269 176 309 319 158 559 -59 93 -53 194 16 278 192
230 -65 625 -406 625 -159 0 -333 -56 -385 -125z m553 -308 c21 -109 -34 -167
-158 -167 -263 0 -344 105 -208 269 141 171 323 120 366 -102z m-1 -693 c23
-116 -30 -174 -157 -174 -245 0 -324 83 -255 265 75 193 370 128 412 -91z"/>
<path d="M17407 22302 c-308 -73 -395 -302 -115 -302 180 0 208 -61 208 -450
0 -389 -28 -450 -208 -450 -422 0 -117 -251 341 -280 369 -25 467 2 467 125 0
87 -85 155 -195 155 -171 0 -200 82 -225 630 -29 610 -38 628 -273 572z"/>
<path d="M21957 16843 c-86 -87 -157 -199 -157 -250 0 -124 172 -119 250 7 79
129 420 130 499 2 33 -54 -151 -295 -409 -536 -274 -255 -440 -485 -399 -552
39 -63 293 -114 565 -114 372 0 494 37 494 150 0 102 -102 150 -320 150 l-319
0 319 330 c176 181 320 403 320 493 0 219 -271 477 -500 477 -102 0 -256 -71
-343 -157z"/>
<path d="M4300 16500 c0 -224 103 -257 273 -87 63 63 181 88 262 56 131 -50
132 -115 7 -529 -162 -537 -178 -740 -60 -740 99 0 418 981 418 1284 0 189
-55 216 -450 216 -383 0 -450 -30 -450 -200z"/>
<path d="M21920 9180 c-205 -205 -134 -270 230 -211 383 62 512 -145 150 -240
-247 -65 -259 -213 -25 -300 209 -77 331 -239 263 -349 -28 -44 -233 -80 -456
-80 -350 0 -389 -21 -282 -150 163 -196 644 -192 843 7 170 170 210 499 70
585 -47 29 -64 167 -38 306 27 139 -7 320 -75 403 -150 179 -514 195 -680 29z"/>
<path d="M17260 3357 c-332 -566 -327 -657 40 -657 165 0 300 -45 300 -100 0
-55 -70 -100 -156 -100 -86 0 -128 -45 -94 -100 34 -55 189 -100 344 -100 249
0 281 35 268 293 -8 161 -48 326 -88 367 -41 40 -74 246 -74 457 0 522 -213
499 -540 -60z m340 -207 c0 -154 -57 -250 -148 -250 -121 0 -127 45 -34 250
63 138 129 250 148 250 19 0 34 -112 34 -250z"/>
<path d="M9400 3310 c0 -375 12 -389 321 -375 229 11 332 -34 356 -153 51
-244 -320 -419 -586 -277 -179 96 -204 85 -174 -72 24 -125 139 -193 365 -215
413 -39 618 123 618 489 0 307 -328 614 -561 525 -83 -32 -139 11 -139 107 0
112 91 161 300 161 165 0 300 45 300 100 0 55 -180 100 -400 100 -398 0 -400
-2 -400 -390z"/>
<path d="M24650 17800 c0 -654 15 -700 219 -700 246 0 388 153 233 249 -200
124 -104 351 148 351 156 0 250 -57 250 -150 0 -82 -45 -150 -100 -150 -55 0
-100 -67 -100 -150 0 -89 92 -150 226 -150 212 0 225 40 225 700 -1 659 -14
700 -226 700 -233 0 -302 -141 -123 -251 148 -92 17 -249 -208 -249 -218 0
-256 198 -74 380 93 93 54 120 -175 120 l-295 0 0 -700z"/>
<path d="M1250 17700 c0 -657 14 -700 223 -700 193 0 214 39 162 300 -52 262
-32 300 165 300 197 0 217 -38 165 -300 -52 -261 -31 -300 163 -300 208 0 222
43 222 700 0 661 -13 700 -227 700 -192 0 -217 -38 -164 -250 53 -210 28 -250
-159 -250 -187 0 -212 40 -159 250 53 212 28 250 -164 250 -214 0 -227 -39
-227 -700z"/>
<path d="M24700 7706 c0 -52 45 -122 100 -156 167 -103 121 -821 -56 -889
-269 -103 -50 -261 362 -261 412 0 541 180 194 271 -289 76 -246 195 95 263
367 73 556 384 405 666 -85 159 -209 200 -604 200 -273 0 -496 -42 -496 -94z
m850 -306 c0 -82 -101 -164 -225 -182 -173 -25 -225 17 -225 182 0 165 52 207
225 182 124 -18 225 -99 225 -182z"/>
<path d="M5007 6802 c-308 -73 -395 -302 -115 -302 179 0 208 -61 208 -443 0
-383 -30 -447 -225 -475 -369 -52 -210 -230 237 -263 467 -36 781 149 416 245
-192 50 -223 136 -249 676 -28 600 -37 618 -272 562z"/>
<path d="M3417 6569 c-444 -474 -177 -1269 426 -1269 352 0 489 109 601 475
64 208 38 225 -337 225 -224 0 -407 -45 -407 -100 0 -55 90 -100 200 -100 220
0 273 -159 75 -225 -400 -135 -698 309 -480 716 117 217 448 283 555 109 106
-171 350 -110 350 88 0 130 -96 206 -312 250 -436 87 -428 88 -671 -169z"/>
<path d="M6984 1733 c-92 -25 -193 -111 -224 -193 -46 -121 8 -136 292 -83
280 53 348 34 348 -96 0 -88 -65 -161 -144 -161 -264 0 -272 -199 -12 -298
494 -188 158 -611 -356 -448 -153 48 -199 29 -167 -69 57 -174 650 -234 831
-84 177 148 149 1107 -40 1335 -137 164 -218 179 -528 97z"/>
<path d="M21075 1692 c-96 -56 -175 -197 -175 -312 0 -203 7 -205 196 -33 187
168 504 154 504 -24 0 -45 -180 -258 -400 -473 -539 -527 -520 -650 100 -650
378 0 500 37 500 150 0 96 -97 150 -269 150 l-268 0 268 280 c320 334 355 767
76 916 -237 127 -308 126 -532 -4z"/>
<path d="M5497 1517 c-187 -151 -242 -292 -242 -616 0 -472 210 -702 639 -699
343 2 462 95 543 423 63 261 48 275 -285 275 -395 0 -471 -143 -127 -240 204
-57 209 -73 51 -166 -408 -241 -803 439 -456 786 169 169 447 149 519 -36 33
-86 105 -129 160 -94 144 89 125 450 -24 451 -69 1 -218 27 -331 57 -124 33
-302 -23 -447 -141z"/>
<path d="M19654 1464 c-495 -496 -249 -1266 404 -1262 379 2 496 87 579 423
64 266 53 275 -335 275 -221 0 -402 -45 -402 -100 0 -55 90 -100 200 -100 211
0 269 -146 99 -251 -180 -111 -497 58 -557 298 -124 493 359 863 657 504 152
-183 301 -106 301 155 0 125 -69 194 -192 194 -105 0 -261 27 -345 59 -91 35
-258 -45 -409 -195z"/>
</g>
</svg>
