<?xml version="1.0" standalone="no"?>
<!DOCTYPE svg PUBLIC "-//W3C//DTD SVG 20010904//EN"
 "http://www.w3.org/TR/2001/REC-SVG-20010904/DTD/svg10.dtd">
<svg version="1.0" xmlns="http://www.w3.org/2000/svg"
 width="251.385071pt" height="254.960057pt" viewBox="0 0 251.385071 254.960057"
 preserveAspectRatio="xMidYMid meet">
<metadata>
Created by potrace 1.13, written by Peter Selinger 2001-2015
</metadata>
<g transform="translate(-2.649842,255.960057) scale(0.010000,-0.010000)"
fill="#fff" stroke="none">
<path d="M6013 25466 c-152 -184 -31 -279 185 -144 204 128 546 30 448 -128
-37 -60 -163 -145 -281 -190 -209 -79 -207 -85 64 -210 407 -189 313 -447
-157 -433 -260 8 -372 -31 -372 -130 0 -107 117 -134 475 -111 l475 30 14 600
c7 330 -32 656 -87 725 -134 166 -624 160 -764 -9z"/>
<path d="M19462 25413 c-249 -275 -129 -605 248 -680 348 -70 470 -221 278
-343 -191 -121 -252 -112 -424 60 -206 207 -264 189 -264 -84 0 -200 53 -235
375 -247 479 -18 651 93 609 392 -22 157 -146 288 -359 382 -179 79 -325 202
-325 275 0 182 393 167 464 -17 31 -83 97 -125 146 -95 136 84 108 444 -35
445 -69 1 -217 26 -329 57 -129 34 -270 -18 -384 -145z"/>
<path d="M1600 25393 c0 -51 45 -93 100 -93 55 0 100 -225 100 -500 0 -275
-45 -500 -100 -500 -55 0 -100 -45 -100 -100 0 -110 528 -139 632 -35 36 36
-13 123 -109 193 -135 101 -147 155 -52 251 145 147 385 -11 482 -318 62 -195
447 -273 447 -91 0 55 -41 100 -90 100 -50 0 -183 157 -297 350 l-206 350 246
161 c136 89 247 197 247 239 0 43 -292 79 -650 81 -358 2 -650 -38 -650 -88z
m674 -262 c-93 -93 -197 -141 -232 -107 -98 99 53 276 235 276 153 0 153 -13
-3 -169z"/>
<path d="M4540 25143 c-253 -607 -16 -1043 566 -1043 414 0 434 16 532 425 62
260 47 275 -286 275 -397 0 -467 -162 -127 -293 211 -81 213 -92 36 -163 -287
-116 -511 84 -511 456 0 429 260 612 527 371 256 -232 323 -215 323 79 0 230
-36 250 -455 250 -427 0 -464 -22 -605 -357z"/>
<path d="M7936 24754 c-1907 -968 -1449 -3965 649 -4239 l494 -65 -660 -550
c-805 -671 -1488 -1503 -1959 -2387 l-354 -663 -4 400 c-5 519 -390 1338 -785
1670 -1247 1049 -3080 217 -3282 -1489 -241 -2044 1988 -3308 3380 -1916 242
242 381 330 347 220 -299 -947 -348 -2924 -104 -4114 208 -1009 630 -2009
1241 -2940 483 -735 1457 -1735 2029 -2084 l286 -174 -518 -124 c-1011 -242
-1642 -1091 -1636 -2199 8 -1268 847 -2200 1980 -2200 581 0 932 138 1347 531
763 722 934 1829 430 2786 l-283 538 658 -172 c1188 -310 3102 -188 4136 263
134 59 97 -54 -150 -450 -291 -470 -328 -607 -325 -1237 4 -1050 428 -1753
1270 -2104 1829 -764 3492 1487 2433 3293 -402 687 -1206 1126 -1879 1027
-282 -41 -292 -33 -117 90 1168 830 2105 1875 2652 2959 160 317 301 576 314
576 13 0 31 -220 39 -488 45 -1510 1503 -2516 2785 -1922 803 372 1250 1108
1250 2060 0 925 -475 1712 -1246 2062 -751 341 -1496 178 -2166 -475 l-363
-353 142 533 c292 1100 276 2970 -36 4283 l-59 250 214 -266 c118 -147 409
-360 646 -475 1776 -860 3535 1214 2608 3074 -368 739 -1089 1217 -1835 1217
-391 0 -1233 -453 -1491 -803 -282 -380 -513 -1025 -516 -1435 -2 -290 -26
-268 -335 304 -584 1084 -1486 2099 -2440 2746 -235 160 -229 164 360 206 800
58 1304 392 1655 1095 1066 2139 -1207 4329 -2978 2869 -895 -738 -1057 -2164
-359 -3161 239 -341 260 -407 103 -323 -108 58 -592 210 -1075 339 l-879 233
-11 640 -11 640 -714 29 -714 30 0 -696 0 -695 -419 -71 c-231 -39 -666 -156
-966 -259 -301 -103 -564 -188 -586 -188 -21 0 69 146 202 325 1026 1382 239
3454 -1382 3634 -410 46 -591 9 -1013 -205z m1682 -331 c700 -413 1066 -1514
785 -2363 -265 -804 -1161 -1365 -1945 -1218 -459 86 -1036 589 -1272 1107
-734 1617 962 3343 2432 2474z m8155 9 c548 -260 927 -936 927 -1655 0 -729
-168 -1141 -633 -1549 -633 -555 -1497 -559 -2124 -8 -810 711 -936 1774 -318
2680 448 656 1394 890 2148 532z m-2873 -3781 c2190 -807 3751 -2519 4516
-4955 202 -644 234 -952 234 -2246 0 -1294 -32 -1602 -234 -2246 -827 -2633
-2675 -4493 -5077 -5107 -3544 -906 -7126 1446 -8150 5353 -292 1114 -292
2886 0 4000 705 2689 2703 4775 5168 5396 956 241 2607 150 3543 -195z m7114
-1553 c478 -133 1151 -862 1242 -1345 418 -2229 -2214 -3405 -3199 -1430 -552
1108 -98 2336 1009 2731 471 168 496 169 948 44z m-17024 -329 c1024 -678
1069 -2270 87 -3132 -1320 -1158 -3262 428 -2660 2173 403 1167 1590 1609
2573 959z m17142 -7314 c757 -270 1168 -905 1168 -1805 0 -1208 -888 -2064
-1973 -1902 -778 117 -1526 1049 -1526 1902 0 719 482 1461 1145 1762 479 218
676 225 1186 43z m-4817 -5458 c441 -122 1012 -724 1185 -1248 293 -886 -129
-1951 -925 -2337 -548 -265 -897 -267 -1432 -8 -1168 565 -1382 2238 -407
3182 483 468 943 588 1579 411z m-7535 -138 c363 -189 783 -646 914 -991 168
-444 127 -1235 -84 -1647 -700 -1365 -2346 -1377 -3043 -21 -239 465 -275 633
-231 1086 60 626 413 1225 893 1518 383 233 1157 261 1551 55z"/>
<path d="M8424 23375 c-56 -69 -102 -386 -104 -706 -3 -532 18 -588 252 -677
190 -73 315 -58 491 58 253 165 290 311 141 547 -59 93 -53 194 16 278 192
230 -65 625 -406 625 -159 0 -335 -56 -390 -125z m558 -308 c22 -111 -34 -167
-169 -167 -255 0 -382 195 -201 310 185 116 331 60 370 -143z m-1 -693 c23
-119 -30 -174 -168 -174 -229 0 -356 149 -260 306 98 157 390 67 428 -132z"/>
<path d="M16907 23502 c-308 -73 -395 -302 -115 -302 180 0 208 -61 208 -450
0 -383 -30 -450 -200 -450 -111 0 -200 -67 -200 -150 0 -111 116 -150 444
-150 471 0 716 177 370 267 -175 46 -210 146 -235 673 -28 600 -37 618 -272
562z"/>
<path d="M21265 17917 c-205 -227 -209 -317 -15 -317 83 0 150 45 150 100 0
140 373 125 461 -18 45 -72 -89 -259 -344 -478 -583 -502 -559 -704 83 -704
378 0 500 37 500 150 0 102 -102 150 -320 150 l-319 0 319 330 c334 343 404
646 200 850 -177 177 -525 146 -715 -63z"/>
<path d="M3500 17656 c0 -186 226 -328 277 -174 55 163 423 149 423 -16 0 -74
-66 -353 -146 -620 -249 -828 5 -741 283 97 264 799 241 857 -337 857 -369 0
-500 -38 -500 -144z"/>
<path d="M21220 10280 c-205 -205 -134 -270 230 -211 280 46 350 25 350 -106
0 -96 -82 -163 -200 -163 -284 0 -248 -187 58 -303 362 -138 246 -347 -192
-347 -223 0 -366 -48 -366 -123 0 -180 476 -270 755 -143 220 101 238 160 211
694 -17 321 -64 638 -104 703 -96 154 -587 154 -742 -1z"/>
<path d="M16559 4437 c-330 -590 -326 -637 61 -637 249 0 293 -27 200 -120
-193 -193 -140 -280 168 -280 264 0 286 27 261 325 -15 179 -36 348 -48 375
-11 28 -13 219 -3 425 14 314 -15 375 -182 375 -133 0 -285 -154 -457 -463z
m341 -187 c0 -154 -57 -250 -148 -250 -121 0 -127 45 -34 250 63 138 129 250
148 250 19 0 34 -112 34 -250z"/>
<path d="M8700 4459 c0 -446 5 -453 286 -397 217 44 302 14 355 -125 97 -254
-190 -451 -491 -337 -274 104 -392 21 -237 -166 138 -166 705 -176 867 -14
312 312 -51 1062 -441 912 -83 -32 -139 11 -139 107 0 113 92 161 308 161 441
0 319 242 -141 281 l-367 31 0 -453z"/>
<path d="M3542 24154 c-105 -420 5 -487 184 -112 145 303 148 358 24 358 -80
0 -174 -111 -208 -246z"/>
<path d="M24149 18800 c1 -656 15 -700 224 -700 193 0 214 39 162 300 -52 262
-32 300 165 300 197 0 217 -38 165 -300 -52 -261 -31 -300 163 -300 208 0 222
43 222 700 0 654 -15 700 -219 700 -246 0 -388 -153 -233 -249 181 -112 108
-351 -106 -351 -179 0 -199 42 -142 300 59 266 40 300 -168 300 -222 0 -233
-33 -233 -700z"/>
<path d="M292 19075 c-4 -14 -15 -334 -25 -713 -18 -712 59 -850 400 -719 127
48 139 91 50 180 -196 196 -140 477 94 477 188 0 204 -39 144 -358 -61 -327
-49 -355 152 -325 201 30 220 94 233 758 13 698 5 725 -221 725 -209 0 -228
-33 -169 -300 57 -258 37 -300 -142 -300 -214 0 -287 239 -106 351 148 92 17
249 -208 249 -107 0 -197 -11 -202 -25z"/>
<path d="M24200 8950 c0 -82 45 -150 100 -150 148 0 124 -874 -25 -929 -228
-84 80 -289 380 -254 353 42 426 235 124 328 -225 69 -224 72 52 156 561 170
733 521 412 842 -213 212 -1043 218 -1043 7z m938 -230 c27 -44 13 -138 -32
-210 -110 -177 -446 -98 -487 116 -25 128 33 174 218 174 138 0 273 -36 301
-80z"/>
<path d="M7273 1591 c-205 -120 -138 -310 80 -226 117 45 147 -46 147 -454 0
-444 -26 -511 -200 -511 -110 0 -200 -45 -200 -100 0 -130 969 -130 1050 0 34
55 -31 100 -144 100 -187 0 -206 60 -206 650 0 691 -98 791 -527 541z"/>
<path d="M19165 1517 c-205 -227 -209 -317 -15 -317 83 0 150 45 150 100 0
140 373 125 461 -18 45 -72 -90 -264 -344 -489 -577 -512 -555 -693 83 -693
378 0 500 37 500 150 0 102 -103 150 -325 150 l-325 1 325 305 c335 313 417
662 205 874 -177 177 -525 146 -715 -63z"/>
<path d="M5857 1443 c-187 -187 -212 -948 -37 -1123 66 -66 292 -120 502 -120
319 0 399 43 480 257 151 396 124 443 -252 443 -385 0 -472 -145 -140 -232
244 -63 165 -268 -104 -268 -258 0 -426 242 -388 559 45 381 316 532 559 312
256 -232 323 -215 323 79 0 224 -40 250 -393 250 -224 0 -460 -68 -550 -157z"/>
<path d="M17794 1394 c-303 -303 -238 -985 113 -1181 324 -181 793 -82 793
169 0 98 53 231 117 295 144 144 -87 256 -427 206 -292 -43 -375 -283 -98
-283 114 0 208 -45 208 -100 0 -55 -134 -100 -298 -100 -235 0 -312 53 -361
250 -119 476 203 796 571 566 256 -160 288 -148 288 109 0 318 -611 364 -906
69z"/>
</g>
</svg>
