<?xml version="1.0" standalone="no"?>
<!DOCTYPE svg PUBLIC "-//W3C//DTD SVG 20010904//EN"
 "http://www.w3.org/TR/2001/REC-SVG-20010904/DTD/svg10.dtd">
<svg version="1.0" xmlns="http://www.w3.org/2000/svg"
 width="318.929493pt" height="275.011244pt" viewBox="0 0 318.929493 275.011244"
 preserveAspectRatio="xMidYMid meet">
<metadata>
Created by potrace 1.13, written by Peter Selinger 2001-2015
</metadata>
<g transform="translate(-1.000000,277.000000) scale(0.010000,-0.010000)"
fill="#fff" stroke="none">
<path d="M21000 27500 c-193 -193 -200 -236 -71 -430 78 -119 247 -241 375
-271 127 -30 250 -110 272 -177 66 -199 -269 -260 -463 -84 -246 223 -313 204
-313 -88 0 -228 38 -250 430 -250 766 0 944 508 270 773 -427 168 -502 294
-236 396 98 38 214 -4 286 -103 171 -233 250 -207 250 84 0 149 -57 250 -142
250 -78 0 -209 26 -292 58 -84 32 -246 -38 -366 -158z"/>
<path d="M26800 27517 c0 -108 -79 -226 -175 -263 -163 -64 -163 -77 -8 -191
92 -68 182 -279 200 -468 31 -329 51 -345 425 -345 227 0 409 53 434 127 29
88 -59 118 -292 100 -298 -24 -337 3 -366 248 -28 248 -1 275 284 275 388 0
359 235 -35 282 -147 17 -267 93 -267 169 0 75 -45 165 -100 199 -55 34 -100
-26 -100 -133z"/>
<path d="M29400 27600 c0 -55 90 -100 200 -100 176 0 200 -67 200 -550 0 -523
-12 -550 -256 -550 -145 0 -229 -43 -194 -100 78 -126 1150 -133 1150 -7 0 51
-101 107 -225 125 -202 29 -228 96 -255 657 -29 619 -32 625 -325 625 -162 0
-295 -45 -295 -100z"/>
<path d="M22641 27162 c-85 -220 28 -333 181 -180 90 90 90 146 1 235 -89 89
-132 76 -182 -55z"/>
<path d="M23432 27171 c-37 -60 -14 -127 50 -148 144 -48 157 -487 18 -573
-197 -122 -95 -250 200 -250 335 0 350 23 184 288 -124 200 -56 512 113 512
57 0 103 -180 103 -400 0 -333 33 -400 200 -400 232 0 242 35 84 288 -124 200
-56 512 113 512 57 0 103 -180 103 -400 0 -333 33 -400 200 -400 110 0 200 45
200 100 0 55 -42 100 -94 100 -52 0 -108 191 -125 425 l-31 425 -625 15 c-360
9 -654 -31 -693 -94z"/>
<path d="M25222 27144 c-258 -181 -300 -655 -75 -842 157 -130 768 -166 946
-56 240 148 87 253 -280 194 -241 -38 -414 -19 -456 49 -47 75 79 111 387 111
385 0 456 30 456 194 0 211 -350 506 -600 506 -86 0 -256 -70 -378 -156z m678
-244 c0 -55 -135 -100 -300 -100 -165 0 -300 45 -300 100 0 55 135 100 300
100 165 0 300 -45 300 -100z"/>
<path d="M28125 27234 c-250 -101 -116 -234 250 -247 l375 -13 -340 -62 c-373
-68 -575 -297 -480 -545 46 -121 195 -158 615 -153 520 6 687 93 455 236 -55
34 -100 185 -100 336 0 434 -332 626 -775 448z m430 -757 c-92 -52 -243 -63
-336 -25 -151 62 -148 78 31 145 280 105 531 6 305 -120z"/>
<path d="M22600 26350 c0 -82 68 -150 150 -150 83 0 150 68 150 150 0 83 -67
150 -150 150 -82 0 -150 -67 -150 -150z"/>
<path d="M26767 25733 c-127 -126 -66 -233 133 -233 173 0 200 -67 200 -493 0
-430 -28 -497 -217 -525 -120 -18 -237 -91 -260 -162 -33 -99 92 -123 518
-100 560 30 811 201 384 262 -207 29 -225 84 -225 675 0 607 -13 643 -233 643
-129 0 -264 -30 -300 -67z"/>
<path d="M20738 25581 c-40 -66 -20 -137 44 -158 145 -49 159 -886 16 -974
-174 -108 0 -249 308 -249 289 0 390 129 194 250 -55 34 -99 205 -98 381 l2
319 298 -475 c164 -261 343 -475 398 -475 55 0 100 265 100 594 0 327 46 622
102 657 160 99 9 249 -252 249 -279 0 -432 -187 -247 -302 134 -83 233 -598
114 -598 -37 0 -191 203 -340 450 -269 445 -496 562 -639 331z"/>
<path d="M22469 25520 c-232 -255 -223 -940 14 -1155 229 -207 752 -214 919
-13 171 206 50 303 -227 183 -124 -53 -304 -80 -400 -59 -213 47 -342 495
-205 714 147 234 523 258 681 43 126 -171 139 -171 201 -11 113 290 4 408
-414 447 -297 28 -444 -10 -569 -149z"/>
<path d="M7300 25406 c0 -52 45 -122 100 -156 55 -34 100 -262 100 -506 0
-244 -45 -444 -100 -444 -55 0 -100 -45 -100 -100 0 -55 135 -100 300 -100
295 0 414 145 182 223 -141 47 -36 377 120 377 59 0 184 -135 278 -299 160
-282 520 -421 520 -201 0 55 -41 100 -90 100 -50 0 -183 157 -297 350 l-206
350 246 161 c326 214 313 360 -28 321 -151 -18 -265 -84 -253 -147 27 -144
-253 -387 -343 -298 -36 37 -12 120 53 185 193 193 137 278 -182 278 -165 0
-300 -42 -300 -94z"/>
<path d="M24146 25193 c-92 -149 15 -230 206 -156 88 34 133 107 98 162 -81
131 -221 129 -304 -6z"/>
<path d="M25265 25117 c-354 -392 -29 -991 485 -892 164 31 244 8 221 -63 -21
-62 -166 -134 -324 -162 -340 -59 -389 -237 -77 -281 453 -65 630 141 630 735
0 300 45 546 100 546 55 0 100 68 100 150 0 232 -919 206 -1135 -33z m715
-399 c-42 -221 -534 -282 -613 -76 -32 84 10 221 94 305 192 192 567 26 519
-229z"/>
<path d="M28171 25238 c-159 -159 -54 -250 219 -190 160 35 317 22 349 -30 31
-51 -58 -93 -200 -93 -359 0 -620 -275 -477 -502 110 -173 815 -273 1138 -161
129 45 127 69 -17 175 -92 68 -182 279 -200 468 -30 315 -63 348 -387 375
-194 16 -385 -3 -425 -42z m629 -638 c0 -55 -138 -100 -306 -100 -178 0 -280
42 -244 100 34 55 172 100 306 100 134 0 244 -45 244 -100z"/>
<path d="M29636 25150 c-95 -248 42 -450 305 -450 256 0 472 -191 240 -212
-199 -18 -215 -16 -456 57 -183 56 -225 30 -225 -138 0 -177 62 -207 430 -207
393 0 670 129 670 313 0 165 -332 387 -577 387 -190 0 -233 30 -154 109 79 79
166 79 314 0 280 -150 317 -139 317 91 0 167 -67 200 -403 200 -266 0 -423
-51 -461 -150z"/>
<path d="M31036 25150 c-95 -248 42 -450 305 -450 136 0 273 -41 304 -91 85
-138 -169 -195 -381 -86 -231 119 -465 -62 -297 -230 166 -166 846 -70 973
138 88 144 71 210 -84 325 -107 79 -307 144 -445 144 -198 0 -225 26 -129 122
97 97 167 95 332 -8 227 -141 462 -19 341 177 -104 170 -851 136 -919 -41z"/>
<path d="M10412 24600 c-536 -127 -1127 -605 -1398 -1132 -764 -1484 274
-3368 1855 -3368 l477 0 -398 -263 c-917 -606 -1891 -1720 -2513 -2874 -329
-610 -330 -611 -333 -263 -5 588 -198 1095 -576 1514 -859 951 -1963 1017
-2878 174 -1174 -1083 -922 -3035 483 -3735 830 -413 1643 -279 2301 379 240
240 366 317 332 203 -392 -1287 -389 -3394 4 -4685 46 -150 -40 -108 -346 168
-370 335 -931 581 -1322 581 -767 0 -1690 -717 -1957 -1520 -217 -654 -142
-1442 190 -2009 1044 -1776 3587 -1167 3834 918 l60 508 446 -723 c615 -997
1264 -1732 2004 -2268 l627 -455 -394 -68 c-1171 -204 -1864 -1128 -1793
-2390 111 -1950 2097 -2840 3445 -1545 865 832 933 2273 151 3195 -153 181
-151 187 37 116 503 -189 1570 -355 2300 -355 694 -1 1471 137 2550 453 l250
74 -220 -242 c-343 -375 -530 -928 -528 -1560 3 -689 237 -1249 711 -1697 428
-405 767 -531 1424 -531 1363 0 2346 1480 1930 2907 -277 952 -1071 1589
-1989 1596 l-428 3 300 219 c1009 733 2473 2464 2710 3205 55 170 101 72 204
-430 241 -1172 1024 -1900 2045 -1900 611 0 958 133 1378 531 904 855 967
2424 133 3303 -840 885 -2163 890 -2968 12 l-325 -356 144 530 c297 1089 279
3003 -41 4380 l-58 250 214 -266 c488 -606 1531 -847 2291 -529 516 215 811
513 1085 1095 428 907 285 1858 -390 2602 -1014 1118 -2675 821 -3334 -595
-130 -279 -238 -687 -240 -907 l-4 -400 -354 665 c-597 1118 -1448 2046 -2675
2916 -164 116 -144 126 180 89 1088 -127 2255 1041 2255 2256 0 1223 -1042
2321 -2205 2323 -141 1 -487 -114 -770 -255 -1210 -603 -1593 -2140 -836
-3356 240 -387 274 -492 139 -432 -98 44 -549 172 -1003 285 l-825 205 0 681
0 681 -775 -29 -775 -29 -29 -652 -29 -652 -821 -214 c-452 -118 -911 -248
-1021 -289 -188 -71 -187 -61 20 167 345 380 550 980 550 1610 0 1374 -1263
2472 -2508 2180z m9637 -487 c1050 -606 1240 -2247 363 -3125 -897 -897 -2288
-622 -2824 558 -763 1679 933 3448 2461 2567z m-8459 42 c1275 -659 1401
-2631 218 -3427 -1424 -960 -3173 505 -2661 2229 142 481 547 976 1003 1227
286 158 1111 141 1440 -29z m5049 -3752 c2439 -624 4500 -2741 5211 -5353 254
-936 309 -2750 111 -3725 -621 -3065 -2890 -5425 -5755 -5986 -2336 -457
-4736 455 -6439 2447 -603 705 -1397 2326 -1623 3314 -245 1072 -223 2810 50
3850 1041 3967 4790 6387 8445 5453z m-9839 -1958 c585 -295 1002 -1032 998
-1767 -6 -1211 -1156 -2202 -2193 -1891 -826 247 -1401 1032 -1401 1913 0 829
607 1711 1279 1859 147 32 312 72 367 88 158 46 677 -64 950 -202z m18230 -73
c1052 -802 1013 -2509 -75 -3254 -652 -447 -1436 -404 -2023 111 -830 729
-955 1869 -309 2798 494 709 1703 882 2407 345z m-18130 -7627 c585 -295 1002
-1032 998 -1767 -6 -1211 -1156 -2202 -2193 -1891 -826 247 -1401 1032 -1401
1913 0 829 607 1711 1279 1859 147 32 312 72 367 88 158 46 677 -64 950 -202z
m17830 93 c729 -369 1070 -938 1070 -1788 0 -1759 -1904 -2606 -3037 -1351
-706 782 -731 1875 -59 2641 557 633 1366 832 2026 498z m-12827 -5663 c724
-366 1182 -1276 1046 -2078 -92 -547 -560 -1232 -976 -1429 -431 -205 -1187
-218 -1553 -27 -363 189 -783 646 -914 991 -292 773 8 1951 607 2377 608 433
1160 484 1790 166z m8276 -142 c942 -751 1057 -2050 259 -2933 -1134 -1256
-3038 -410 -3038 1350 0 1194 814 2003 1929 1916 343 -27 584 -121 850 -333z"/>
<path d="M18854 22965 c-128 -93 -149 -156 -69 -206 63 -39 160 -43 215 -9 62
38 100 -132 100 -444 0 -439 -26 -506 -200 -506 -110 0 -200 -45 -200 -100 0
-55 248 -100 550 -100 303 0 550 45 550 100 0 55 -90 100 -200 100 -179 0
-200 67 -200 650 0 560 -25 650 -181 650 -99 0 -264 -61 -365 -135z"/>
<path d="M10502 23002 c-115 -115 -172 -264 -136 -359 34 -88 67 -348 73 -577
11 -403 22 -417 370 -446 448 -38 669 178 520 508 -68 151 -67 298 6 459 90
201 70 267 -125 425 -296 239 -461 237 -708 -10z m598 -302 c0 -131 -67 -200
-194 -200 -220 0 -348 151 -256 300 115 186 450 112 450 -100z m-25 -675 c55
-164 -259 -281 -393 -147 -58 58 -73 156 -34 219 88 143 371 95 427 -72z"/>
<path d="M5500 17150 c0 -137 45 -250 100 -250 55 0 100 45 100 100 0 55 113
100 250 100 292 0 299 -37 100 -600 -173 -491 -190 -700 -54 -700 121 0 534
1370 453 1502 -33 54 -261 98 -505 98 -407 0 -444 -21 -444 -250z"/>
<path d="M23811 17537 c-116 -82 -211 -213 -211 -293 0 -191 100 -182 250 22
140 192 450 118 450 -108 0 -82 -180 -293 -400 -470 -560 -450 -525 -588 150
-588 303 0 550 45 550 100 0 55 -166 100 -370 100 l-369 0 369 338 c377 345
469 661 245 834 -246 190 -455 211 -664 65z"/>
<path d="M5869 9597 c-212 -166 -269 -296 -269 -611 0 -560 145 -786 506 -786
418 0 595 381 350 755 -134 204 -226 249 -414 202 -282 -71 -301 -30 -85 186
87 86 270 157 408 157 157 0 236 47 211 125 -70 210 -423 196 -707 -28z m431
-891 c0 -256 -172 -353 -356 -201 -111 92 -119 154 -33 258 166 200 389 167
389 -57z"/>
<path d="M23635 9646 c-83 -215 13 -281 237 -161 216 116 488 -7 385 -174 -38
-61 -134 -111 -213 -111 -217 0 -173 -211 56 -271 111 -29 200 -136 200 -241
0 -153 -75 -188 -400 -188 -445 0 -538 -162 -150 -259 393 -98 740 32 808 305
33 133 24 301 -21 373 -44 72 -67 235 -51 361 16 127 -24 296 -90 375 -161
194 -686 187 -761 -9z"/>
<path d="M10739 4058 c-29 -77 -39 -269 -21 -425 28 -251 67 -280 344 -253
370 35 535 -226 295 -465 -118 -119 -200 -127 -393 -39 -282 128 -413 54 -251
-142 138 -166 705 -176 867 -14 210 210 143 661 -126 836 -135 89 -292 132
-350 97 -57 -36 -104 5 -104 91 0 107 95 156 300 156 200 0 300 50 300 150 0
203 -783 211 -861 8z"/>
<path d="M18859 3737 c-328 -586 -325 -637 41 -637 165 0 300 -45 300 -100 0
-55 -45 -100 -100 -100 -55 0 -100 -45 -100 -100 0 -55 130 -100 288 -100 264
0 286 27 261 325 -15 179 -32 516 -38 750 -16 602 -304 585 -652 -38z m300
-411 c-109 -110 -184 64 -106 245 74 171 80 171 121 -4 24 -100 17 -209 -15
-241z"/>
<path d="M24125 24375 c23 -69 102 -125 175 -125 73 0 152 56 175 125 25 74
-46 125 -175 125 -129 0 -200 -51 -175 -125z"/>
<path d="M2154 19007 c-31 -51 -12 -121 44 -156 56 -35 102 -260 102 -501 0
-241 -46 -466 -102 -501 -146 -91 -18 -249 202 -249 237 0 367 197 198 301
-183 113 -41 399 199 399 227 0 278 -285 86 -477 -89 -89 -78 -131 47 -179
327 -126 399 3 409 736 10 678 -2 720 -208 720 -246 0 -388 -153 -233 -249
200 -124 104 -351 -148 -351 -156 0 -250 57 -250 150 0 83 45 150 100 150 55
0 100 68 100 150 0 166 -449 213 -546 57z"/>
<path d="M26600 18606 c0 -52 45 -122 100 -156 55 -34 100 -236 100 -450 0
-214 -45 -416 -100 -450 -197 -122 -95 -250 200 -250 295 0 397 128 200 250
-199 123 -101 350 150 350 251 0 349 -227 150 -350 -197 -122 -95 -250 200
-250 295 0 397 128 200 250 -55 34 -100 236 -100 450 0 214 45 416 100 450
197 122 95 250 -200 250 -165 0 -300 -45 -300 -100 0 -55 45 -100 100 -100 55
0 100 -67 100 -150 0 -93 -94 -150 -250 -150 -156 0 -250 57 -250 150 0 83 45
150 100 150 55 0 100 45 100 100 0 55 -135 100 -300 100 -165 0 -300 -42 -300
-94z"/>
<path d="M3219 8295 c-128 -52 -202 -142 -165 -201 36 -59 129 -83 206 -54
108 42 140 -59 140 -443 0 -430 -27 -497 -200 -497 -238 0 -265 -154 -42 -239
339 -130 942 -34 942 150 0 49 -90 89 -200 89 -179 0 -200 67 -200 650 0 686
-34 724 -481 545z"/>
<path d="M29657 8243 c-86 -87 -157 -199 -157 -250 0 -124 172 -119 250 7 85
138 422 126 511 -18 45 -72 -89 -259 -344 -478 -583 -502 -559 -704 83 -704
378 0 500 37 500 150 0 102 -102 150 -320 150 l-319 0 319 330 c334 343 404
646 200 850 -168 168 -536 149 -723 -37z"/>
<path d="M100 8206 c0 -52 45 -122 100 -156 141 -87 126 -925 -18 -973 -64
-21 -84 -92 -44 -158 124 -200 862 -122 862 92 0 49 -90 89 -200 89 -111 0
-200 67 -200 150 0 90 92 150 230 150 417 0 638 492 350 780 -141 141 -1080
164 -1080 26z m1000 -345 c0 -131 -203 -261 -408 -261 -51 0 -92 90 -92 200 0
147 67 200 250 200 147 0 250 -57 250 -139z"/>
<path d="M1800 8108 c0 -105 -56 -218 -125 -250 -100 -46 -100 -70 0 -116 69
-32 125 -213 125 -402 0 -426 301 -611 728 -448 390 148 338 306 -78 239 -338
-55 -350 -46 -350 256 0 267 37 313 250 313 138 0 250 45 250 100 0 55 -107
100 -238 100 -155 0 -257 71 -291 200 -67 255 -271 261 -271 8z"/>
<path d="M26600 8150 c0 -82 45 -150 100 -150 142 0 126 -875 -18 -923 -230
-76 36 -277 368 -277 390 0 571 187 260 268 -299 79 -260 176 115 286 258 76
332 157 359 391 43 382 -192 555 -753 555 -316 0 -431 -40 -431 -150z m950
-350 c0 -82 -101 -164 -225 -182 -173 -25 -225 17 -225 182 0 165 52 207 225
182 124 -18 225 -99 225 -182z"/>
<path d="M28300 8117 c0 -110 -56 -219 -125 -242 -96 -33 -98 -76 -9 -184 64
-77 132 -271 150 -431 44 -378 289 -532 647 -406 344 121 282 281 -112 289
-387 9 -435 379 -59 457 348 72 373 279 39 318 -161 18 -281 93 -281 174 0 78
-56 160 -125 183 -72 24 -125 -43 -125 -158z"/>
<path d="M8675 1731 c-96 -25 -175 -112 -175 -193 0 -84 74 -134 175 -117 140
23 181 -56 206 -396 27 -384 4 -436 -242 -529 -389 -148 -168 -316 365 -277
432 31 702 281 304 281 -189 0 -208 58 -208 650 0 664 -17 688 -425 581z"/>
<path d="M24275 1692 c-96 -56 -175 -167 -175 -247 0 -166 158 -194 250 -45
82 132 421 128 503 -5 36 -58 -141 -291 -394 -518 -615 -553 -598 -677 91
-677 422 0 550 35 550 150 0 102 -102 150 -320 150 l-319 0 319 330 c355 366
398 578 163 813 -180 179 -415 197 -668 49z"/>
<path d="M5656 1478 c-224 -319 -198 -836 55 -1089 165 -165 289 -199 563
-155 419 68 386 37 474 448 l71 331 -385 -31 c-401 -33 -492 -209 -136 -264
274 -43 154 -218 -150 -218 -458 0 -569 675 -148 900 136 73 226 60 336 -50
218 -218 364 -184 364 84 0 207 -50 235 -444 250 -357 14 -474 -26 -600 -206z"/>
<path d="M7229 1525 c-35 -96 -113 -212 -172 -258 -74 -57 -69 -98 18 -133 69
-28 125 -173 125 -323 0 -460 211 -650 634 -571 495 93 510 371 16 291 -338
-55 -350 -46 -350 256 0 281 31 313 300 313 165 0 300 45 300 100 0 55 -135
100 -300 100 -233 0 -300 44 -300 200 0 246 -183 263 -271 25z"/>
<path d="M21344 1493 c-259 -286 -257 -963 2 -1153 280 -204 847 -182 914 35
30 96 96 253 147 348 74 138 42 186 -157 236 -285 71 -550 -4 -550 -156 0 -57
90 -103 200 -103 110 0 200 -48 200 -106 0 -193 -645 -61 -683 139 -70 371 75
667 329 667 133 0 270 -45 304 -100 109 -177 250 -107 250 125 0 190 -61 229
-384 251 -284 20 -432 -28 -572 -183z"/>
<path d="M22900 1511 c0 -104 -79 -220 -175 -257 -163 -64 -163 -77 -8 -191
92 -68 182 -278 200 -467 36 -371 203 -463 641 -353 305 77 319 278 17 253
-409 -33 -475 2 -475 247 0 190 59 251 267 275 390 46 424 282 41 282 -241 0
-308 43 -308 200 0 110 -45 200 -100 200 -55 0 -100 -85 -100 -189z"/>
</g>
</svg>
