<?xml version="1.0" standalone="no"?>
<!DOCTYPE svg PUBLIC "-//W3C//DTD SVG 20010904//EN"
 "http://www.w3.org/TR/2001/REC-SVG-20010904/DTD/svg10.dtd">
<svg version="1.0" xmlns="http://www.w3.org/2000/svg"
 width="324.266971pt" height="269.702609pt" viewBox="0 0 324.266971 269.702609"
 preserveAspectRatio="xMidYMid meet">
<metadata>
Created by potrace 1.13, written by Peter Selinger 2001-2015
</metadata>
<g transform="translate(-1.329467,270.840999) scale(0.010000,-0.010000)"
fill="#fff" stroke="none">
<path d="M22853 27005 c-36 -58 50 -149 191 -203 215 -82 256 -160 256 -493 0
-321 -38 -401 -204 -427 -411 -64 -231 -233 279 -262 345 -20 525 9 525 84 0
63 -90 138 -200 167 -162 42 -200 136 -200 491 0 377 29 438 208 438 122 0
192 52 168 125 -52 155 -934 224 -1023 80z"/>
<path d="M24403 26903 c-264 -264 -275 -906 -20 -1138 229 -207 752 -214 919
-13 172 208 62 290 -200 149 -171 -92 -265 -83 -459 44 -263 173 -302 358
-139 662 127 237 551 255 639 26 83 -216 290 -27 241 221 -53 273 -724 306
-981 49z"/>
<path d="M5748 26598 c-138 -152 -155 -231 -69 -317 86 -86 130 -73 178 52 74
192 396 223 504 49 45 -72 -90 -264 -344 -489 -577 -512 -555 -693 83 -693
378 0 500 37 500 150 0 102 -102 150 -322 150 l-323 0 323 294 c334 306 417
671 202 886 -182 182 -528 144 -732 -82z"/>
<path d="M4309 26438 c-411 -521 -166 -1239 422 -1236 407 1 522 82 606 423
63 261 48 275 -285 275 -194 0 -352 -45 -352 -100 0 -55 90 -100 200 -100 110
0 200 -40 200 -89 0 -153 -305 -215 -513 -104 -153 82 -191 190 -168 475 27
318 68 372 306 400 151 17 275 -17 275 -75 0 -59 71 -107 157 -107 104 0 146
73 125 215 -25 166 -115 223 -398 252 -302 30 -403 -10 -575 -229z"/>
<path d="M8250 25410 c-1460 -678 -1792 -2548 -659 -3718 635 -655 1334 -821
2191 -522 92 33 -17 -139 -243 -380 -525 -562 -971 -1227 -1327 -1980 l-281
-595 -116 502 c-407 1763 -2341 2375 -3535 1117 -388 -409 -580 -944 -578
-1606 3 -689 237 -1249 711 -1697 426 -402 767 -531 1410 -531 539 0 1242 323
1497 688 109 155 130 -80 130 -1437 l0 -1622 -384 327 c-1395 1192 -3366 135
-3366 -1804 0 -1298 754 -2158 1958 -2234 550 -35 696 -5 1091 226 502 294
912 834 1011 1333 84 418 196 410 339 -25 135 -409 927 -1647 1393 -2177 l325
-370 -315 109 c-895 312 -1952 -171 -2427 -1108 -887 -1748 540 -3727 2350
-3259 1270 328 1962 2021 1328 3248 -87 168 -137 305 -111 305 27 0 260 -143
518 -317 626 -423 1422 -742 2360 -947 l769 -168 -436 -276 c-255 -162 -553
-476 -719 -759 -240 -408 -284 -591 -281 -1183 5 -1337 831 -2250 2037 -2250
624 0 890 101 1365 517 1156 1016 925 3075 -422 3767 l-349 179 666 122 c897
165 1885 546 2540 980 405 268 520 310 461 171 -301 -715 -367 -1028 -318
-1516 68 -677 458 -1345 990 -1697 347 -229 520 -273 1086 -273 586 0 730 39
1107 301 808 559 1163 1649 876 2684 -263 947 -1429 1678 -2339 1468 -219 -51
-407 -83 -418 -72 -11 12 204 290 478 620 273 329 709 1035 967 1567 259 533
504 972 545 975 41 4 75 -107 75 -247 0 -556 594 -1343 1270 -1685 663 -334
1678 -108 2250 501 797 851 797 2425 0 3276 -821 875 -2180 853 -2971 -47
l-299 -341 0 1600 0 1600 226 -231 c513 -523 1445 -664 2181 -330 1394 633
1682 2690 530 3780 -424 401 -767 531 -1398 531 -1005 0 -1802 -699 -2037
-1783 l-72 -334 -236 509 c-288 622 -761 1321 -1265 1868 l-377 410 501 -48
c2035 -195 3116 2498 1584 3947 -424 401 -767 531 -1397 531 -1480 0 -2476
-1594 -1915 -3062 l196 -512 -561 330 c-2203 1299 -5214 1194 -7384 -258
l-325 -217 197 435 c831 1831 -931 3890 -2648 3094z m1327 -265 c1024 -428
1498 -1592 1068 -2622 -456 -1091 -1669 -1497 -2572 -860 -1282 906 -1058
2979 377 3487 518 183 679 182 1127 -5z m12174 -189 c1281 -977 822 -3206
-724 -3516 -1048 -209 -2119 755 -2125 1915 -3 607 426 1389 932 1699 575 353
1379 312 1917 -98z m-5069 -2466 c2556 -674 4532 -2866 5170 -5733 132 -594
160 -1062 122 -2039 -60 -1515 -219 -2157 -846 -3418 -391 -788 -627 -1106
-1375 -1860 -1511 -1524 -2845 -2096 -4853 -2082 -961 7 -1282 52 -1950 273
-2460 812 -4279 2895 -4909 5619 -235 1020 -210 2783 55 3800 656 2516 2386
4488 4663 5314 1252 454 2523 495 3923 126z m-9910 -2656 c520 -421 776 -967
767 -1634 -27 -1998 -2449 -2634 -3349 -879 -369 720 -185 1891 377 2400 616
556 1595 606 2205 113z m18280 21 c1120 -854 950 -2749 -302 -3355 -1128 -546
-2356 228 -2517 1587 -83 701 302 1500 898 1866 579 355 1381 314 1921 -98z
m138 -5886 c522 -346 810 -962 808 -1726 -4 -1737 -1848 -2560 -3008 -1343
-606 634 -715 1549 -287 2400 480 956 1599 1256 2487 669z m-18525 -101 c634
-328 1056 -1453 842 -2244 -129 -477 -592 -1059 -1017 -1279 -544 -282 -1405
-150 -1875 287 -581 541 -793 1617 -470 2391 176 421 757 952 1132 1034 150
33 318 72 373 85 162 41 676 -98 1015 -274z m2865 -5203 c414 -173 914 -743
1072 -1220 280 -851 -138 -1948 -902 -2366 -519 -284 -1361 -209 -1851 165
-1674 1277 -229 4219 1681 3421z m12422 -310 c1053 -803 982 -2499 -136 -3264
-538 -368 -1375 -338 -1886 68 -907 722 -1075 1908 -407 2868 502 720 1703
882 2429 328z m-6284 -2049 c264 -120 523 -348 700 -616 243 -367 282 -524
282 -1140 0 -612 -39 -774 -275 -1130 -332 -501 -914 -820 -1496 -820 -1227 1
-2124 1480 -1624 2678 439 1050 1432 1473 2413 1028z"/>
<path d="M8665 23817 c-207 -230 -209 -410 -4 -703 125 -178 220 -215 418
-166 224 56 240 45 126 -92 -71 -86 -263 -156 -426 -156 -359 0 -334 -235 30
-279 390 -47 691 309 691 817 0 660 -468 985 -835 579z m568 -260 c66 -170
-180 -402 -329 -310 -57 36 -104 152 -104 259 0 229 349 271 433 51z"/>
<path d="M20525 23997 c-279 -112 -294 -297 -25 -297 170 0 200 -67 200 -443
0 -383 -30 -447 -225 -475 -423 -60 -226 -232 300 -262 421 -24 525 0 525 125
0 88 -86 155 -200 155 -179 0 -200 67 -200 650 0 679 -10 694 -375 547z"/>
<path d="M5428 18880 c-58 -71 -106 -389 -108 -706 -3 -476 31 -594 198 -683
301 -162 669 -29 743 268 35 141 17 303 -41 361 -74 74 -71 162 11 293 86 137
88 235 8 362 -134 214 -667 283 -811 105z m553 -306 c23 -119 -30 -174 -168
-174 -229 0 -356 149 -260 306 98 157 390 67 428 -132z m0 -700 c23 -119 -30
-174 -168 -174 -229 0 -356 149 -260 306 98 157 390 67 428 -132z"/>
<path d="M23811 19037 c-116 -82 -211 -213 -211 -293 0 -189 163 -185 236 6
72 188 303 194 455 11 92 -111 23 -220 -338 -537 -249 -220 -453 -450 -453
-512 0 -69 210 -112 550 -112 303 0 550 45 550 100 0 55 -135 100 -300 100
-165 0 -300 19 -300 42 0 24 135 178 300 343 316 315 385 625 175 787 -246
190 -455 211 -664 65z"/>
<path d="M23871 12938 c-39 -39 -71 -130 -71 -203 0 -104 52 -107 253 -16 181
83 283 85 361 7 131 -131 30 -326 -170 -326 -214 0 -174 -177 56 -250 113 -36
200 -151 200 -264 0 -171 -56 -197 -367 -170 -457 40 -563 -172 -134 -266 509
-112 1031 386 726 692 -41 41 -75 240 -75 441 0 348 -19 369 -354 397 -194 16
-385 -3 -425 -42z"/>
<path d="M5220 12625 c27 -136 117 -168 405 -142 l369 32 -198 -576 c-129
-376 -164 -611 -100 -675 63 -63 115 -48 149 44 256 704 355 1053 355 1255 0
218 -40 237 -507 237 -430 0 -502 -27 -473 -175z"/>
<path d="M8679 7479 c-456 -346 -402 -1319 80 -1440 287 -72 641 187 641 469
0 270 -299 515 -566 465 -129 -25 -234 -8 -234 39 0 115 453 402 578 367 56
-16 108 16 115 71 20 154 -422 175 -614 29z m421 -979 c0 -131 -67 -200 -194
-200 -220 0 -348 151 -256 300 115 186 450 112 450 -100z"/>
<path d="M20607 7063 c-169 -296 -307 -566 -307 -600 0 -35 169 -64 375 -66
306 -3 342 -22 198 -106 -227 -132 -130 -291 177 -291 269 0 411 151 241 256
-80 49 -73 93 22 152 108 67 110 109 11 208 -68 68 -124 318 -124 554 0 598
-211 560 -593 -107z m304 -392 c-173 -173 -239 -9 -98 245 115 210 132 215
167 48 21 -102 -10 -234 -69 -293z"/>
<path d="M14500 4860 c0 -432 5 -439 325 -425 272 13 331 -24 359 -224 32
-226 11 -237 -375 -185 -308 41 -409 21 -409 -84 0 -151 379 -280 664 -225 98
19 245 153 327 297 132 236 129 290 -24 524 -109 166 -263 262 -419 262 -362
0 -304 182 69 219 522 51 474 281 -59 281 l-458 0 0 -440z"/>
<path d="M28625 19897 c-280 -113 -301 -340 -25 -268 180 47 200 3 200 -438 0
-431 -26 -491 -208 -491 -422 0 -117 -251 341 -280 369 -25 467 2 467 125 0
88 -86 155 -200 155 -179 0 -200 67 -200 650 0 679 -10 694 -375 547z"/>
<path d="M27068 19720 c-256 -283 -224 -969 54 -1164 432 -303 951 -124 1001
344 23 209 -20 255 -260 283 -369 42 -607 -164 -286 -248 292 -76 287 -235 -7
-235 -446 0 -638 517 -313 843 199 199 288 197 492 -7 184 -184 416 -50 325
187 -84 219 -807 217 -1006 -3z"/>
<path d="M169 19536 c-104 -104 28 -236 237 -236 163 0 194 -71 194 -443 0
-369 -34 -448 -204 -475 -411 -64 -231 -233 279 -262 421 -24 525 0 525 125 0
88 -86 155 -200 155 -170 0 -200 67 -200 450 0 383 30 450 200 450 111 0 200
67 200 150 0 113 -120 150 -483 150 -266 0 -512 -29 -548 -64z"/>
<path d="M1703 19403 c-268 -268 -270 -836 -3 -1103 222 -222 695 -265 880
-80 206 206 133 263 -270 209 -331 -45 -408 -19 -510 172 -264 491 416 1009
688 524 93 -165 102 -165 165 -3 109 285 6 406 -380 445 -271 28 -421 -15
-570 -164z"/>
<path d="M31667 13233 c-177 -176 -55 -326 221 -270 375 75 508 -131 168 -261
-320 -122 -322 -182 -6 -302 488 -185 206 -568 -321 -436 -192 48 -244 30
-209 -75 27 -81 216 -152 456 -169 333 -25 432 9 523 178 63 117 79 307 38
431 -41 121 -62 325 -48 451 15 127 -27 296 -93 375 -123 148 -608 200 -729
78z"/>
<path d="M27138 13081 c-40 -66 -20 -137 44 -158 144 -48 159 -886 18 -973
-196 -121 -95 -250 194 -250 349 0 478 150 243 281 -102 57 -143 158 -106 257
100 258 259 190 439 -188 100 -210 240 -350 349 -350 245 0 231 59 -121 502
l-301 381 268 211 c191 150 238 243 163 318 -149 149 -483 62 -454 -117 13
-82 -66 -204 -175 -272 -164 -103 -199 -99 -199 18 0 78 53 160 118 182 173
57 1 277 -218 277 -104 0 -221 -54 -262 -119z"/>
<path d="M30207 12937 c-435 -553 -162 -1237 493 -1237 421 0 440 15 538 425
62 260 47 275 -286 275 -395 0 -471 -143 -127 -240 207 -58 211 -72 48 -168
-97 -57 -269 -75 -380 -40 -169 54 -199 136 -173 481 27 372 60 420 305 449
151 17 275 -17 275 -75 0 -59 68 -107 150 -107 83 0 150 84 150 188 0 130 -96
206 -312 250 -449 89 -453 88 -681 -201z"/>
<path d="M29062 11684 c-86 -427 -10 -468 181 -98 192 372 194 414 20 414 -76
0 -166 -142 -201 -316z"/>
<path d="M1754 11407 c-31 -51 -12 -121 44 -156 56 -35 102 -260 102 -501 0
-241 -46 -466 -102 -501 -184 -114 8 -249 352 -249 390 0 571 187 260 268
-267 70 -274 232 -10 232 208 0 600 326 600 500 0 55 -90 190 -200 300 -210
210 -936 284 -1046 107z m896 -407 c0 -82 -101 -164 -225 -182 -173 -25 -225
17 -225 182 0 165 52 207 225 182 124 -18 225 -99 225 -182z"/>
<path d="M23350 4600 c0 -659 13 -700 225 -700 232 0 302 141 125 250 -199
123 -101 350 150 350 183 0 250 -53 250 -200 0 -110 -48 -200 -106 -200 -58 0
-78 -45 -44 -100 34 -55 160 -100 281 -100 204 0 219 46 219 700 l0 700 -295
0 c-229 0 -268 -27 -175 -120 198 -198 136 -380 -130 -380 -253 0 -334 136
-150 250 177 109 107 250 -125 250 -212 0 -225 -41 -225 -700z"/>
<path d="M5000 3891 c0 -61 90 -133 200 -162 162 -42 200 -136 200 -491 0
-377 -29 -438 -208 -438 -398 0 -128 -250 304 -281 483 -36 802 148 427 246
-187 49 -223 128 -223 485 0 349 38 437 210 482 116 30 180 102 144 161 -88
143 -1054 140 -1054 -2z"/>
<path d="M6640 3922 c-164 -108 -340 -480 -340 -720 0 -288 436 -702 738 -702
279 0 596 264 502 417 -41 66 -100 63 -171 -8 -145 -145 -499 -139 -649 11
-175 175 -147 655 44 762 185 103 536 42 536 -94 0 -48 45 -88 100 -88 55 0
100 105 100 234 0 200 -53 235 -375 247 -206 8 -425 -19 -485 -59z"/>
<path d="M14461 875 c9 -641 32 -725 200 -725 153 0 183 62 158 325 -26 269 3
325 169 325 258 0 361 -170 212 -350 -143 -172 -38 -372 172 -331 119 24 157
192 167 756 14 691 4 725 -212 725 -235 0 -320 -252 -109 -323 179 -59 -3
-277 -232 -277 -172 0 -192 44 -136 300 58 266 40 300 -167 300 -224 0 -233
-29 -222 -725z"/>
</g>
</svg>
