<?xml version="1.0" standalone="no"?>
<!DOCTYPE svg PUBLIC "-//W3C//DTD SVG 20010904//EN"
 "http://www.w3.org/TR/2001/REC-SVG-20010904/DTD/svg10.dtd">
<svg version="1.0" xmlns="http://www.w3.org/2000/svg"
 width="317.631675pt" height="276.393423pt" viewBox="0 0 317.631675 276.393423"
 preserveAspectRatio="xMidYMid meet">
<metadata>
Created by potrace 1.13, written by Peter Selinger 2001-2015
</metadata>
<g transform="translate(0.028679,277.393423) scale(0.010000,-0.010000)"
fill="#fff" stroke="none">
<path d="M25199 27547 c-90 -237 -277 -402 -360 -319 -27 27 21 118 106 203
226 226 195 269 -195 269 -192 0 -350 -45 -350 -100 0 -55 45 -100 100 -100
55 0 100 -222 100 -494 0 -272 -45 -522 -100 -556 -208 -129 -87 -250 250
-250 337 0 458 121 250 250 -132 82 -129 450 3 450 57 0 197 -157 310 -350
121 -205 286 -350 397 -350 217 0 252 151 63 270 -70 44 -212 212 -315 373
l-186 293 264 227 c326 281 326 302 7 363 -201 38 -277 -1 -344 -179z"/>
<path d="M26254 27477 c-102 -203 -123 -337 -58 -359 57 -19 105 -177 106
-351 2 -474 115 -585 557 -549 271 22 399 84 422 202 27 144 -14 156 -267 84
-357 -102 -414 -59 -414 313 0 250 36 283 308 283 383 0 349 236 -41 282 -147
17 -267 93 -267 169 0 281 -190 241 -346 -74z"/>
<path d="M5254 27607 c-31 -51 -12 -121 44 -156 56 -35 102 -260 102 -501 0
-241 -46 -466 -102 -501 -194 -120 16 -249 408 -249 412 0 541 180 194 271
-110 29 -200 92 -200 141 0 48 90 88 200 88 110 0 292 92 404 204 112 112 247
176 300 144 127 -79 124 -1019 -4 -1098 -218 -135 -80 -250 300 -250 396 0
540 153 250 264 -260 99 -175 313 104 260 499 -96 825 493 510 923 -106 145
-250 182 -665 167 -419 -15 -569 24 -718 184 -200 214 -1013 293 -1127 109z
m927 -382 c-18 -96 -134 -189 -257 -207 -170 -24 -224 18 -224 175 0 156 64
207 257 207 191 0 249 -45 224 -175z m1365 -286 c203 -203 25 -464 -286 -419
-243 35 -341 367 -145 491 190 121 249 111 431 -72z"/>
<path d="M21625 26803 c-1117 -507 -1658 -1819 -1250 -3028 107 -316 184 -575
172 -575 -13 0 -272 150 -576 333 -2213 1333 -5465 1233 -7640 -236 -346 -233
-438 -264 -380 -127 549 1298 456 2167 -323 3034 -515 572 -932 734 -1739 676
-1166 -85 -1989 -1055 -1989 -2345 0 -749 184 -1252 630 -1722 582 -614 1526
-877 2211 -616 209 79 149 -29 -330 -600 -321 -383 -790 -1099 -1042 -1591
l-457 -895 -114 547 c-223 1075 -1116 1856 -2122 1856 -651 0 -951 -110 -1421
-523 -1300 -1141 -1033 -3362 491 -4079 825 -387 1827 -183 2469 504 l296 317
-80 -541 c-45 -298 -75 -1095 -67 -1770 l15 -1228 -239 258 c-576 621 -1634
814 -2409 439 -1450 -702 -1760 -2896 -565 -4005 457 -423 876 -586 1504 -584
987 2 1823 672 2085 1669 l125 479 224 -500 c310 -694 1045 -1827 1476 -2275
390 -405 370 -429 -215 -267 -1370 380 -2832 -1133 -2615 -2707 167 -1218
1225 -2165 2321 -2077 744 60 1375 479 1768 1176 269 476 310 645 304 1250 -5
522 -64 811 -232 1136 l-226 436 332 -250 c776 -583 2177 -1150 3277 -1325
l445 -71 -295 -150 c-1167 -594 -1669 -2075 -1109 -3277 1054 -2263 4165
-1504 4165 1016 0 1017 -445 1838 -1197 2211 l-407 201 477 69 c1039 150 2441
700 3262 1280 l284 201 -154 -298 c-305 -590 -392 -1167 -267 -1771 227 -1091
1114 -1872 2126 -1872 651 0 951 110 1421 523 1952 1714 178 5055 -2195 4133
-134 -52 -67 68 203 365 590 648 1002 1280 1474 2264 l419 872 70 -414 c237
-1388 1712 -2297 2912 -1794 1587 665 1975 2835 727 4060 -937 920 -2221 852
-3115 -166 l-310 -353 92 637 c89 612 35 2166 -93 2687 -58 236 -39 229 348
-118 838 -755 1907 -758 2737 -7 606 547 824 1043 824 1875 0 832 -218 1328
-824 1875 -827 748 -1901 748 -2728 0 -420 -379 -786 -987 -786 -1304 0 -405
-150 -291 -524 399 -401 738 -776 1270 -1318 1870 -170 187 -251 308 -181 268
187 -106 1132 -88 1437 28 399 152 973 697 1197 1136 998 1956 -887 4242
-2786 3381z m1297 -207 c2018 -561 1810 -3837 -258 -4070 -619 -70 -1085 115
-1545 614 -837 909 -731 2383 224 3111 550 420 975 512 1579 345z m-11840
-322 c463 -306 918 -1135 917 -1669 -2 -1295 -1118 -2361 -2251 -2148 -878
165 -1550 1056 -1546 2050 7 1647 1591 2620 2880 1767z m6818 -2528 c2139
-498 4145 -2199 5143 -4362 2170 -4701 -297 -10396 -5043 -11640 -860 -225
-2440 -225 -3300 0 -4292 1125 -6777 5841 -5499 10439 731 2628 2924 4861
5415 5514 906 237 2380 259 3284 49z m-10632 -2652 c710 -268 1246 -1111 1246
-1958 0 -1004 -684 -1914 -1562 -2079 -1229 -231 -2430 1095 -2204 2432 205
1211 1455 2007 2520 1605z m19578 -122 c231 -130 522 -426 694 -705 248 -402
298 -586 298 -1117 0 -531 -50 -715 -298 -1117 -776 -1256 -2404 -1256 -3180
0 -248 402 -297 586 -297 1117 0 531 49 715 297 1117 380 615 919 930 1590
930 334 0 632 -75 896 -225z m29 -6226 c514 -215 718 -420 988 -996 411 -875
266 -1747 -401 -2415 -1248 -1248 -3167 -354 -3160 1472 6 1492 1303 2470
2573 1939z m-19747 -52 c1463 -406 1874 -2508 706 -3613 -1059 -1001 -2828
-298 -3085 1227 -159 940 456 2047 1301 2343 489 172 599 176 1078 43z m3854
-5920 c1093 -724 1146 -2615 94 -3408 -1192 -900 -2733 -207 -3017 1358 -144
797 356 1810 1076 2176 559 284 1303 233 1847 -126z m12168 215 c579 -159
1192 -831 1347 -1475 466 -1942 -1654 -3434 -3031 -2133 -929 878 -884 2537
88 3279 546 416 964 503 1596 329z m-6048 -2514 c261 -132 570 -405 747 -659
272 -392 301 -508 301 -1216 0 -708 -29 -824 -301 -1216 -782 -1125 -2277
-1139 -3038 -30 -608 887 -504 2021 255 2787 584 590 1299 707 2036 334z"/>
<path d="M22125 25234 c-219 -89 -149 -355 75 -284 182 58 200 18 200 -443 0
-440 -26 -507 -200 -507 -111 0 -200 -67 -200 -150 0 -115 128 -150 550 -150
546 0 758 164 350 271 -174 45 -200 136 -200 691 0 597 -14 637 -225 630 -124
-4 -281 -30 -350 -58z"/>
<path d="M9757 25143 c-235 -235 -204 -811 51 -947 114 -61 272 -87 350 -57
78 30 142 13 142 -39 0 -144 -367 -306 -543 -239 -103 40 -157 4 -157 -103 0
-243 243 -293 579 -119 346 179 421 334 421 869 0 627 -485 992 -843 635z
m525 -419 c20 -138 -31 -249 -132 -288 -226 -87 -384 101 -301 360 88 278 390
227 433 -72z"/>
<path d="M6322 19844 c-225 -157 -298 -485 -131 -589 54 -33 46 -176 -19 -347
-144 -382 34 -608 478 -608 444 0 622 226 478 608 -65 171 -73 314 -19 347
258 160 -103 745 -459 745 -58 0 -206 -70 -328 -156z m557 -358 c36 -189 -191
-302 -378 -187 -181 112 -41 423 173 382 95 -18 188 -106 205 -195z m21 -741
c0 -179 -147 -259 -341 -185 -189 73 -211 305 -34 367 184 64 375 -29 375
-182z"/>
<path d="M25657 19943 c-177 -178 -210 -443 -54 -443 57 0 129 68 161 150 76
199 426 192 504 -11 42 -110 -84 -285 -403 -557 -643 -550 -615 -682 143 -682
442 0 597 34 567 125 -22 69 -188 148 -367 175 l-326 50 268 250 c423 394 488
577 305 857 -184 281 -562 321 -798 86z"/>
<path d="M25925 13597 c-124 -50 -225 -160 -225 -244 0 -184 44 -189 293 -34
150 93 225 91 348 -11 190 -158 118 -308 -147 -308 -278 0 -239 -188 63 -303
168 -64 245 -158 222 -272 -27 -135 -131 -173 -457 -166 -471 9 -547 -106
-179 -274 522 -238 1092 190 878 660 -55 120 -78 334 -51 475 36 188 -12 298
-183 418 -261 183 -255 182 -562 59z"/>
<path d="M6100 13150 c0 -137 45 -250 100 -250 55 0 100 45 100 100 0 55 133
100 295 100 l294 0 -197 -572 c-187 -544 -187 -970 0 -770 111 119 408 1161
408 1432 0 185 -59 210 -500 210 -467 0 -500 -17 -500 -250z"/>
<path d="M9665 7655 c-204 -189 -265 -340 -265 -657 0 -598 139 -798 556 -798
285 0 367 48 449 263 133 349 -108 737 -457 737 -137 0 -248 43 -248 96 0 130
338 304 590 304 140 0 186 47 146 150 -87 227 -475 180 -771 -95z m535 -1009
c0 -149 -193 -237 -375 -171 -157 58 -161 249 -7 403 135 135 382 -14 382
-232z"/>
<path d="M22359 7337 c-339 -605 -331 -737 41 -737 165 0 300 -45 300 -100 0
-55 -45 -100 -100 -100 -55 0 -100 -45 -100 -100 0 -55 158 -100 350 -100 343
0 472 134 225 234 -94 38 -88 79 25 166 113 87 119 128 25 166 -76 31 -125
243 -125 542 0 418 -29 492 -191 492 -124 0 -283 -164 -450 -463z m306 -506
c-139 -138 -253 92 -138 278 122 197 123 196 156 -14 18 -117 10 -235 -18
-264z"/>
<path d="M15900 4950 c0 -447 3 -451 325 -425 287 22 325 -4 325 -225 0 -217
-47 -252 -350 -262 -537 -19 -564 -34 -356 -191 447 -338 1056 -59 1056 484 0
304 -379 609 -636 511 -110 -43 -164 -11 -164 97 0 117 95 161 350 161 244 0
350 45 350 150 0 111 -117 150 -450 150 l-450 0 0 -450z"/>
<path d="M28317 22487 c-266 -99 -417 -392 -415 -805 1 -418 81 -543 434 -677
210 -80 348 -75 537 19 140 69 237 153 216 186 -22 32 24 136 102 229 186 224
23 387 -346 344 -330 -39 -462 -283 -153 -283 114 0 208 -42 208 -94 0 -157
-198 -228 -454 -164 -321 81 -421 478 -205 809 192 292 325 311 578 81 136
-122 215 -138 297 -56 283 283 -314 590 -799 411z"/>
<path d="M29700 22308 c0 -105 -56 -212 -125 -237 -100 -37 -100 -72 0 -178
69 -73 126 -248 127 -388 2 -460 315 -670 749 -505 383 146 310 321 -101 243
-338 -63 -350 -55 -350 239 0 256 43 310 267 336 390 46 424 282 41 282 -241
0 -308 43 -308 200 0 111 -67 200 -150 200 -82 0 -150 -86 -150 -192z"/>
<path d="M1920 21980 c-66 -66 -120 -208 -120 -315 0 -184 12 -185 183 -30
214 193 475 214 578 47 45 -72 -109 -284 -394 -542 -646 -584 -626 -759 84
-720 604 33 792 211 274 261 -179 18 -325 54 -325 82 0 27 135 164 300 302
492 414 372 1035 -200 1035 -143 0 -314 -54 -380 -120z"/>
<path d="M399 21799 c-270 -270 -270 -928 1 -1199 316 -316 1170 -200 1039
141 -29 77 -5 168 54 205 225 138 91 254 -293 254 -417 0 -549 -180 -200 -271
305 -80 238 -229 -102 -229 -388 0 -591 366 -416 750 121 267 488 340 689 139
153 -153 321 -29 262 195 -71 270 -768 281 -1034 15z"/>
<path d="M3044 21490 c-31 -50 14 -118 100 -151 222 -86 222 -1092 0 -1178
-253 -97 -61 -261 306 -261 390 0 571 187 260 268 -358 94 -248 313 152 302
572 -16 865 593 461 959 -193 175 -1180 221 -1279 61z m1137 -456 c21 -150
-36 -238 -186 -286 -270 -85 -529 146 -436 390 99 257 582 176 622 -104z"/>
<path d="M1754 13965 c-128 -93 -149 -156 -69 -206 63 -39 160 -43 215 -9 62
38 100 -149 100 -494 0 -489 -24 -556 -200 -556 -110 0 -200 -45 -200 -100 0
-55 248 -100 550 -100 543 0 738 127 350 229 -174 46 -200 136 -200 712 0 569
-25 659 -181 659 -99 0 -264 -61 -365 -135z"/>
<path d="M28957 14011 c-30 -48 12 -144 94 -212 199 -165 190 -788 -15 -1014
-145 -161 -146 -187 -9 -240 227 -87 823 -11 823 105 0 55 -101 114 -225 132
-332 47 -285 318 55 318 154 0 334 54 400 120 190 190 146 659 -73 776 -237
127 -975 137 -1050 15z m1002 -326 c79 -128 -241 -407 -405 -354 -57 19 -118
132 -136 252 -26 174 18 217 219 217 138 0 283 -52 322 -115z"/>
<path d="M30729 13900 c-29 -110 -92 -200 -141 -200 -48 0 -88 -68 -88 -150 0
-82 45 -150 100 -150 55 0 100 -149 100 -330 0 -181 54 -384 120 -450 148
-148 527 -155 789 -15 292 156 137 290 -261 225 -335 -54 -348 -45 -348 257 0
281 31 313 300 313 200 0 300 50 300 150 0 100 -100 150 -300 150 -233 0 -300
44 -300 200 0 110 -49 200 -109 200 -61 0 -133 -90 -162 -200z"/>
<path d="M162 13754 c-381 -581 -64 -1294 575 -1294 432 0 539 90 581 490 30
281 10 300 -310 300 -188 0 -360 -56 -383 -125 -25 -74 46 -125 175 -125 253
0 222 -233 -38 -283 -268 -52 -462 176 -462 542 0 227 61 367 193 437 203 109
507 45 507 -107 0 -49 68 -89 150 -89 93 0 150 94 150 250 0 233 -34 250 -488
250 -409 0 -515 -40 -650 -246z"/>
<path d="M3325 13620 c-407 -30 -538 -138 -325 -270 55 -34 100 -307 100 -606
0 -299 -45 -544 -100 -544 -55 0 -100 -45 -100 -100 0 -55 180 -100 400 -100
220 0 400 45 400 100 0 55 -67 100 -150 100 -83 0 -150 84 -150 186 0 142 56
176 239 141 393 -76 661 133 661 514 0 491 -238 633 -975 579z m714 -451 c89
-144 73 -209 -78 -321 -347 -258 -741 132 -438 435 160 160 378 112 516 -114z"/>
<path d="M6254 5365 c-245 -179 -119 -407 137 -247 101 62 261 83 357 47 142
-55 152 -95 51 -216 -68 -82 -185 -149 -261 -149 -225 0 -158 -159 120 -285
345 -158 256 -361 -167 -381 -187 -9 -380 -21 -428 -25 -241 -24 206 -309 484
-309 438 0 725 313 579 632 -58 128 -81 359 -51 516 88 460 -414 715 -821 417z"/>
<path d="M4756 5165 c-497 -497 -230 -1367 419 -1363 321 1 552 127 582 315
12 73 38 201 57 283 26 109 -66 158 -339 181 -286 24 -375 -6 -375 -125 0 -89
85 -156 200 -156 110 0 200 -48 200 -106 0 -60 -142 -93 -325 -75 -287 27
-329 69 -357 363 -17 182 22 396 87 475 156 187 458 183 531 -7 92 -239 264
-174 264 100 0 138 -56 251 -125 251 -69 1 -224 28 -344 61 -155 41 -296 -17
-475 -197z"/>
<path d="M0 5200 c0 -55 45 -100 100 -100 131 0 130 -970 -2 -1051 -160 -99
-9 -249 252 -249 256 0 462 213 268 277 -166 56 -148 423 21 423 76 0 213
-157 304 -350 161 -338 383 -451 503 -256 32 51 -3 130 -77 175 -74 44 -220
227 -324 406 -188 324 -188 326 33 481 293 205 281 344 -28 344 -146 0 -250
-57 -250 -138 0 -76 -67 -194 -150 -262 -123 -102 -150 -95 -150 38 0 89 45
162 100 162 55 0 100 45 100 100 0 55 -157 100 -350 100 -192 0 -350 -45 -350
-100z"/>
<path d="M24763 4525 c11 -648 41 -781 186 -809 215 -43 464 186 276 255 -69
25 -125 132 -125 237 0 138 70 192 250 192 180 0 250 -54 250 -192 0 -105 -56
-212 -125 -237 -188 -69 61 -298 276 -255 145 28 175 161 186 809 l14 775
-276 0 c-178 0 -275 -53 -275 -150 0 -82 45 -150 100 -150 55 0 100 -67 100
-150 0 -93 -94 -150 -250 -150 -252 0 -348 227 -148 351 155 96 13 249 -233
249 -208 0 -219 -40 -206 -775z"/>
<path d="M1432 4871 c-37 -60 -14 -127 50 -148 158 -53 158 -1093 0 -1146
-232 -77 37 -277 374 -277 239 0 344 46 344 150 0 83 -67 150 -150 150 -82 0
-150 71 -150 157 0 112 58 138 205 91 313 -99 695 199 695 542 0 157 -71 344
-157 416 -197 163 -1120 213 -1211 65z m1072 -326 c180 -216 -94 -493 -393
-399 -235 75 -273 252 -91 434 163 163 330 151 484 -35z"/>
<path d="M7332 4871 c-37 -60 -14 -127 50 -148 71 -24 118 -253 118 -573 0
-320 -47 -549 -118 -573 -232 -77 37 -277 374 -277 239 0 344 46 344 150 0 83
-67 150 -150 150 -82 0 -150 68 -150 152 0 111 66 135 245 90 181 -45 310 4
493 187 265 265 263 563 -6 786 -188 156 -1111 200 -1200 56z m1072 -326 c180
-216 -94 -493 -393 -399 -235 75 -273 252 -91 434 163 163 330 151 484 -35z"/>
<path d="M3507 3831 c-56 -204 -80 -391 -54 -417 70 -70 124 6 295 416 134
322 135 370 8 370 -84 0 -190 -158 -249 -369z"/>
<path d="M3171 2238 c-131 -131 -73 -238 129 -238 173 0 200 -67 200 -500 0
-440 -25 -500 -208 -500 -123 0 -191 -52 -167 -125 56 -169 994 -169 1050 0
24 73 -44 125 -167 125 -183 0 -208 60 -208 500 0 440 25 500 208 500 122 0
192 52 168 125 -45 135 -888 230 -1005 113z"/>
<path d="M4746 2095 c-204 -225 -133 -459 186 -613 92 -45 239 -116 326 -157
86 -41 165 -120 175 -175 29 -167 -398 -171 -563 -5 -213 213 -270 195 -270
-84 0 -194 66 -251 349 -304 438 -82 751 78 751 384 0 272 -141 405 -525 497
-151 36 -275 111 -275 167 0 192 308 219 502 44 175 -159 200 -161 255 -16
104 271 -2 395 -370 433 -262 27 -403 -18 -541 -171z"/>
<path d="M15554 1607 c-31 -51 -12 -121 44 -156 56 -35 102 -282 102 -551 0
-269 -46 -516 -102 -551 -162 -100 -8 -249 258 -249 256 0 321 183 133 371
-159 159 -20 329 267 329 177 0 244 -55 244 -200 0 -110 -45 -200 -100 -200
-55 0 -100 -67 -100 -150 0 -92 94 -150 244 -150 266 0 420 149 258 249 -56
35 -102 282 -102 551 0 269 46 516 102 551 162 100 8 249 -258 249 -150 0
-244 -58 -244 -150 0 -82 45 -150 100 -150 55 0 100 -67 100 -150 0 -100 -100
-150 -300 -150 -295 0 -397 128 -200 250 55 34 100 127 100 206 0 160 -452
203 -546 51z"/>
</g>
</svg>
