<?xml version="1.0" standalone="no"?>
<!DOCTYPE svg PUBLIC "-//W3C//DTD SVG 20010904//EN"
 "http://www.w3.org/TR/2001/REC-SVG-20010904/DTD/svg10.dtd">
<svg version="1.0" xmlns="http://www.w3.org/2000/svg"
 width="325.973521pt" height="261.000000pt" viewBox="0 0 325.973521 261.000000"
 preserveAspectRatio="xMidYMid meet">
<metadata>
Created by potrace 1.13, written by Peter Selinger 2001-2015
</metadata>
<g transform="translate(-1.026479,263.000000) scale(0.010000,-0.010000)"
fill="#fff" stroke="none">
<path d="M5354 26207 c-31 -51 -12 -121 44 -156 56 -35 102 -260 102 -501 0
-241 -46 -466 -102 -501 -184 -114 8 -249 352 -249 390 0 571 187 260 268
-259 68 -277 232 -25 232 439 0 690 699 322 896 -241 129 -875 136 -953 11z
m896 -407 c0 -82 -101 -164 -225 -182 -173 -25 -225 17 -225 182 0 165 52 207
225 182 124 -18 225 -99 225 -182z"/>
<path d="M7000 26111 c0 -104 -74 -218 -165 -253 -151 -58 -152 -74 -7 -186
88 -67 174 -252 191 -412 38 -356 264 -511 616 -423 418 105 344 363 -85 294
-324 -53 -350 -38 -350 199 0 204 55 263 267 288 390 46 424 282 41 282 -241
0 -308 43 -308 200 0 110 -45 200 -100 200 -55 0 -100 -85 -100 -189z"/>
<path d="M21958 26081 c-318 -454 -152 -1074 329 -1227 251 -79 713 106 713
285 0 80 27 216 61 303 48 126 -12 158 -294 158 -404 0 -595 -185 -277 -268
292 -77 263 -232 -42 -232 -367 0 -534 403 -310 746 195 297 288 313 511 90
116 -116 195 -132 271 -56 194 194 11 379 -401 403 -321 19 -435 -22 -561
-202z"/>
<path d="M23500 26108 c0 -105 -56 -218 -125 -250 -100 -46 -100 -70 0 -116
69 -32 125 -213 125 -402 0 -432 301 -611 742 -443 344 131 259 253 -176 253
-270 0 -316 36 -316 250 0 198 57 257 275 282 349 40 362 218 16 218 -176 0
-277 65 -312 200 -67 255 -229 261 -229 8z"/>
<path d="M20113 24853 c-1136 -362 -1751 -1667 -1344 -2853 l188 -550 -853
425 c-470 233 -1122 492 -1450 575 -778 196 -2440 194 -3208 -4 -672 -173
-2091 -809 -2260 -1012 -218 -263 -261 -127 -75 237 234 460 251 1388 34 1907
-692 1656 -2824 1758 -3640 174 -651 -1267 6 -2905 1307 -3255 382 -103 598
-89 1138 72 153 46 116 -32 -156 -333 -507 -561 -956 -1237 -1286 -1936 l-287
-606 -120 501 c-462 1929 -2743 2345 -3701 675 -581 -1013 -289 -2444 621
-3046 788 -521 2011 -373 2547 308 185 235 187 219 185 -1347 -2 -871 -26
-1584 -54 -1585 -28 0 -104 85 -168 188 -175 280 -938 612 -1406 612 -1141 0
-2018 -966 -2023 -2228 -3 -953 416 -1668 1219 -2081 1057 -544 2416 146 2731
1386 l111 437 369 -748 c204 -411 619 -1071 924 -1465 355 -459 490 -698 374
-664 -823 245 -1361 122 -1984 -451 -1447 -1334 -573 -3895 1326 -3884 809 5
1708 703 1929 1498 153 548 113 1210 -103 1684 l-197 435 325 -217 c635 -426
1805 -919 2608 -1101 449 -101 737 -188 641 -193 -268 -13 -985 -711 -1188
-1158 -447 -981 -77 -2304 803 -2869 414 -266 527 -292 1129 -260 569 30 727
81 1050 341 602 484 880 1066 877 1838 -5 939 -405 1626 -1178 2019 l-282 144
663 122 c850 157 1566 426 2294 865 320 193 599 350 622 350 22 0 -27 -130
-110 -290 -399 -773 -268 -1825 313 -2504 461 -538 861 -735 1496 -735 1377 0
2338 1437 1942 2906 -292 1083 -1570 1798 -2550 1425 -217 -82 -173 4 287 561
463 562 1160 1787 1414 2487 58 160 88 116 151 -217 108 -572 318 -947 734
-1313 324 -284 893 -519 1258 -519 366 0 934 235 1259 520 911 800 1056 2176
335 3171 -745 1029 -2347 1087 -3110 114 l-234 -299 0 1585 0 1586 250 -253
c736 -744 1939 -682 2720 141 869 916 759 2557 -224 3346 -1195 960 -2839 296
-3179 -1284 l-82 -378 -281 550 c-341 668 -782 1319 -1220 1804 l-326 362 528
-44 c1556 -129 2650 1647 1956 3176 -253 559 -445 774 -897 1004 -513 262
-984 310 -1482 151z m-10238 -407 c800 -334 1166 -963 1107 -1901 -69 -1084
-735 -1762 -1729 -1762 -563 0 -989 230 -1350 729 -542 748 -491 1753 124
2454 539 614 1149 772 1848 480z m11505 13 c148 -78 391 -269 539 -425 752
-796 623 -2210 -264 -2887 -897 -684 -2070 -301 -2582 844 -368 824 -18 1941
756 2413 383 233 1157 261 1551 55z m-4740 -2557 c2422 -619 4369 -2674 5071
-5352 293 -1118 292 -2889 -2 -4000 -1033 -3898 -4620 -6255 -8147 -5353
-4564 1167 -6803 6699 -4497 11115 1507 2885 4600 4351 7575 3590z m8182
-2563 c634 -406 940 -1239 761 -2074 -79 -369 -214 -601 -535 -923 -675 -674
-1523 -721 -2205 -122 -487 428 -674 835 -679 1480 -10 1540 1427 2426 2658
1639z m-17922 61 c1235 -630 1260 -2646 42 -3360 -886 -519 -2066 -88 -2436
892 -136 362 -136 1175 1 1536 364 961 1483 1396 2393 932z m18000 -5800
c1055 -538 1274 -2193 410 -3101 -1119 -1176 -2909 -362 -2922 1329 -6 813
373 1475 1062 1856 317 175 1023 134 1450 -84z m-18170 -35 c809 -338 1315
-1455 1070 -2364 -158 -587 -816 -1257 -1328 -1354 -535 -100 -976 11 -1387
350 -478 394 -685 862 -685 1547 0 1389 1171 2305 2330 1821z m3180 -5324
c400 -201 873 -797 947 -1195 236 -1254 -586 -2435 -1700 -2444 -679 -5 -1385
550 -1640 1288 -343 996 258 2269 1166 2469 147 32 312 72 367 89 144 45 558
-55 860 -207z m11669 -30 c665 -340 1021 -950 1021 -1751 0 -560 -138 -931
-481 -1294 -385 -406 -743 -566 -1269 -566 -739 0 -1287 386 -1595 1123 -231
553 -193 1081 121 1683 463 885 1385 1222 2203 805z m-5729 -2238 c549 -306
981 -1136 924 -1773 -87 -974 -693 -1682 -1519 -1775 -599 -67 -884 19 -1318
400 -455 400 -637 820 -637 1476 0 1442 1363 2335 2550 1672z"/>
<path d="M9015 23240 c-392 -276 -208 -938 264 -943 260 -3 263 -9 76 -151
-107 -81 -276 -121 -375 -90 -121 39 -180 6 -180 -99 0 -271 554 -197 793 106
469 597 -11 1574 -578 1177z m466 -366 c39 -200 -246 -349 -391 -204 -140 140
7 445 196 409 89 -17 177 -110 195 -205z"/>
<path d="M20373 23291 c-205 -120 -138 -310 80 -226 116 44 147 -39 147 -393
0 -365 -37 -458 -200 -501 -388 -101 -204 -271 294 -271 514 0 782 173 416
268 -183 48 -210 130 -210 644 0 625 -108 723 -527 479z"/>
<path d="M23620 18480 c-143 -143 -159 -380 -26 -380 52 0 122 45 156 100 93
151 450 120 450 -38 0 -76 -180 -301 -400 -500 -568 -514 -536 -680 125 -642
577 33 671 201 157 280 l-325 50 268 175 c147 96 318 268 379 382 233 436
-434 923 -784 573z"/>
<path d="M5745 18294 c-157 -173 -166 -237 -60 -407 95 -153 98 -237 12 -340
-169 -204 -20 -538 275 -611 436 -110 576 65 597 749 16 510 -12 631 -168 715
-281 150 -450 123 -656 -106z m605 -294 c0 -217 -390 -187 -433 33 -27 142 18
176 199 150 129 -18 234 -100 234 -183z m50 -712 c0 -49 -112 -88 -250 -88
-260 0 -354 246 -125 328 138 50 375 -102 375 -240z"/>
<path d="M23713 12466 c-154 -186 -27 -281 207 -156 137 74 234 70 335 -14
178 -147 97 -296 -161 -296 -261 0 -245 -130 31 -251 374 -165 283 -401 -150
-388 -240 8 -375 -33 -375 -114 0 -176 438 -266 740 -151 234 89 253 143 242
675 -6 319 -55 635 -109 704 -129 166 -620 160 -760 -9z"/>
<path d="M5600 12206 c0 -166 51 -185 355 -136 350 57 355 53 286 -231 -39
-159 -109 -393 -156 -521 -116 -314 -107 -442 28 -397 106 35 482 1085 486
1354 1 84 -165 125 -499 125 -428 0 -500 -28 -500 -194z"/>
<path d="M8903 7103 c-272 -272 -349 -651 -204 -1002 142 -342 408 -458 697
-303 423 226 163 993 -295 873 -111 -29 -201 -14 -201 33 0 142 414 384 561
328 83 -32 139 11 139 107 0 230 -455 206 -697 -36z m453 -993 c-86 -139 -324
-142 -409 -6 -35 58 -8 173 61 255 109 132 143 133 270 6 80 -80 115 -195 78
-255z"/>
<path d="M20602 6825 c-383 -610 -379 -723 23 -733 179 -4 269 -30 200 -58
-251 -101 -130 -334 173 -334 l298 0 -54 675 c-90 1114 -182 1179 -640 450z
m257 -399 c-108 -108 -165 43 -89 235 71 180 76 180 111 6 20 -100 10 -209
-22 -241z"/>
<path d="M14600 4600 c0 -391 8 -400 325 -375 287 22 325 -4 325 -225 0 -227
-35 -248 -383 -227 -265 16 -370 -15 -342 -100 94 -285 924 -193 1021 114 99
312 -107 695 -394 731 -374 46 -358 227 23 263 489 47 391 219 -125 219 l-450
0 0 -400z"/>
<path d="M30250 21700 c-108 -174 52 -323 208 -194 150 125 442 62 442 -96 0
-53 -90 -125 -200 -160 -227 -72 -271 -250 -62 -250 76 0 189 -62 251 -137
152 -183 -86 -384 -405 -343 -129 16 -257 -15 -284 -70 -28 -56 128 -113 359
-130 525 -38 728 166 573 578 -59 154 -71 340 -26 411 146 237 -89 491 -454
491 -187 0 -368 -45 -402 -100z"/>
<path d="M24500 21606 c0 -52 45 -122 100 -156 55 -34 100 -236 100 -450 0
-214 -45 -416 -100 -450 -197 -122 -95 -250 200 -250 295 0 397 128 200 250
-153 95 -119 350 47 350 82 0 218 -135 303 -300 155 -299 383 -390 500 -200
34 55 23 100 -25 100 -48 0 -193 143 -322 317 l-234 317 259 223 c143 122 232
250 199 283 -119 118 -527 58 -527 -78 0 -76 -67 -194 -150 -262 -95 -79 -150
-85 -150 -18 0 58 45 134 100 168 197 122 95 250 -200 250 -165 0 -300 -42
-300 -94z"/>
<path d="M28856 21478 c-365 -521 -83 -1180 502 -1176 379 2 496 87 579 423
64 266 53 275 -335 275 -221 0 -402 -45 -402 -100 0 -55 90 -100 200 -100 111
0 200 -67 200 -150 0 -197 -343 -192 -543 7 -86 87 -157 241 -157 343 0 218
255 500 452 500 76 0 182 -79 237 -175 76 -135 126 -148 218 -57 222 220 26
432 -398 432 -298 0 -437 -56 -553 -222z"/>
<path d="M25828 21265 c-35 -57 -10 -121 54 -142 144 -48 161 -1023 18 -1023
-55 0 -100 -67 -100 -150 0 -104 105 -150 344 -150 398 0 579 187 262 269
-273 72 -208 291 74 250 529 -76 832 412 510 821 -153 195 -278 241 -644 235
-250 -4 -483 -53 -518 -110z m1052 -383 c50 -261 -328 -420 -527 -221 -126
126 -135 191 -40 304 155 188 526 133 567 -83z"/>
<path d="M31344 21291 c-26 -42 -2 -105 54 -140 56 -35 102 -282 102 -551 0
-269 -46 -516 -102 -551 -173 -107 -1 -249 302 -249 326 0 493 170 256 261
-264 102 -184 317 98 263 294 -57 646 211 646 491 0 340 -343 568 -845 560
-255 -4 -484 -42 -511 -84z m1036 -453 c38 -262 -200 -369 -437 -196 -241 177
-115 482 182 440 140 -20 236 -112 255 -244z"/>
<path d="M27762 20284 c-86 -427 -10 -468 181 -98 192 372 194 414 20 414 -76
0 -166 -142 -201 -316z"/>
<path d="M1200 20306 c0 -52 45 -122 100 -156 55 -34 100 -262 100 -506 0
-244 -45 -444 -100 -444 -55 0 -100 -45 -100 -100 0 -55 135 -100 300 -100
295 0 414 145 182 223 -137 45 -38 377 112 377 56 0 171 -135 256 -300 147
-284 550 -430 550 -200 0 55 -37 100 -81 100 -45 0 -187 143 -316 317 l-234
317 268 214 c280 223 259 352 -56 352 -106 0 -227 -107 -281 -250 -93 -245
-300 -348 -300 -150 0 55 45 100 100 100 55 0 100 68 100 150 0 100 -100 150
-300 150 -165 0 -300 -42 -300 -94z"/>
<path d="M3000 20255 c0 -80 -79 -192 -175 -250 -167 -100 -167 -110 0 -210
111 -67 175 -228 175 -443 0 -392 220 -516 637 -357 382 145 324 302 -87 236
-338 -55 -350 -46 -350 256 0 281 31 313 300 313 165 0 300 45 300 100 0 55
-135 100 -300 100 -233 0 -300 44 -300 200 0 110 -45 200 -100 200 -55 0 -100
-65 -100 -145z"/>
<path d="M27471 18838 c-131 -131 -73 -238 129 -238 170 0 200 -67 200 -450 0
-389 -28 -450 -208 -450 -422 0 -117 -251 341 -280 369 -25 467 2 467 125 0
88 -86 155 -200 155 -170 0 -200 67 -200 450 0 389 28 450 208 450 122 0 192
52 168 125 -45 136 -789 229 -905 113z"/>
<path d="M28951 18736 c-239 -238 -147 -464 274 -669 206 -101 375 -225 375
-275 0 -125 -472 -117 -550 8 -111 180 -250 105 -250 -134 0 -202 52 -235 389
-248 439 -18 643 153 594 498 -23 158 -132 256 -358 320 -179 51 -325 154
-325 228 0 197 373 167 488 -39 93 -165 102 -165 165 -3 106 275 10 404 -327
441 -195 21 -376 -27 -475 -127z"/>
<path d="M1822 10944 c-122 -85 -222 -220 -222 -300 0 -191 100 -182 250 22
139 191 450 118 450 -104 0 -80 -180 -288 -400 -462 -569 -451 -529 -600 158
-600 403 0 547 35 517 125 -23 69 -165 148 -316 175 l-274 50 308 294 c359
344 379 484 107 756 -241 241 -292 245 -578 44z"/>
<path d="M354 10764 c-474 -475 -238 -1265 377 -1262 407 1 522 82 606 423 63
261 48 275 -285 275 -395 0 -471 -143 -127 -240 207 -58 211 -72 48 -168 -97
-57 -269 -75 -380 -40 -169 54 -199 136 -173 481 34 468 266 601 571 326 195
-177 309 -119 309 158 0 114 -72 183 -192 183 -105 0 -261 27 -345 59 -91 35
-258 -45 -409 -195z"/>
<path d="M28150 10929 c-333 -80 -421 -229 -173 -294 188 -49 223 -127 223
-497 0 -371 -30 -438 -200 -438 -110 0 -200 -40 -200 -89 0 -208 729 -287
1000 -109 125 82 113 108 -75 160 -203 55 -225 123 -225 700 0 351 -34 633
-75 626 -41 -6 -165 -33 -275 -59z"/>
<path d="M26564 10716 c-97 -107 -164 -352 -164 -597 0 -330 50 -447 246 -576
320 -209 854 -110 854 159 0 102 46 214 102 249 185 114 -9 249 -358 249 -239
0 -344 -46 -344 -150 0 -83 89 -150 200 -150 110 0 200 -45 200 -100 0 -55
-132 -100 -293 -100 -330 0 -467 247 -364 657 43 174 130 243 303 243 133 0
270 -45 304 -100 111 -180 250 -105 250 134 0 201 -52 235 -386 248 -260 11
-439 -44 -550 -166z"/>
<path d="M2746 10493 c-32 -52 12 -121 98 -154 228 -88 219 -993 -11 -1082
-254 -97 -11 -279 322 -240 295 35 474 283 203 283 -87 0 -158 61 -158 136 0
92 83 120 254 88 541 -104 877 624 421 915 -253 161 -1040 199 -1129 54z
m1026 -305 c168 -168 39 -388 -227 -388 -266 0 -389 142 -307 355 66 172 376
191 534 33z"/>
<path d="M29000 10400 c0 -55 45 -100 100 -100 55 0 100 -247 100 -550 0 -302
-45 -550 -100 -550 -55 0 -100 -45 -100 -100 0 -55 158 -100 350 -100 358 0
470 133 200 236 -257 99 -165 251 147 242 163 -4 365 49 450 119 182 152 202
614 33 783 -144 144 -1180 162 -1180 20z m980 -220 c180 -180 145 -359 -85
-432 -292 -92 -519 120 -389 363 116 216 300 243 474 69z"/>
<path d="M5250 4799 c-35 -55 8 -127 94 -160 177 -68 223 -786 56 -889 -218
-135 -80 -250 300 -250 220 0 400 45 400 100 0 55 -90 100 -200 100 -111 0
-200 67 -200 150 0 91 93 150 238 150 131 0 294 67 362 150 251 303 400 175
400 -344 0 -272 -45 -522 -100 -556 -208 -129 -87 -250 250 -250 355 0 475
158 200 264 -250 96 -177 313 89 263 372 -71 661 135 661 471 0 416 -316 610
-872 533 -374 -51 -461 -28 -589 155 -115 163 -254 214 -589 214 -241 0 -466
-45 -500 -101z m931 -374 c-18 -96 -134 -189 -257 -207 -170 -24 -224 18 -224
175 0 156 64 207 257 207 191 0 249 -45 224 -175z m1319 -275 c99 -120 99
-180 0 -300 -68 -83 -181 -150 -250 -150 -69 0 -182 67 -250 150 -99 120 -99
180 0 300 68 83 181 150 250 150 69 0 182 -67 250 -150z"/>
<path d="M22700 4806 c0 -52 45 -122 100 -156 55 -34 100 -236 100 -450 0
-214 -45 -416 -100 -450 -197 -122 -95 -250 200 -250 295 0 397 128 200 250
-199 123 -101 350 150 350 251 0 349 -227 150 -350 -179 -111 -105 -250 133
-250 302 0 394 97 253 266 -65 79 -92 342 -63 635 45 471 34 499 -188 499
-240 0 -315 -139 -135 -250 184 -114 103 -250 -150 -250 -156 0 -250 57 -250
150 0 83 45 150 100 150 55 0 100 45 100 100 0 55 -135 100 -300 100 -165 0
-300 -42 -300 -94z"/>
<path d="M14350 900 c0 -697 1 -700 275 -700 151 0 275 45 275 100 0 55 -45
100 -100 100 -55 0 -100 90 -100 200 0 147 67 200 250 200 251 0 349 -227 150
-350 -177 -109 -107 -250 125 -250 212 0 225 41 226 700 0 660 -13 700 -225
700 -233 0 -303 -141 -126 -250 184 -114 103 -250 -150 -250 -253 0 -334 136
-148 251 155 96 13 249 -233 249 -204 0 -219 -46 -219 -700z"/>
</g>
</svg>
