<?xml version="1.0" standalone="no"?>
<!DOCTYPE svg PUBLIC "-//W3C//DTD SVG 20010904//EN"
 "http://www.w3.org/TR/2001/REC-SVG-20010904/DTD/svg10.dtd">
<svg version="1.0" xmlns="http://www.w3.org/2000/svg"
 width="322.815393pt" height="258.905108pt" viewBox="0 0 322.815393 258.905108"
 preserveAspectRatio="xMidYMid meet">
<metadata>
Created by potrace 1.13, written by Peter Selinger 2001-2015
</metadata>
<g transform="translate(-2.156839,261.905108) scale(0.010000,-0.010000)"
fill="#fff" stroke="none">
<path d="M25075 26092 c-96 -56 -175 -197 -175 -312 0 -198 11 -201 183 -45
100 91 258 165 350 165 299 0 178 -358 -233 -688 -571 -459 -531 -612 158
-612 403 0 547 35 517 125 -23 69 -165 148 -316 175 l-274 50 308 294 c351
336 386 554 124 791 -208 188 -390 204 -642 57z"/>
<path d="M5200 26000 c0 -55 45 -100 100 -100 55 0 100 -225 100 -500 0 -275
-45 -500 -100 -500 -55 0 -100 -45 -100 -100 0 -55 203 -100 450 -100 248 0
450 45 450 100 0 55 -90 100 -200 100 -111 0 -200 67 -200 150 0 90 92 150
230 150 417 0 638 492 350 780 -145 145 -1080 162 -1080 20z m894 -194 c119
-75 121 -118 12 -248 -198 -240 -406 -193 -406 92 0 258 143 315 394 156z"/>
<path d="M23600 25900 c-246 -246 -271 -914 -43 -1143 162 -162 709 -211 903
-80 60 40 139 197 177 348 64 266 53 275 -335 275 -221 0 -402 -45 -402 -100
0 -55 90 -100 200 -100 230 0 269 -180 58 -261 -252 -97 -558 147 -558 445 0
469 428 694 699 367 149 -179 301 -107 301 142 0 124 -100 202 -312 245 -445
88 -466 84 -688 -138z"/>
<path d="M20289 25567 c-597 -221 -957 -540 -1230 -1087 -300 -602 -349 -1471
-114 -2033 80 -191 128 -347 107 -347 -21 0 -255 133 -520 295 -1265 776
-3158 1080 -4734 761 -843 -171 -2036 -656 -2597 -1055 l-296 -211 196 430
c230 508 262 1437 64 1908 -627 1496 -2397 1824 -3439 636 -416 -474 -555
-955 -509 -1769 32 -565 92 -762 340 -1116 525 -747 1516 -1099 2343 -832 219
71 198 24 -174 -380 -501 -545 -1057 -1391 -1382 -2105 -215 -474 -233 -490
-240 -212 -10 370 -342 1120 -635 1435 -362 388 -913 615 -1495 615 -1314 0
-2294 -1360 -1982 -2751 239 -1070 1019 -1749 2009 -1749 577 0 1001 182 1476
633 l327 310 -77 -347 c-42 -190 -77 -937 -77 -1660 l0 -1314 -368 332 c-336
304 -903 545 -1282 545 -944 0 -1887 -908 -2059 -1983 -206 -1291 852 -2616
2090 -2616 870 0 1728 711 1981 1640 l111 410 227 -512 c298 -671 847 -1524
1319 -2045 l378 -419 -349 77 c-1260 281 -2317 -407 -2606 -1696 -398 -1780
1280 -3286 2862 -2567 1065 484 1562 2007 1015 3105 -93 186 -169 352 -169
370 0 18 275 -145 610 -362 700 -452 1498 -774 2290 -923 833 -157 887 -184
600 -294 -1087 -416 -1595 -2067 -995 -3235 518 -1007 1664 -1424 2631 -956
1111 538 1569 2026 979 3175 -231 449 -663 882 -1015 1016 -293 112 -239 137
700 312 664 124 1873 629 2392 998 394 281 416 263 197 -165 -274 -537 -254
-1542 43 -2121 461 -903 1421 -1359 2326 -1106 606 170 1247 783 1419 1360
162 541 156 1365 -12 1766 -433 1033 -1596 1621 -2514 1273 -236 -90 -219 -48
187 451 562 689 1063 1524 1372 2287 l238 589 73 -424 c281 -1650 2038 -2409
3275 -1416 1026 824 1098 2634 142 3532 -875 820 -2151 741 -2930 -182 -267
-317 -314 -344 -255 -145 97 329 100 2149 3 2707 l-78 450 286 -264 c899 -828
2147 -761 2904 157 1200 1456 265 3795 -1518 3794 -945 0 -1872 -762 -2014
-1654 -57 -355 -236 -547 -236 -253 0 185 -836 1516 -1303 2073 l-395 472 437
-49 c572 -65 1097 117 1568 542 526 475 726 1045 677 1922 -33 581 -92 775
-341 1131 -527 749 -1514 1120 -2254 846z m-10321 -461 c1365 -620 1372 -2858
12 -3566 -347 -180 -1113 -180 -1460 1 -368 192 -783 647 -922 1009 -175 456
-133 1290 88 1722 233 457 458 671 917 870 467 202 863 192 1365 -36z m11612
53 c363 -189 783 -646 914 -991 173 -460 129 -1332 -91 -1763 -673 -1319
-2455 -1294 -3102 43 -462 954 -138 2128 736 2660 375 229 1153 255 1543 51z
m-4596 -2674 c1886 -574 3377 -1900 4313 -3835 650 -1344 847 -2205 835 -3650
-23 -2812 -1321 -5220 -3582 -6644 -3416 -2152 -7804 -713 -9650 3165 -538
1130 -707 1827 -771 3179 -116 2467 749 4635 2495 6252 805 745 2142 1457
3076 1639 303 59 640 127 750 152 401 91 1884 -60 2534 -258z m-10167 -2511
c1655 -1011 1062 -3674 -818 -3674 -507 0 -878 186 -1279 642 -674 768 -671
1852 9 2625 577 658 1412 821 2088 407z m18063 86 c1241 -646 1372 -2660 222
-3421 -1247 -825 -2733 78 -2734 1661 0 766 383 1398 1082 1784 283 156 1110
142 1430 -24z m194 -5957 c1103 -501 1403 -2229 545 -3137 -385 -406 -743
-566 -1269 -566 -557 0 -920 175 -1330 643 -780 888 -460 2519 597 3042 532
264 906 268 1457 18z m-18274 -158 c1186 -598 1331 -2382 270 -3314 -1133
-994 -2871 -13 -2868 1619 0 434 427 1286 765 1527 567 403 1244 465 1833 168z
m3330 -5473 c733 -559 978 -1679 558 -2547 -376 -776 -1326 -1193 -2120 -931
-646 213 -1267 1123 -1267 1856 0 650 435 1386 1045 1770 447 281 1316 209
1784 -148z m11883 -20 c475 -313 787 -962 787 -1637 0 -668 -179 -1088 -632
-1486 -711 -624 -1524 -625 -2234 -1 -455 399 -634 819 -634 1487 0 1560 1477
2451 2713 1637z m-5887 -2277 c944 -720 1009 -2166 137 -3039 -482 -481 -1095
-640 -1699 -441 -433 143 -998 753 -1164 1256 -282 855 134 1951 900 2370 506
277 1362 208 1826 -146z"/>
<path d="M8957 24067 c-209 -153 -240 -596 -57 -817 68 -82 243 -151 387 -153
256 -3 258 -7 63 -155 -110 -83 -281 -130 -381 -105 -129 34 -171 -1 -146
-120 52 -250 485 -164 762 151 187 212 224 340 178 624 -31 197 -153 437 -271
533 -257 210 -301 213 -535 42z m484 -330 c79 -206 -111 -442 -298 -370 -147
56 -195 348 -76 466 119 120 310 71 374 -96z"/>
<path d="M20625 23997 c-280 -113 -301 -340 -25 -268 180 47 200 3 200 -438 0
-431 -26 -491 -208 -491 -123 0 -191 -52 -167 -125 50 -150 963 -173 1000 -25
14 55 -76 114 -200 132 -207 29 -225 84 -225 675 0 672 -10 686 -375 540z"/>
<path d="M5722 18944 c-230 -161 -297 -486 -122 -594 67 -42 67 -124 0 -249
-151 -283 -124 -381 154 -563 199 -130 305 -143 490 -59 210 96 236 174 236
716 0 506 -35 633 -212 756 -263 184 -273 184 -546 -7z m528 -345 c0 -82 -101
-163 -225 -181 -219 -31 -312 161 -155 319 117 116 380 21 380 -138z m0 -700
c0 -82 -101 -163 -225 -181 -219 -31 -312 161 -155 319 117 116 380 21 380
-138z"/>
<path d="M23922 19044 c-227 -159 -304 -444 -119 -444 57 0 129 68 161 150 31
83 138 150 236 150 345 0 283 -275 -158 -708 -243 -238 -442 -469 -442 -513 0
-43 248 -79 550 -79 303 0 550 45 550 100 0 55 -135 100 -300 100 -165 0 -300
25 -300 56 0 32 135 171 300 309 359 302 390 660 78 879 -122 86 -247 156
-278 156 -31 0 -156 -70 -278 -156z"/>
<path d="M24020 12980 c-205 -205 -134 -270 230 -211 280 46 350 25 350 -106
0 -96 -82 -163 -200 -163 -111 0 -200 -67 -200 -150 0 -82 62 -150 138 -150
76 0 191 -64 256 -143 163 -196 -194 -386 -555 -295 -201 50 -254 33 -219 -73
58 -178 749 -239 937 -83 164 136 192 552 43 644 -65 40 -67 125 -5 241 211
394 -451 813 -775 489z"/>
<path d="M5500 12650 c0 -137 45 -250 100 -250 55 0 100 45 100 100 0 55 113
100 250 100 292 0 299 -37 100 -600 -174 -493 -190 -700 -53 -700 126 0 540
1359 456 1496 -36 57 -265 104 -509 104 -407 0 -444 -21 -444 -250z"/>
<path d="M9032 7600 c-577 -235 -590 -1331 -18 -1528 238 -83 586 201 586 478
0 266 -347 564 -561 482 -77 -29 -139 -13 -139 37 0 167 237 331 478 331 147
0 223 48 197 125 -53 160 -265 189 -543 75z m240 -912 c138 -138 56 -388 -127
-388 -175 0 -277 173 -207 355 67 174 182 185 334 33z"/>
<path d="M20759 7137 c-344 -615 -333 -737 66 -739 243 -1 287 -25 176 -95
-196 -124 0 -337 263 -286 192 37 191 28 153 1108 -23 652 -298 657 -658 12z
m341 -237 c0 -113 -67 -200 -154 -200 -122 0 -131 40 -46 200 59 110 128 200
154 200 25 0 46 -90 46 -200z"/>
<path d="M14700 4893 c0 -361 26 -405 225 -389 421 34 489 0 457 -229 -27
-190 -90 -223 -407 -214 -240 8 -375 -33 -375 -114 0 -177 438 -266 743 -150
205 78 257 166 257 431 0 389 -150 572 -470 572 -138 0 -230 60 -230 150 0
105 106 150 350 150 193 0 350 45 350 100 0 55 -202 100 -450 100 l-450 0 0
-407z"/>
<path d="M28819 18895 c-128 -52 -202 -142 -165 -201 36 -59 129 -83 206 -54
108 42 140 -59 140 -443 0 -437 -25 -497 -208 -497 -398 0 -128 -250 304 -281
483 -36 802 148 427 246 -201 53 -223 120 -223 697 0 673 -35 712 -481 533z"/>
<path d="M250 18799 c-35 -55 8 -127 94 -160 218 -84 218 -894 0 -978 -317
-121 -15 -261 562 -261 l594 0 0 350 c0 193 -45 350 -100 350 -55 0 -100 -90
-100 -200 0 -147 -67 -200 -250 -200 -229 0 -250 37 -250 439 0 299 48 458
150 497 83 32 150 104 150 161 0 133 -768 135 -850 2z"/>
<path d="M1870 18722 c-95 -105 -170 -350 -170 -555 0 -610 496 -937 1007
-663 320 171 227 311 -158 239 -409 -77 -649 73 -649 404 0 283 319 578 536
495 90 -35 164 -104 164 -153 0 -49 71 -89 157 -89 106 0 146 74 125 225 -26
185 -104 230 -437 255 -296 22 -451 -21 -575 -158z"/>
<path d="M27299 18699 c-441 -441 -126 -1301 476 -1297 378 2 488 94 572 480
72 331 71 331 -290 300 -408 -36 -486 -201 -138 -293 197 -52 206 -72 62 -134
-340 -145 -529 -21 -562 364 -23 284 15 392 168 474 152 81 235 71 349 -43
217 -218 364 -184 364 84 0 203 -52 235 -401 249 -282 11 -459 -43 -600 -184z"/>
<path d="M2396 11696 c-255 -255 -153 -479 110 -240 187 168 494 138 494 -49
0 -54 -180 -265 -400 -469 -557 -515 -526 -638 158 -638 403 0 547 35 517 125
-26 77 -171 112 -379 90 l-337 -34 371 410 c427 473 441 538 170 809 -254 254
-447 253 -704 -4z"/>
<path d="M31675 11792 c-299 -174 -201 -306 175 -235 273 51 350 32 350 -84 0
-82 -90 -173 -200 -202 -225 -59 -274 -271 -62 -271 76 0 189 -62 251 -137
178 -214 -112 -396 -497 -311 -242 53 -305 38 -271 -66 58 -176 750 -235 936
-80 164 136 192 552 43 644 -67 41 -66 126 2 254 80 149 58 236 -100 394 -224
224 -367 246 -627 94z"/>
<path d="M1009 11609 c-147 -147 -209 -336 -209 -639 0 -527 130 -670 613
-670 312 0 396 47 519 294 81 162 121 319 91 350 -98 98 -723 60 -723 -44 0
-55 94 -100 208 -100 247 0 208 -234 -46 -283 -385 -75 -639 566 -342 863 167
167 475 150 544 -30 91 -237 236 -175 236 100 0 138 -56 251 -125 251 -69 1
-222 28 -341 60 -143 38 -286 -13 -425 -152z"/>
<path d="M30209 11609 c-147 -147 -209 -336 -209 -639 0 -527 130 -670 613
-670 318 0 395 46 530 315 86 174 157 331 157 350 0 19 -180 35 -400 35 -220
0 -400 -45 -400 -100 0 -55 94 -100 208 -100 247 0 208 -234 -46 -283 -385
-75 -639 566 -342 863 167 167 475 150 544 -30 91 -237 236 -175 236 100 0
138 -56 251 -125 251 -69 1 -222 28 -341 60 -143 38 -286 -13 -425 -152z"/>
<path d="M27100 11606 c0 -52 45 -122 100 -156 55 -34 100 -236 100 -450 0
-214 -45 -416 -100 -450 -197 -122 -95 -250 200 -250 337 0 350 22 178 299
-94 150 -95 224 -6 313 90 90 168 32 333 -247 127 -217 292 -365 405 -365 213
0 257 152 65 228 -69 27 -204 186 -301 353 -174 299 -173 306 75 500 326 257
316 319 -49 319 -188 0 -300 -51 -300 -138 0 -76 -67 -194 -150 -262 -123
-102 -150 -95 -150 38 0 89 45 162 100 162 55 0 100 45 100 100 0 55 -135 100
-300 100 -165 0 -300 -42 -300 -94z"/>
<path d="M29100 10574 c0 -14 -42 -171 -93 -350 -123 -430 13 -414 223 26 143
301 146 350 18 350 -81 0 -148 -12 -148 -26z"/>
<path d="M4917 4787 c-459 -170 -554 -859 -172 -1242 402 -401 878 -269 1010
280 63 261 49 275 -294 275 -404 0 -479 -161 -136 -293 195 -75 202 -96 56
-155 -359 -146 -531 -20 -531 388 0 489 243 688 527 431 205 -186 323 -137
323 134 0 197 -456 303 -783 182z"/>
<path d="M6173 4791 c-205 -120 -138 -310 80 -226 117 45 147 -46 147 -454 0
-444 -26 -511 -200 -511 -110 0 -200 -45 -200 -100 0 -55 248 -100 550 -100
303 0 550 45 550 100 0 55 -90 100 -200 100 -179 0 -200 67 -200 650 0 691
-98 791 -527 541z"/>
<path d="M23250 4100 c0 -657 14 -700 223 -700 193 0 214 39 162 300 -51 256
-30 300 147 300 254 0 379 -179 229 -329 -173 -173 -132 -271 114 -271 212 0
225 41 225 700 0 659 -13 700 -225 700 -232 0 -302 -141 -125 -250 187 -116
101 -250 -161 -250 -228 0 -253 31 -198 250 53 212 28 250 -164 250 -214 0
-227 -39 -227 -700z"/>
<path d="M14454 1607 c-31 -51 -12 -121 44 -156 142 -88 128 -885 -18 -1031
-93 -93 -49 -120 200 -120 176 0 320 45 320 100 0 55 -45 100 -100 100 -55 0
-100 90 -100 200 0 147 67 200 250 200 183 0 250 -53 250 -200 0 -110 -45
-200 -100 -200 -55 0 -100 -45 -100 -100 0 -55 135 -100 300 -100 295 0 397
128 200 250 -55 34 -100 236 -100 450 0 214 45 416 100 450 197 122 95 250
-200 250 -295 0 -397 -128 -200 -250 184 -114 103 -250 -150 -250 -253 0 -334
136 -150 250 55 34 100 104 100 156 0 122 -470 123 -546 1z"/>
</g>
</svg>
