{
    "filename": "12bh7.json",
    "tubeGraph": {
        "c": [{
            "p": [{
                "va": 0,
                "vg1": -40,
                "ig1": 0,
                "vg2": null,
                "ig2": 0,
                "ik": 0
            }, {
                "va": 452.0254169976172,
                "vg1": -40,
                "ig1": 0,
                "vg2": null,
                "ig2": 0,
                "ik": 0.0003276699029126214
            }, {
                "va": 576.0127084988086,
                "vg1": -40,
                "ig1": 0,
                "vg2": null,
                "ig2": 0,
                "ik": 0.0007645631067961166
            }, {
                "va": 619.9364575059572,
                "vg1": -40,
                "ig1": 0,
                "vg2": null,
                "ig2": 0,
                "ik": 0.002184466019417476
            }],
            "vg1": -40
        }, {
            "p": [{
                "va": 0,
                "vg1": -35,
                "ig1": 0,
                "vg2": null,
                "ig2": 0,
                "ik": 0
            }, {
                "va": 385.8617950754567,
                "vg1": -35,
                "ig1": 0,
                "vg2": null,
                "ig2": 0,
                "ik": 0.0003276699029126214
            }, {
                "va": 513.1850675139,
                "vg1": -35,
                "ig1": 0,
                "vg2": null,
                "ig2": 0,
                "ik": 0.001037621359223301
            }, {
                "va": 588.2446386020652,
                "vg1": -35,
                "ig1": 0,
                "vg2": null,
                "ig2": 0,
                "ik": 0.0042050970873786404
            }],
            "vg1": -35
        }, {
            "p": [{
                "va": 0,
                "vg1": -30,
                "ig1": 0,
                "vg2": null,
                "ig2": 0,
                "ik": 0
            }, {
                "va": 343.0500397140588,
                "vg1": -30,
                "ig1": 0,
                "vg2": null,
                "ig2": 0,
                "ik": 0.0001638349514563107
            }, {
                "va": 483.16123907863386,
                "vg1": -30,
                "ig1": 0,
                "vg2": null,
                "ig2": 0,
                "ik": 0.002348300970873787
            }, {
                "va": 564.8927720413027,
                "vg1": -30,
                "ig1": 0,
                "vg2": null,
                "ig2": 0,
                "ik": 0.007864077669902913
            }],
            "vg1": -30
        }, {
            "p": [{
                "va": 0,
                "vg1": -25,
                "ig1": 0,
                "vg2": null,
                "ig2": 0,
                "ik": 0
            }, {
                "va": 297.4583002382844,
                "vg1": -25,
                "ig1": 0,
                "vg2": null,
                "ig2": 0,
                "ik": 0.0003276699029126214
            }, {
                "va": 435.3455123113582,
                "vg1": -25,
                "ig1": 0,
                "vg2": null,
                "ig2": 0,
                "ik": 0.00387742718446602
            }, {
                "va": 539.3169181890389,
                "vg1": -25,
                "ig1": 0,
                "vg2": null,
                "ig2": 0,
                "ik": 0.01496359223300971
            }],
            "vg1": -25
        }, {
            "p": [{
                "va": 0,
                "vg1": -20,
                "ig1": 0,
                "vg2": null,
                "ig2": 0,
                "ik": 0
            }, {
                "va": 233.5186656076251,
                "vg1": -20,
                "ig1": 0,
                "vg2": null,
                "ig2": 0,
                "ik": 0.00010922330097087379
            }, {
                "va": 376.4098490865767,
                "vg1": -20,
                "ig1": 0,
                "vg2": null,
                "ig2": 0,
                "ik": 0.005570388349514563
            }, {
                "va": 489.27720413026213,
                "vg1": -20,
                "ig1": 0,
                "vg2": null,
                "ig2": 0,
                "ik": 0.01987864077669903
            }],
            "vg1": -20
        }, {
            "p": [{
                "va": 0,
                "vg1": -15,
                "ig1": 0,
                "vg2": null,
                "ig2": 0,
                "ik": 0
            }, {
                "va": 188.48292295472598,
                "vg1": -15,
                "ig1": 0,
                "vg2": null,
                "ig2": 0,
                "ik": 0.0003276699029126214
            }, {
                "va": 286.8943606036537,
                "vg1": -15,
                "ig1": 0,
                "vg2": null,
                "ig2": 0,
                "ik": 0.005625
            }, {
                "va": 430.89753772835587,
                "vg1": -15,
                "ig1": 0,
                "vg2": null,
                "ig2": 0,
                "ik": 0.025885922330097087
            }],
            "vg1": -15
        }, {
            "p": [{
                "va": 0,
                "vg1": -10,
                "ig1": 0,
                "vg2": null,
                "ig2": 0,
                "ik": 0
            }, {
                "va": 130.10325655281972,
                "vg1": -10,
                "ig1": 0,
                "vg2": null,
                "ig2": 0,
                "ik": 0.0003276699029126214
            }, {
                "va": 207.38681493248612,
                "vg1": -10,
                "ig1": 0,
                "vg2": null,
                "ig2": 0,
                "ik": 0.0050242718446601945
            }, {
                "va": 252.42255758538525,
                "vg1": -10,
                "ig1": 0,
                "vg2": null,
                "ig2": 0,
                "ik": 0.012233009708737865
            }, {
                "va": 350.83399523431297,
                "vg1": -10,
                "ig1": 0,
                "vg2": null,
                "ig2": 0,
                "ik": 0.033040048543689325
            }],
            "vg1": -10
        }, {
            "p": [{
                "va": 0,
                "vg1": -5,
                "ig1": 0,
                "vg2": null,
                "ig2": 0,
                "ik": 0
            }, {
                "va": 25.019857029388405,
                "vg1": -5,
                "ig1": 0,
                "vg2": null,
                "ig2": 0,
                "ik": 0.00021844660194174757
            }, {
                "va": 100.63542494042892,
                "vg1": -5,
                "ig1": 0,
                "vg2": null,
                "ig2": 0,
                "ik": 0.003658980582524272
            }, {
                "va": 161.7950754567117,
                "vg1": -5,
                "ig1": 0,
                "vg2": null,
                "ig2": 0,
                "ik": 0.01441747572815534
            }, {
                "va": 266.3224781572677,
                "vg1": -5,
                "ig1": 0,
                "vg2": null,
                "ig2": 0,
                "ik": 0.03964805825242718
            }],
            "vg1": -5
        }, {
            "p": [{
                "va": 0,
                "vg1": 0,
                "ig1": 0,
                "vg2": null,
                "ig2": 0,
                "ik": 0
            }, {
                "va": 51.151707704527404,
                "vg1": 0,
                "ig1": 0,
                "vg2": null,
                "ig2": 0,
                "ik": 0.01108616504854369
            }, {
                "va": 164.0190627482129,
                "vg1": 0,
                "ig1": 0,
                "vg2": null,
                "ig2": 0,
                "ik": 0.044781553398058255
            }],
            "vg1": 0
        }],
        "vg2": null,
        "logX": false,
        "logY": false,
        "name": "12bh7",
        "raw": false,
        "unit": 0,
        "triode": false
    }
}
