{
    "filename": "12gn7  150vg2.json",
    "tubeGraph": {
        "c": [{
            "p": [{
                "va": 0,
                "vg1": -3,
                "ig1": 0,
                "vg2": 150,
                "ig2": 0,
                "ik": 0
            }, {
                "va": 10.526315789473685,
                "vg1": -3,
                "ig1": 0,
                "vg2": 150,
                "ig2": 0,
                "ik": 0.0017434620174346202
            }, {
                "va": 32.4561403508772,
                "vg1": -3,
                "ig1": 0,
                "vg2": 150,
                "ig2": 0,
                "ik": 0.0029638854296388543
            }, {
                "va": 442.54385964912285,
                "vg1": -3,
                "ig1": 0,
                "vg2": 150,
                "ig2": 0,
                "ik": 0.006799501867995018
            }],
            "vg1": -3
        }, {
            "p": [{
                "va": 0,
                "vg1": -2.5,
                "ig1": 0,
                "vg2": 150,
                "ig2": 0,
                "ik": 0
            }, {
                "va": 5.701754385964913,
                "vg1": -2.5,
                "ig1": 0,
                "vg2": 150,
                "ig2": 0,
                "ik": 0.003312577833125778
            }, {
                "va": 18.42105263157895,
                "vg1": -2.5,
                "ig1": 0,
                "vg2": 150,
                "ig2": 0,
                "ik": 0.005927770859277709
            }, {
                "va": 113.15789473684211,
                "vg1": -2.5,
                "ig1": 0,
                "vg2": 150,
                "ig2": 0,
                "ik": 0.009414694894146949
            }, {
                "va": 438.15789473684214,
                "vg1": -2.5,
                "ig1": 0,
                "vg2": 150,
                "ig2": 0,
                "ik": 0.01464508094645081
            }],
            "vg1": -2.5
        }, {
            "p": [{
                "va": 0,
                "vg1": -2,
                "ig1": 0,
                "vg2": 150,
                "ig2": 0,
                "ik": 0
            }, {
                "va": 8.771929824561404,
                "vg1": -2,
                "ig1": 0,
                "vg2": 150,
                "ig2": 0,
                "ik": 0.00784557907845579
            }, {
                "va": 18.42105263157895,
                "vg1": -2,
                "ig1": 0,
                "vg2": 150,
                "ig2": 0,
                "ik": 0.013075965130759652
            }, {
                "va": 58.333333333333336,
                "vg1": -2,
                "ig1": 0,
                "vg2": 150,
                "ig2": 0,
                "ik": 0.016737235367372354
            }, {
                "va": 171.49122807017545,
                "vg1": -2,
                "ig1": 0,
                "vg2": 150,
                "ig2": 0,
                "ik": 0.021967621419676214
            }, {
                "va": 428.07017543859655,
                "vg1": -2,
                "ig1": 0,
                "vg2": 150,
                "ig2": 0,
                "ik": 0.027372353673723537
            }],
            "vg1": -2
        }, {
            "p": [{
                "va": 0,
                "vg1": -1.5,
                "ig1": 0,
                "vg2": 150,
                "ig2": 0,
                "ik": 0
            }, {
                "va": 13.157894736842106,
                "vg1": -1.5,
                "ig1": 0,
                "vg2": 150,
                "ig2": 0,
                "ik": 0.01900373599003736
            }, {
                "va": 33.333333333333336,
                "vg1": -1.5,
                "ig1": 0,
                "vg2": 150,
                "ig2": 0,
                "ik": 0.02684931506849315
            }, {
                "va": 144.2982456140351,
                "vg1": -1.5,
                "ig1": 0,
                "vg2": 150,
                "ig2": 0,
                "ik": 0.03539227895392279
            }, {
                "va": 413.15789473684214,
                "vg1": -1.5,
                "ig1": 0,
                "vg2": 150,
                "ig2": 0,
                "ik": 0.04550435865504359
            }],
            "vg1": -1.5
        }, {
            "p": [{
                "va": 0,
                "vg1": -1,
                "ig1": 0,
                "vg2": 150,
                "ig2": 0,
                "ik": 0
            }, {
                "va": 20.17543859649123,
                "vg1": -1,
                "ig1": 0,
                "vg2": 150,
                "ig2": 0,
                "ik": 0.03539227895392279
            }, {
                "va": 42.982456140350884,
                "vg1": -1,
                "ig1": 0,
                "vg2": 150,
                "ig2": 0,
                "ik": 0.04445828144458282
            }, {
                "va": 118.42105263157896,
                "vg1": -1,
                "ig1": 0,
                "vg2": 150,
                "ig2": 0,
                "ik": 0.05265255292652553
            }, {
                "va": 396.92982456140356,
                "vg1": -1,
                "ig1": 0,
                "vg2": 150,
                "ig2": 0,
                "ik": 0.0652054794520548
            }],
            "vg1": -1
        }, {
            "p": [{
                "va": 0,
                "vg1": -0.5,
                "ig1": 0,
                "vg2": 150,
                "ig2": 0,
                "ik": 0
            }, {
                "va": 28.070175438596493,
                "vg1": -0.5,
                "ig1": 0,
                "vg2": 150,
                "ig2": 0,
                "ik": 0.05701120797011208
            }, {
                "va": 58.333333333333336,
                "vg1": -0.5,
                "ig1": 0,
                "vg2": 150,
                "ig2": 0,
                "ik": 0.07130759651307596
            }, {
                "va": 373.2456140350877,
                "vg1": -0.5,
                "ig1": 0,
                "vg2": 150,
                "ig2": 0,
                "ik": 0.09327521793275219
            }],
            "vg1": -0.5
        }, {
            "p": [{
                "va": 0,
                "vg1": 0,
                "ig1": 0,
                "vg2": 150,
                "ig2": 0,
                "ik": 0
            }, {
                "va": 43.42105263157895,
                "vg1": 0,
                "ig1": 0,
                "vg2": 150,
                "ig2": 0,
                "ik": 0.08926525529265256
            }, {
                "va": 60.08771929824562,
                "vg1": 0,
                "ig1": 0,
                "vg2": 150,
                "ig2": 0,
                "ik": 0.10042341220423412
            }, {
                "va": 348.2456140350877,
                "vg1": 0,
                "ig1": 0,
                "vg2": 150,
                "ig2": 0,
                "ik": 0.12378580323785804
            }],
            "vg1": 0
        }],
        "vg2": 150,
        "logX": false,
        "logY": false,
        "name": "12gn7  150Vg2",
        "raw": false,
        "unit": null,
        "triode": false
    }
}
