{
    "filename": "12gn7 triode.json",
    "tubeGraph": {
        "c": [{
            "p": [{
                "va": 0,
                "vg1": -12,
                "ig1": 0,
                "vg2": null,
                "ig2": 0,
                "ik": 0
            }, {
                "va": 272.6550079491256,
                "vg1": -12,
                "ig1": 0,
                "vg2": null,
                "ig2": 0,
                "ik": 0.0016488549618320612
            }, {
                "va": 347.21780604133545,
                "vg1": -12,
                "ig1": 0,
                "vg2": null,
                "ig2": 0,
                "ik": 0.010580152671755725
            }],
            "vg1": -12
        }, {
            "p": [{
                "va": 0,
                "vg1": -11,
                "ig1": 0,
                "vg2": null,
                "ig2": 0,
                "ik": 0
            }, {
                "va": 239.26868044515103,
                "vg1": -11,
                "ig1": 0,
                "vg2": null,
                "ig2": 0,
                "ik": 0.0010992366412213741
            }, {
                "va": 349.4435612082671,
                "vg1": -11,
                "ig1": 0,
                "vg2": null,
                "ig2": 0,
                "ik": 0.015389312977099237
            }],
            "vg1": -11
        }, {
            "p": [{
                "va": 0,
                "vg1": -10,
                "ig1": 0,
                "vg2": null,
                "ig2": 0,
                "ik": 0
            }, {
                "va": 223.68839427662957,
                "vg1": -10,
                "ig1": 0,
                "vg2": null,
                "ig2": 0,
                "ik": 0.0015114503816793894
            }, {
                "va": 347.21780604133545,
                "vg1": -10,
                "ig1": 0,
                "vg2": null,
                "ig2": 0,
                "ik": 0.022946564885496182
            }],
            "vg1": -10
        }, {
            "p": [{
                "va": 0,
                "vg1": -9,
                "ig1": 0,
                "vg2": null,
                "ig2": 0,
                "ik": 0
            }, {
                "va": 180.84260731319554,
                "vg1": -9,
                "ig1": 0,
                "vg2": null,
                "ig2": 0,
                "ik": 0.0006870229007633588
            }, {
                "va": 227.02702702702703,
                "vg1": -9,
                "ig1": 0,
                "vg2": null,
                "ig2": 0,
                "ik": 0.0037099236641221374
            }, {
                "va": 347.21780604133545,
                "vg1": -9,
                "ig1": 0,
                "vg2": null,
                "ig2": 0,
                "ik": 0.03256488549618321
            }],
            "vg1": -9
        }, {
            "p": [{
                "va": 0,
                "vg1": -8,
                "ig1": 0,
                "vg2": null,
                "ig2": 0,
                "ik": 0
            }, {
                "va": 184.181240063593,
                "vg1": -8,
                "ig1": 0,
                "vg2": null,
                "ig2": 0,
                "ik": 0.001236641221374046
            }, {
                "va": 344.9920508744038,
                "vg1": -8,
                "ig1": 0,
                "vg2": null,
                "ig2": 0,
                "ik": 0.043694656488549616
            }],
            "vg1": -8
        }, {
            "p": [{
                "va": 0,
                "vg1": -7,
                "ig1": 0,
                "vg2": null,
                "ig2": 0,
                "ik": 0
            }, {
                "va": 122.97297297297297,
                "vg1": -7,
                "ig1": 0,
                "vg2": null,
                "ig2": 0,
                "ik": 0.00013740458015267177
            }, {
                "va": 189.1891891891892,
                "vg1": -7,
                "ig1": 0,
                "vg2": null,
                "ig2": 0,
                "ik": 0.004534351145038168
            }, {
                "va": 333.3068362480127,
                "vg1": -7,
                "ig1": 0,
                "vg2": null,
                "ig2": 0,
                "ik": 0.05386259541984733
            }],
            "vg1": -7
        }, {
            "p": [{
                "va": 0,
                "vg1": -6,
                "ig1": 0,
                "vg2": null,
                "ig2": 0,
                "ik": 0
            }, {
                "va": 104.61049284578696,
                "vg1": -6,
                "ig1": 0,
                "vg2": null,
                "ig2": 0,
                "ik": 0
            }, {
                "va": 159.697933227345,
                "vg1": -6,
                "ig1": 0,
                "vg2": null,
                "ig2": 0,
                "ik": 0.0038473282442748093
            }, {
                "va": 303.2591414944356,
                "vg1": -6,
                "ig1": 0,
                "vg2": null,
                "ig2": 0,
                "ik": 0.05454961832061069
            }],
            "vg1": -6
        }, {
            "p": [{
                "va": 0,
                "vg1": -5,
                "ig1": 0,
                "vg2": null,
                "ig2": 0,
                "ik": 0
            }, {
                "va": 96.82034976152623,
                "vg1": -5,
                "ig1": 0,
                "vg2": null,
                "ig2": 0,
                "ik": 0.00027480916030534353
            }, {
                "va": 180.28616852146263,
                "vg1": -5,
                "ig1": 0,
                "vg2": null,
                "ig2": 0,
                "ik": 0.013740458015267177
            }, {
                "va": 269.3163751987281,
                "vg1": -5,
                "ig1": 0,
                "vg2": null,
                "ig2": 0,
                "ik": 0.05331297709923664
            }],
            "vg1": -5
        }, {
            "p": [{
                "va": 0,
                "vg1": -4,
                "ig1": 0,
                "vg2": null,
                "ig2": 0,
                "ik": 0
            }, {
                "va": 59.5389507154213,
                "vg1": -4,
                "ig1": 0,
                "vg2": null,
                "ig2": 0,
                "ik": 0.00013740458015267177
            }, {
                "va": 160.8108108108108,
                "vg1": -4,
                "ig1": 0,
                "vg2": null,
                "ig2": 0,
                "ik": 0.01648854961832061
            }, {
                "va": 231.4785373608903,
                "vg1": -4,
                "ig1": 0,
                "vg2": null,
                "ig2": 0,
                "ik": 0.05537404580152672
            }],
            "vg1": -4
        }, {
            "p": [{
                "va": 0,
                "vg1": -3,
                "ig1": 0,
                "vg2": null,
                "ig2": 0,
                "ik": 0
            }, {
                "va": 43.40222575516693,
                "vg1": -3,
                "ig1": 0,
                "vg2": null,
                "ig2": 0,
                "ik": 0
            }, {
                "va": 91.25596184419713,
                "vg1": -3,
                "ig1": 0,
                "vg2": null,
                "ig2": 0,
                "ik": 0.004259541984732824
            }, {
                "va": 198.09220985691573,
                "vg1": -3,
                "ig1": 0,
                "vg2": null,
                "ig2": 0,
                "ik": 0.0559236641221374
            }],
            "vg1": -3
        }, {
            "p": [{
                "va": 0,
                "vg1": -2,
                "ig1": 0,
                "vg2": null,
                "ig2": 0,
                "ik": 0
            }, {
                "va": 22.813990461049283,
                "vg1": -2,
                "ig1": 0,
                "vg2": null,
                "ig2": 0,
                "ik": 0
            }, {
                "va": 60.651828298887125,
                "vg1": -2,
                "ig1": 0,
                "vg2": null,
                "ig2": 0,
                "ik": 0.0031603053435114506
            }, {
                "va": 176.39109697933227,
                "vg1": -2,
                "ig1": 0,
                "vg2": null,
                "ig2": 0,
                "ik": 0.07158778625954199
            }],
            "vg1": -2
        }, {
            "p": [{
                "va": 0,
                "vg1": -1,
                "ig1": 0,
                "vg2": null,
                "ig2": 0,
                "ik": 0
            }, {
                "va": 18.91891891891892,
                "vg1": -1,
                "ig1": 0,
                "vg2": null,
                "ig2": 0,
                "ik": 0
            }, {
                "va": 153.577106518283,
                "vg1": -1,
                "ig1": 0,
                "vg2": null,
                "ig2": 0,
                "ik": 0.08862595419847329
            }],
            "vg1": -1
        }, {
            "p": [{
                "va": 0,
                "vg1": 0,
                "ig1": 0,
                "vg2": null,
                "ig2": 0,
                "ik": 0
            }, {
                "va": 27.82193958664547,
                "vg1": 0,
                "ig1": 0,
                "vg2": null,
                "ig2": 0,
                "ik": 0.010717557251908398
            }, {
                "va": 125.19872813990462,
                "vg1": 0,
                "ig1": 0,
                "vg2": null,
                "ig2": 0,
                "ik": 0.09
            }],
            "vg1": 0
        }],
        "vg2": null,
        "logX": false,
        "logY": false,
        "name": "12gn7 Triode",
        "raw": false,
        "unit": null,
        "triode": true
    }
}
