{
    "filename": "13gb5 t - measured.json",
    "tubeGraph": {
        "c": [{
            "p": [{
                "va": 0,
                "vg1": -70,
                "ig1": 0,
                "vg2": null,
                "ig2": 0,
                "ik": 0
            }, {
                "va": 317.01863354037266,
                "vg1": -70,
                "ig1": 0,
                "vg2": null,
                "ig2": 0,
                "ik": 0.002574370709382151
            }, {
                "va": 340.3726708074534,
                "vg1": -70,
                "ig1": 0,
                "vg2": null,
                "ig2": 0,
                "ik": 0.011327231121281464
            }, {
                "va": 364.223602484472,
                "vg1": -70,
                "ig1": 0,
                "vg2": null,
                "ig2": 0,
                "ik": 0.03037757437070938
            }],
            "vg1": -70
        }, {
            "p": [{
                "va": 0,
                "vg1": -63,
                "ig1": 0,
                "vg2": null,
                "ig2": 0,
                "ik": 0
            }, {
                "va": 289.1925465838509,
                "vg1": -63,
                "ig1": 0,
                "vg2": null,
                "ig2": 0,
                "ik": 0.002059496567505721
            }, {
                "va": 321.9875776397515,
                "vg1": -63,
                "ig1": 0,
                "vg2": null,
                "ig2": 0,
                "ik": 0.021109839816933637
            }, {
                "va": 347.8260869565217,
                "vg1": -63,
                "ig1": 0,
                "vg2": null,
                "ig2": 0,
                "ik": 0.05148741418764302
            }],
            "vg1": -63
        }, {
            "p": [{
                "va": 0,
                "vg1": -56,
                "ig1": 0,
                "vg2": null,
                "ig2": 0,
                "ik": 0
            }, {
                "va": 256.89440993788816,
                "vg1": -56,
                "ig1": 0,
                "vg2": null,
                "ig2": 0,
                "ik": 0.002059496567505721
            }, {
                "va": 281.73913043478257,
                "vg1": -56,
                "ig1": 0,
                "vg2": null,
                "ig2": 0,
                "ik": 0.015446224256292907
            }, {
                "va": 307.5776397515528,
                "vg1": -56,
                "ig1": 0,
                "vg2": null,
                "ig2": 0,
                "ik": 0.042219679633867274
            }, {
                "va": 329.9378881987577,
                "vg1": -56,
                "ig1": 0,
                "vg2": null,
                "ig2": 0,
                "ik": 0.08032036613272311
            }],
            "vg1": -56
        }, {
            "p": [{
                "va": 0,
                "vg1": -49,
                "ig1": 0,
                "vg2": null,
                "ig2": 0,
                "ik": 0
            }, {
                "va": 225.59006211180122,
                "vg1": -49,
                "ig1": 0,
                "vg2": null,
                "ig2": 0,
                "ik": 0.002059496567505721
            }, {
                "va": 257.39130434782606,
                "vg1": -49,
                "ig1": 0,
                "vg2": null,
                "ig2": 0,
                "ik": 0.02162471395881007
            }, {
                "va": 280.2484472049689,
                "vg1": -49,
                "ig1": 0,
                "vg2": null,
                "ig2": 0,
                "ik": 0.04994279176201372
            }, {
                "va": 310.0621118012422,
                "vg1": -49,
                "ig1": 0,
                "vg2": null,
                "ig2": 0,
                "ik": 0.11018306636155606
            }],
            "vg1": -49
        }, {
            "p": [{
                "va": 0,
                "vg1": -42,
                "ig1": 0,
                "vg2": null,
                "ig2": 0,
                "ik": 0
            }, {
                "va": 199.75155279503105,
                "vg1": -42,
                "ig1": 0,
                "vg2": null,
                "ig2": 0,
                "ik": 0.005148741418764302
            }, {
                "va": 239.0062111801242,
                "vg1": -42,
                "ig1": 0,
                "vg2": null,
                "ig2": 0,
                "ik": 0.04016018306636156
            }, {
                "va": 260.3726708074534,
                "vg1": -42,
                "ig1": 0,
                "vg2": null,
                "ig2": 0,
                "ik": 0.07620137299771167
            }, {
                "va": 289.6894409937888,
                "vg1": -42,
                "ig1": 0,
                "vg2": null,
                "ig2": 0,
                "ik": 0.14262013729977116
            }],
            "vg1": -42
        }, {
            "p": [{
                "va": 0,
                "vg1": -35,
                "ig1": 0,
                "vg2": null,
                "ig2": 0,
                "ik": 0
            }, {
                "va": 163.4782608695652,
                "vg1": -35,
                "ig1": 0,
                "vg2": null,
                "ig2": 0,
                "ik": 0.002574370709382151
            }, {
                "va": 193.78881987577637,
                "vg1": -35,
                "ig1": 0,
                "vg2": null,
                "ig2": 0,
                "ik": 0.02265446224256293
            }, {
                "va": 212.67080745341613,
                "vg1": -35,
                "ig1": 0,
                "vg2": null,
                "ig2": 0,
                "ik": 0.04994279176201372
            }, {
                "va": 237.51552795031054,
                "vg1": -35,
                "ig1": 0,
                "vg2": null,
                "ig2": 0,
                "ik": 0.10143020594965675
            }, {
                "va": 266.83229813664593,
                "vg1": -35,
                "ig1": 0,
                "vg2": null,
                "ig2": 0,
                "ik": 0.180720823798627
            }],
            "vg1": -35
        }, {
            "p": [{
                "va": 0,
                "vg1": -28,
                "ig1": 0,
                "vg2": null,
                "ig2": 0,
                "ik": 0
            }, {
                "va": 135.65217391304347,
                "vg1": -28,
                "ig1": 0,
                "vg2": null,
                "ig2": 0,
                "ik": 0.003604118993135011
            }, {
                "va": 160.99378881987576,
                "vg1": -28,
                "ig1": 0,
                "vg2": null,
                "ig2": 0,
                "ik": 0.02471395881006865
            }, {
                "va": 177.88819875776397,
                "vg1": -28,
                "ig1": 0,
                "vg2": null,
                "ig2": 0,
                "ik": 0.05097254004576659
            }, {
                "va": 210.68322981366458,
                "vg1": -28,
                "ig1": 0,
                "vg2": null,
                "ig2": 0,
                "ik": 0.12511441647597255
            }, {
                "va": 243.4782608695652,
                "vg1": -28,
                "ig1": 0,
                "vg2": null,
                "ig2": 0,
                "ik": 0.22294050343249427
            }],
            "vg1": -28
        }, {
            "p": [{
                "va": 0,
                "vg1": -21,
                "ig1": 0,
                "vg2": null,
                "ig2": 0,
                "ik": 0
            }, {
                "va": 101.36645962732918,
                "vg1": -21,
                "ig1": 0,
                "vg2": null,
                "ig2": 0,
                "ik": 0.003604118993135011
            }, {
                "va": 129.1925465838509,
                "vg1": -21,
                "ig1": 0,
                "vg2": null,
                "ig2": 0,
                "ik": 0.02574370709382151
            }, {
                "va": 156.02484472049687,
                "vg1": -21,
                "ig1": 0,
                "vg2": null,
                "ig2": 0,
                "ik": 0.07671624713958809
            }, {
                "va": 185.3416149068323,
                "vg1": -21,
                "ig1": 0,
                "vg2": null,
                "ig2": 0,
                "ik": 0.14931350114416475
            }, {
                "va": 217.1428571428571,
                "vg1": -21,
                "ig1": 0,
                "vg2": null,
                "ig2": 0,
                "ik": 0.2600114416475972
            }],
            "vg1": -21
        }, {
            "p": [{
                "va": 0,
                "vg1": -14,
                "ig1": 0,
                "vg2": null,
                "ig2": 0,
                "ik": 0
            }, {
                "va": 68.57142857142857,
                "vg1": -14,
                "ig1": 0,
                "vg2": null,
                "ig2": 0,
                "ik": 0.004633867276887871
            }, {
                "va": 89.44099378881987,
                "vg1": -14,
                "ig1": 0,
                "vg2": null,
                "ig2": 0,
                "ik": 0.019050343249427917
            }, {
                "va": 121.7391304347826,
                "vg1": -14,
                "ig1": 0,
                "vg2": null,
                "ig2": 0,
                "ik": 0.07671624713958809
            }, {
                "va": 155.527950310559,
                "vg1": -14,
                "ig1": 0,
                "vg2": null,
                "ig2": 0,
                "ik": 0.17557208237986272
            }, {
                "va": 191.30434782608694,
                "vg1": -14,
                "ig1": 0,
                "vg2": null,
                "ig2": 0,
                "ik": 0.3130434782608696
            }],
            "vg1": -14
        }, {
            "p": [{
                "va": 0,
                "vg1": -7,
                "ig1": 0,
                "vg2": null,
                "ig2": 0,
                "ik": 0
            }, {
                "va": 52.670807453416145,
                "vg1": -7,
                "ig1": 0,
                "vg2": null,
                "ig2": 0,
                "ik": 0.017505720823798625
            }, {
                "va": 91.92546583850931,
                "vg1": -7,
                "ig1": 0,
                "vg2": null,
                "ig2": 0,
                "ik": 0.09988558352402745
            }, {
                "va": 121.24223602484471,
                "vg1": -7,
                "ig1": 0,
                "vg2": null,
                "ig2": 0,
                "ik": 0.1997711670480549
            }, {
                "va": 160,
                "vg1": -7,
                "ig1": 0,
                "vg2": null,
                "ig2": 0,
                "ik": 0.3665903890160183
            }],
            "vg1": -7
        }, {
            "p": [{
                "va": 0,
                "vg1": 0,
                "ig1": 0,
                "vg2": null,
                "ig2": 0,
                "ik": 0
            }, {
                "va": 41.7391304347826,
                "vg1": 0,
                "ig1": 0,
                "vg2": null,
                "ig2": 0,
                "ik": 0.07465675057208238
            }, {
                "va": 78.01242236024844,
                "vg1": 0,
                "ig1": 0,
                "vg2": null,
                "ig2": 0,
                "ik": 0.19822654462242562
            }, {
                "va": 126.21118012422359,
                "vg1": 0,
                "ig1": 0,
                "vg2": null,
                "ig2": 0,
                "ik": 0.4232265446224256
            }],
            "vg1": 0
        }],
        "vg2": null,
        "logX": false,
        "logY": false,
        "name": "13GB5 T - measured",
        "raw": false,
        "unit": null,
        "triode": true
    }
}
