{
    "filename": "1619_vg2_250v.json",
    "tubeGraph": {
        "c": [{
            "p": [{
                "va": 0,
                "vg1": -20,
                "ig1": 0,
                "vg2": 250,
                "ig2": 0,
                "ik": 0
            }, {
                "va": 16.955684007707127,
                "vg1": -20,
                "ig1": 0,
                "vg2": 250,
                "ig2": 0,
                "ik": 0.013076923076923076
            }, {
                "va": 99.42196531791907,
                "vg1": -20,
                "ig1": 0,
                "vg2": 250,
                "ig2": 0,
                "ik": 0.02
            }, {
                "va": 289.0173410404624,
                "vg1": -20,
                "ig1": 0,
                "vg2": 250,
                "ig2": 0,
                "ik": 0.02076923076923077
            }, {
                "va": 788.4393063583815,
                "vg1": -20,
                "ig1": 0,
                "vg2": 250,
                "ig2": 0,
                "ik": 0.025384615384615384
            }],
            "vg1": -20
        }, {
            "p": [{
                "va": 0,
                "vg1": -10,
                "ig1": 0,
                "vg2": 250,
                "ig2": 0,
                "ik": 0
            }, {
                "va": 23.892100192678225,
                "vg1": -10,
                "ig1": 0,
                "vg2": 250,
                "ig2": 0,
                "ik": 0.028461538461538458
            }, {
                "va": 110.21194605009633,
                "vg1": -10,
                "ig1": 0,
                "vg2": 250,
                "ig2": 0,
                "ik": 0.03692307692307692
            }, {
                "va": 298.2658959537572,
                "vg1": -10,
                "ig1": 0,
                "vg2": 250,
                "ig2": 0,
                "ik": 0.04384615384615385
            }, {
                "va": 702.1194605009633,
                "vg1": -10,
                "ig1": 0,
                "vg2": 250,
                "ig2": 0,
                "ik": 0.052307692307692305
            }],
            "vg1": -10
        }, {
            "p": [{
                "va": 0,
                "vg1": 0,
                "ig1": 0,
                "vg2": 250,
                "ig2": 0,
                "ik": 0
            }, {
                "va": 22.35067437379576,
                "vg1": 0,
                "ig1": 0,
                "vg2": 250,
                "ig2": 0,
                "ik": 0.03
            }, {
                "va": 36.99421965317919,
                "vg1": 0,
                "ig1": 0,
                "vg2": 250,
                "ig2": 0,
                "ik": 0.06692307692307692
            }, {
                "va": 99.42196531791907,
                "vg1": 0,
                "ig1": 0,
                "vg2": 250,
                "ig2": 0,
                "ik": 0.08538461538461539
            }, {
                "va": 298.2658959537572,
                "vg1": 0,
                "ig1": 0,
                "vg2": 250,
                "ig2": 0,
                "ik": 0.09076923076923075
            }, {
                "va": 599.6146435452794,
                "vg1": 0,
                "ig1": 0,
                "vg2": 250,
                "ig2": 0,
                "ik": 0.09769230769230769
            }],
            "vg1": 0
        }, {
            "p": [{
                "va": 0,
                "vg1": 10,
                "ig1": 0,
                "vg2": 250,
                "ig2": 0,
                "ik": 0
            }, {
                "va": 32.36994219653179,
                "vg1": 10,
                "ig1": 0,
                "vg2": 250,
                "ig2": 0,
                "ik": 0.06
            }, {
                "va": 42.38921001926782,
                "vg1": 10,
                "ig1": 0,
                "vg2": 250,
                "ig2": 0,
                "ik": 0.1176923076923077
            }, {
                "va": 100.1926782273603,
                "vg1": 10,
                "ig1": 0,
                "vg2": 250,
                "ig2": 0,
                "ik": 0.1453846153846154
            }, {
                "va": 208.86319845857417,
                "vg1": 10,
                "ig1": 0,
                "vg2": 250,
                "ig2": 0,
                "ik": 0.15
            }, {
                "va": 449.3256262042389,
                "vg1": 10,
                "ig1": 0,
                "vg2": 250,
                "ig2": 0,
                "ik": 0.15230769230769228
            }],
            "vg1": 10
        }, {
            "p": [{
                "va": 0,
                "vg1": 20,
                "ig1": 0,
                "vg2": 250,
                "ig2": 0,
                "ik": 0
            }, {
                "va": 33.140655105973025,
                "vg1": 20,
                "ig1": 0,
                "vg2": 250,
                "ig2": 0,
                "ik": 0.06692307692307692
            }, {
                "va": 53.949903660886314,
                "vg1": 20,
                "ig1": 0,
                "vg2": 250,
                "ig2": 0,
                "ik": 0.18076923076923077
            }, {
                "va": 110.98265895953756,
                "vg1": 20,
                "ig1": 0,
                "vg2": 250,
                "ig2": 0,
                "ik": 0.20923076923076922
            }, {
                "va": 201.15606936416182,
                "vg1": 20,
                "ig1": 0,
                "vg2": 250,
                "ig2": 0,
                "ik": 0.21384615384615385
            }, {
                "va": 373.02504816955684,
                "vg1": 20,
                "ig1": 0,
                "vg2": 250,
                "ig2": 0,
                "ik": 0.22153846153846152
            }],
            "vg1": 20
        }, {
            "p": [{
                "va": 0,
                "vg1": 30,
                "ig1": 0,
                "vg2": 250,
                "ig2": 0,
                "ik": 0
            }, {
                "va": 43.15992292870905,
                "vg1": 30,
                "ig1": 0,
                "vg2": 250,
                "ig2": 0,
                "ik": 0.12307692307692307
            }, {
                "va": 59.34489402697495,
                "vg1": 30,
                "ig1": 0,
                "vg2": 250,
                "ig2": 0,
                "ik": 0.23769230769230767
            }, {
                "va": 121.0019267822736,
                "vg1": 30,
                "ig1": 0,
                "vg2": 250,
                "ig2": 0,
                "ik": 0.2730769230769231
            }, {
                "va": 200.3853564547206,
                "vg1": 30,
                "ig1": 0,
                "vg2": 250,
                "ig2": 0,
                "ik": 0.28
            }, {
                "va": 320.61657032755295,
                "vg1": 30,
                "ig1": 0,
                "vg2": 250,
                "ig2": 0,
                "ik": 0.2830769230769231
            }],
            "vg1": 30
        }, {
            "p": [{
                "va": 0,
                "vg1": 40,
                "ig1": 0,
                "vg2": 250,
                "ig2": 0,
                "ik": 0
            }, {
                "va": 32.36994219653179,
                "vg1": 40,
                "ig1": 0,
                "vg2": 250,
                "ig2": 0,
                "ik": 0.06076923076923077
            }, {
                "va": 61.657032755298644,
                "vg1": 40,
                "ig1": 0,
                "vg2": 250,
                "ig2": 0,
                "ik": 0.2553846153846154
            }, {
                "va": 130.2504816955684,
                "vg1": 40,
                "ig1": 0,
                "vg2": 250,
                "ig2": 0,
                "ik": 0.3253846153846154
            }, {
                "va": 200.3853564547206,
                "vg1": 40,
                "ig1": 0,
                "vg2": 250,
                "ig2": 0,
                "ik": 0.33307692307692305
            }, {
                "va": 289.78805394990366,
                "vg1": 40,
                "ig1": 0,
                "vg2": 250,
                "ig2": 0,
                "ik": 0.3392307692307692
            }],
            "vg1": 40
        }],
        "vg2": 250,
        "logX": false,
        "logY": false,
        "name": "1619_vg2_250v",
        "raw": false,
        "unit": null,
        "triode": false
    }
}
