{
    "filename": "1n5gt_ec2_90v.json",
    "tubeGraph": {
        "c": [{
            "p": [{
                "va": 0,
                "vg1": -2.5,
                "ig1": 0,
                "vg2": 90,
                "ig2": 0,
                "ik": 0
            }, {
                "va": 10.559360730593607,
                "vg1": -2.5,
                "ig1": 0,
                "vg2": 90,
                "ig2": 0,
                "ik": 0.000040114613180515765
            }, {
                "va": 20.26255707762557,
                "vg1": -2.5,
                "ig1": 0,
                "vg2": 90,
                "ig2": 0,
                "ik": 0.00004584527220630372
            }, {
                "va": 39.954337899543376,
                "vg1": -2.5,
                "ig1": 0,
                "vg2": 90,
                "ig2": 0,
                "ik": 0.00005157593123209169
            }, {
                "va": 89.8972602739726,
                "vg1": -2.5,
                "ig1": 0,
                "vg2": 90,
                "ig2": 0,
                "ik": 0.00005444126074498568
            }, {
                "va": 139.84018264840182,
                "vg1": -2.5,
                "ig1": 0,
                "vg2": 90,
                "ig2": 0,
                "ik": 0.00006303724928366761
            }, {
                "va": 219.4634703196347,
                "vg1": -2.5,
                "ig1": 0,
                "vg2": 90,
                "ig2": 0,
                "ik": 0.00007449856733524355
            }],
            "vg1": -2.5
        }, {
            "p": [{
                "va": 0,
                "vg1": -2,
                "ig1": 0,
                "vg2": 90,
                "ig2": 0,
                "ik": 0
            }, {
                "va": 10.844748858447488,
                "vg1": -2,
                "ig1": 0,
                "vg2": 90,
                "ig2": 0,
                "ik": 0.00010315186246418338
            }, {
                "va": 20.26255707762557,
                "vg1": -2,
                "ig1": 0,
                "vg2": 90,
                "ig2": 0,
                "ik": 0.00012607449856733523
            }, {
                "va": 39.954337899543376,
                "vg1": -2,
                "ig1": 0,
                "vg2": 90,
                "ig2": 0,
                "ik": 0.0001318051575931232
            }, {
                "va": 80.19406392694064,
                "vg1": -2,
                "ig1": 0,
                "vg2": 90,
                "ig2": 0,
                "ik": 0.00014040114613180516
            }, {
                "va": 119.29223744292237,
                "vg1": -2,
                "ig1": 0,
                "vg2": 90,
                "ig2": 0,
                "ik": 0.00014040114613180516
            }, {
                "va": 149.2579908675799,
                "vg1": -2,
                "ig1": 0,
                "vg2": 90,
                "ig2": 0,
                "ik": 0.00014613180515759313
            }, {
                "va": 219.17808219178082,
                "vg1": -2,
                "ig1": 0,
                "vg2": 90,
                "ig2": 0,
                "ik": 0.00016045845272206306
            }],
            "vg1": -2
        }, {
            "p": [{
                "va": 0,
                "vg1": -1.5,
                "ig1": 0,
                "vg2": 90,
                "ig2": 0,
                "ik": 0
            }, {
                "va": 10.273972602739725,
                "vg1": -1.5,
                "ig1": 0,
                "vg2": 90,
                "ig2": 0,
                "ik": 0.0001977077363896848
            }, {
                "va": 20.26255707762557,
                "vg1": -1.5,
                "ig1": 0,
                "vg2": 90,
                "ig2": 0,
                "ik": 0.0002722063037249284
            }, {
                "va": 29.965753424657535,
                "vg1": -1.5,
                "ig1": 0,
                "vg2": 90,
                "ig2": 0,
                "ik": 0.0003008595988538682
            }, {
                "va": 49.657534246575345,
                "vg1": -1.5,
                "ig1": 0,
                "vg2": 90,
                "ig2": 0,
                "ik": 0.00030659025787965614
            }, {
                "va": 70.20547945205479,
                "vg1": -1.5,
                "ig1": 0,
                "vg2": 90,
                "ig2": 0,
                "ik": 0.0003123209169054441
            }, {
                "va": 89.61187214611873,
                "vg1": -1.5,
                "ig1": 0,
                "vg2": 90,
                "ig2": 0,
                "ik": 0.0003180515759312321
            }, {
                "va": 119.57762557077625,
                "vg1": -1.5,
                "ig1": 0,
                "vg2": 90,
                "ig2": 0,
                "ik": 0.0003209169054441261
            }, {
                "va": 140.1255707762557,
                "vg1": -1.5,
                "ig1": 0,
                "vg2": 90,
                "ig2": 0,
                "ik": 0.00032951289398280804
            }, {
                "va": 198.63013698630138,
                "vg1": -1.5,
                "ig1": 0,
                "vg2": 90,
                "ig2": 0,
                "ik": 0.00035530085959885387
            }],
            "vg1": -1.5
        }, {
            "p": [{
                "va": 0,
                "vg1": -1,
                "ig1": 0,
                "vg2": 90,
                "ig2": 0,
                "ik": 0
            }, {
                "va": 4.566210045662101,
                "vg1": -1,
                "ig1": 0,
                "vg2": 90,
                "ig2": 0,
                "ik": 0.00020916905444126073
            }, {
                "va": 13.41324200913242,
                "vg1": -1,
                "ig1": 0,
                "vg2": 90,
                "ig2": 0,
                "ik": 0.0003954154727793696
            }, {
                "va": 29.965753424657535,
                "vg1": -1,
                "ig1": 0,
                "vg2": 90,
                "ig2": 0,
                "ik": 0.000498567335243553
            }, {
                "va": 59.93150684931507,
                "vg1": -1,
                "ig1": 0,
                "vg2": 90,
                "ig2": 0,
                "ik": 0.0005444126074498568
            }, {
                "va": 99.31506849315069,
                "vg1": -1,
                "ig1": 0,
                "vg2": 90,
                "ig2": 0,
                "ik": 0.0005587392550143266
            }, {
                "va": 169.80593607305937,
                "vg1": -1,
                "ig1": 0,
                "vg2": 90,
                "ig2": 0,
                "ik": 0.0005816618911174784
            }],
            "vg1": -1
        }, {
            "p": [{
                "va": 0,
                "vg1": -0.5,
                "ig1": 0,
                "vg2": 90,
                "ig2": 0,
                "ik": 0
            }, {
                "va": 9.703196347031964,
                "vg1": -0.5,
                "ig1": 0,
                "vg2": 90,
                "ig2": 0,
                "ik": 0.000498567335243553
            }, {
                "va": 17.97945205479452,
                "vg1": -0.5,
                "ig1": 0,
                "vg2": 90,
                "ig2": 0,
                "ik": 0.0006991404011461318
            }, {
                "va": 30.251141552511417,
                "vg1": -0.5,
                "ig1": 0,
                "vg2": 90,
                "ig2": 0,
                "ik": 0.0007994269340974212
            }, {
                "va": 49.657534246575345,
                "vg1": -0.5,
                "ig1": 0,
                "vg2": 90,
                "ig2": 0,
                "ik": 0.000828080229226361
            }, {
                "va": 99.60045662100457,
                "vg1": -0.5,
                "ig1": 0,
                "vg2": 90,
                "ig2": 0,
                "ik": 0.0008424068767908309
            }, {
                "va": 145.83333333333334,
                "vg1": -0.5,
                "ig1": 0,
                "vg2": 90,
                "ig2": 0,
                "ik": 0.0008510028653295128
            }],
            "vg1": -0.5
        }, {
            "p": [{
                "va": 0,
                "vg1": 0,
                "ig1": 0,
                "vg2": 90,
                "ig2": 0,
                "ik": 0
            }, {
                "va": 5.707762557077626,
                "vg1": 0,
                "ig1": 0,
                "vg2": 90,
                "ig2": 0,
                "ik": 0.0004126074498567335
            }, {
                "va": 10.844748858447488,
                "vg1": 0,
                "ig1": 0,
                "vg2": 90,
                "ig2": 0,
                "ik": 0.0007535816618911176
            }, {
                "va": 20.54794520547945,
                "vg1": 0,
                "ig1": 0,
                "vg2": 90,
                "ig2": 0,
                "ik": 0.0009885386819484241
            }, {
                "va": 40.23972602739726,
                "vg1": 0,
                "ig1": 0,
                "vg2": 90,
                "ig2": 0,
                "ik": 0.0011432664756446992
            }, {
                "va": 59.93150684931507,
                "vg1": 0,
                "ig1": 0,
                "vg2": 90,
                "ig2": 0,
                "ik": 0.0011719197707736391
            }, {
                "va": 89.61187214611873,
                "vg1": 0,
                "ig1": 0,
                "vg2": 90,
                "ig2": 0,
                "ik": 0.0012005730659025789
            }, {
                "va": 116.43835616438356,
                "vg1": 0,
                "ig1": 0,
                "vg2": 90,
                "ig2": 0,
                "ik": 0.0012120343839541548
            }],
            "vg1": 0
        }, {
            "p": [{
                "va": 0,
                "vg1": 0.5,
                "ig1": 0,
                "vg2": 90,
                "ig2": 0,
                "ik": 0
            }, {
                "va": 9.132420091324201,
                "vg1": 0.5,
                "ig1": 0,
                "vg2": 90,
                "ig2": 0,
                "ik": 0.0008968481375358166
            }, {
                "va": 18.550228310502284,
                "vg1": 0.5,
                "ig1": 0,
                "vg2": 90,
                "ig2": 0,
                "ik": 0.0012521489971346704
            }, {
                "va": 30.536529680365298,
                "vg1": 0.5,
                "ig1": 0,
                "vg2": 90,
                "ig2": 0,
                "ik": 0.0014412607449856734
            }, {
                "va": 50.22831050228311,
                "vg1": 0.5,
                "ig1": 0,
                "vg2": 90,
                "ig2": 0,
                "ik": 0.0015444126074498567
            }, {
                "va": 79.05251141552512,
                "vg1": 0.5,
                "ig1": 0,
                "vg2": 90,
                "ig2": 0,
                "ik": 0.0015787965616045844
            }],
            "vg1": 0.5
        }],
        "vg2": 90,
        "logX": false,
        "logY": false,
        "name": "1N5GT_EC2_90V",
        "raw": false,
        "unit": null,
        "triode": false
    }
}
