{
    "filename": "2e22_vg2_250v_vg3_22.5v.json",
    "tubeGraph": {
        "c": [{
            "p": [{
                "va": 0,
                "vg1": -20,
                "ig1": 0,
                "vg2": 250,
                "ig2": 0,
                "ik": 0
            }, {
                "va": 48.307410795974384,
                "vg1": -20,
                "ig1": 0,
                "vg2": 250,
                "ig2": 0,
                "ik": 0.024853801169590642
            }, {
                "va": 101.73833485818848,
                "vg1": -20,
                "ig1": 0,
                "vg2": 250,
                "ig2": 0,
                "ik": 0.024853801169590642
            }, {
                "va": 300.0914913083257,
                "vg1": -20,
                "ig1": 0,
                "vg2": 250,
                "ig2": 0,
                "ik": 0.027777777777777776
            }, {
                "va": 459.6523330283623,
                "vg1": -20,
                "ig1": 0,
                "vg2": 250,
                "ig2": 0,
                "ik": 0.02850877192982456
            }, {
                "va": 793.412625800549,
                "vg1": -20,
                "ig1": 0,
                "vg2": 250,
                "ig2": 0,
                "ik": 0.03289473684210526
            }],
            "vg1": -20
        }, {
            "p": [{
                "va": 0,
                "vg1": -15,
                "ig1": 0,
                "vg2": 250,
                "ig2": 0,
                "ik": 0
            }, {
                "va": 16.83440073193047,
                "vg1": -15,
                "ig1": 0,
                "vg2": 250,
                "ig2": 0,
                "ik": 0.024853801169590642
            }, {
                "va": 40.98810612991766,
                "vg1": -15,
                "ig1": 0,
                "vg2": 250,
                "ig2": 0,
                "ik": 0.03874269005847953
            }, {
                "va": 100.27447392497713,
                "vg1": -15,
                "ig1": 0,
                "vg2": 250,
                "ig2": 0,
                "ik": 0.05043859649122807
            }, {
                "va": 240.80512351326624,
                "vg1": -15,
                "ig1": 0,
                "vg2": 250,
                "ig2": 0,
                "ik": 0.05116959064327485
            }, {
                "va": 458.92040256175665,
                "vg1": -15,
                "ig1": 0,
                "vg2": 250,
                "ig2": 0,
                "ik": 0.05263157894736842
            }, {
                "va": 796.3403476669716,
                "vg1": -15,
                "ig1": 0,
                "vg2": 250,
                "ig2": 0,
                "ik": 0.05482456140350877
            }],
            "vg1": -15
        }, {
            "p": [{
                "va": 0,
                "vg1": -10,
                "ig1": 0,
                "vg2": 250,
                "ig2": 0,
                "ik": 0
            }, {
                "va": 21.225983531564502,
                "vg1": -10,
                "ig1": 0,
                "vg2": 250,
                "ig2": 0,
                "ik": 0.041666666666666664
            }, {
                "va": 50.5032021957914,
                "vg1": -10,
                "ig1": 0,
                "vg2": 250,
                "ig2": 0,
                "ik": 0.05847953216374268
            }, {
                "va": 98.81061299176578,
                "vg1": -10,
                "ig1": 0,
                "vg2": 250,
                "ig2": 0,
                "ik": 0.06871345029239766
            }, {
                "va": 300.0914913083257,
                "vg1": -10,
                "ig1": 0,
                "vg2": 250,
                "ig2": 0,
                "ik": 0.07383040935672514
            }, {
                "va": 500.64043915828,
                "vg1": -10,
                "ig1": 0,
                "vg2": 250,
                "ig2": 0,
                "ik": 0.07748538011695906
            }, {
                "va": 796.3403476669716,
                "vg1": -10,
                "ig1": 0,
                "vg2": 250,
                "ig2": 0,
                "ik": 0.07894736842105263
            }],
            "vg1": -10
        }, {
            "p": [{
                "va": 0,
                "vg1": -5,
                "ig1": 0,
                "vg2": 250,
                "ig2": 0,
                "ik": 0
            }, {
                "va": 24.153705397987192,
                "vg1": -5,
                "ig1": 0,
                "vg2": 250,
                "ig2": 0,
                "ik": 0.056286549707602336
            }, {
                "va": 47.57548032936871,
                "vg1": -5,
                "ig1": 0,
                "vg2": 250,
                "ig2": 0,
                "ik": 0.0804093567251462
            }, {
                "va": 101.0064043915828,
                "vg1": -5,
                "ig1": 0,
                "vg2": 250,
                "ig2": 0,
                "ik": 0.097953216374269
            }, {
                "va": 201.28087831655992,
                "vg1": -5,
                "ig1": 0,
                "vg2": 250,
                "ig2": 0,
                "ik": 0.1023391812865497
            }, {
                "va": 349.1308325709058,
                "vg1": -5,
                "ig1": 0,
                "vg2": 250,
                "ig2": 0,
                "ik": 0.10599415204678361
            }, {
                "va": 560.6587374199452,
                "vg1": -5,
                "ig1": 0,
                "vg2": 250,
                "ig2": 0,
                "ik": 0.10818713450292397
            }, {
                "va": 793.412625800549,
                "vg1": -5,
                "ig1": 0,
                "vg2": 250,
                "ig2": 0,
                "ik": 0.11330409356725146
            }],
            "vg1": -5
        }, {
            "p": [{
                "va": 0,
                "vg1": 0,
                "ig1": 0,
                "vg2": 250,
                "ig2": 0,
                "ik": 0
            }, {
                "va": 19.030192131747484,
                "vg1": 0,
                "ig1": 0,
                "vg2": 250,
                "ig2": 0,
                "ik": 0.04093567251461988
            }, {
                "va": 32.20494053064959,
                "vg1": 0,
                "ig1": 0,
                "vg2": 250,
                "ig2": 0,
                "ik": 0.09210526315789473
            }, {
                "va": 100.27447392497713,
                "vg1": 0,
                "ig1": 0,
                "vg2": 250,
                "ig2": 0,
                "ik": 0.13230994152046782
            }, {
                "va": 202.0128087831656,
                "vg1": 0,
                "ig1": 0,
                "vg2": 250,
                "ig2": 0,
                "ik": 0.1381578947368421
            }, {
                "va": 341.8115279048491,
                "vg1": 0,
                "ig1": 0,
                "vg2": 250,
                "ig2": 0,
                "ik": 0.13961988304093567
            }, {
                "va": 559.9268069533395,
                "vg1": 0,
                "ig1": 0,
                "vg2": 250,
                "ig2": 0,
                "ik": 0.1425438596491228
            }, {
                "va": 794.1445562671546,
                "vg1": 0,
                "ig1": 0,
                "vg2": 250,
                "ig2": 0,
                "ik": 0.1461988304093567
            }],
            "vg1": 0
        }, {
            "p": [{
                "va": 0,
                "vg1": 5,
                "ig1": 0,
                "vg2": 250,
                "ig2": 0,
                "ik": 0
            }, {
                "va": 17.56633119853614,
                "vg1": 5,
                "ig1": 0,
                "vg2": 250,
                "ig2": 0,
                "ik": 0.041666666666666664
            }, {
                "va": 38.79231473010064,
                "vg1": 5,
                "ig1": 0,
                "vg2": 250,
                "ig2": 0,
                "ik": 0.11988304093567251
            }, {
                "va": 69.53339432753889,
                "vg1": 5,
                "ig1": 0,
                "vg2": 250,
                "ig2": 0,
                "ik": 0.15131578947368418
            }, {
                "va": 99.54254345837145,
                "vg1": 5,
                "ig1": 0,
                "vg2": 250,
                "ig2": 0,
                "ik": 0.16301169590643275
            }, {
                "va": 201.28087831655992,
                "vg1": 5,
                "ig1": 0,
                "vg2": 250,
                "ig2": 0,
                "ik": 0.16739766081871343
            }, {
                "va": 339.61573650503203,
                "vg1": 5,
                "ig1": 0,
                "vg2": 250,
                "ig2": 0,
                "ik": 0.17178362573099415
            }, {
                "va": 521.8664226898445,
                "vg1": 5,
                "ig1": 0,
                "vg2": 250,
                "ig2": 0,
                "ik": 0.1739766081871345
            }, {
                "va": 794.1445562671546,
                "vg1": 5,
                "ig1": 0,
                "vg2": 250,
                "ig2": 0,
                "ik": 0.17982456140350878
            }],
            "vg1": 5
        }, {
            "p": [{
                "va": 0,
                "vg1": 10,
                "ig1": 0,
                "vg2": 250,
                "ig2": 0,
                "ik": 0
            }, {
                "va": 24.885635864592864,
                "vg1": 10,
                "ig1": 0,
                "vg2": 250,
                "ig2": 0,
                "ik": 0.06652046783625731
            }, {
                "va": 44.64775846294602,
                "vg1": 10,
                "ig1": 0,
                "vg2": 250,
                "ig2": 0,
                "ik": 0.14766081871345027
            }, {
                "va": 61.48215919487649,
                "vg1": 10,
                "ig1": 0,
                "vg2": 250,
                "ig2": 0,
                "ik": 0.17543859649122806
            }, {
                "va": 101.73833485818848,
                "vg1": 10,
                "ig1": 0,
                "vg2": 250,
                "ig2": 0,
                "ik": 0.1951754385964912
            }, {
                "va": 203.47666971637696,
                "vg1": 10,
                "ig1": 0,
                "vg2": 250,
                "ig2": 0,
                "ik": 0.20760233918128654
            }, {
                "va": 349.1308325709058,
                "vg1": 10,
                "ig1": 0,
                "vg2": 250,
                "ig2": 0,
                "ik": 0.2090643274853801
            }, {
                "va": 540.8966148215919,
                "vg1": 10,
                "ig1": 0,
                "vg2": 250,
                "ig2": 0,
                "ik": 0.21271929824561403
            }, {
                "va": 780.9698078682526,
                "vg1": 10,
                "ig1": 0,
                "vg2": 250,
                "ig2": 0,
                "ik": 0.21637426900584794
            }],
            "vg1": 10
        }, {
            "p": [{
                "va": 0,
                "vg1": 15,
                "ig1": 0,
                "vg2": 250,
                "ig2": 0,
                "ik": 0
            }, {
                "va": 32.20494053064959,
                "vg1": 15,
                "ig1": 0,
                "vg2": 250,
                "ig2": 0,
                "ik": 0.09941520467836257
            }, {
                "va": 46.111619396157366,
                "vg1": 15,
                "ig1": 0,
                "vg2": 250,
                "ig2": 0,
                "ik": 0.16301169590643275
            }, {
                "va": 57.09057639524245,
                "vg1": 15,
                "ig1": 0,
                "vg2": 250,
                "ig2": 0,
                "ik": 0.20102339181286547
            }, {
                "va": 100.27447392497713,
                "vg1": 15,
                "ig1": 0,
                "vg2": 250,
                "ig2": 0,
                "ik": 0.2273391812865497
            }, {
                "va": 200.54894784995426,
                "vg1": 15,
                "ig1": 0,
                "vg2": 250,
                "ig2": 0,
                "ik": 0.24561403508771928
            }, {
                "va": 341.07959743824335,
                "vg1": 15,
                "ig1": 0,
                "vg2": 250,
                "ig2": 0,
                "ik": 0.25146198830409355
            }, {
                "va": 502.1043000914913,
                "vg1": 15,
                "ig1": 0,
                "vg2": 250,
                "ig2": 0,
                "ik": 0.2536549707602339
            }, {
                "va": 679.2314730100641,
                "vg1": 15,
                "ig1": 0,
                "vg2": 250,
                "ig2": 0,
                "ik": 0.2587719298245614
            }],
            "vg1": 15
        }, {
            "p": [{
                "va": 0,
                "vg1": 20,
                "ig1": 0,
                "vg2": 250,
                "ig2": 0,
                "ik": 0
            }, {
                "va": 33.66880146386094,
                "vg1": 20,
                "ig1": 0,
                "vg2": 250,
                "ig2": 0,
                "ik": 0.1023391812865497
            }, {
                "va": 57.822506861848126,
                "vg1": 20,
                "ig1": 0,
                "vg2": 250,
                "ig2": 0,
                "ik": 0.20687134502923976
            }, {
                "va": 70.99725526075024,
                "vg1": 20,
                "ig1": 0,
                "vg2": 250,
                "ig2": 0,
                "ik": 0.24561403508771928
            }, {
                "va": 149.3138151875572,
                "vg1": 20,
                "ig1": 0,
                "vg2": 250,
                "ig2": 0,
                "ik": 0.28143274853801165
            }, {
                "va": 261.29917657822506,
                "vg1": 20,
                "ig1": 0,
                "vg2": 250,
                "ig2": 0,
                "ik": 0.29970760233918126
            }, {
                "va": 401.8298261665142,
                "vg1": 20,
                "ig1": 0,
                "vg2": 250,
                "ig2": 0,
                "ik": 0.3019005847953216
            }, {
                "va": 556.2671546203111,
                "vg1": 20,
                "ig1": 0,
                "vg2": 250,
                "ig2": 0,
                "ik": 0.3019005847953216
            }],
            "vg1": 20
        }, {
            "p": [{
                "va": 0,
                "vg1": 25,
                "ig1": 0,
                "vg2": 250,
                "ig2": 0,
                "ik": 0
            }, {
                "va": 41.72003659652333,
                "vg1": 25,
                "ig1": 0,
                "vg2": 250,
                "ig2": 0,
                "ik": 0.13304093567251463
            }, {
                "va": 70.99725526075024,
                "vg1": 25,
                "ig1": 0,
                "vg2": 250,
                "ig2": 0,
                "ik": 0.26608187134502925
            }, {
                "va": 107.59377859103385,
                "vg1": 25,
                "ig1": 0,
                "vg2": 250,
                "ig2": 0,
                "ik": 0.3114035087719298
            }, {
                "va": 215.1875571820677,
                "vg1": 25,
                "ig1": 0,
                "vg2": 250,
                "ig2": 0,
                "ik": 0.33771929824561403
            }, {
                "va": 302.28728270814275,
                "vg1": 25,
                "ig1": 0,
                "vg2": 250,
                "ig2": 0,
                "ik": 0.3435672514619883
            }, {
                "va": 436.9624885635865,
                "vg1": 25,
                "ig1": 0,
                "vg2": 250,
                "ig2": 0,
                "ik": 0.3457602339181286
            }],
            "vg1": 25
        }, {
            "p": [{
                "va": 0,
                "vg1": 30,
                "ig1": 0,
                "vg2": 250,
                "ig2": 0,
                "ik": 0
            }, {
                "va": 23.42177493138152,
                "vg1": 30,
                "ig1": 0,
                "vg2": 250,
                "ig2": 0,
                "ik": 0.06505847953216375
            }, {
                "va": 65.87374199451052,
                "vg1": 30,
                "ig1": 0,
                "vg2": 250,
                "ig2": 0,
                "ik": 0.2404970760233918
            }, {
                "va": 84.17200365965233,
                "vg1": 30,
                "ig1": 0,
                "vg2": 250,
                "ig2": 0,
                "ik": 0.3194444444444444
            }, {
                "va": 120.03659652333029,
                "vg1": 30,
                "ig1": 0,
                "vg2": 250,
                "ig2": 0,
                "ik": 0.35526315789473684
            }, {
                "va": 201.28087831655992,
                "vg1": 30,
                "ig1": 0,
                "vg2": 250,
                "ig2": 0,
                "ik": 0.38084795321637427
            }, {
                "va": 297.163769441903,
                "vg1": 30,
                "ig1": 0,
                "vg2": 250,
                "ig2": 0,
                "ik": 0.39619883040935666
            }],
            "vg1": 30
        }],
        "vg2": 250,
        "logX": false,
        "logY": false,
        "name": "2e22_vg2_250v_vg3_22.5V",
        "raw": false,
        "unit": null,
        "triode": false
    }
}
