{
    "filename": "300b graph.json",
    "tubeGraph": {
        "c": [{
            "p": [{
                "va": 0,
                "vg1": -140,
                "ig1": 0,
                "vg2": null,
                "ig2": 0,
                "ik": 0
            }, {
                "va": 483.10648518815054,
                "vg1": -140,
                "ig1": 0,
                "vg2": null,
                "ig2": 0,
                "ik": 0.0059669522643818855
            }, {
                "va": 569.9759807846277,
                "vg1": -140,
                "ig1": 0,
                "vg2": null,
                "ig2": 0,
                "ik": 0.040391676866585076
            }, {
                "va": 650.1200960768615,
                "vg1": -140,
                "ig1": 0,
                "vg2": null,
                "ig2": 0,
                "ik": 0.13494492044063647
            }, {
                "va": 698.3186549239392,
                "vg1": -140,
                "ig1": 0,
                "vg2": null,
                "ig2": 0,
                "ik": 0.21940024479804163
            }],
            "vg1": -140
        }, {
            "p": [{
                "va": 0,
                "vg1": -120,
                "ig1": 0,
                "vg2": null,
                "ig2": 0,
                "ik": 0
            }, {
                "va": 414.7317854283427,
                "vg1": -120,
                "ig1": 0,
                "vg2": null,
                "ig2": 0,
                "ik": 0.007802937576499388
            }, {
                "va": 538.0304243394716,
                "vg1": -120,
                "ig1": 0,
                "vg2": null,
                "ig2": 0,
                "ik": 0.08858629130966954
            }, {
                "va": 676.4611689351482,
                "vg1": -120,
                "ig1": 0,
                "vg2": null,
                "ig2": 0,
                "ik": 0.36
            }],
            "vg1": -120
        }, {
            "p": [{
                "va": 0,
                "vg1": -100,
                "ig1": 0,
                "vg2": null,
                "ig2": 0,
                "ik": 0
            }, {
                "va": 365.4123298638911,
                "vg1": -100,
                "ig1": 0,
                "vg2": null,
                "ig2": 0,
                "ik": 0.0050489596083231345
            }, {
                "va": 459.0072057646117,
                "vg1": -100,
                "ig1": 0,
                "vg2": null,
                "ig2": 0,
                "ik": 0.07802937576499389
            }, {
                "va": 597.9983987189752,
                "vg1": -100,
                "ig1": 0,
                "vg2": null,
                "ig2": 0,
                "ik": 0.36
            }],
            "vg1": -100
        }, {
            "p": [{
                "va": 0,
                "vg1": -80,
                "ig1": 0,
                "vg2": null,
                "ig2": 0,
                "ik": 0
            }, {
                "va": 257.8062449959968,
                "vg1": -80,
                "ig1": 0,
                "vg2": null,
                "ig2": 0,
                "ik": 0.0018359853121175031
            }, {
                "va": 396.7974379503603,
                "vg1": -80,
                "ig1": 0,
                "vg2": null,
                "ig2": 0,
                "ik": 0.09317625458996329
            }, {
                "va": 506.6453162530024,
                "vg1": -80,
                "ig1": 0,
                "vg2": null,
                "ig2": 0,
                "ik": 0.36
            }],
            "vg1": -80
        }, {
            "p": [{
                "va": 0,
                "vg1": -60,
                "ig1": 0,
                "vg2": null,
                "ig2": 0,
                "ik": 0
            }, {
                "va": 221.37710168134507,
                "vg1": -60,
                "ig1": 0,
                "vg2": null,
                "ig2": 0,
                "ik": 0.0050489596083231345
            }, {
                "va": 312.16973578863093,
                "vg1": -60,
                "ig1": 0,
                "vg2": null,
                "ig2": 0,
                "ik": 0.09179926560587516
            }, {
                "va": 427.06164931945557,
                "vg1": -60,
                "ig1": 0,
                "vg2": null,
                "ig2": 0,
                "ik": 0.36
            }],
            "vg1": -60
        }, {
            "p": [{
                "va": 0,
                "vg1": -40,
                "ig1": 0,
                "vg2": null,
                "ig2": 0,
                "ik": 0
            }, {
                "va": 164.77181745396317,
                "vg1": -40,
                "ig1": 0,
                "vg2": null,
                "ig2": 0,
                "ik": 0.011015911872705019
            }, {
                "va": 262.85028022417936,
                "vg1": -40,
                "ig1": 0,
                "vg2": null,
                "ig2": 0,
                "ik": 0.1500917992656059
            }, {
                "va": 348.5988791032826,
                "vg1": -40,
                "ig1": 0,
                "vg2": null,
                "ig2": 0,
                "ik": 0.36
            }],
            "vg1": -40
        }, {
            "p": [{
                "va": 0,
                "vg1": -20,
                "ig1": 0,
                "vg2": null,
                "ig2": 0,
                "ik": 0
            }, {
                "va": 78.46277021617294,
                "vg1": -20,
                "ig1": 0,
                "vg2": null,
                "ig2": 0,
                "ik": 0.010097919216646269
            }, {
                "va": 272.93835068054443,
                "vg1": -20,
                "ig1": 0,
                "vg2": null,
                "ig2": 0,
                "ik": 0.36
            }],
            "vg1": -20
        }, {
            "p": [{
                "va": 0,
                "vg1": 0,
                "ig1": 0,
                "vg2": null,
                "ig2": 0,
                "ik": 0
            }, {
                "va": 76.78142514011209,
                "vg1": 0,
                "ig1": 0,
                "vg2": null,
                "ig2": 0,
                "ik": 0.08399632802937577
            }, {
                "va": 198.39871897518015,
                "vg1": 0,
                "ig1": 0,
                "vg2": null,
                "ig2": 0,
                "ik": 0.36
            }],
            "vg1": 0
        }, {
            "p": [{
                "va": 0,
                "vg1": 20,
                "ig1": 0,
                "vg2": null,
                "ig2": 0,
                "ik": 0
            }, {
                "va": 120.49639711769416,
                "vg1": 20,
                "ig1": 0,
                "vg2": null,
                "ig2": 0,
                "ik": 0.3525091799265606
            }],
            "vg1": 20
        }],
        "vg2": null,
        "logX": false,
        "logY": false,
        "name": "300B Graph",
        "raw": false,
        "unit": null,
        "triode": false
    }
}
