{
    "filename": "3s4tr.json",
    "tubeGraph": {
        "c": [{
            "p": [{
                "va": 0,
                "vg1": -25,
                "ig1": 0,
                "vg2": null,
                "ig2": 0,
                "ik": 0
            }, {
                "va": 115.4126679462572,
                "vg1": -25,
                "ig1": 0,
                "vg2": null,
                "ig2": 0,
                "ik": 0.00045390070921985816
            }, {
                "va": 123.20537428023032,
                "vg1": -25,
                "ig1": 0,
                "vg2": null,
                "ig2": 0,
                "ik": 0.0013900709219858156
            }, {
                "va": 128.3109404990403,
                "vg1": -25,
                "ig1": 0,
                "vg2": null,
                "ig2": 0,
                "ik": 0.0023829787234042553
            }, {
                "va": 135.16314779270633,
                "vg1": -25,
                "ig1": 0,
                "vg2": null,
                "ig2": 0,
                "ik": 0.003858156028368794
            }],
            "vg1": -25
        }, {
            "p": [{
                "va": 0,
                "vg1": -20,
                "ig1": 0,
                "vg2": null,
                "ig2": 0,
                "ik": 0
            }, {
                "va": 91.49712092130518,
                "vg1": -20,
                "ig1": 0,
                "vg2": null,
                "ig2": 0,
                "ik": 0.0003687943262411347
            }, {
                "va": 102.91746641074856,
                "vg1": -20,
                "ig1": 0,
                "vg2": null,
                "ig2": 0,
                "ik": 0.0015319148936170212
            }, {
                "va": 110.44145873320537,
                "vg1": -20,
                "ig1": 0,
                "vg2": null,
                "ig2": 0,
                "ik": 0.002950354609929078
            }, {
                "va": 119.44337811900192,
                "vg1": -20,
                "ig1": 0,
                "vg2": null,
                "ig2": 0,
                "ik": 0.005531914893617021
            }],
            "vg1": -20
        }, {
            "p": [{
                "va": 0,
                "vg1": -15,
                "ig1": 0,
                "vg2": null,
                "ig2": 0,
                "ik": 0
            }, {
                "va": 70.26871401151631,
                "vg1": -15,
                "ig1": 0,
                "vg2": null,
                "ig2": 0,
                "ik": 0.0003120567375886525
            }, {
                "va": 79.67370441458733,
                "vg1": -15,
                "ig1": 0,
                "vg2": null,
                "ig2": 0,
                "ik": 0.0011914893617021277
            }, {
                "va": 85.31669865642993,
                "vg1": -15,
                "ig1": 0,
                "vg2": null,
                "ig2": 0,
                "ik": 0.0022978723404255322
            }, {
                "va": 92.97504798464492,
                "vg1": -15,
                "ig1": 0,
                "vg2": null,
                "ig2": 0,
                "ik": 0.004312056737588652
            }, {
                "va": 100.9021113243762,
                "vg1": -15,
                "ig1": 0,
                "vg2": null,
                "ig2": 0,
                "ik": 0.007205673758865248
            }],
            "vg1": -15
        }, {
            "p": [{
                "va": 0,
                "vg1": -10,
                "ig1": 0,
                "vg2": null,
                "ig2": 0,
                "ik": 0
            }, {
                "va": 47.965451055662186,
                "vg1": -10,
                "ig1": 0,
                "vg2": null,
                "ig2": 0,
                "ik": 0.0003687943262411347
            }, {
                "va": 60.326295585412666,
                "vg1": -10,
                "ig1": 0,
                "vg2": null,
                "ig2": 0,
                "ik": 0.001872340425531915
            }, {
                "va": 67.31285988483685,
                "vg1": -10,
                "ig1": 0,
                "vg2": null,
                "ig2": 0,
                "ik": 0.0036595744680851063
            }, {
                "va": 73.89635316698656,
                "vg1": -10,
                "ig1": 0,
                "vg2": null,
                "ig2": 0,
                "ik": 0.005617021276595744
            }, {
                "va": 81.95777351247601,
                "vg1": -10,
                "ig1": 0,
                "vg2": null,
                "ig2": 0,
                "ik": 0.00899290780141844
            }],
            "vg1": -10
        }, {
            "p": [{
                "va": 0,
                "vg1": -5,
                "ig1": 0,
                "vg2": null,
                "ig2": 0,
                "ik": 0
            }, {
                "va": 24.990403071017273,
                "vg1": -5,
                "ig1": 0,
                "vg2": null,
                "ig2": 0,
                "ik": 0.0003971631205673759
            }, {
                "va": 30.23032629558541,
                "vg1": -5,
                "ig1": 0,
                "vg2": null,
                "ig2": 0,
                "ik": 0.0007943262411347519
            }, {
                "va": 38.56046065259117,
                "vg1": -5,
                "ig1": 0,
                "vg2": null,
                "ig2": 0,
                "ik": 0.0022127659574468087
            }, {
                "va": 45.412667946257194,
                "vg1": -5,
                "ig1": 0,
                "vg2": null,
                "ig2": 0,
                "ik": 0.00425531914893617
            }, {
                "va": 51.86180422264875,
                "vg1": -5,
                "ig1": 0,
                "vg2": null,
                "ig2": 0,
                "ik": 0.006439716312056738
            }, {
                "va": 62.341650671785025,
                "vg1": -5,
                "ig1": 0,
                "vg2": null,
                "ig2": 0,
                "ik": 0.01075177304964539
            }],
            "vg1": -5
        }, {
            "p": [{
                "va": 0,
                "vg1": 0,
                "ig1": 0,
                "vg2": null,
                "ig2": 0,
                "ik": 0
            }, {
                "va": 10.345489443378119,
                "vg1": 0,
                "ig1": 0,
                "vg2": null,
                "ig2": 0,
                "ik": 0.0009361702127659575
            }, {
                "va": 20.690978886756238,
                "vg1": 0,
                "ig1": 0,
                "vg2": null,
                "ig2": 0,
                "ik": 0.003234042553191489
            }, {
                "va": 29.42418426103647,
                "vg1": 0,
                "ig1": 0,
                "vg2": null,
                "ig2": 0,
                "ik": 0.006439716312056738
            }, {
                "va": 42.05374280230326,
                "vg1": 0,
                "ig1": 0,
                "vg2": null,
                "ig2": 0,
                "ik": 0.012822695035460994
            }],
            "vg1": 0
        }, {
            "p": [{
                "va": 0,
                "vg1": 5,
                "ig1": 0,
                "vg2": null,
                "ig2": 0,
                "ik": 0
            }, {
                "va": 13.838771593090211,
                "vg1": 5,
                "ig1": 0,
                "vg2": null,
                "ig2": 0,
                "ik": 0.00748936170212766
            }, {
                "va": 25.12476007677543,
                "vg1": 5,
                "ig1": 0,
                "vg2": null,
                "ig2": 0,
                "ik": 0.01478014184397163
            }],
            "vg1": 5
        }],
        "vg2": null,
        "logX": false,
        "logY": false,
        "name": "3S4Tr",
        "raw": false,
        "unit": null,
        "triode": true
    }
}
