{
    "filename": "5687_1.json",
    "tubeGraph": {
        "c": [{
            "p": [{
                "va": 0,
                "vg1": -26,
                "ig1": 0,
                "vg2": null,
                "ig2": 0,
                "ik": 0
            }, {
                "va": 360.2684563758389,
                "vg1": -26,
                "ig1": 0,
                "vg2": null,
                "ig2": 0,
                "ik": 0.0004291845493562232
            }, {
                "va": 398.2358581016299,
                "vg1": -26,
                "ig1": 0,
                "vg2": null,
                "ig2": 0,
                "ik": 0.002145922746781116
            }],
            "vg1": -26
        }, {
            "p": [{
                "va": 0,
                "vg1": -24,
                "ig1": 0,
                "vg2": null,
                "ig2": 0,
                "ik": 0
            }, {
                "va": 337.4880153403643,
                "vg1": -24,
                "ig1": 0,
                "vg2": null,
                "ig2": 0,
                "ik": 0.0006437768240343348
            }, {
                "va": 398.6577181208053,
                "vg1": -24,
                "ig1": 0,
                "vg2": null,
                "ig2": 0,
                "ik": 0.004828326180257511
            }],
            "vg1": -24
        }, {
            "p": [{
                "va": 0,
                "vg1": -22,
                "ig1": 0,
                "vg2": null,
                "ig2": 0,
                "ik": 0
            }, {
                "va": 318.5043144774688,
                "vg1": -22,
                "ig1": 0,
                "vg2": null,
                "ig2": 0,
                "ik": 0.0006437768240343348
            }, {
                "va": 396.1265580057526,
                "vg1": -22,
                "ig1": 0,
                "vg2": null,
                "ig2": 0,
                "ik": 0.010300429184549357
            }],
            "vg1": -22
        }, {
            "p": [{
                "va": 0,
                "vg1": -20,
                "ig1": 0,
                "vg2": null,
                "ig2": 0,
                "ik": 0
            }, {
                "va": 284.3336529242569,
                "vg1": -20,
                "ig1": 0,
                "vg2": null,
                "ig2": 0,
                "ik": 0.000536480686695279
            }, {
                "va": 319.34803451581973,
                "vg1": -20,
                "ig1": 0,
                "vg2": null,
                "ig2": 0,
                "ik": 0.0028969957081545063
            }, {
                "va": 373.7679769894535,
                "vg1": -20,
                "ig1": 0,
                "vg2": null,
                "ig2": 0,
                "ik": 0.012446351931330472
            }],
            "vg1": -20
        }, {
            "p": [{
                "va": 0,
                "vg1": -18,
                "ig1": 0,
                "vg2": null,
                "ig2": 0,
                "ik": 0
            }, {
                "va": 261.1313518696069,
                "vg1": -18,
                "ig1": 0,
                "vg2": null,
                "ig2": 0,
                "ik": 0.0007510729613733905
            }, {
                "va": 308.80153403643334,
                "vg1": -18,
                "ig1": 0,
                "vg2": null,
                "ig2": 0,
                "ik": 0.004935622317596566
            }, {
                "va": 350.56567593480344,
                "vg1": -18,
                "ig1": 0,
                "vg2": null,
                "ig2": 0,
                "ik": 0.015772532188841202
            }],
            "vg1": -18
        }, {
            "p": [{
                "va": 0,
                "vg1": -16,
                "ig1": 0,
                "vg2": null,
                "ig2": 0,
                "ik": 0
            }, {
                "va": 228.64813039309684,
                "vg1": -16,
                "ig1": 0,
                "vg2": null,
                "ig2": 0,
                "ik": 0.0006437768240343348
            }, {
                "va": 280.11505273250236,
                "vg1": -16,
                "ig1": 0,
                "vg2": null,
                "ig2": 0,
                "ik": 0.00611587982832618
            }, {
                "va": 327.3633748801534,
                "vg1": -16,
                "ig1": 0,
                "vg2": null,
                "ig2": 0,
                "ik": 0.01899141630901288
            }],
            "vg1": -16
        }, {
            "p": [{
                "va": 0,
                "vg1": -14,
                "ig1": 0,
                "vg2": null,
                "ig2": 0,
                "ik": 0
            }, {
                "va": 198.6960690316395,
                "vg1": -14,
                "ig1": 0,
                "vg2": null,
                "ig2": 0,
                "ik": 0.0006437768240343348
            }, {
                "va": 245.52253116011505,
                "vg1": -14,
                "ig1": 0,
                "vg2": null,
                "ig2": 0,
                "ik": 0.005257510729613734
            }, {
                "va": 300.78619367209967,
                "vg1": -14,
                "ig1": 0,
                "vg2": null,
                "ig2": 0,
                "ik": 0.02167381974248927
            }],
            "vg1": -14
        }, {
            "p": [{
                "va": 0,
                "vg1": -12,
                "ig1": 0,
                "vg2": null,
                "ig2": 0,
                "ik": 0
            }, {
                "va": 155.66634707574303,
                "vg1": -12,
                "ig1": 0,
                "vg2": null,
                "ig2": 0,
                "ik": 0.0007510729613733905
            }, {
                "va": 199.5397890699904,
                "vg1": -12,
                "ig1": 0,
                "vg2": null,
                "ig2": 0,
                "ik": 0.0034334763948497857
            }, {
                "va": 237.92905081495684,
                "vg1": -12,
                "ig1": 0,
                "vg2": null,
                "ig2": 0,
                "ik": 0.010836909871244634
            }, {
                "va": 276.7401725790987,
                "vg1": -12,
                "ig1": 0,
                "vg2": null,
                "ig2": 0,
                "ik": 0.025107296137339054
            }],
            "vg1": -12
        }, {
            "p": [{
                "va": 0,
                "vg1": -10,
                "ig1": 0,
                "vg2": null,
                "ig2": 0,
                "ik": 0
            }, {
                "va": 133.72962607861936,
                "vg1": -10,
                "ig1": 0,
                "vg2": null,
                "ig2": 0,
                "ik": 0.0009656652360515021
            }, {
                "va": 161.15052732502397,
                "vg1": -10,
                "ig1": 0,
                "vg2": null,
                "ig2": 0,
                "ik": 0.0027896995708154505
            }, {
                "va": 199.96164908916586,
                "vg1": -10,
                "ig1": 0,
                "vg2": null,
                "ig2": 0,
                "ik": 0.010300429184549357
            }, {
                "va": 247.20997123681687,
                "vg1": -10,
                "ig1": 0,
                "vg2": null,
                "ig2": 0,
                "ik": 0.028969957081545063
            }],
            "vg1": -10
        }, {
            "p": [{
                "va": 0,
                "vg1": -8,
                "ig1": 0,
                "vg2": null,
                "ig2": 0,
                "ik": 0
            }, {
                "va": 107.15244487056567,
                "vg1": -8,
                "ig1": 0,
                "vg2": null,
                "ig2": 0,
                "ik": 0.0007510729613733905
            }, {
                "va": 129.93288590604027,
                "vg1": -8,
                "ig1": 0,
                "vg2": null,
                "ig2": 0,
                "ik": 0.0023605150214592273
            }, {
                "va": 168.3221476510067,
                "vg1": -8,
                "ig1": 0,
                "vg2": null,
                "ig2": 0,
                "ik": 0.010193133047210302
            }, {
                "va": 218.94534995206135,
                "vg1": -8,
                "ig1": 0,
                "vg2": null,
                "ig2": 0,
                "ik": 0.03208154506437768
            }],
            "vg1": -8
        }, {
            "p": [{
                "va": 0,
                "vg1": -6,
                "ig1": 0,
                "vg2": null,
                "ig2": 0,
                "ik": 0
            }, {
                "va": 79.73154362416106,
                "vg1": -6,
                "ig1": 0,
                "vg2": null,
                "ig2": 0,
                "ik": 0.0004291845493562232
            }, {
                "va": 115.58964525407478,
                "vg1": -6,
                "ig1": 0,
                "vg2": null,
                "ig2": 0,
                "ik": 0.005150214592274678
            }, {
                "va": 148.07286673058485,
                "vg1": -6,
                "ig1": 0,
                "vg2": null,
                "ig2": 0,
                "ik": 0.015128755364806868
            }, {
                "va": 189.83700862895492,
                "vg1": -6,
                "ig1": 0,
                "vg2": null,
                "ig2": 0,
                "ik": 0.035622317596566526
            }],
            "vg1": -6
        }, {
            "p": [{
                "va": 0,
                "vg1": -4,
                "ig1": 0,
                "vg2": null,
                "ig2": 0,
                "ik": 0
            }, {
                "va": 53.57622243528284,
                "vg1": -4,
                "ig1": 0,
                "vg2": null,
                "ig2": 0,
                "ik": 0.0011802575107296136
            }, {
                "va": 81.4189837008629,
                "vg1": -4,
                "ig1": 0,
                "vg2": null,
                "ig2": 0,
                "ik": 0.004935622317596566
            }, {
                "va": 114.32406519654842,
                "vg1": -4,
                "ig1": 0,
                "vg2": null,
                "ig2": 0,
                "ik": 0.015128755364806868
            }, {
                "va": 160.30680728667306,
                "vg1": -4,
                "ig1": 0,
                "vg2": null,
                "ig2": 0,
                "ik": 0.03894849785407725
            }],
            "vg1": -4
        }, {
            "p": [{
                "va": 0,
                "vg1": -2,
                "ig1": 0,
                "vg2": null,
                "ig2": 0,
                "ik": 0
            }, {
                "va": 31.2176414189837,
                "vg1": -2,
                "ig1": 0,
                "vg2": null,
                "ig2": 0,
                "ik": 0.0012875536480686696
            }, {
                "va": 67.07574304889741,
                "vg1": -2,
                "ig1": 0,
                "vg2": null,
                "ig2": 0,
                "ik": 0.010515021459227468
            }, {
                "va": 131.6203259827421,
                "vg1": -2,
                "ig1": 0,
                "vg2": null,
                "ig2": 0,
                "ik": 0.04248927038626609
            }],
            "vg1": -2
        }, {
            "p": [{
                "va": 0,
                "vg1": 0,
                "ig1": 0,
                "vg2": null,
                "ig2": 0,
                "ik": 0
            }, {
                "va": 29.952061361457332,
                "vg1": 0,
                "ig1": 0,
                "vg2": null,
                "ig2": 0,
                "ik": 0.010515021459227468
            }, {
                "va": 68.34132310642377,
                "vg1": 0,
                "ig1": 0,
                "vg2": null,
                "ig2": 0,
                "ik": 0.02725321888412017
            }, {
                "va": 105.04314477468839,
                "vg1": 0,
                "ig1": 0,
                "vg2": null,
                "ig2": 0,
                "ik": 0.0473175965665236
            }],
            "vg1": 0
        }],
        "vg2": null,
        "logX": false,
        "logY": false,
        "name": "5687_1",
        "raw": false,
        "unit": 0,
        "triode": false
    }
}
