{
    "filename": "6350_ext_25.json",
    "tubeGraph": {
        "c": [{
            "p": [{
                "va": 0,
                "vg1": -20,
                "ig1": 0,
                "vg2": null,
                "ig2": 0,
                "ik": 0
            }, {
                "va": 347.16681776971893,
                "vg1": -20,
                "ig1": 0,
                "vg2": null,
                "ig2": 0,
                "ik": 0.0009645061728395061
            }, {
                "va": 381.844968268359,
                "vg1": -20,
                "ig1": 0,
                "vg2": null,
                "ig2": 0,
                "ik": 0.003935185185185185
            }, {
                "va": 422.6881233000907,
                "vg1": -20,
                "ig1": 0,
                "vg2": null,
                "ig2": 0,
                "ik": 0.008217592592592592
            }],
            "vg1": -20
        }, {
            "p": [{
                "va": 0,
                "vg1": -18,
                "ig1": 0,
                "vg2": null,
                "ig2": 0,
                "ik": 0
            }, {
                "va": 310.17679057116953,
                "vg1": -18,
                "ig1": 0,
                "vg2": null,
                "ig2": 0,
                "ik": 0.0011188271604938272
            }, {
                "va": 349.4786944696283,
                "vg1": -18,
                "ig1": 0,
                "vg2": null,
                "ig2": 0,
                "ik": 0.0038580246913580245
            }, {
                "va": 373.36808703535814,
                "vg1": -18,
                "ig1": 0,
                "vg2": null,
                "ig2": 0,
                "ik": 0.006751543209876543
            }, {
                "va": 417.6790571169538,
                "vg1": -18,
                "ig1": 0,
                "vg2": null,
                "ig2": 0,
                "ik": 0.013503086419753086
            }],
            "vg1": -18
        }, {
            "p": [{
                "va": 0,
                "vg1": -16,
                "ig1": 0,
                "vg2": null,
                "ig2": 0,
                "ik": 0
            }, {
                "va": 280.12239347234816,
                "vg1": -16,
                "ig1": 0,
                "vg2": null,
                "ig2": 0,
                "ik": 0.0011188271604938272
            }, {
                "va": 320.9655485040798,
                "vg1": -16,
                "ig1": 0,
                "vg2": null,
                "ig2": 0,
                "ik": 0.004822530864197531
            }, {
                "va": 357.1849501359928,
                "vg1": -16,
                "ig1": 0,
                "vg2": null,
                "ig2": 0,
                "ik": 0.010223765432098764
            }, {
                "va": 409.5874886672711,
                "vg1": -16,
                "ig1": 0,
                "vg2": null,
                "ig2": 0,
                "ik": 0.019830246913580245
            }],
            "vg1": -16
        }, {
            "p": [{
                "va": 0,
                "vg1": -14,
                "ig1": 0,
                "vg2": null,
                "ig2": 0,
                "ik": 0
            }, {
                "va": 241.59111514052586,
                "vg1": -14,
                "ig1": 0,
                "vg2": null,
                "ig2": 0,
                "ik": 0.0010030864197530865
            }, {
                "va": 291.68177697189486,
                "vg1": -14,
                "ig1": 0,
                "vg2": null,
                "ig2": 0,
                "ik": 0.005516975308641974
            }, {
                "va": 326.3599274705349,
                "vg1": -14,
                "ig1": 0,
                "vg2": null,
                "ig2": 0,
                "ik": 0.01122685185185185
            }, {
                "va": 380.3037171350861,
                "vg1": -14,
                "ig1": 0,
                "vg2": null,
                "ig2": 0,
                "ik": 0.02199074074074074
            }],
            "vg1": -14
        }, {
            "p": [{
                "va": 0,
                "vg1": -12,
                "ig1": 0,
                "vg2": null,
                "ig2": 0,
                "ik": 0
            }, {
                "va": 208.45421577515867,
                "vg1": -12,
                "ig1": 0,
                "vg2": null,
                "ig2": 0,
                "ik": 0.0010802469135802468
            }, {
                "va": 250.45330915684497,
                "vg1": -12,
                "ig1": 0,
                "vg2": null,
                "ig2": 0,
                "ik": 0.005015432098765432
            }, {
                "va": 284.3608340888486,
                "vg1": -12,
                "ig1": 0,
                "vg2": null,
                "ig2": 0,
                "ik": 0.010648148148148146
            }, {
                "va": 341.0018132366274,
                "vg1": -12,
                "ig1": 0,
                "vg2": null,
                "ig2": 0,
                "ik": 0.02337962962962963
            }],
            "vg1": -12
        }, {
            "p": [{
                "va": 0,
                "vg1": -10,
                "ig1": 0,
                "vg2": null,
                "ig2": 0,
                "ik": 0
            }, {
                "va": 169.92293744333637,
                "vg1": -10,
                "ig1": 0,
                "vg2": null,
                "ig2": 0,
                "ik": 0.0011959876543209875
            }, {
                "va": 216.93109700815958,
                "vg1": -10,
                "ig1": 0,
                "vg2": null,
                "ig2": 0,
                "ik": 0.005864197530864197
            }, {
                "va": 251.99456029011787,
                "vg1": -10,
                "ig1": 0,
                "vg2": null,
                "ig2": 0,
                "ik": 0.012037037037037037
            }, {
                "va": 302.85584768812333,
                "vg1": -10,
                "ig1": 0,
                "vg2": null,
                "ig2": 0,
                "ik": 0.023842592592592592
            }],
            "vg1": -10
        }, {
            "p": [{
                "va": 0,
                "vg1": -8,
                "ig1": 0,
                "vg2": null,
                "ig2": 0,
                "ik": 0
            }, {
                "va": 136.40072529465095,
                "vg1": -8,
                "ig1": 0,
                "vg2": null,
                "ig2": 0,
                "ik": 0.0010802469135802468
            }, {
                "va": 176.85856754306437,
                "vg1": -8,
                "ig1": 0,
                "vg2": null,
                "ig2": 0,
                "ik": 0.005516975308641974
            }, {
                "va": 212.3073436083409,
                "vg1": -8,
                "ig1": 0,
                "vg2": null,
                "ig2": 0,
                "ik": 0.011998456790123456
            }, {
                "va": 261.2420670897552,
                "vg1": -8,
                "ig1": 0,
                "vg2": null,
                "ig2": 0,
                "ik": 0.024305555555555552
            }],
            "vg1": -8
        }, {
            "p": [{
                "va": 0,
                "vg1": -6,
                "ig1": 0,
                "vg2": null,
                "ig2": 0,
                "ik": 0
            }, {
                "va": 85.1541251133273,
                "vg1": -6,
                "ig1": 0,
                "vg2": null,
                "ig2": 0,
                "ik": 0.00034722222222222224
            }, {
                "va": 146.41885766092474,
                "vg1": -6,
                "ig1": 0,
                "vg2": null,
                "ig2": 0,
                "ik": 0.006674382716049382
            }, {
                "va": 173.77606527651858,
                "vg1": -6,
                "ig1": 0,
                "vg2": null,
                "ig2": 0,
                "ik": 0.011998456790123456
            }, {
                "va": 219.62828649138714,
                "vg1": -6,
                "ig1": 0,
                "vg2": null,
                "ig2": 0,
                "ik": 0.024729938271604936
            }],
            "vg1": -6
        }, {
            "p": [{
                "va": 0,
                "vg1": -4,
                "ig1": 0,
                "vg2": null,
                "ig2": 0,
                "ik": 0
            }, {
                "va": 68.20036264732548,
                "vg1": -4,
                "ig1": 0,
                "vg2": null,
                "ig2": 0,
                "ik": 0.0011188271604938272
            }, {
                "va": 96.32819582955575,
                "vg1": -4,
                "ig1": 0,
                "vg2": null,
                "ig2": 0,
                "ik": 0.004822530864197531
            }, {
                "va": 119.44696282864915,
                "vg1": -4,
                "ig1": 0,
                "vg2": null,
                "ig2": 0,
                "ik": 0.008912037037037036
            }, {
                "va": 144.1069809610154,
                "vg1": -4,
                "ig1": 0,
                "vg2": null,
                "ig2": 0,
                "ik": 0.015007716049382716
            }, {
                "va": 176.85856754306437,
                "vg1": -4,
                "ig1": 0,
                "vg2": null,
                "ig2": 0,
                "ik": 0.0248070987654321
            }],
            "vg1": -4
        }, {
            "p": [{
                "va": 0,
                "vg1": -2,
                "ig1": 0,
                "vg2": null,
                "ig2": 0,
                "ik": 0
            }, {
                "va": 35.0634632819583,
                "vg1": -2,
                "ig1": 0,
                "vg2": null,
                "ig2": 0,
                "ik": 0.0010802469135802468
            }, {
                "va": 63.191296464188575,
                "vg1": -2,
                "ig1": 0,
                "vg2": null,
                "ig2": 0,
                "ik": 0.005709876543209876
            }, {
                "va": 90.16319129646419,
                "vg1": -2,
                "ig1": 0,
                "vg2": null,
                "ig2": 0,
                "ik": 0.012037037037037037
            }, {
                "va": 127.1532184950136,
                "vg1": -2,
                "ig1": 0,
                "vg2": null,
                "ig2": 0,
                "ik": 0.022800925925925922
            }],
            "vg1": -2
        }, {
            "p": [{
                "va": 0,
                "vg1": 0,
                "ig1": 0,
                "vg2": null,
                "ig2": 0,
                "ik": 0
            }, {
                "va": 23.11876699909338,
                "vg1": 0,
                "ig1": 0,
                "vg2": null,
                "ig2": 0,
                "ik": 0.004822530864197531
            }, {
                "va": 48.5494106980961,
                "vg1": 0,
                "ig1": 0,
                "vg2": null,
                "ig2": 0,
                "ik": 0.012345679012345678
            }, {
                "va": 87.85131459655486,
                "vg1": 0,
                "ig1": 0,
                "vg2": null,
                "ig2": 0,
                "ik": 0.0248070987654321
            }],
            "vg1": 0
        }, {
            "p": [{
                "va": 0,
                "vg1": 2,
                "ig1": 0,
                "vg2": null,
                "ig2": 0,
                "ik": 0
            }, {
                "va": 23.88939256572983,
                "vg1": 2,
                "ig1": 0,
                "vg2": null,
                "ig2": 0,
                "ik": 0.013850308641975308
            }, {
                "va": 50.861287398005445,
                "vg1": 2,
                "ig1": 0,
                "vg2": null,
                "ig2": 0,
                "ik": 0.024768518518518516
            }],
            "vg1": 2
        }, {
            "p": [{
                "va": 0,
                "vg1": 4,
                "ig1": 0,
                "vg2": null,
                "ig2": 0,
                "ik": 0
            }, {
                "va": 5.009066183136899,
                "vg1": 4,
                "ig1": 0,
                "vg2": null,
                "ig2": 0,
                "ik": 0.011535493827160494
            }, {
                "va": 15.027198549410699,
                "vg1": 4,
                "ig1": 0,
                "vg2": null,
                "ig2": 0,
                "ik": 0.02013888888888889
            }, {
                "va": 24.660018132366275,
                "vg1": 4,
                "ig1": 0,
                "vg2": null,
                "ig2": 0,
                "ik": 0.024691358024691357
            }],
            "vg1": 4
        }],
        "vg2": null,
        "logX": false,
        "logY": false,
        "name": "6350_ext_25",
        "raw": false,
        "unit": 0,
        "triode": false
    }
}
