{
    "filename": "6ah6_150v.json",
    "tubeGraph": {
        "c": [{
            "p": [{
                "va": 0,
                "vg1": -4,
                "ig1": 0,
                "vg2": 150,
                "ig2": 0,
                "ik": 0
            }, {
                "va": 49.30875576036866,
                "vg1": -4,
                "ig1": 0,
                "vg2": 150,
                "ig2": 0,
                "ik": 0.0006193078324225866
            }, {
                "va": 151.1520737327189,
                "vg1": -4,
                "ig1": 0,
                "vg2": 150,
                "ig2": 0,
                "ik": 0.0007650273224043717
            }, {
                "va": 300,
                "vg1": -4,
                "ig1": 0,
                "vg2": 150,
                "ig2": 0,
                "ik": 0.000801457194899818
            }, {
                "va": 498.15668202764977,
                "vg1": -4,
                "ig1": 0,
                "vg2": 150,
                "ig2": 0,
                "ik": 0.000801457194899818
            }],
            "vg1": -4
        }, {
            "p": [{
                "va": 0,
                "vg1": -3.5,
                "ig1": 0,
                "vg2": 150,
                "ig2": 0,
                "ik": 0
            }, {
                "va": 13.824884792626728,
                "vg1": -3.5,
                "ig1": 0,
                "vg2": 150,
                "ig2": 0,
                "ik": 0.0011657559198542807
            }, {
                "va": 50.23041474654378,
                "vg1": -3.5,
                "ig1": 0,
                "vg2": 150,
                "ig2": 0,
                "ik": 0.0018943533697632058
            }, {
                "va": 149.76958525345623,
                "vg1": -3.5,
                "ig1": 0,
                "vg2": 150,
                "ig2": 0,
                "ik": 0.002076502732240437
            }, {
                "va": 301.3824884792627,
                "vg1": -3.5,
                "ig1": 0,
                "vg2": 150,
                "ig2": 0,
                "ik": 0.002185792349726776
            }, {
                "va": 497.6958525345622,
                "vg1": -3.5,
                "ig1": 0,
                "vg2": 150,
                "ig2": 0,
                "ik": 0.0022222222222222222
            }],
            "vg1": -3.5
        }, {
            "p": [{
                "va": 0,
                "vg1": -3,
                "ig1": 0,
                "vg2": 150,
                "ig2": 0,
                "ik": 0
            }, {
                "va": 13.36405529953917,
                "vg1": -3,
                "ig1": 0,
                "vg2": 150,
                "ig2": 0,
                "ik": 0.00273224043715847
            }, {
                "va": 50.69124423963134,
                "vg1": -3,
                "ig1": 0,
                "vg2": 150,
                "ig2": 0,
                "ik": 0.003970856102003643
            }, {
                "va": 100,
                "vg1": -3,
                "ig1": 0,
                "vg2": 150,
                "ig2": 0,
                "ik": 0.0042622950819672135
            }, {
                "va": 205.99078341013825,
                "vg1": -3,
                "ig1": 0,
                "vg2": 150,
                "ig2": 0,
                "ik": 0.004408014571948998
            }, {
                "va": 352.073732718894,
                "vg1": -3,
                "ig1": 0,
                "vg2": 150,
                "ig2": 0,
                "ik": 0.004480874316939891
            }, {
                "va": 496.77419354838713,
                "vg1": -3,
                "ig1": 0,
                "vg2": 150,
                "ig2": 0,
                "ik": 0.004663023679417123
            }],
            "vg1": -3
        }, {
            "p": [{
                "va": 0,
                "vg1": -2.5,
                "ig1": 0,
                "vg2": 150,
                "ig2": 0,
                "ik": 0
            }, {
                "va": 13.824884792626728,
                "vg1": -2.5,
                "ig1": 0,
                "vg2": 150,
                "ig2": 0,
                "ik": 0.005100182149362477
            }, {
                "va": 49.30875576036866,
                "vg1": -2.5,
                "ig1": 0,
                "vg2": 150,
                "ig2": 0,
                "ik": 0.0063023679417122044
            }, {
                "va": 100.46082949308756,
                "vg1": -2.5,
                "ig1": 0,
                "vg2": 150,
                "ig2": 0,
                "ik": 0.006848816029143898
            }, {
                "va": 199.53917050691246,
                "vg1": -2.5,
                "ig1": 0,
                "vg2": 150,
                "ig2": 0,
                "ik": 0.007358834244080147
            }, {
                "va": 300,
                "vg1": -2.5,
                "ig1": 0,
                "vg2": 150,
                "ig2": 0,
                "ik": 0.007686703096539162
            }, {
                "va": 461.2903225806452,
                "vg1": -2.5,
                "ig1": 0,
                "vg2": 150,
                "ig2": 0,
                "ik": 0.007723132969034608
            }],
            "vg1": -2.5
        }, {
            "p": [{
                "va": 0,
                "vg1": -2,
                "ig1": 0,
                "vg2": 150,
                "ig2": 0,
                "ik": 0
            }, {
                "va": 7.373271889400922,
                "vg1": -2,
                "ig1": 0,
                "vg2": 150,
                "ig2": 0,
                "ik": 0.005027322404371585
            }, {
                "va": 13.824884792626728,
                "vg1": -2,
                "ig1": 0,
                "vg2": 150,
                "ig2": 0,
                "ik": 0.00761384335154827
            }, {
                "va": 26.72811059907834,
                "vg1": -2,
                "ig1": 0,
                "vg2": 150,
                "ig2": 0,
                "ik": 0.009581056466302367
            }, {
                "va": 50.23041474654378,
                "vg1": -2,
                "ig1": 0,
                "vg2": 150,
                "ig2": 0,
                "ik": 0.010236794171220401
            }, {
                "va": 100.46082949308756,
                "vg1": -2,
                "ig1": 0,
                "vg2": 150,
                "ig2": 0,
                "ik": 0.010673952641165756
            }, {
                "va": 151.1520737327189,
                "vg1": -2,
                "ig1": 0,
                "vg2": 150,
                "ig2": 0,
                "ik": 0.01092896174863388
            }, {
                "va": 250.69124423963135,
                "vg1": -2,
                "ig1": 0,
                "vg2": 150,
                "ig2": 0,
                "ik": 0.011402550091074682
            }, {
                "va": 350.2304147465438,
                "vg1": -2,
                "ig1": 0,
                "vg2": 150,
                "ig2": 0,
                "ik": 0.011730418943533698
            }, {
                "va": 459.9078341013825,
                "vg1": -2,
                "ig1": 0,
                "vg2": 150,
                "ig2": 0,
                "ik": 0.011876138433515482
            }],
            "vg1": -2
        }, {
            "p": [{
                "va": 0,
                "vg1": -1.5,
                "ig1": 0,
                "vg2": 150,
                "ig2": 0,
                "ik": 0
            }, {
                "va": 22.119815668202765,
                "vg1": -1.5,
                "ig1": 0,
                "vg2": 150,
                "ig2": 0,
                "ik": 0.01122040072859745
            }, {
                "va": 24.88479262672811,
                "vg1": -1.5,
                "ig1": 0,
                "vg2": 150,
                "ig2": 0,
                "ik": 0.01424408014571949
            }, {
                "va": 52.995391705069125,
                "vg1": -1.5,
                "ig1": 0,
                "vg2": 150,
                "ig2": 0,
                "ik": 0.015482695810564663
            }, {
                "va": 100.46082949308756,
                "vg1": -1.5,
                "ig1": 0,
                "vg2": 150,
                "ig2": 0,
                "ik": 0.015883424408014574
            }, {
                "va": 176.036866359447,
                "vg1": -1.5,
                "ig1": 0,
                "vg2": 150,
                "ig2": 0,
                "ik": 0.016138433515482695
            }, {
                "va": 247.00460829493088,
                "vg1": -1.5,
                "ig1": 0,
                "vg2": 150,
                "ig2": 0,
                "ik": 0.016429872495446265
            }, {
                "va": 326.2672811059908,
                "vg1": -1.5,
                "ig1": 0,
                "vg2": 150,
                "ig2": 0,
                "ik": 0.01672131147540984
            }, {
                "va": 460.36866359447004,
                "vg1": -1.5,
                "ig1": 0,
                "vg2": 150,
                "ig2": 0,
                "ik": 0.017194899817850638
            }],
            "vg1": -1.5
        }, {
            "p": [{
                "va": 0,
                "vg1": -1,
                "ig1": 0,
                "vg2": 150,
                "ig2": 0,
                "ik": 0
            }, {
                "va": 21.658986175115206,
                "vg1": -1,
                "ig1": 0,
                "vg2": 150,
                "ig2": 0,
                "ik": 0.011183970856102003
            }, {
                "va": 31.797235023041477,
                "vg1": -1,
                "ig1": 0,
                "vg2": 150,
                "ig2": 0,
                "ik": 0.019817850637522772
            }, {
                "va": 54.3778801843318,
                "vg1": -1,
                "ig1": 0,
                "vg2": 150,
                "ig2": 0,
                "ik": 0.02138433515482696
            }, {
                "va": 99.07834101382488,
                "vg1": -1,
                "ig1": 0,
                "vg2": 150,
                "ig2": 0,
                "ik": 0.02182149362477231
            }, {
                "va": 148.8479262672811,
                "vg1": -1,
                "ig1": 0,
                "vg2": 150,
                "ig2": 0,
                "ik": 0.021967213114754098
            }, {
                "va": 201.3824884792627,
                "vg1": -1,
                "ig1": 0,
                "vg2": 150,
                "ig2": 0,
                "ik": 0.022185792349726775
            }, {
                "va": 300.46082949308754,
                "vg1": -1,
                "ig1": 0,
                "vg2": 150,
                "ig2": 0,
                "ik": 0.022805100182149363
            }, {
                "va": 401.3824884792627,
                "vg1": -1,
                "ig1": 0,
                "vg2": 150,
                "ig2": 0,
                "ik": 0.023533697632058287
            }],
            "vg1": -1
        }, {
            "p": [{
                "va": 0,
                "vg1": -0.5,
                "ig1": 0,
                "vg2": 150,
                "ig2": 0,
                "ik": 0
            }, {
                "va": 36.40552995391705,
                "vg1": -0.5,
                "ig1": 0,
                "vg2": 150,
                "ig2": 0,
                "ik": 0.015154826958105647
            }, {
                "va": 45.622119815668206,
                "vg1": -0.5,
                "ig1": 0,
                "vg2": 150,
                "ig2": 0,
                "ik": 0.02116575591985428
            }, {
                "va": 68.66359447004608,
                "vg1": -0.5,
                "ig1": 0,
                "vg2": 150,
                "ig2": 0,
                "ik": 0.02743169398907104
            }, {
                "va": 125.34562211981567,
                "vg1": -0.5,
                "ig1": 0,
                "vg2": 150,
                "ig2": 0,
                "ik": 0.028451730418943534
            }, {
                "va": 200,
                "vg1": -0.5,
                "ig1": 0,
                "vg2": 150,
                "ig2": 0,
                "ik": 0.029180327868852458
            }, {
                "va": 334.5622119815668,
                "vg1": -0.5,
                "ig1": 0,
                "vg2": 150,
                "ig2": 0,
                "ik": 0.030309653916211293
            }],
            "vg1": -0.5
        }, {
            "p": [{
                "va": 0,
                "vg1": 0,
                "ig1": 0,
                "vg2": 150,
                "ig2": 0,
                "ik": 0
            }, {
                "va": 40.092165898617516,
                "vg1": 0,
                "ig1": 0,
                "vg2": 150,
                "ig2": 0,
                "ik": 0.01679417122040073
            }, {
                "va": 52.073732718894014,
                "vg1": 0,
                "ig1": 0,
                "vg2": 150,
                "ig2": 0,
                "ik": 0.025719489981785065
            }, {
                "va": 58.525345622119815,
                "vg1": 0,
                "ig1": 0,
                "vg2": 150,
                "ig2": 0,
                "ik": 0.031220400728597452
            }, {
                "va": 72.8110599078341,
                "vg1": 0,
                "ig1": 0,
                "vg2": 150,
                "ig2": 0,
                "ik": 0.03336976320582878
            }, {
                "va": 111.05990783410138,
                "vg1": 0,
                "ig1": 0,
                "vg2": 150,
                "ig2": 0,
                "ik": 0.03406193078324226
            }, {
                "va": 159.9078341013825,
                "vg1": 0,
                "ig1": 0,
                "vg2": 150,
                "ig2": 0,
                "ik": 0.0345719489981785
            }, {
                "va": 279.7235023041475,
                "vg1": 0,
                "ig1": 0,
                "vg2": 150,
                "ig2": 0,
                "ik": 0.03595628415300546
            }],
            "vg1": 0
        }],
        "vg2": 150,
        "logX": false,
        "logY": false,
        "name": "6AH6_150V",
        "raw": false,
        "unit": null,
        "triode": false
    }
}
