{
    "filename": "6av5ga-triode.json",
    "tubeGraph": {
        "c": [{
            "p": [{
                "va": 0,
                "vg1": -100,
                "ig1": 0,
                "vg2": null,
                "ig2": 0,
                "ik": 0
            }, {
                "va": 330.07117437722417,
                "vg1": -100,
                "ig1": 0,
                "vg2": null,
                "ig2": 0,
                "ik": 0.000529567519858782
            }, {
                "va": 377.2241992882562,
                "vg1": -100,
                "ig1": 0,
                "vg2": null,
                "ig2": 0,
                "ik": 0.0032656663724624888
            }, {
                "va": 417.70462633451956,
                "vg1": -100,
                "ig1": 0,
                "vg2": null,
                "ig2": 0,
                "ik": 0.012180052956751985
            }, {
                "va": 447.508896797153,
                "vg1": -100,
                "ig1": 0,
                "vg2": null,
                "ig2": 0,
                "ik": 0.024977934686672552
            }, {
                "va": 490.6583629893238,
                "vg1": -100,
                "ig1": 0,
                "vg2": null,
                "ig2": 0,
                "ik": 0.05207413945278023
            }],
            "vg1": -100
        }, {
            "p": [{
                "va": 0,
                "vg1": -90,
                "ig1": 0,
                "vg2": null,
                "ig2": 0,
                "ik": 0
            }, {
                "va": 298.932384341637,
                "vg1": -90,
                "ig1": 0,
                "vg2": null,
                "ig2": 0,
                "ik": 0.00044130626654898496
            }, {
                "va": 350.0889679715302,
                "vg1": -90,
                "ig1": 0,
                "vg2": null,
                "ig2": 0,
                "ik": 0.004501323918799647
            }, {
                "va": 379.44839857651243,
                "vg1": -90,
                "ig1": 0,
                "vg2": null,
                "ig2": 0,
                "ik": 0.01209179170344219
            }, {
                "va": 412.81138790035584,
                "vg1": -90,
                "ig1": 0,
                "vg2": null,
                "ig2": 0,
                "ik": 0.02806707855251545
            }, {
                "va": 459.96441281138783,
                "vg1": -90,
                "ig1": 0,
                "vg2": null,
                "ig2": 0,
                "ik": 0.062047661076787296
            }],
            "vg1": -90
        }, {
            "p": [{
                "va": 0,
                "vg1": -80,
                "ig1": 0,
                "vg2": null,
                "ig2": 0,
                "ik": 0
            }, {
                "va": 262.0106761565836,
                "vg1": -80,
                "ig1": 0,
                "vg2": null,
                "ig2": 0,
                "ik": 0.000264783759929391
            }, {
                "va": 315.8362989323843,
                "vg1": -80,
                "ig1": 0,
                "vg2": null,
                "ig2": 0,
                "ik": 0.004766107678729039
            }, {
                "va": 339.85765124555155,
                "vg1": -80,
                "ig1": 0,
                "vg2": null,
                "ig2": 0,
                "ik": 0.01262135922330097
            }, {
                "va": 371.88612099644126,
                "vg1": -80,
                "ig1": 0,
                "vg2": null,
                "ig2": 0,
                "ik": 0.02797881729920565
            }, {
                "va": 419.03914590747326,
                "vg1": -80,
                "ig1": 0,
                "vg2": null,
                "ig2": 0,
                "ik": 0.0646072374227714
            }],
            "vg1": -80
        }, {
            "p": [{
                "va": 0,
                "vg1": -70,
                "ig1": 0,
                "vg2": null,
                "ig2": 0,
                "ik": 0
            }, {
                "va": 224.644128113879,
                "vg1": -70,
                "ig1": 0,
                "vg2": null,
                "ig2": 0,
                "ik": 0.000264783759929391
            }, {
                "va": 260.2313167259786,
                "vg1": -70,
                "ig1": 0,
                "vg2": null,
                "ig2": 0,
                "ik": 0.0020300088261253307
            }, {
                "va": 291.3701067615658,
                "vg1": -70,
                "ig1": 0,
                "vg2": null,
                "ig2": 0,
                "ik": 0.00820829655781112
            }, {
                "va": 318.0604982206405,
                "vg1": -70,
                "ig1": 0,
                "vg2": null,
                "ig2": 0,
                "ik": 0.01994704324801412
            }, {
                "va": 334.5195729537366,
                "vg1": -70,
                "ig1": 0,
                "vg2": null,
                "ig2": 0,
                "ik": 0.03000882612533098
            }, {
                "va": 380.3380782918149,
                "vg1": -70,
                "ig1": 0,
                "vg2": null,
                "ig2": 0,
                "ik": 0.06972639011473963
            }],
            "vg1": -70
        }, {
            "p": [{
                "va": 0,
                "vg1": -60,
                "ig1": 0,
                "vg2": null,
                "ig2": 0,
                "ik": 0
            }, {
                "va": 198.84341637010675,
                "vg1": -60,
                "ig1": 0,
                "vg2": null,
                "ig2": 0,
                "ik": 0.000264783759929391
            }, {
                "va": 242.4377224199288,
                "vg1": -60,
                "ig1": 0,
                "vg2": null,
                "ig2": 0,
                "ik": 0.005030891438658429
            }, {
                "va": 266.9039145907473,
                "vg1": -60,
                "ig1": 0,
                "vg2": null,
                "ig2": 0,
                "ik": 0.014386584289496912
            }, {
                "va": 290.03558718861206,
                "vg1": -60,
                "ig1": 0,
                "vg2": null,
                "ig2": 0,
                "ik": 0.02797881729920565
            }, {
                "va": 340.30249110320284,
                "vg1": -60,
                "ig1": 0,
                "vg2": null,
                "ig2": 0,
                "ik": 0.07440423654015887
            }],
            "vg1": -60
        }, {
            "p": [{
                "va": 0,
                "vg1": -50,
                "ig1": 0,
                "vg2": null,
                "ig2": 0,
                "ik": 0
            }, {
                "va": 168.1494661921708,
                "vg1": -50,
                "ig1": 0,
                "vg2": null,
                "ig2": 0,
                "ik": 0.00035304501323918803
            }, {
                "va": 203.73665480427044,
                "vg1": -50,
                "ig1": 0,
                "vg2": null,
                "ig2": 0,
                "ik": 0.004501323918799647
            }, {
                "va": 236.20996441281136,
                "vg1": -50,
                "ig1": 0,
                "vg2": null,
                "ig2": 0,
                "ik": 0.019329214474845542
            }, {
                "va": 267.7935943060498,
                "vg1": -50,
                "ig1": 0,
                "vg2": null,
                "ig2": 0,
                "ik": 0.04404236540158871
            }, {
                "va": 310.0533807829181,
                "vg1": -50,
                "ig1": 0,
                "vg2": null,
                "ig2": 0,
                "ik": 0.09293909973521625
            }],
            "vg1": -50
        }, {
            "p": [{
                "va": 0,
                "vg1": -40,
                "ig1": 0,
                "vg2": null,
                "ig2": 0,
                "ik": 0
            }, {
                "va": 143.6832740213523,
                "vg1": -40,
                "ig1": 0,
                "vg2": null,
                "ig2": 0,
                "ik": 0.000617828773168579
            }, {
                "va": 169.03914590747328,
                "vg1": -40,
                "ig1": 0,
                "vg2": null,
                "ig2": 0,
                "ik": 0.005119152691968226
            }, {
                "va": 184.16370106761565,
                "vg1": -40,
                "ig1": 0,
                "vg2": null,
                "ig2": 0,
                "ik": 0.01209179170344219
            }, {
                "va": 223.7544483985765,
                "vg1": -40,
                "ig1": 0,
                "vg2": null,
                "ig2": 0,
                "ik": 0.04404236540158871
            }, {
                "va": 267.34875444839855,
                "vg1": -40,
                "ig1": 0,
                "vg2": null,
                "ig2": 0,
                "ik": 0.09770520741394527
            }],
            "vg1": -40
        }, {
            "p": [{
                "va": 0,
                "vg1": -30,
                "ig1": 0,
                "vg2": null,
                "ig2": 0,
                "ik": 0
            }, {
                "va": 103.20284697508896,
                "vg1": -30,
                "ig1": 0,
                "vg2": null,
                "ig2": 0,
                "ik": 0.000264783759929391
            }, {
                "va": 127.66903914590746,
                "vg1": -30,
                "ig1": 0,
                "vg2": null,
                "ig2": 0,
                "ik": 0.0037952338923212705
            }, {
                "va": 144.5729537366548,
                "vg1": -30,
                "ig1": 0,
                "vg2": null,
                "ig2": 0,
                "ik": 0.011650485436893204
            }, {
                "va": 165.03558718861208,
                "vg1": -30,
                "ig1": 0,
                "vg2": null,
                "ig2": 0,
                "ik": 0.02806707855251545
            }, {
                "va": 181.0498220640569,
                "vg1": -30,
                "ig1": 0,
                "vg2": null,
                "ig2": 0,
                "ik": 0.04377758164165931
            }, {
                "va": 195.28469750889678,
                "vg1": -30,
                "ig1": 0,
                "vg2": null,
                "ig2": 0,
                "ik": 0.0617828773168579
            }, {
                "va": 220.64056939501776,
                "vg1": -30,
                "ig1": 0,
                "vg2": null,
                "ig2": 0,
                "ik": 0.09682259488084731
            }],
            "vg1": -30
        }, {
            "p": [{
                "va": 0,
                "vg1": -20,
                "ig1": 0,
                "vg2": null,
                "ig2": 0,
                "ik": 0
            }, {
                "va": 70.72953736654803,
                "vg1": -20,
                "ig1": 0,
                "vg2": null,
                "ig2": 0,
                "ik": 0.00044130626654898496
            }, {
                "va": 91.63701067615658,
                "vg1": -20,
                "ig1": 0,
                "vg2": null,
                "ig2": 0,
                "ik": 0.0048543689320388345
            }, {
                "va": 104.09252669039145,
                "vg1": -20,
                "ig1": 0,
                "vg2": null,
                "ig2": 0,
                "ik": 0.012268314210061783
            }, {
                "va": 121.88612099644126,
                "vg1": -20,
                "ig1": 0,
                "vg2": null,
                "ig2": 0,
                "ik": 0.02797881729920565
            }, {
                "va": 135.23131672597864,
                "vg1": -20,
                "ig1": 0,
                "vg2": null,
                "ig2": 0,
                "ik": 0.04386584289496911
            }, {
                "va": 170.81850533807827,
                "vg1": -20,
                "ig1": 0,
                "vg2": null,
                "ig2": 0,
                "ik": 0.09399823477493381
            }],
            "vg1": -20
        }, {
            "p": [{
                "va": 0,
                "vg1": -10,
                "ig1": 0,
                "vg2": null,
                "ig2": 0,
                "ik": 0
            }, {
                "va": 37.36654804270462,
                "vg1": -10,
                "ig1": 0,
                "vg2": null,
                "ig2": 0,
                "ik": 0.000264783759929391
            }, {
                "va": 62.27758007117437,
                "vg1": -10,
                "ig1": 0,
                "vg2": null,
                "ig2": 0,
                "ik": 0.012268314210061783
            }, {
                "va": 78.73665480427046,
                "vg1": -10,
                "ig1": 0,
                "vg2": null,
                "ig2": 0,
                "ik": 0.02797881729920565
            }, {
                "va": 91.19217081850533,
                "vg1": -10,
                "ig1": 0,
                "vg2": null,
                "ig2": 0,
                "ik": 0.04395410414827891
            }, {
                "va": 120.55160142348753,
                "vg1": -10,
                "ig1": 0,
                "vg2": null,
                "ig2": 0,
                "ik": 0.09240953221535746
            }],
            "vg1": -10
        }, {
            "p": [{
                "va": 0,
                "vg1": 0,
                "ig1": 0,
                "vg2": null,
                "ig2": 0,
                "ik": 0
            }, {
                "va": 11.120996441281138,
                "vg1": 0,
                "ig1": 0,
                "vg2": null,
                "ig2": 0,
                "ik": 0.0056487202118270085
            }, {
                "va": 29.359430604982204,
                "vg1": 0,
                "ig1": 0,
                "vg2": null,
                "ig2": 0,
                "ik": 0.02806707855251545
            }, {
                "va": 69.3950177935943,
                "vg1": 0,
                "ig1": 0,
                "vg2": null,
                "ig2": 0,
                "ik": 0.09885260370697264
            }],
            "vg1": 0
        }],
        "vg2": null,
        "logX": false,
        "logY": false,
        "name": "6AV5GA-Triode",
        "raw": false,
        "unit": null,
        "triode": true
    }
}
