{
    "filename": "6ch6 anode transfert graph g2=250v.json",
    "tubeGraph": {
        "c": [{
            "p": [{
                "va": 0,
                "vg1": -12,
                "ig1": 0,
                "vg2": 250,
                "ig2": 0,
                "ik": 0
            }, {
                "va": 28.97278314310799,
                "vg1": -12,
                "ig1": 0,
                "vg2": 250,
                "ig2": 0,
                "ik": 0.0017069701280227596
            }, {
                "va": 72.87093942054433,
                "vg1": -12,
                "ig1": 0,
                "vg2": 250,
                "ig2": 0,
                "ik": 0.0017069701280227596
            }, {
                "va": 274.36347673397717,
                "vg1": -12,
                "ig1": 0,
                "vg2": 250,
                "ig2": 0,
                "ik": 0.001991465149359886
            }, {
                "va": 372.25636523266024,
                "vg1": -12,
                "ig1": 0,
                "vg2": 250,
                "ig2": 0,
                "ik": 0.0027027027027027024
            }, {
                "va": 497.3661106233538,
                "vg1": -12,
                "ig1": 0,
                "vg2": 250,
                "ig2": 0,
                "ik": 0.0025604551920341396
            }],
            "vg1": -12
        }, {
            "p": [{
                "va": 0,
                "vg1": -10,
                "ig1": 0,
                "vg2": 250,
                "ig2": 0,
                "ik": 0
            }, {
                "va": 24.14398595258999,
                "vg1": -10,
                "ig1": 0,
                "vg2": 250,
                "ig2": 0,
                "ik": 0.002987197724039829
            }, {
                "va": 53.11676909569798,
                "vg1": -10,
                "ig1": 0,
                "vg2": 250,
                "ig2": 0,
                "ik": 0.0031294452347083923
            }, {
                "va": 133.01141352063212,
                "vg1": -10,
                "ig1": 0,
                "vg2": 250,
                "ig2": 0,
                "ik": 0.005120910384068279
            }, {
                "va": 256.3652326602283,
                "vg1": -10,
                "ig1": 0,
                "vg2": 250,
                "ig2": 0,
                "ik": 0.005263157894736842
            }, {
                "va": 359.0869183494293,
                "vg1": -10,
                "ig1": 0,
                "vg2": 250,
                "ig2": 0,
                "ik": 0.006685633001422475
            }, {
                "va": 496.92712906057943,
                "vg1": -10,
                "ig1": 0,
                "vg2": 250,
                "ig2": 0,
                "ik": 0.006970128022759601
            }],
            "vg1": -10
        }, {
            "p": [{
                "va": 0,
                "vg1": -8,
                "ig1": 0,
                "vg2": 250,
                "ig2": 0,
                "ik": 0
            }, {
                "va": 23.705004389815628,
                "vg1": -8,
                "ig1": 0,
                "vg2": 250,
                "ig2": 0,
                "ik": 0.0068278805120910386
            }, {
                "va": 39.50834064969271,
                "vg1": -8,
                "ig1": 0,
                "vg2": 250,
                "ig2": 0,
                "ik": 0.007254623044096728
            }, {
                "va": 60.57945566286216,
                "vg1": -8,
                "ig1": 0,
                "vg2": 250,
                "ig2": 0,
                "ik": 0.008250355618776671
            }, {
                "va": 82.9675153643547,
                "vg1": -8,
                "ig1": 0,
                "vg2": 250,
                "ig2": 0,
                "ik": 0.010099573257467995
            }, {
                "va": 275.68042142230024,
                "vg1": -8,
                "ig1": 0,
                "vg2": 250,
                "ig2": 0,
                "ik": 0.011379800853485063
            }, {
                "va": 496.92712906057943,
                "vg1": -8,
                "ig1": 0,
                "vg2": 250,
                "ig2": 0,
                "ik": 0.013086770981507824
            }],
            "vg1": -8
        }, {
            "p": [{
                "va": 0,
                "vg1": -7,
                "ig1": 0,
                "vg2": 250,
                "ig2": 0,
                "ik": 0
            }, {
                "va": 30.28972783143108,
                "vg1": -7,
                "ig1": 0,
                "vg2": 250,
                "ig2": 0,
                "ik": 0.011095305832147937
            }, {
                "va": 56.18964003511852,
                "vg1": -7,
                "ig1": 0,
                "vg2": 250,
                "ig2": 0,
                "ik": 0.011948790896159316
            }, {
                "va": 109.3064091308165,
                "vg1": -7,
                "ig1": 0,
                "vg2": 250,
                "ig2": 0,
                "ik": 0.015504978662873398
            }, {
                "va": 497.80509218612815,
                "vg1": -7,
                "ig1": 0,
                "vg2": 250,
                "ig2": 0,
                "ik": 0.0182076813655761
            }],
            "vg1": -7
        }, {
            "p": [{
                "va": 0,
                "vg1": -6,
                "ig1": 0,
                "vg2": 250,
                "ig2": 0,
                "ik": 0
            }, {
                "va": 22.8270412642669,
                "vg1": -6,
                "ig1": 0,
                "vg2": 250,
                "ig2": 0,
                "ik": 0.017069701280227594
            }, {
                "va": 32.484635645302895,
                "vg1": -6,
                "ig1": 0,
                "vg2": 250,
                "ig2": 0,
                "ik": 0.017069701280227594
            }, {
                "va": 52.23880597014925,
                "vg1": -6,
                "ig1": 0,
                "vg2": 250,
                "ig2": 0,
                "ik": 0.017923186344238975
            }, {
                "va": 105.35557506584723,
                "vg1": -6,
                "ig1": 0,
                "vg2": 250,
                "ig2": 0,
                "ik": 0.022759601706970126
            }, {
                "va": 189.20105355575066,
                "vg1": -6,
                "ig1": 0,
                "vg2": 250,
                "ig2": 0,
                "ik": 0.02290184921763869
            }, {
                "va": 271.2906057945566,
                "vg1": -6,
                "ig1": 0,
                "vg2": 250,
                "ig2": 0,
                "ik": 0.025177809388335703
            }, {
                "va": 496.0491659350307,
                "vg1": -6,
                "ig1": 0,
                "vg2": 250,
                "ig2": 0,
                "ik": 0.02716927453769559
            }],
            "vg1": -6
        }, {
            "p": [{
                "va": 0,
                "vg1": -5,
                "ig1": 0,
                "vg2": 250,
                "ig2": 0,
                "ik": 0
            }, {
                "va": 28.97278314310799,
                "vg1": -5,
                "ig1": 0,
                "vg2": 250,
                "ig2": 0,
                "ik": 0.02418207681365576
            }, {
                "va": 45.21510096575944,
                "vg1": -5,
                "ig1": 0,
                "vg2": 250,
                "ig2": 0,
                "ik": 0.02631578947368421
            }, {
                "va": 70.67603160667252,
                "vg1": -5,
                "ig1": 0,
                "vg2": 250,
                "ig2": 0,
                "ik": 0.028733997155049786
            }, {
                "va": 115.4521510096576,
                "vg1": -5,
                "ig1": 0,
                "vg2": 250,
                "ig2": 0,
                "ik": 0.031436699857752486
            }, {
                "va": 211.58911325724318,
                "vg1": -5,
                "ig1": 0,
                "vg2": 250,
                "ig2": 0,
                "ik": 0.03243243243243243
            }, {
                "va": 317.3836698858648,
                "vg1": -5,
                "ig1": 0,
                "vg2": 250,
                "ig2": 0,
                "ik": 0.034281650071123757
            }, {
                "va": 498.6830553116769,
                "vg1": -5,
                "ig1": 0,
                "vg2": 250,
                "ig2": 0,
                "ik": 0.03556187766714083
            }],
            "vg1": -5
        }, {
            "p": [{
                "va": 0,
                "vg1": -4,
                "ig1": 0,
                "vg2": 250,
                "ig2": 0,
                "ik": 0
            }, {
                "va": 4.8287971905179985,
                "vg1": -4,
                "ig1": 0,
                "vg2": 250,
                "ig2": 0,
                "ik": 0.002987197724039829
            }, {
                "va": 28.97278314310799,
                "vg1": -4,
                "ig1": 0,
                "vg2": 250,
                "ig2": 0,
                "ik": 0.030867709815078234
            }, {
                "va": 162.86215978928885,
                "vg1": -4,
                "ig1": 0,
                "vg2": 250,
                "ig2": 0,
                "ik": 0.04295874822190611
            }, {
                "va": 450.3950834064969,
                "vg1": -4,
                "ig1": 0,
                "vg2": 250,
                "ig2": 0,
                "ik": 0.04623044096728307
            }],
            "vg1": -4
        }, {
            "p": [{
                "va": 0,
                "vg1": -3,
                "ig1": 0,
                "vg2": 250,
                "ig2": 0,
                "ik": 0
            }, {
                "va": 4.389815627743634,
                "vg1": -3,
                "ig1": 0,
                "vg2": 250,
                "ig2": 0,
                "ik": 0.0027027027027027024
            }, {
                "va": 21.949078138718175,
                "vg1": -3,
                "ig1": 0,
                "vg2": 250,
                "ig2": 0,
                "ik": 0.03442389758179232
            }, {
                "va": 57.50658472344161,
                "vg1": -3,
                "ig1": 0,
                "vg2": 250,
                "ig2": 0,
                "ik": 0.04793741109530583
            }, {
                "va": 202.80948200175592,
                "vg1": -3,
                "ig1": 0,
                "vg2": 250,
                "ig2": 0,
                "ik": 0.05462304409672831
            }, {
                "va": 319.5785776997366,
                "vg1": -3,
                "ig1": 0,
                "vg2": 250,
                "ig2": 0,
                "ik": 0.05576102418207681
            }, {
                "va": 399.0342405618964,
                "vg1": -3,
                "ig1": 0,
                "vg2": 250,
                "ig2": 0,
                "ik": 0.05675675675675676
            }],
            "vg1": -3
        }, {
            "p": [{
                "va": 0,
                "vg1": -2,
                "ig1": 0,
                "vg2": 250,
                "ig2": 0,
                "ik": 0
            }, {
                "va": 5.267778753292362,
                "vg1": -2,
                "ig1": 0,
                "vg2": 250,
                "ig2": 0,
                "ik": 0.0021337126600284493
            }, {
                "va": 27.6558384547849,
                "vg1": -2,
                "ig1": 0,
                "vg2": 250,
                "ig2": 0,
                "ik": 0.04366998577524893
            }, {
                "va": 46.53204565408253,
                "vg1": -2,
                "ig1": 0,
                "vg2": 250,
                "ig2": 0,
                "ik": 0.05661450924608819
            }, {
                "va": 103.16066725197541,
                "vg1": -2,
                "ig1": 0,
                "vg2": 250,
                "ig2": 0,
                "ik": 0.06386913229018493
            }, {
                "va": 173.39771729587358,
                "vg1": -2,
                "ig1": 0,
                "vg2": 250,
                "ig2": 0,
                "ik": 0.06685633001422475
            }, {
                "va": 320.017559262511,
                "vg1": -2,
                "ig1": 0,
                "vg2": 250,
                "ig2": 0,
                "ik": 0.0712660028449502
            }],
            "vg1": -2
        }, {
            "p": [{
                "va": 0,
                "vg1": -1,
                "ig1": 0,
                "vg2": 250,
                "ig2": 0,
                "ik": 0
            }, {
                "va": 5.706760316066725,
                "vg1": -1,
                "ig1": 0,
                "vg2": 250,
                "ig2": 0,
                "ik": 0.0038406827880512087
            }, {
                "va": 32.484635645302895,
                "vg1": -1,
                "ig1": 0,
                "vg2": 250,
                "ig2": 0,
                "ik": 0.05405405405405405
            }, {
                "va": 47.84899034240562,
                "vg1": -1,
                "ig1": 0,
                "vg2": 250,
                "ig2": 0,
                "ik": 0.06998577524893314
            }, {
                "va": 97.89288849868305,
                "vg1": -1,
                "ig1": 0,
                "vg2": 250,
                "ig2": 0,
                "ik": 0.07809388335704125
            }, {
                "va": 243.19578577699735,
                "vg1": -1,
                "ig1": 0,
                "vg2": 250,
                "ig2": 0,
                "ik": 0.08193456614509247
            }],
            "vg1": -1
        }, {
            "p": [{
                "va": 0,
                "vg1": 0,
                "ig1": 0,
                "vg2": 250,
                "ig2": 0,
                "ik": 0
            }, {
                "va": 2.633889376646181,
                "vg1": 0,
                "ig1": 0,
                "vg2": 250,
                "ig2": 0,
                "ik": 0.0011379800853485063
            }, {
                "va": 32.045654082528536,
                "vg1": 0,
                "ig1": 0,
                "vg2": 250,
                "ig2": 0,
                "ik": 0.0604551920341394
            }, {
                "va": 43.89815627743635,
                "vg1": 0,
                "ig1": 0,
                "vg2": 250,
                "ig2": 0,
                "ik": 0.07780938833570412
            }, {
                "va": 83.40649692712906,
                "vg1": 0,
                "ig1": 0,
                "vg2": 250,
                "ig2": 0,
                "ik": 0.09189189189189188
            }, {
                "va": 197.1027216856892,
                "vg1": 0,
                "ig1": 0,
                "vg2": 250,
                "ig2": 0,
                "ik": 0.09971550497866287
            }],
            "vg1": 0
        }],
        "vg2": 250,
        "logX": false,
        "logY": false,
        "name": "6CH6 Anode transfert graph G2=250V",
        "raw": false,
        "unit": null,
        "triode": false
    }
}
