{
    "filename": "6e6p-e-triode.json",
    "tubeGraph": {
        "c": [{
            "p": [{
                "va": 0,
                "vg1": -3.5,
                "ig1": 0,
                "vg2": null,
                "ig2": 0,
                "ik": 0
            }, {
                "va": 125.42372881355931,
                "vg1": -3.5,
                "ig1": 0,
                "vg2": null,
                "ig2": 0,
                "ik": 0.0016907675194660734
            }, {
                "va": 154.5049063336307,
                "vg1": -3.5,
                "ig1": 0,
                "vg2": null,
                "ig2": 0,
                "ik": 0.005161290322580645
            }, {
                "va": 170.74041034790363,
                "vg1": -3.5,
                "ig1": 0,
                "vg2": null,
                "ig2": 0,
                "ik": 0.01085650723025584
            }, {
                "va": 184.6565566458519,
                "vg1": -3.5,
                "ig1": 0,
                "vg2": null,
                "ig2": 0,
                "ik": 0.018776418242491655
            }, {
                "va": 198.03746654772522,
                "vg1": -3.5,
                "ig1": 0,
                "vg2": null,
                "ig2": 0,
                "ik": 0.029988876529477196
            }],
            "vg1": -3.5
        }, {
            "p": [{
                "va": 0,
                "vg1": -3,
                "ig1": 0,
                "vg2": null,
                "ig2": 0,
                "ik": 0
            }, {
                "va": 117.57359500446029,
                "vg1": -3,
                "ig1": 0,
                "vg2": null,
                "ig2": 0,
                "ik": 0.001957730812013348
            }, {
                "va": 139.87511150758252,
                "vg1": -3,
                "ig1": 0,
                "vg2": null,
                "ig2": 0,
                "ik": 0.005339265850945495
            }, {
                "va": 161.10615521855485,
                "vg1": -3,
                "ig1": 0,
                "vg2": null,
                "ig2": 0,
                "ik": 0.014327030033370412
            }, {
                "va": 177.52007136485278,
                "vg1": -3,
                "ig1": 0,
                "vg2": null,
                "ig2": 0,
                "ik": 0.025450500556173525
            }, {
                "va": 198.3942908117752,
                "vg1": -3,
                "ig1": 0,
                "vg2": null,
                "ig2": 0,
                "ik": 0.044137931034482755
            }],
            "vg1": -3
        }, {
            "p": [{
                "va": 0,
                "vg1": -2.5,
                "ig1": 0,
                "vg2": null,
                "ig2": 0,
                "ik": 0
            }, {
                "va": 104.19268510258696,
                "vg1": -2.5,
                "ig1": 0,
                "vg2": null,
                "ig2": 0,
                "ik": 0.0020467185761957733
            }, {
                "va": 122.74754683318464,
                "vg1": -2.5,
                "ig1": 0,
                "vg2": null,
                "ig2": 0,
                "ik": 0.005161290322580645
            }, {
                "va": 137.55575379125779,
                "vg1": -2.5,
                "ig1": 0,
                "vg2": null,
                "ig2": 0,
                "ik": 0.01067853170189099
            }, {
                "va": 153.61284567350577,
                "vg1": -2.5,
                "ig1": 0,
                "vg2": null,
                "ig2": 0,
                "ik": 0.020378197997775307
            }, {
                "va": 173.23818019625332,
                "vg1": -2.5,
                "ig1": 0,
                "vg2": null,
                "ig2": 0,
                "ik": 0.03515016685205784
            }, {
                "va": 198.57270294380015,
                "vg1": -2.5,
                "ig1": 0,
                "vg2": null,
                "ig2": 0,
                "ik": 0.058286985539488315
            }],
            "vg1": -2.5
        }, {
            "p": [{
                "va": 0,
                "vg1": -2,
                "ig1": 0,
                "vg2": null,
                "ig2": 0,
                "ik": 0
            }, {
                "va": 86.70829616413916,
                "vg1": -2,
                "ig1": 0,
                "vg2": null,
                "ig2": 0,
                "ik": 0.001957730812013348
            }, {
                "va": 106.86886708296163,
                "vg1": -2,
                "ig1": 0,
                "vg2": null,
                "ig2": 0,
                "ik": 0.0049833147942157955
            }, {
                "va": 120.07136485280998,
                "vg1": -2,
                "ig1": 0,
                "vg2": null,
                "ig2": 0,
                "ik": 0.010233592880978864
            }, {
                "va": 137.37734165923283,
                "vg1": -2,
                "ig1": 0,
                "vg2": null,
                "ig2": 0,
                "ik": 0.02064516129032258
            }, {
                "va": 163.0686886708296,
                "vg1": -2,
                "ig1": 0,
                "vg2": null,
                "ig2": 0,
                "ik": 0.039866518353726364
            }, {
                "va": 194.64763603925064,
                "vg1": -2,
                "ig1": 0,
                "vg2": null,
                "ig2": 0,
                "ik": 0.06878754171301446
            }],
            "vg1": -2
        }, {
            "p": [{
                "va": 0,
                "vg1": -1.5,
                "ig1": 0,
                "vg2": null,
                "ig2": 0,
                "ik": 0
            }, {
                "va": 75.1115075825156,
                "vg1": -1.5,
                "ig1": 0,
                "vg2": null,
                "ig2": 0,
                "ik": 0.0016017797552836483
            }, {
                "va": 95.45049063336306,
                "vg1": -1.5,
                "ig1": 0,
                "vg2": null,
                "ig2": 0,
                "ik": 0.006407119021134593
            }, {
                "va": 112.22123104371096,
                "vg1": -1.5,
                "ig1": 0,
                "vg2": null,
                "ig2": 0,
                "ik": 0.01503893214682981
            }, {
                "va": 133.63068688670828,
                "vg1": -1.5,
                "ig1": 0,
                "vg2": null,
                "ig2": 0,
                "ik": 0.029899888765294768
            }, {
                "va": 152.89919714540588,
                "vg1": -1.5,
                "ig1": 0,
                "vg2": null,
                "ig2": 0,
                "ik": 0.04529477196885428
            }, {
                "va": 182.51561106155216,
                "vg1": -1.5,
                "ig1": 0,
                "vg2": null,
                "ig2": 0,
                "ik": 0.07225806451612903
            }],
            "vg1": -1.5
        }, {
            "p": [{
                "va": 0,
                "vg1": -1,
                "ig1": 0,
                "vg2": null,
                "ig2": 0,
                "ik": 0
            }, {
                "va": 55.1293487957181,
                "vg1": -1,
                "ig1": 0,
                "vg2": null,
                "ig2": 0,
                "ik": 0.0016017797552836483
            }, {
                "va": 72.07850133809099,
                "vg1": -1,
                "ig1": 0,
                "vg2": null,
                "ig2": 0,
                "ik": 0.004627363737486095
            }, {
                "va": 85.45941123996431,
                "vg1": -1,
                "ig1": 0,
                "vg2": null,
                "ig2": 0,
                "ik": 0.009877641824249165
            }, {
                "va": 102.23015165031221,
                "vg1": -1,
                "ig1": 0,
                "vg2": null,
                "ig2": 0,
                "ik": 0.019844271412680754
            }, {
                "va": 116.14629794826047,
                "vg1": -1,
                "ig1": 0,
                "vg2": null,
                "ig2": 0,
                "ik": 0.03007786429365962
            }, {
                "va": 135.41480820695807,
                "vg1": -1,
                "ig1": 0,
                "vg2": null,
                "ig2": 0,
                "ik": 0.045027808676307006
            }, {
                "va": 167.52899197145405,
                "vg1": -1,
                "ig1": 0,
                "vg2": null,
                "ig2": 0,
                "ik": 0.07421579532814238
            }],
            "vg1": -1
        }, {
            "p": [{
                "va": 0,
                "vg1": -0.5,
                "ig1": 0,
                "vg2": null,
                "ig2": 0,
                "ik": 0
            }, {
                "va": 40.49955396966993,
                "vg1": -0.5,
                "ig1": 0,
                "vg2": null,
                "ig2": 0,
                "ik": 0.0014238042269187985
            }, {
                "va": 59.58965209634255,
                "vg1": -0.5,
                "ig1": 0,
                "vg2": null,
                "ig2": 0,
                "ik": 0.0061401557285873185
            }, {
                "va": 76.89562890276538,
                "vg1": -0.5,
                "ig1": 0,
                "vg2": null,
                "ig2": 0,
                "ik": 0.015305895439377085
            }, {
                "va": 92.06066012488849,
                "vg1": -0.5,
                "ig1": 0,
                "vg2": null,
                "ig2": 0,
                "ik": 0.025094549499443827
            }, {
                "va": 117.39518287243531,
                "vg1": -0.5,
                "ig1": 0,
                "vg2": null,
                "ig2": 0,
                "ik": 0.045027808676307006
            }, {
                "va": 152.007136485281,
                "vg1": -0.5,
                "ig1": 0,
                "vg2": null,
                "ig2": 0,
                "ik": 0.07599555061179088
            }],
            "vg1": -0.5
        }, {
            "p": [{
                "va": 0,
                "vg1": 0,
                "ig1": 0,
                "vg2": null,
                "ig2": 0,
                "ik": 0
            }, {
                "va": 21.40945584299732,
                "vg1": 0,
                "ig1": 0,
                "vg2": null,
                "ig2": 0,
                "ik": 0.0008898776418242491
            }, {
                "va": 39.964317573595004,
                "vg1": 0,
                "ig1": 0,
                "vg2": null,
                "ig2": 0,
                "ik": 0.00542825361512792
            }, {
                "va": 50.49063336306868,
                "vg1": 0,
                "ig1": 0,
                "vg2": null,
                "ig2": 0,
                "ik": 0.010055617352614014
            }, {
                "va": 65.83407671721676,
                "vg1": 0,
                "ig1": 0,
                "vg2": null,
                "ig2": 0,
                "ik": 0.020111234705228027
            }, {
                "va": 97.41302408563782,
                "vg1": 0,
                "ig1": 0,
                "vg2": null,
                "ig2": 0,
                "ik": 0.04315906562847608
            }, {
                "va": 135.41480820695807,
                "vg1": 0,
                "ig1": 0,
                "vg2": null,
                "ig2": 0,
                "ik": 0.07786429365962179
            }],
            "vg1": 0
        }],
        "vg2": null,
        "logX": false,
        "logY": false,
        "name": "6e6p-e-triode",
        "raw": false,
        "unit": null,
        "triode": true
    }
}
