{
    "filename": "6f12p vg2=150v graph.json",
    "tubeGraph": {
        "c": [{
            "p": [{
                "va": 0,
                "vg1": -1.5,
                "ig1": 0,
                "vg2": 150,
                "ig2": 0,
                "ik": 0
            }, {
                "va": 23.543078412391093,
                "vg1": -1.5,
                "ig1": 0,
                "vg2": 150,
                "ig2": 0,
                "ik": 0.005780898876404495
            }, {
                "va": 317.8315585672798,
                "vg1": -1.5,
                "ig1": 0,
                "vg2": 150,
                "ig2": 0,
                "ik": 0.006331460674157304
            }],
            "vg1": -1.5
        }, {
            "p": [{
                "va": 0,
                "vg1": -1,
                "ig1": 0,
                "vg2": 150,
                "ig2": 0,
                "ik": 0
            }, {
                "va": 20.445304937076475,
                "vg1": -1,
                "ig1": 0,
                "vg2": 150,
                "ig2": 0,
                "ik": 0.011955056179775282
            }, {
                "va": 32.21684414327203,
                "vg1": -1,
                "ig1": 0,
                "vg2": 150,
                "ig2": 0,
                "ik": 0.012741573033707865
            }, {
                "va": 316.2826718296225,
                "vg1": -1,
                "ig1": 0,
                "vg2": 150,
                "ig2": 0,
                "ik": 0.01360674157303371
            }],
            "vg1": -1
        }, {
            "p": [{
                "va": 0,
                "vg1": -0.5,
                "ig1": 0,
                "vg2": 150,
                "ig2": 0,
                "ik": 0
            }, {
                "va": 17.0377541142304,
                "vg1": -0.5,
                "ig1": 0,
                "vg2": 150,
                "ig2": 0,
                "ik": 0.010853932584269664
            }, {
                "va": 26.33107454017425,
                "vg1": -0.5,
                "ig1": 0,
                "vg2": 150,
                "ig2": 0,
                "ik": 0.02017415730337079
            }, {
                "va": 46.156824782187805,
                "vg1": -0.5,
                "ig1": 0,
                "vg2": 150,
                "ig2": 0,
                "ik": 0.02210112359550562
            }, {
                "va": 316.5924491771539,
                "vg1": -0.5,
                "ig1": 0,
                "vg2": 150,
                "ig2": 0,
                "ik": 0.02265168539325843
            }],
            "vg1": -0.5
        }, {
            "p": [{
                "va": 0,
                "vg1": 0,
                "ig1": 0,
                "vg2": 150,
                "ig2": 0,
                "ik": 0
            }, {
                "va": 19.51597289448209,
                "vg1": 0,
                "ig1": 0,
                "vg2": 150,
                "ig2": 0,
                "ik": 0.01604494382022472
            }, {
                "va": 30.667957405614715,
                "vg1": 0,
                "ig1": 0,
                "vg2": 150,
                "ig2": 0,
                "ik": 0.03020224719101124
            }, {
                "va": 49.25459825750242,
                "vg1": 0,
                "ig1": 0,
                "vg2": 150,
                "ig2": 0,
                "ik": 0.03208988764044944
            }, {
                "va": 86.11810261374637,
                "vg1": 0,
                "ig1": 0,
                "vg2": 150,
                "ig2": 0,
                "ik": 0.03232584269662921
            }, {
                "va": 316.5924491771539,
                "vg1": 0,
                "ig1": 0,
                "vg2": 150,
                "ig2": 0,
                "ik": 0.03334831460674158
            }],
            "vg1": 0
        }],
        "vg2": 150,
        "logX": false,
        "logY": false,
        "name": "6F12P VG2=150V Graph",
        "raw": false,
        "unit": 1,
        "triode": false
    }
}
