{
    "filename": "6f3p ug²200v.json",
    "tubeGraph": {
        "c": [{
            "p": [{
                "va": 0,
                "vg1": -18,
                "ig1": 0,
                "vg2": 200,
                "ig2": 0,
                "ik": 0
            }, {
                "va": 20.88105726872247,
                "vg1": -18,
                "ig1": 0,
                "vg2": 200,
                "ig2": 0,
                "ik": 0.010133333333333333
            }, {
                "va": 61.585903083700444,
                "vg1": -18,
                "ig1": 0,
                "vg2": 200,
                "ig2": 0,
                "ik": 0.0176
            }, {
                "va": 298.41409691629957,
                "vg1": -18,
                "ig1": 0,
                "vg2": 200,
                "ig2": 0,
                "ik": 0.028
            }],
            "vg1": -18
        }, {
            "p": [{
                "va": 0,
                "vg1": -16,
                "ig1": 0,
                "vg2": 200,
                "ig2": 0,
                "ik": 0
            }, {
                "va": 29.867841409691632,
                "vg1": -16,
                "ig1": 0,
                "vg2": 200,
                "ig2": 0,
                "ik": 0.018666666666666668
            }, {
                "va": 99.91189427312776,
                "vg1": -16,
                "ig1": 0,
                "vg2": 200,
                "ig2": 0,
                "ik": 0.030933333333333334
            }, {
                "va": 298.14977973568284,
                "vg1": -16,
                "ig1": 0,
                "vg2": 200,
                "ig2": 0,
                "ik": 0.044533333333333334
            }],
            "vg1": -16
        }, {
            "p": [{
                "va": 0,
                "vg1": -14,
                "ig1": 0,
                "vg2": 200,
                "ig2": 0,
                "ik": 0
            }, {
                "va": 19.03083700440529,
                "vg1": -14,
                "ig1": 0,
                "vg2": 200,
                "ig2": 0,
                "ik": 0.02266666666666667
            }, {
                "va": 76.65198237885463,
                "vg1": -14,
                "ig1": 0,
                "vg2": 200,
                "ig2": 0,
                "ik": 0.0424
            }, {
                "va": 298.14977973568284,
                "vg1": -14,
                "ig1": 0,
                "vg2": 200,
                "ig2": 0,
                "ik": 0.06106666666666667
            }],
            "vg1": -14
        }, {
            "p": [{
                "va": 0,
                "vg1": -12,
                "ig1": 0,
                "vg2": 200,
                "ig2": 0,
                "ik": 0
            }, {
                "va": 16.651982378854626,
                "vg1": -12,
                "ig1": 0,
                "vg2": 200,
                "ig2": 0,
                "ik": 0.0272
            }, {
                "va": 79.29515418502203,
                "vg1": -12,
                "ig1": 0,
                "vg2": 200,
                "ig2": 0,
                "ik": 0.0544
            }, {
                "va": 298.6784140969163,
                "vg1": -12,
                "ig1": 0,
                "vg2": 200,
                "ig2": 0,
                "ik": 0.07626666666666666
            }],
            "vg1": -12
        }, {
            "p": [{
                "va": 0,
                "vg1": -10,
                "ig1": 0,
                "vg2": 200,
                "ig2": 0,
                "ik": 0
            }, {
                "va": 21.145374449339208,
                "vg1": -10,
                "ig1": 0,
                "vg2": 200,
                "ig2": 0,
                "ik": 0.040266666666666666
            }, {
                "va": 65.02202643171806,
                "vg1": -10,
                "ig1": 0,
                "vg2": 200,
                "ig2": 0,
                "ik": 0.068
            }, {
                "va": 298.6784140969163,
                "vg1": -10,
                "ig1": 0,
                "vg2": 200,
                "ig2": 0,
                "ik": 0.09573333333333334
            }],
            "vg1": -10
        }, {
            "p": [{
                "va": 0,
                "vg1": -8,
                "ig1": 0,
                "vg2": 200,
                "ig2": 0,
                "ik": 0
            }, {
                "va": 14.537444933920705,
                "vg1": -8,
                "ig1": 0,
                "vg2": 200,
                "ig2": 0,
                "ik": 0.0432
            }, {
                "va": 62.378854625550666,
                "vg1": -8,
                "ig1": 0,
                "vg2": 200,
                "ig2": 0,
                "ik": 0.08453333333333334
            }, {
                "va": 174.1850220264317,
                "vg1": -8,
                "ig1": 0,
                "vg2": 200,
                "ig2": 0,
                "ik": 0.104
            }, {
                "va": 298.41409691629957,
                "vg1": -8,
                "ig1": 0,
                "vg2": 200,
                "ig2": 0,
                "ik": 0.1176
            }],
            "vg1": -8
        }, {
            "p": [{
                "va": 0,
                "vg1": -6,
                "ig1": 0,
                "vg2": 200,
                "ig2": 0,
                "ik": 0
            }, {
                "va": 31.189427312775333,
                "vg1": -6,
                "ig1": 0,
                "vg2": 200,
                "ig2": 0,
                "ik": 0.07386666666666666
            }, {
                "va": 99.38325991189427,
                "vg1": -6,
                "ig1": 0,
                "vg2": 200,
                "ig2": 0,
                "ik": 0.11386666666666666
            }, {
                "va": 298.41409691629957,
                "vg1": -6,
                "ig1": 0,
                "vg2": 200,
                "ig2": 0,
                "ik": 0.13653333333333334
            }],
            "vg1": -6
        }, {
            "p": [{
                "va": 0,
                "vg1": -4,
                "ig1": 0,
                "vg2": 200,
                "ig2": 0,
                "ik": 0
            }, {
                "va": 19.559471365638768,
                "vg1": -4,
                "ig1": 0,
                "vg2": 200,
                "ig2": 0,
                "ik": 0.06373333333333334
            }, {
                "va": 49.691629955947135,
                "vg1": -4,
                "ig1": 0,
                "vg2": 200,
                "ig2": 0,
                "ik": 0.10826666666666666
            }, {
                "va": 100.1762114537445,
                "vg1": -4,
                "ig1": 0,
                "vg2": 200,
                "ig2": 0,
                "ik": 0.13333333333333333
            }, {
                "va": 297.8854625550661,
                "vg1": -4,
                "ig1": 0,
                "vg2": 200,
                "ig2": 0,
                "ik": 0.1616
            }],
            "vg1": -4
        }, {
            "p": [{
                "va": 0,
                "vg1": -2,
                "ig1": 0,
                "vg2": 200,
                "ig2": 0,
                "ik": 0
            }, {
                "va": 30.13215859030837,
                "vg1": -2,
                "ig1": 0,
                "vg2": 200,
                "ig2": 0,
                "ik": 0.09546666666666667
            }, {
                "va": 59.47136563876652,
                "vg1": -2,
                "ig1": 0,
                "vg2": 200,
                "ig2": 0,
                "ik": 0.13573333333333332
            }, {
                "va": 137.44493392070484,
                "vg1": -2,
                "ig1": 0,
                "vg2": 200,
                "ig2": 0,
                "ik": 0.16373333333333331
            }, {
                "va": 298.41409691629957,
                "vg1": -2,
                "ig1": 0,
                "vg2": 200,
                "ig2": 0,
                "ik": 0.18613333333333332
            }],
            "vg1": -2
        }, {
            "p": [{
                "va": 0,
                "vg1": -1,
                "ig1": 0,
                "vg2": 200,
                "ig2": 0,
                "ik": 0
            }, {
                "va": 34.36123348017621,
                "vg1": -1,
                "ig1": 0,
                "vg2": 200,
                "ig2": 0,
                "ik": 0.11546666666666666
            }, {
                "va": 83.25991189427313,
                "vg1": -1,
                "ig1": 0,
                "vg2": 200,
                "ig2": 0,
                "ik": 0.16213333333333332
            }, {
                "va": 281.23348017621146,
                "vg1": -1,
                "ig1": 0,
                "vg2": 200,
                "ig2": 0,
                "ik": 0.19813333333333333
            }],
            "vg1": -1
        }],
        "vg2": 200,
        "logX": false,
        "logY": false,
        "name": "6f3p ug²200v",
        "raw": false,
        "unit": 1,
        "triode": false
    }
}
