{
    "filename": "6f6g g2 250v.json",
    "tubeGraph": {
        "c": [{
            "p": [{
                "va": 0,
                "vg1": -35,
                "ig1": 0,
                "vg2": 250,
                "ig2": 0,
                "ik": 0
            }, {
                "va": 16.682926829268293,
                "vg1": -35,
                "ig1": 0,
                "vg2": 250,
                "ig2": 0,
                "ik": 0.0023913043478260873
            }, {
                "va": 501.3658536585366,
                "vg1": -35,
                "ig1": 0,
                "vg2": 250,
                "ig2": 0,
                "ik": 0.004130434782608696
            }],
            "vg1": -35
        }, {
            "p": [{
                "va": 0,
                "vg1": -30,
                "ig1": 0,
                "vg2": 250,
                "ig2": 0,
                "ik": 0
            }, {
                "va": 11.853658536585366,
                "vg1": -30,
                "ig1": 0,
                "vg2": 250,
                "ig2": 0,
                "ik": 0.004239130434782609
            }, {
                "va": 80.78048780487805,
                "vg1": -30,
                "ig1": 0,
                "vg2": 250,
                "ig2": 0,
                "ik": 0.007065217391304349
            }, {
                "va": 453.51219512195127,
                "vg1": -30,
                "ig1": 0,
                "vg2": 250,
                "ig2": 0,
                "ik": 0.00923913043478261
            }],
            "vg1": -30
        }, {
            "p": [{
                "va": 0,
                "vg1": -25,
                "ig1": 0,
                "vg2": 250,
                "ig2": 0,
                "ik": 0
            }, {
                "va": 15.365853658536587,
                "vg1": -25,
                "ig1": 0,
                "vg2": 250,
                "ig2": 0,
                "ik": 0.008043478260869567
            }, {
                "va": 96.58536585365854,
                "vg1": -25,
                "ig1": 0,
                "vg2": 250,
                "ig2": 0,
                "ik": 0.013478260869565219
            }, {
                "va": 426.2926829268293,
                "vg1": -25,
                "ig1": 0,
                "vg2": 250,
                "ig2": 0,
                "ik": 0.01673913043478261
            }],
            "vg1": -25
        }, {
            "p": [{
                "va": 0,
                "vg1": -20,
                "ig1": 0,
                "vg2": 250,
                "ig2": 0,
                "ik": 0
            }, {
                "va": 20.634146341463417,
                "vg1": -20,
                "ig1": 0,
                "vg2": 250,
                "ig2": 0,
                "ik": 0.014130434782608697
            }, {
                "va": 72,
                "vg1": -20,
                "ig1": 0,
                "vg2": 250,
                "ig2": 0,
                "ik": 0.0216304347826087
            }, {
                "va": 398.6341463414634,
                "vg1": -20,
                "ig1": 0,
                "vg2": 250,
                "ig2": 0,
                "ik": 0.027608695652173915
            }],
            "vg1": -20
        }, {
            "p": [{
                "va": 0,
                "vg1": -15,
                "ig1": 0,
                "vg2": 250,
                "ig2": 0,
                "ik": 0
            }, {
                "va": 19.75609756097561,
                "vg1": -15,
                "ig1": 0,
                "vg2": 250,
                "ig2": 0,
                "ik": 0.02021739130434783
            }, {
                "va": 93.07317073170732,
                "vg1": -15,
                "ig1": 0,
                "vg2": 250,
                "ig2": 0,
                "ik": 0.03282608695652174
            }, {
                "va": 363.0731707317073,
                "vg1": -15,
                "ig1": 0,
                "vg2": 250,
                "ig2": 0,
                "ik": 0.03934782608695652
            }],
            "vg1": -15
        }, {
            "p": [{
                "va": 0,
                "vg1": -10,
                "ig1": 0,
                "vg2": 250,
                "ig2": 0,
                "ik": 0
            }, {
                "va": 11.853658536585366,
                "vg1": -10,
                "ig1": 0,
                "vg2": 250,
                "ig2": 0,
                "ik": 0.021847826086956523
            }, {
                "va": 68.48780487804878,
                "vg1": -10,
                "ig1": 0,
                "vg2": 250,
                "ig2": 0,
                "ik": 0.042934782608695654
            }, {
                "va": 345.9512195121951,
                "vg1": -10,
                "ig1": 0,
                "vg2": 250,
                "ig2": 0,
                "ik": 0.05369565217391305
            }],
            "vg1": -10
        }, {
            "p": [{
                "va": 0,
                "vg1": -5,
                "ig1": 0,
                "vg2": 250,
                "ig2": 0,
                "ik": 0
            }, {
                "va": 25.463414634146343,
                "vg1": -5,
                "ig1": 0,
                "vg2": 250,
                "ig2": 0,
                "ik": 0.04043478260869566
            }, {
                "va": 129.95121951219514,
                "vg1": -5,
                "ig1": 0,
                "vg2": 250,
                "ig2": 0,
                "ik": 0.06336956521739132
            }, {
                "va": 440.3414634146342,
                "vg1": -5,
                "ig1": 0,
                "vg2": 250,
                "ig2": 0,
                "ik": 0.0691304347826087
            }],
            "vg1": -5
        }, {
            "p": [{
                "va": 0,
                "vg1": 0,
                "ig1": 0,
                "vg2": 250,
                "ig2": 0,
                "ik": 0
            }, {
                "va": 10.975609756097562,
                "vg1": 0,
                "ig1": 0,
                "vg2": 250,
                "ig2": 0,
                "ik": 0.044456521739130436
            }, {
                "va": 75.95121951219512,
                "vg1": 0,
                "ig1": 0,
                "vg2": 250,
                "ig2": 0,
                "ik": 0.07673913043478262
            }, {
                "va": 384.1463414634147,
                "vg1": 0,
                "ig1": 0,
                "vg2": 250,
                "ig2": 0,
                "ik": 0.09369565217391304
            }],
            "vg1": 0
        }],
        "vg2": 250,
        "logX": false,
        "logY": false,
        "name": "6F6G G2 250V",
        "raw": false,
        "unit": null,
        "triode": false
    }
}
