{
    "filename": "6h8c courbes.json",
    "tubeGraph": {
        "c": [{
            "p": [{
                "va": 0,
                "vg1": -24,
                "ig1": 0,
                "vg2": null,
                "ig2": 0,
                "ik": 0
            }, {
                "va": 397.80461031833147,
                "vg1": -24,
                "ig1": 0,
                "vg2": null,
                "ig2": 0,
                "ik": 0.00008067226890756304
            }, {
                "va": 465.77387486278815,
                "vg1": -24,
                "ig1": 0,
                "vg2": null,
                "ig2": 0,
                "ik": 0.002205042016806723
            }],
            "vg1": -24
        }, {
            "p": [{
                "va": 0,
                "vg1": -22,
                "ig1": 0,
                "vg2": null,
                "ig2": 0,
                "ik": 0
            }, {
                "va": 361.4489571899012,
                "vg1": -22,
                "ig1": 0,
                "vg2": null,
                "ig2": 0,
                "ik": 0.00005378151260504202
            }, {
                "va": 446.8057080131723,
                "vg1": -22,
                "ig1": 0,
                "vg2": null,
                "ig2": 0,
                "ik": 0.0026621848739495795
            }],
            "vg1": -22
        }, {
            "p": [{
                "va": 0,
                "vg1": -20,
                "ig1": 0,
                "vg2": null,
                "ig2": 0,
                "ik": 0
            }, {
                "va": 325.0933040614709,
                "vg1": -20,
                "ig1": 0,
                "vg2": null,
                "ig2": 0,
                "ik": 0.00008067226890756304
            }, {
                "va": 422.56860592755214,
                "vg1": -20,
                "ig1": 0,
                "vg2": null,
                "ig2": 0,
                "ik": 0.003307563025210084
            }],
            "vg1": -20
        }, {
            "p": [{
                "va": 0,
                "vg1": -18,
                "ig1": 0,
                "vg2": null,
                "ig2": 0,
                "ik": 0
            }, {
                "va": 294.5334796926454,
                "vg1": -18,
                "ig1": 0,
                "vg2": null,
                "ig2": 0,
                "ik": 0.00005378151260504202
            }, {
                "va": 352.4917672886937,
                "vg1": -18,
                "ig1": 0,
                "vg2": null,
                "ig2": 0,
                "ik": 0.0016941176470588236
            }, {
                "va": 402.019758507135,
                "vg1": -18,
                "ig1": 0,
                "vg2": null,
                "ig2": 0,
                "ik": 0.004221848739495798
            }],
            "vg1": -18
        }, {
            "p": [{
                "va": 0,
                "vg1": -16,
                "ig1": 0,
                "vg2": null,
                "ig2": 0,
                "ik": 0
            }, {
                "va": 266.60812294182216,
                "vg1": -16,
                "ig1": 0,
                "vg2": null,
                "ig2": 0,
                "ik": 0.00002689075630252101
            }, {
                "va": 329.3084522502744,
                "vg1": -16,
                "ig1": 0,
                "vg2": null,
                "ig2": 0,
                "ik": 0.0023663865546218487
            }, {
                "va": 374.6212952799122,
                "vg1": -16,
                "ig1": 0,
                "vg2": null,
                "ig2": 0,
                "ik": 0.005270588235294117
            }],
            "vg1": -16
        }, {
            "p": [{
                "va": 0,
                "vg1": -14,
                "ig1": 0,
                "vg2": null,
                "ig2": 0,
                "ik": 0
            }, {
                "va": 238.6827661909989,
                "vg1": -14,
                "ig1": 0,
                "vg2": null,
                "ig2": 0,
                "ik": 0.00002689075630252101
            }, {
                "va": 351.9648737650933,
                "vg1": -14,
                "ig1": 0,
                "vg2": null,
                "ig2": 0,
                "ik": 0.006184873949579832
            }],
            "vg1": -14
        }, {
            "p": [{
                "va": 0,
                "vg1": -12,
                "ig1": 0,
                "vg2": null,
                "ig2": 0,
                "ik": 0
            }, {
                "va": 190.20856201975852,
                "vg1": -12,
                "ig1": 0,
                "vg2": null,
                "ig2": 0,
                "ik": 0.00002689075630252101
            }, {
                "va": 272.403951701427,
                "vg1": -12,
                "ig1": 0,
                "vg2": null,
                "ig2": 0,
                "ik": 0.0027697478991596637
            }, {
                "va": 324.56641053787047,
                "vg1": -12,
                "ig1": 0,
                "vg2": null,
                "ig2": 0,
                "ik": 0.0075294117647058826
            }],
            "vg1": -12
        }, {
            "p": [{
                "va": 0,
                "vg1": -10,
                "ig1": 0,
                "vg2": null,
                "ig2": 0,
                "ik": 0
            }, {
                "va": 154.90669593852908,
                "vg1": -10,
                "ig1": 0,
                "vg2": null,
                "ig2": 0,
                "ik": 0.00002689075630252101
            }, {
                "va": 248.69374313940725,
                "vg1": -10,
                "ig1": 0,
                "vg2": null,
                "ig2": 0,
                "ik": 0.004033613445378151
            }, {
                "va": 297.16794731064766,
                "vg1": -10,
                "ig1": 0,
                "vg2": null,
                "ig2": 0,
                "ik": 0.009008403361344538
            }],
            "vg1": -10
        }, {
            "p": [{
                "va": 0,
                "vg1": -8,
                "ig1": 0,
                "vg2": null,
                "ig2": 0,
                "ik": 0
            }, {
                "va": 112.22832052689353,
                "vg1": -8,
                "ig1": 0,
                "vg2": null,
                "ig2": 0,
                "ik": 0.00005378151260504202
            }, {
                "va": 200.21953896816686,
                "vg1": -8,
                "ig1": 0,
                "vg2": null,
                "ig2": 0,
                "ik": 0.0033613445378151263
            }, {
                "va": 274.51152579582873,
                "vg1": -8,
                "ig1": 0,
                "vg2": null,
                "ig2": 0,
                "ik": 0.011321008403361345
            }],
            "vg1": -8
        }, {
            "p": [{
                "va": 0,
                "vg1": -6,
                "ig1": 0,
                "vg2": null,
                "ig2": 0,
                "ik": 0
            }, {
                "va": 81.66849615806805,
                "vg1": -6,
                "ig1": 0,
                "vg2": null,
                "ig2": 0,
                "ik": 0.00005378151260504202
            }, {
                "va": 180.19758507135018,
                "vg1": -6,
                "ig1": 0,
                "vg2": null,
                "ig2": 0,
                "ik": 0.0053512605042016805
            }, {
                "va": 235.52140504939626,
                "vg1": -6,
                "ig1": 0,
                "vg2": null,
                "ig2": 0,
                "ik": 0.012423529411764707
            }],
            "vg1": -6
        }, {
            "p": [{
                "va": 0,
                "vg1": -4,
                "ig1": 0,
                "vg2": null,
                "ig2": 0,
                "ik": 0
            }, {
                "va": 49.52799121844127,
                "vg1": -4,
                "ig1": 0,
                "vg2": null,
                "ig2": 0,
                "ik": 0.00021512605042016807
            }, {
                "va": 120.13172338090011,
                "vg1": -4,
                "ig1": 0,
                "vg2": null,
                "ig2": 0,
                "ik": 0.003442016806722689
            }, {
                "va": 171.76728869374313,
                "vg1": -4,
                "ig1": 0,
                "vg2": null,
                "ig2": 0,
                "ik": 0.009707563025210083
            }, {
                "va": 199.6926454445664,
                "vg1": -4,
                "ig1": 0,
                "vg2": null,
                "ig2": 0,
                "ik": 0.013391596638655462
            }],
            "vg1": -4
        }, {
            "p": [{
                "va": 0,
                "vg1": -2,
                "ig1": 0,
                "vg2": null,
                "ig2": 0,
                "ik": 0
            }, {
                "va": 25.290889132821075,
                "vg1": -2,
                "ig1": 0,
                "vg2": null,
                "ig2": 0,
                "ik": 0.0002689075630252101
            }, {
                "va": 55.3238199780461,
                "vg1": -2,
                "ig1": 0,
                "vg2": null,
                "ig2": 0,
                "ik": 0.0016672268907563027
            }, {
                "va": 92.73326015367728,
                "vg1": -2,
                "ig1": 0,
                "vg2": null,
                "ig2": 0,
                "ik": 0.004759663865546219
            }, {
                "va": 159.1218441273326,
                "vg1": -2,
                "ig1": 0,
                "vg2": null,
                "ig2": 0,
                "ik": 0.01384873949579832
            }],
            "vg1": -2
        }, {
            "p": [{
                "va": 0,
                "vg1": 0,
                "ig1": 0,
                "vg2": null,
                "ig2": 0,
                "ik": 0
            }, {
                "va": 57.9582875960483,
                "vg1": 0,
                "ig1": 0,
                "vg2": null,
                "ig2": 0,
                "ik": 0.004947899159663866
            }, {
                "va": 98.00219538968167,
                "vg1": 0,
                "ig1": 0,
                "vg2": null,
                "ig2": 0,
                "ik": 0.010541176470588234
            }, {
                "va": 120.65861690450055,
                "vg1": 0,
                "ig1": 0,
                "vg2": null,
                "ig2": 0,
                "ik": 0.014951260504201681
            }],
            "vg1": 0
        }],
        "vg2": null,
        "logX": false,
        "logY": false,
        "name": "6h8c courbes",
        "raw": false,
        "unit": null,
        "triode": false
    }
}
