{
    "filename": "6j5p_150v.json",
    "tubeGraph": {
        "c": [{
            "p": [{
                "va": 0,
                "vg1": -2.5,
                "ig1": 0,
                "vg2": 150,
                "ig2": 0,
                "ik": 0
            }, {
                "va": 5.532302092811647,
                "vg1": -2.5,
                "ig1": 0,
                "vg2": 150,
                "ig2": 0,
                "ik": 0.002424738219895288
            }, {
                "va": 20.400363967242946,
                "vg1": -2.5,
                "ig1": 0,
                "vg2": 150,
                "ig2": 0,
                "ik": 0.004381544502617801
            }, {
                "va": 60.16378525932666,
                "vg1": -2.5,
                "ig1": 0,
                "vg2": 150,
                "ig2": 0,
                "ik": 0.0050196335078534025
            }, {
                "va": 120.67333939945404,
                "vg1": -2.5,
                "ig1": 0,
                "vg2": 150,
                "ig2": 0,
                "ik": 0.005274869109947644
            }, {
                "va": 238.926296633303,
                "vg1": -2.5,
                "ig1": 0,
                "vg2": 150,
                "ig2": 0,
                "ik": 0.005657722513089005
            }, {
                "va": 375.85077343039126,
                "vg1": -2.5,
                "ig1": 0,
                "vg2": 150,
                "ig2": 0,
                "ik": 0.006040575916230366
            }],
            "vg1": -2.5
        }, {
            "p": [{
                "va": 0,
                "vg1": -2,
                "ig1": 0,
                "vg2": 150,
                "ig2": 0,
                "ik": 0
            }, {
                "va": 14.176524112829844,
                "vg1": -2,
                "ig1": 0,
                "vg2": 150,
                "ig2": 0,
                "ik": 0.0062532722513089
            }, {
                "va": 40.454959053685165,
                "vg1": -2,
                "ig1": 0,
                "vg2": 150,
                "ig2": 0,
                "ik": 0.008039921465968587
            }, {
                "va": 79.87261146496814,
                "vg1": -2,
                "ig1": 0,
                "vg2": 150,
                "ig2": 0,
                "ik": 0.00838023560209424
            }, {
                "va": 121.01910828025477,
                "vg1": -2,
                "ig1": 0,
                "vg2": 150,
                "ig2": 0,
                "ik": 0.008678010471204187
            }, {
                "va": 180.14558689717924,
                "vg1": -2,
                "ig1": 0,
                "vg2": 150,
                "ig2": 0,
                "ik": 0.009018324607329844
            }, {
                "va": 278.6897179253867,
                "vg1": -2,
                "ig1": 0,
                "vg2": 150,
                "ig2": 0,
                "ik": 0.009528795811518323
            }, {
                "va": 373.77616014558686,
                "vg1": -2,
                "ig1": 0,
                "vg2": 150,
                "ig2": 0,
                "ik": 0.010166884816753926
            }],
            "vg1": -2
        }, {
            "p": [{
                "va": 0,
                "vg1": -1.5,
                "ig1": 0,
                "vg2": 150,
                "ig2": 0,
                "ik": 0
            }, {
                "va": 12.447679708826204,
                "vg1": -1.5,
                "ig1": 0,
                "vg2": 150,
                "ig2": 0,
                "ik": 0.006338350785340314
            }, {
                "va": 21.0919017288444,
                "vg1": -1.5,
                "ig1": 0,
                "vg2": 150,
                "ig2": 0,
                "ik": 0.010464659685863874
            }, {
                "va": 41.83803457688808,
                "vg1": -1.5,
                "ig1": 0,
                "vg2": 150,
                "ig2": 0,
                "ik": 0.011953534031413613
            }, {
                "va": 60.509554140127385,
                "vg1": -1.5,
                "ig1": 0,
                "vg2": 150,
                "ig2": 0,
                "ik": 0.012293848167539267
            }, {
                "va": 119.98180163785258,
                "vg1": -1.5,
                "ig1": 0,
                "vg2": 150,
                "ig2": 0,
                "ik": 0.012846858638743453
            }, {
                "va": 179.7998180163785,
                "vg1": -1.5,
                "ig1": 0,
                "vg2": 150,
                "ig2": 0,
                "ik": 0.01344240837696335
            }, {
                "va": 259.32666060054595,
                "vg1": -1.5,
                "ig1": 0,
                "vg2": 150,
                "ig2": 0,
                "ik": 0.01408049738219895
            }, {
                "va": 374.1219290263876,
                "vg1": -1.5,
                "ig1": 0,
                "vg2": 150,
                "ig2": 0,
                "ik": 0.015229057591623036
            }],
            "vg1": -1.5
        }, {
            "p": [{
                "va": 0,
                "vg1": -1,
                "ig1": 0,
                "vg2": 150,
                "ig2": 0,
                "ik": 0
            }, {
                "va": 36.30573248407643,
                "vg1": -1,
                "ig1": 0,
                "vg2": 150,
                "ig2": 0,
                "ik": 0.015782068062827222
            }, {
                "va": 59.818016378525925,
                "vg1": -1,
                "ig1": 0,
                "vg2": 150,
                "ig2": 0,
                "ik": 0.016675392670157066
            }, {
                "va": 100.96451319381255,
                "vg1": -1,
                "ig1": 0,
                "vg2": 150,
                "ig2": 0,
                "ik": 0.01718586387434555
            }, {
                "va": 160.43676069153776,
                "vg1": -1,
                "ig1": 0,
                "vg2": 150,
                "ig2": 0,
                "ik": 0.017866492146596857
            }, {
                "va": 259.6724294813467,
                "vg1": -1,
                "ig1": 0,
                "vg2": 150,
                "ig2": 0,
                "ik": 0.019100130890052355
            }, {
                "va": 373.77616014558686,
                "vg1": -1,
                "ig1": 0,
                "vg2": 150,
                "ig2": 0,
                "ik": 0.020291230366492143
            }],
            "vg1": -1
        }, {
            "p": [{
                "va": 0,
                "vg1": -0.5,
                "ig1": 0,
                "vg2": 150,
                "ig2": 0,
                "ik": 0
            }, {
                "va": 20.05459508644222,
                "vg1": -0.5,
                "ig1": 0,
                "vg2": 150,
                "ig2": 0,
                "ik": 0.010294502617801045
            }, {
                "va": 36.30573248407643,
                "vg1": -0.5,
                "ig1": 0,
                "vg2": 150,
                "ig2": 0,
                "ik": 0.019227748691099476
            }, {
                "va": 68.80800727934485,
                "vg1": -0.5,
                "ig1": 0,
                "vg2": 150,
                "ig2": 0,
                "ik": 0.021780104712041882
            }, {
                "va": 106.15104640582346,
                "vg1": -0.5,
                "ig1": 0,
                "vg2": 150,
                "ig2": 0,
                "ik": 0.022205497382198954
            }, {
                "va": 180.8371246587807,
                "vg1": -0.5,
                "ig1": 0,
                "vg2": 150,
                "ig2": 0,
                "ik": 0.023396596858638742
            }, {
                "va": 259.32666060054595,
                "vg1": -0.5,
                "ig1": 0,
                "vg2": 150,
                "ig2": 0,
                "ik": 0.024417539267015707
            }, {
                "va": 373.0846223839854,
                "vg1": -0.5,
                "ig1": 0,
                "vg2": 150,
                "ig2": 0,
                "ik": 0.02620418848167539
            }],
            "vg1": -0.5
        }, {
            "p": [{
                "va": 0,
                "vg1": 0,
                "ig1": 0,
                "vg2": 150,
                "ig2": 0,
                "ik": 0
            }, {
                "va": 37.68880800727934,
                "vg1": 0,
                "ig1": 0,
                "vg2": 150,
                "ig2": 0,
                "ik": 0.019908376963350783
            }, {
                "va": 51.51956323930846,
                "vg1": 0,
                "ig1": 0,
                "vg2": 150,
                "ig2": 0,
                "ik": 0.0250130890052356
            }, {
                "va": 82.63876251137397,
                "vg1": 0,
                "ig1": 0,
                "vg2": 150,
                "ig2": 0,
                "ik": 0.027097513089005234
            }, {
                "va": 130.70063694267515,
                "vg1": 0,
                "ig1": 0,
                "vg2": 150,
                "ig2": 0,
                "ik": 0.0281609947643979
            }, {
                "va": 200.20018198362146,
                "vg1": 0,
                "ig1": 0,
                "vg2": 150,
                "ig2": 0,
                "ik": 0.02964986910994764
            }, {
                "va": 329.8635122838944,
                "vg1": 0,
                "ig1": 0,
                "vg2": 150,
                "ig2": 0,
                "ik": 0.03232984293193717
            }],
            "vg1": 0
        }],
        "vg2": 150,
        "logX": false,
        "logY": false,
        "name": "6J5P_150V",
        "raw": false,
        "unit": null,
        "triode": false
    }
}
