{
    "filename": "6j7_pentode_80v.json",
    "tubeGraph": {
        "c": [{
            "p": [{
                "va": 0,
                "vg1": -4,
                "ig1": 0,
                "vg2": 80,
                "ig2": 0,
                "ik": 0
            }, {
                "va": 6.177606177606178,
                "vg1": -4,
                "ig1": 0,
                "vg2": 80,
                "ig2": 0,
                "ik": 0.0002710926694329184
            }, {
                "va": 49.42084942084942,
                "vg1": -4,
                "ig1": 0,
                "vg2": 80,
                "ig2": 0,
                "ik": 0.00031950207468879664
            }, {
                "va": 149.8069498069498,
                "vg1": -4,
                "ig1": 0,
                "vg2": 80,
                "ig2": 0,
                "ik": 0.0003582295988934993
            }, {
                "va": 296.91119691119695,
                "vg1": -4,
                "ig1": 0,
                "vg2": 80,
                "ig2": 0,
                "ik": 0.0003872752420470262
            }],
            "vg1": -4
        }, {
            "p": [{
                "va": 0,
                "vg1": -3,
                "ig1": 0,
                "vg2": 80,
                "ig2": 0,
                "ik": 0
            }, {
                "va": 1.9305019305019306,
                "vg1": -3,
                "ig1": 0,
                "vg2": 80,
                "ig2": 0,
                "ik": 0.0005615491009681881
            }, {
                "va": 11.96911196911197,
                "vg1": -3,
                "ig1": 0,
                "vg2": 80,
                "ig2": 0,
                "ik": 0.0008035961272475794
            }, {
                "va": 49.42084942084942,
                "vg1": -3,
                "ig1": 0,
                "vg2": 80,
                "ig2": 0,
                "ik": 0.0009391424619640388
            }, {
                "va": 150.1930501930502,
                "vg1": -3,
                "ig1": 0,
                "vg2": 80,
                "ig2": 0,
                "ik": 0.0009778699861687414
            }, {
                "va": 291.11969111969114,
                "vg1": -3,
                "ig1": 0,
                "vg2": 80,
                "ig2": 0,
                "ik": 0.0010069156293222683
            }],
            "vg1": -3
        }, {
            "p": [{
                "va": 0,
                "vg1": -2,
                "ig1": 0,
                "vg2": 80,
                "ig2": 0,
                "ik": 0
            }, {
                "va": 3.474903474903475,
                "vg1": -2,
                "ig1": 0,
                "vg2": 80,
                "ig2": 0,
                "ik": 0.001152143845089903
            }, {
                "va": 15.057915057915059,
                "vg1": -2,
                "ig1": 0,
                "vg2": 80,
                "ig2": 0,
                "ik": 0.0017621023513139694
            }, {
                "va": 49.42084942084942,
                "vg1": -2,
                "ig1": 0,
                "vg2": 80,
                "ig2": 0,
                "ik": 0.0020235131396957123
            }, {
                "va": 149.8069498069498,
                "vg1": -2,
                "ig1": 0,
                "vg2": 80,
                "ig2": 0,
                "ik": 0.0020912863070539417
            }, {
                "va": 286.1003861003861,
                "vg1": -2,
                "ig1": 0,
                "vg2": 80,
                "ig2": 0,
                "ik": 0.0021300138312586444
            }],
            "vg1": -2
        }, {
            "p": [{
                "va": 0,
                "vg1": -1,
                "ig1": 0,
                "vg2": 80,
                "ig2": 0,
                "ik": 0
            }, {
                "va": 6.94980694980695,
                "vg1": -1,
                "ig1": 0,
                "vg2": 80,
                "ig2": 0,
                "ik": 0.0022655601659751037
            }, {
                "va": 26.254826254826256,
                "vg1": -1,
                "ig1": 0,
                "vg2": 80,
                "ig2": 0,
                "ik": 0.003253112033195021
            }, {
                "va": 150.1930501930502,
                "vg1": -1,
                "ig1": 0,
                "vg2": 80,
                "ig2": 0,
                "ik": 0.003553250345781466
            }, {
                "va": 281.0810810810811,
                "vg1": -1,
                "ig1": 0,
                "vg2": 80,
                "ig2": 0,
                "ik": 0.003601659751037344
            }],
            "vg1": -1
        }, {
            "p": [{
                "va": 0,
                "vg1": 0,
                "ig1": 0,
                "vg2": 80,
                "ig2": 0,
                "ik": 0
            }, {
                "va": 11.583011583011583,
                "vg1": 0,
                "ig1": 0,
                "vg2": 80,
                "ig2": 0,
                "ik": 0.003969571230982019
            }, {
                "va": 32.81853281853282,
                "vg1": 0,
                "ig1": 0,
                "vg2": 80,
                "ig2": 0,
                "ik": 0.004899031811894882
            }, {
                "va": 85.71428571428572,
                "vg1": 0,
                "ig1": 0,
                "vg2": 80,
                "ig2": 0,
                "ik": 0.005121715076071922
            }, {
                "va": 150.5791505791506,
                "vg1": 0,
                "ig1": 0,
                "vg2": 80,
                "ig2": 0,
                "ik": 0.00523789764868603
            }, {
                "va": 276.44787644787647,
                "vg1": 0,
                "ig1": 0,
                "vg2": 80,
                "ig2": 0,
                "ik": 0.005344398340248962
            }],
            "vg1": 0
        }],
        "vg2": 80,
        "logX": false,
        "logY": false,
        "name": "6j7_pentode_80v",
        "raw": false,
        "unit": null,
        "triode": false
    }
}
