{
    "filename": "6l6gc vg2=300v transfert chart.json",
    "tubeGraph": {
        "c": [{
            "p": [{
                "va": 0,
                "vg1": -35,
                "ig1": 0,
                "vg2": 300,
                "ig2": 0,
                "ik": 0
            }, {
                "va": 8.133230054221535,
                "vg1": -35,
                "ig1": 0,
                "vg2": 300,
                "ig2": 0,
                "ik": 0.010269953051643193
            }, {
                "va": 89.07823392718824,
                "vg1": -35,
                "ig1": 0,
                "vg2": 300,
                "ig2": 0,
                "ik": 0.01068075117370892
            }, {
                "va": 154.1440743609605,
                "vg1": -35,
                "ig1": 0,
                "vg2": 300,
                "ig2": 0,
                "ik": 0.01602112676056338
            }, {
                "va": 345.0813323005422,
                "vg1": -35,
                "ig1": 0,
                "vg2": 300,
                "ig2": 0,
                "ik": 0.01807511737089202
            }, {
                "va": 498.0635166537568,
                "vg1": -35,
                "ig1": 0,
                "vg2": 300,
                "ig2": 0,
                "ik": 0.014788732394366198
            }],
            "vg1": -35
        }, {
            "p": [{
                "va": 0,
                "vg1": -30,
                "ig1": 0,
                "vg2": 300,
                "ig2": 0,
                "ik": 0
            }, {
                "va": 6.584043377226957,
                "vg1": -30,
                "ig1": 0,
                "vg2": 300,
                "ig2": 0,
                "ik": 0.015199530516431926
            }, {
                "va": 22.850503485670025,
                "vg1": -30,
                "ig1": 0,
                "vg2": 300,
                "ig2": 0,
                "ik": 0.020539906103286387
            }, {
                "va": 92.56390395042604,
                "vg1": -30,
                "ig1": 0,
                "vg2": 300,
                "ig2": 0,
                "ik": 0.020539906103286387
            }, {
                "va": 220.75910147172735,
                "vg1": -30,
                "ig1": 0,
                "vg2": 300,
                "ig2": 0,
                "ik": 0.0267018779342723
            }, {
                "va": 497.6762199845082,
                "vg1": -30,
                "ig1": 0,
                "vg2": 300,
                "ig2": 0,
                "ik": 0.02834507042253521
            }],
            "vg1": -30
        }, {
            "p": [{
                "va": 0,
                "vg1": -25,
                "ig1": 0,
                "vg2": 300,
                "ig2": 0,
                "ik": 0
            }, {
                "va": 7.358636715724245,
                "vg1": -25,
                "ig1": 0,
                "vg2": 300,
                "ig2": 0,
                "ik": 0.01971830985915493
            }, {
                "va": 28.659953524399693,
                "vg1": -25,
                "ig1": 0,
                "vg2": 300,
                "ig2": 0,
                "ik": 0.029988262910798123
            }, {
                "va": 81.71959721146399,
                "vg1": -25,
                "ig1": 0,
                "vg2": 300,
                "ig2": 0,
                "ik": 0.031220657276995308
            }, {
                "va": 169.63594113090628,
                "vg1": -25,
                "ig1": 0,
                "vg2": 300,
                "ig2": 0,
                "ik": 0.03861502347417841
            }, {
                "va": 385.7474825716499,
                "vg1": -25,
                "ig1": 0,
                "vg2": 300,
                "ig2": 0,
                "ik": 0.046009389671361506
            }, {
                "va": 498.0635166537568,
                "vg1": -25,
                "ig1": 0,
                "vg2": 300,
                "ig2": 0,
                "ik": 0.045598591549295776
            }],
            "vg1": -25
        }, {
            "p": [{
                "va": 0,
                "vg1": -20,
                "ig1": 0,
                "vg2": 300,
                "ig2": 0,
                "ik": 0
            }, {
                "va": 12.006196746707978,
                "vg1": -20,
                "ig1": 0,
                "vg2": 300,
                "ig2": 0,
                "ik": 0.030399061032863852
            }, {
                "va": 18.590240123934937,
                "vg1": -20,
                "ig1": 0,
                "vg2": 300,
                "ig2": 0,
                "ik": 0.0488849765258216
            }, {
                "va": 73.58636715724245,
                "vg1": -20,
                "ig1": 0,
                "vg2": 300,
                "ig2": 0,
                "ik": 0.05669014084507042
            }, {
                "va": 202.9434546862897,
                "vg1": -20,
                "ig1": 0,
                "vg2": 300,
                "ig2": 0,
                "ik": 0.06696009389671362
            }, {
                "va": 498.45081332300543,
                "vg1": -20,
                "ig1": 0,
                "vg2": 300,
                "ig2": 0,
                "ik": 0.0710680751173709
            }],
            "vg1": -20
        }, {
            "p": [{
                "va": 0,
                "vg1": -15,
                "ig1": 0,
                "vg2": 300,
                "ig2": 0,
                "ik": 0
            }, {
                "va": 16.26646010844307,
                "vg1": -15,
                "ig1": 0,
                "vg2": 300,
                "ig2": 0,
                "ik": 0.04066901408450705
            }, {
                "va": 25.94887683965918,
                "vg1": -15,
                "ig1": 0,
                "vg2": 300,
                "ig2": 0,
                "ik": 0.07312206572769954
            }, {
                "va": 65.06584043377228,
                "vg1": -15,
                "ig1": 0,
                "vg2": 300,
                "ig2": 0,
                "ik": 0.08462441314553991
            }, {
                "va": 289.31061192873744,
                "vg1": -15,
                "ig1": 0,
                "vg2": 300,
                "ig2": 0,
                "ik": 0.10023474178403757
            }, {
                "va": 498.8381099922541,
                "vg1": -15,
                "ig1": 0,
                "vg2": 300,
                "ig2": 0,
                "ik": 0.10475352112676058
            }],
            "vg1": -15
        }, {
            "p": [{
                "va": 0,
                "vg1": -10,
                "ig1": 0,
                "vg2": 300,
                "ig2": 0,
                "ik": 0
            }, {
                "va": 19.364833462432223,
                "vg1": -10,
                "ig1": 0,
                "vg2": 300,
                "ig2": 0,
                "ik": 0.0517605633802817
            }, {
                "va": 33.69481022463207,
                "vg1": -10,
                "ig1": 0,
                "vg2": 300,
                "ig2": 0,
                "ik": 0.11050469483568075
            }, {
                "va": 84.81797056545314,
                "vg1": -10,
                "ig1": 0,
                "vg2": 300,
                "ig2": 0,
                "ik": 0.12816901408450704
            }, {
                "va": 332.68783888458563,
                "vg1": -10,
                "ig1": 0,
                "vg2": 300,
                "ig2": 0,
                "ik": 0.1421361502347418
            }, {
                "va": 498.8381099922541,
                "vg1": -10,
                "ig1": 0,
                "vg2": 300,
                "ig2": 0,
                "ik": 0.14419014084507042
            }],
            "vg1": -10
        }, {
            "p": [{
                "va": 0,
                "vg1": -5,
                "ig1": 0,
                "vg2": 300,
                "ig2": 0,
                "ik": 0
            }, {
                "va": 29.821843532145625,
                "vg1": -5,
                "ig1": 0,
                "vg2": 300,
                "ig2": 0,
                "ik": 0.08626760563380281
            }, {
                "va": 40.278853601859026,
                "vg1": -5,
                "ig1": 0,
                "vg2": 300,
                "ig2": 0,
                "ik": 0.15651408450704227
            }, {
                "va": 78.62122385747483,
                "vg1": -5,
                "ig1": 0,
                "vg2": 300,
                "ig2": 0,
                "ik": 0.1737676056338028
            }, {
                "va": 125.09682416731216,
                "vg1": -5,
                "ig1": 0,
                "vg2": 300,
                "ig2": 0,
                "ik": 0.1766431924882629
            }, {
                "va": 296.6692486444617,
                "vg1": -5,
                "ig1": 0,
                "vg2": 300,
                "ig2": 0,
                "ik": 0.18732394366197183
            }, {
                "va": 499.6127033307514,
                "vg1": -5,
                "ig1": 0,
                "vg2": 300,
                "ig2": 0,
                "ik": 0.18896713615023475
            }],
            "vg1": -5
        }, {
            "p": [{
                "va": 0,
                "vg1": 0,
                "ig1": 0,
                "vg2": 300,
                "ig2": 0,
                "ik": 0
            }, {
                "va": 30.98373353989156,
                "vg1": 0,
                "ig1": 0,
                "vg2": 300,
                "ig2": 0,
                "ik": 0.10187793427230048
            }, {
                "va": 44.92641363284276,
                "vg1": 0,
                "ig1": 0,
                "vg2": 300,
                "ig2": 0,
                "ik": 0.20170187793427233
            }, {
                "va": 78.23392718822619,
                "vg1": 0,
                "ig1": 0,
                "vg2": 300,
                "ig2": 0,
                "ik": 0.22470657276995307
            }, {
                "va": 356.70023237800154,
                "vg1": 0,
                "ig1": 0,
                "vg2": 300,
                "ig2": 0,
                "ik": 0.24483568075117373
            }, {
                "va": 500.00000000000006,
                "vg1": 0,
                "ig1": 0,
                "vg2": 300,
                "ig2": 0,
                "ik": 0.24771126760563383
            }],
            "vg1": 0
        }],
        "vg2": 300,
        "logX": false,
        "logY": false,
        "name": "6L6GC Vg2=300V Transfert CHart",
        "raw": false,
        "unit": null,
        "triode": false
    }
}
