{
    "filename": "6n16b_1.json",
    "tubeGraph": {
        "c": [{
            "p": [{
                "va": 0,
                "vg1": -8,
                "ig1": 0,
                "vg2": null,
                "ig2": 0,
                "ik": 0
            }, {
                "va": 173.54430379746836,
                "vg1": -8,
                "ig1": 0,
                "vg2": null,
                "ig2": 0,
                "ik": 0.0000583232077764277
            }, {
                "va": 188.73417721518987,
                "vg1": -8,
                "ig1": 0,
                "vg2": null,
                "ig2": 0,
                "ik": 0.0008554070473876063
            }, {
                "va": 205.25316455696202,
                "vg1": -8,
                "ig1": 0,
                "vg2": null,
                "ig2": 0,
                "ik": 0.002177399756986634
            }, {
                "va": 220.44303797468353,
                "vg1": -8,
                "ig1": 0,
                "vg2": null,
                "ig2": 0,
                "ik": 0.0035188335358444715
            }, {
                "va": 231.0759493670886,
                "vg1": -8,
                "ig1": 0,
                "vg2": null,
                "ig2": 0,
                "ik": 0.004685297691373025
            }],
            "vg1": -8
        }, {
            "p": [{
                "va": 0,
                "vg1": -7,
                "ig1": 0,
                "vg2": null,
                "ig2": 0,
                "ik": 0
            }, {
                "va": 152.65822784810126,
                "vg1": -7,
                "ig1": 0,
                "vg2": null,
                "ig2": 0,
                "ik": 0.00009720534629404617
            }, {
                "va": 166.51898734177215,
                "vg1": -7,
                "ig1": 0,
                "vg2": null,
                "ig2": 0,
                "ik": 0.0007776427703523694
            }, {
                "va": 176.77215189873417,
                "vg1": -7,
                "ig1": 0,
                "vg2": null,
                "ig2": 0,
                "ik": 0.0015552855407047388
            }, {
                "va": 189.1139240506329,
                "vg1": -7,
                "ig1": 0,
                "vg2": null,
                "ig2": 0,
                "ik": 0.0027217496962332927
            }, {
                "va": 200.8860759493671,
                "vg1": -7,
                "ig1": 0,
                "vg2": null,
                "ig2": 0,
                "ik": 0.00404374240583232
            }, {
                "va": 218.54430379746836,
                "vg1": -7,
                "ig1": 0,
                "vg2": null,
                "ig2": 0,
                "ik": 0.005890643985419198
            }],
            "vg1": -7
        }, {
            "p": [{
                "va": 0,
                "vg1": -6,
                "ig1": 0,
                "vg2": null,
                "ig2": 0,
                "ik": 0
            }, {
                "va": 128.73417721518987,
                "vg1": -6,
                "ig1": 0,
                "vg2": null,
                "ig2": 0,
                "ik": 0.0001166464155528554
            }, {
                "va": 142.0253164556962,
                "vg1": -6,
                "ig1": 0,
                "vg2": null,
                "ig2": 0,
                "ik": 0.0006221142162818955
            }, {
                "va": 158.9240506329114,
                "vg1": -6,
                "ig1": 0,
                "vg2": null,
                "ig2": 0,
                "ik": 0.0017108140947752126
            }, {
                "va": 171.0759493670886,
                "vg1": -6,
                "ig1": 0,
                "vg2": null,
                "ig2": 0,
                "ik": 0.0028578371810449575
            }, {
                "va": 184.55696202531647,
                "vg1": -6,
                "ig1": 0,
                "vg2": null,
                "ig2": 0,
                "ik": 0.0046658566221142155
            }, {
                "va": 200.50632911392404,
                "vg1": -6,
                "ig1": 0,
                "vg2": null,
                "ig2": 0,
                "ik": 0.007659781287970838
            }],
            "vg1": -6
        }, {
            "p": [{
                "va": 0,
                "vg1": -5,
                "ig1": 0,
                "vg2": null,
                "ig2": 0,
                "ik": 0
            }, {
                "va": 111.64556962025317,
                "vg1": -5,
                "ig1": 0,
                "vg2": null,
                "ig2": 0,
                "ik": 0.00009720534629404617
            }, {
                "va": 128.35443037974684,
                "vg1": -5,
                "ig1": 0,
                "vg2": null,
                "ig2": 0,
                "ik": 0.0009526123936816525
            }, {
                "va": 143.73417721518987,
                "vg1": -5,
                "ig1": 0,
                "vg2": null,
                "ig2": 0,
                "ik": 0.0020413122721749696
            }, {
                "va": 158.9240506329114,
                "vg1": -5,
                "ig1": 0,
                "vg2": null,
                "ig2": 0,
                "ik": 0.0037910085054678007
            }, {
                "va": 182.46835443037975,
                "vg1": -5,
                "ig1": 0,
                "vg2": null,
                "ig2": 0,
                "ik": 0.007893074119076549
            }],
            "vg1": -5
        }, {
            "p": [{
                "va": 0,
                "vg1": -4,
                "ig1": 0,
                "vg2": null,
                "ig2": 0,
                "ik": 0
            }, {
                "va": 89.24050632911393,
                "vg1": -4,
                "ig1": 0,
                "vg2": null,
                "ig2": 0,
                "ik": 0.0001166464155528554
            }, {
                "va": 108.79746835443038,
                "vg1": -4,
                "ig1": 0,
                "vg2": null,
                "ig2": 0,
                "ik": 0.0009137302551640341
            }, {
                "va": 124.55696202531645,
                "vg1": -4,
                "ig1": 0,
                "vg2": null,
                "ig2": 0,
                "ik": 0.002157958687727825
            }, {
                "va": 138.22784810126583,
                "vg1": -4,
                "ig1": 0,
                "vg2": null,
                "ig2": 0,
                "ik": 0.0038882138517618466
            }, {
                "va": 148.67088607594937,
                "vg1": -4,
                "ig1": 0,
                "vg2": null,
                "ig2": 0,
                "ik": 0.0059878493317132445
            }, {
                "va": 162.72151898734177,
                "vg1": -4,
                "ig1": 0,
                "vg2": null,
                "ig2": 0,
                "ik": 0.009078979343863912
            }],
            "vg1": -4
        }, {
            "p": [{
                "va": 0,
                "vg1": -3,
                "ig1": 0,
                "vg2": null,
                "ig2": 0,
                "ik": 0
            }, {
                "va": 62.278481012658226,
                "vg1": -3,
                "ig1": 0,
                "vg2": null,
                "ig2": 0,
                "ik": 0.00009720534629404617
            }, {
                "va": 79.55696202531645,
                "vg1": -3,
                "ig1": 0,
                "vg2": null,
                "ig2": 0,
                "ik": 0.0006026731470230863
            }, {
                "va": 98.54430379746836,
                "vg1": -3,
                "ig1": 0,
                "vg2": null,
                "ig2": 0,
                "ik": 0.001905224787363305
            }, {
                "va": 119.05063291139241,
                "vg1": -3,
                "ig1": 0,
                "vg2": null,
                "ig2": 0,
                "ik": 0.004879708383961118
            }, {
                "va": 139.1772151898734,
                "vg1": -3,
                "ig1": 0,
                "vg2": null,
                "ig2": 0,
                "ik": 0.009253948967193197
            }],
            "vg1": -3
        }, {
            "p": [{
                "va": 0,
                "vg1": -2,
                "ig1": 0,
                "vg2": null,
                "ig2": 0,
                "ik": 0
            }, {
                "va": 44.81012658227848,
                "vg1": -2,
                "ig1": 0,
                "vg2": null,
                "ig2": 0,
                "ik": 0.00013608748481166462
            }, {
                "va": 68.35443037974683,
                "vg1": -2,
                "ig1": 0,
                "vg2": null,
                "ig2": 0,
                "ik": 0.0013608748481166463
            }, {
                "va": 88.29113924050633,
                "vg1": -2,
                "ig1": 0,
                "vg2": null,
                "ig2": 0,
                "ik": 0.004004860267314702
            }, {
                "va": 107.84810126582279,
                "vg1": -2,
                "ig1": 0,
                "vg2": null,
                "ig2": 0,
                "ik": 0.008223572296476305
            }, {
                "va": 119.24050632911393,
                "vg1": -2,
                "ig1": 0,
                "vg2": null,
                "ig2": 0,
                "ik": 0.01090643985419198
            }],
            "vg1": -2
        }, {
            "p": [{
                "va": 0,
                "vg1": -1,
                "ig1": 0,
                "vg2": null,
                "ig2": 0,
                "ik": 0
            }, {
                "va": 19.746835443037973,
                "vg1": -1,
                "ig1": 0,
                "vg2": null,
                "ig2": 0,
                "ik": 0.00015552855407047387
            }, {
                "va": 35.50632911392405,
                "vg1": -1,
                "ig1": 0,
                "vg2": null,
                "ig2": 0,
                "ik": 0.0009331713244228432
            }, {
                "va": 48.607594936708864,
                "vg1": -1,
                "ig1": 0,
                "vg2": null,
                "ig2": 0,
                "ik": 0.002002430133657351
            }, {
                "va": 60.949367088607595,
                "vg1": -1,
                "ig1": 0,
                "vg2": null,
                "ig2": 0,
                "ik": 0.0036938031591737547
            }, {
                "va": 77.27848101265823,
                "vg1": -1,
                "ig1": 0,
                "vg2": null,
                "ig2": 0,
                "ik": 0.006940461725394897
            }, {
                "va": 99.30379746835443,
                "vg1": -1,
                "ig1": 0,
                "vg2": null,
                "ig2": 0,
                "ik": 0.011859052247873633
            }],
            "vg1": -1
        }, {
            "p": [{
                "va": 0,
                "vg1": 0,
                "ig1": 0,
                "vg2": null,
                "ig2": 0,
                "ik": 0
            }, {
                "va": 0.569620253164557,
                "vg1": 0,
                "ig1": 0,
                "vg2": null,
                "ig2": 0,
                "ik": 0.0002332928311057108
            }, {
                "va": 15,
                "vg1": 0,
                "ig1": 0,
                "vg2": null,
                "ig2": 0,
                "ik": 0.0010303766707168893
            }, {
                "va": 26.012658227848103,
                "vg1": 0,
                "ig1": 0,
                "vg2": null,
                "ig2": 0,
                "ik": 0.001982989064398542
            }, {
                "va": 39.49367088607595,
                "vg1": 0,
                "ig1": 0,
                "vg2": null,
                "ig2": 0,
                "ik": 0.003985419198055893
            }, {
                "va": 57.91139240506329,
                "vg1": 0,
                "ig1": 0,
                "vg2": null,
                "ig2": 0,
                "ik": 0.007931956257594169
            }, {
                "va": 79.17721518987342,
                "vg1": 0,
                "ig1": 0,
                "vg2": null,
                "ig2": 0,
                "ik": 0.012908869987849332
            }],
            "vg1": 0
        }, {
            "p": [{
                "va": 0,
                "vg1": 1,
                "ig1": 0,
                "vg2": null,
                "ig2": 0,
                "ik": 0
            }, {
                "va": 0.189873417721519,
                "vg1": 1,
                "ig1": 0,
                "vg2": null,
                "ig2": 0,
                "ik": 0.00034993924665856625
            }, {
                "va": 4.936708860759493,
                "vg1": 1,
                "ig1": 0,
                "vg2": null,
                "ig2": 0,
                "ik": 0.001982989064398542
            }, {
                "va": 14.050632911392405,
                "vg1": 1,
                "ig1": 0,
                "vg2": null,
                "ig2": 0,
                "ik": 0.00406318347509113
            }, {
                "va": 28.29113924050633,
                "vg1": 1,
                "ig1": 0,
                "vg2": null,
                "ig2": 0,
                "ik": 0.007076549210206561
            }, {
                "va": 48.9873417721519,
                "vg1": 1,
                "ig1": 0,
                "vg2": null,
                "ig2": 0,
                "ik": 0.011859052247873633
            }, {
                "va": 63.22784810126582,
                "vg1": 1,
                "ig1": 0,
                "vg2": null,
                "ig2": 0,
                "ik": 0.014911300121506682
            }],
            "vg1": 1
        }, {
            "p": [{
                "va": 0,
                "vg1": 2,
                "ig1": 0,
                "vg2": null,
                "ig2": 0,
                "ik": 0
            }, {
                "va": 1.7088607594936709,
                "vg1": 2,
                "ig1": 0,
                "vg2": null,
                "ig2": 0,
                "ik": 0.003071688942891859
            }, {
                "va": 6.8354430379746836,
                "vg1": 2,
                "ig1": 0,
                "vg2": null,
                "ig2": 0,
                "ik": 0.005890643985419198
            }, {
                "va": 17.088607594936708,
                "vg1": 2,
                "ig1": 0,
                "vg2": null,
                "ig2": 0,
                "ik": 0.008942891859052247
            }, {
                "va": 38.924050632911396,
                "vg1": 2,
                "ig1": 0,
                "vg2": null,
                "ig2": 0,
                "ik": 0.015066828675577156
            }],
            "vg1": 2
        }],
        "vg2": null,
        "logX": false,
        "logY": false,
        "name": "6N16B_1",
        "raw": false,
        "unit": null,
        "triode": false
    }
}
