{
    "filename": "6n6p_tek.json",
    "tubeGraph": {
        "c": [{
            "p": [{
                "va": 0,
                "vg1": -18,
                "ig1": 0,
                "vg2": null,
                "ig2": 0,
                "ik": 0
            }, {
                "va": 252.03252032520325,
                "vg1": -18,
                "ig1": 0,
                "vg2": null,
                "ig2": 0,
                "ik": 0.0005238649592549476
            }, {
                "va": 293.8443670150987,
                "vg1": -18,
                "ig1": 0,
                "vg2": null,
                "ig2": 0,
                "ik": 0.0020954598370197903
            }, {
                "va": 325.7839721254355,
                "vg1": -18,
                "ig1": 0,
                "vg2": null,
                "ig2": 0,
                "ik": 0.005122235157159488
            }, {
                "va": 355.98141695702674,
                "vg1": -18,
                "ig1": 0,
                "vg2": null,
                "ig2": 0,
                "ik": 0.010186263096623982
            }, {
                "va": 408.24622531939605,
                "vg1": -18,
                "ig1": 0,
                "vg2": null,
                "ig2": 0,
                "ik": 0.024970896391152506
            }, {
                "va": 465.73751451800234,
                "vg1": -18,
                "ig1": 0,
                "vg2": null,
                "ig2": 0,
                "ik": 0.04976717112922002
            }],
            "vg1": -18
        }, {
            "p": [{
                "va": 0,
                "vg1": -16,
                "ig1": 0,
                "vg2": null,
                "ig2": 0,
                "ik": 0
            }, {
                "va": 238.67595818815332,
                "vg1": -16,
                "ig1": 0,
                "vg2": null,
                "ig2": 0,
                "ik": 0.0008731082654249127
            }, {
                "va": 294.42508710801394,
                "vg1": -16,
                "ig1": 0,
                "vg2": null,
                "ig2": 0,
                "ik": 0.0050058207217694994
            }, {
                "va": 324.0418118466899,
                "vg1": -16,
                "ig1": 0,
                "vg2": null,
                "ig2": 0,
                "ik": 0.010128055878928987
            }, {
                "va": 375.1451800232288,
                "vg1": -16,
                "ig1": 0,
                "vg2": null,
                "ig2": 0,
                "ik": 0.024970896391152506
            }, {
                "va": 429.15214866434377,
                "vg1": -16,
                "ig1": 0,
                "vg2": null,
                "ig2": 0,
                "ik": 0.04976717112922002
            }],
            "vg1": -16
        }, {
            "p": [{
                "va": 0,
                "vg1": -14,
                "ig1": 0,
                "vg2": null,
                "ig2": 0,
                "ik": 0
            }, {
                "va": 209.63995354239256,
                "vg1": -14,
                "ig1": 0,
                "vg2": null,
                "ig2": 0,
                "ik": 0.0009313154831199069
            }, {
                "va": 261.3240418118467,
                "vg1": -14,
                "ig1": 0,
                "vg2": null,
                "ig2": 0,
                "ik": 0.0050058207217694994
            }, {
                "va": 288.6178861788618,
                "vg1": -14,
                "ig1": 0,
                "vg2": null,
                "ig2": 0,
                "ik": 0.010128055878928987
            }, {
                "va": 336.8176538908246,
                "vg1": -14,
                "ig1": 0,
                "vg2": null,
                "ig2": 0,
                "ik": 0.025145518044237487
            }, {
                "va": 389.08246225319397,
                "vg1": -14,
                "ig1": 0,
                "vg2": null,
                "ig2": 0,
                "ik": 0.04959254947613504
            }],
            "vg1": -14
        }, {
            "p": [{
                "va": 0,
                "vg1": -12,
                "ig1": 0,
                "vg2": null,
                "ig2": 0,
                "ik": 0
            }, {
                "va": 185.83042973286877,
                "vg1": -12,
                "ig1": 0,
                "vg2": null,
                "ig2": 0,
                "ik": 0.000989522700814901
            }, {
                "va": 231.12659698025553,
                "vg1": -12,
                "ig1": 0,
                "vg2": null,
                "ig2": 0,
                "ik": 0.005180442374854482
            }, {
                "va": 257.2590011614402,
                "vg1": -12,
                "ig1": 0,
                "vg2": null,
                "ig2": 0,
                "ik": 0.010069848661233992
            }, {
                "va": 302.55516840882694,
                "vg1": -12,
                "ig1": 0,
                "vg2": null,
                "ig2": 0,
                "ik": 0.02520372526193248
            }, {
                "va": 351.91637630662024,
                "vg1": -12,
                "ig1": 0,
                "vg2": null,
                "ig2": 0,
                "ik": 0.04941792782305006
            }],
            "vg1": -12
        }, {
            "p": [{
                "va": 0,
                "vg1": -10,
                "ig1": 0,
                "vg2": null,
                "ig2": 0,
                "ik": 0
            }, {
                "va": 148.664343786295,
                "vg1": -10,
                "ig1": 0,
                "vg2": null,
                "ig2": 0,
                "ik": 0.0007566938300349243
            }, {
                "va": 199.1869918699187,
                "vg1": -10,
                "ig1": 0,
                "vg2": null,
                "ig2": 0,
                "ik": 0.005355064027939465
            }, {
                "va": 237.5145180023229,
                "vg1": -10,
                "ig1": 0,
                "vg2": null,
                "ig2": 0,
                "ik": 0.015017462165308498
            }, {
                "va": 263.06620209059236,
                "vg1": -10,
                "ig1": 0,
                "vg2": null,
                "ig2": 0,
                "ik": 0.025087310826542492
            }, {
                "va": 312.4274099883856,
                "vg1": -10,
                "ig1": 0,
                "vg2": null,
                "ig2": 0,
                "ik": 0.04965075669383003
            }],
            "vg1": -10
        }, {
            "p": [{
                "va": 0,
                "vg1": -8,
                "ig1": 0,
                "vg2": null,
                "ig2": 0,
                "ik": 0
            }, {
                "va": 123.11265969802555,
                "vg1": -8,
                "ig1": 0,
                "vg2": null,
                "ig2": 0,
                "ik": 0.0009313154831199069
            }, {
                "va": 166.66666666666666,
                "vg1": -8,
                "ig1": 0,
                "vg2": null,
                "ig2": 0,
                "ik": 0.005122235157159488
            }, {
                "va": 204.99419279907085,
                "vg1": -8,
                "ig1": 0,
                "vg2": null,
                "ig2": 0,
                "ik": 0.015133876600698487
            }, {
                "va": 229.9651567944251,
                "vg1": -8,
                "ig1": 0,
                "vg2": null,
                "ig2": 0,
                "ik": 0.024912689173457507
            }, {
                "va": 274.68060394889665,
                "vg1": -8,
                "ig1": 0,
                "vg2": null,
                "ig2": 0,
                "ik": 0.04965075669383003
            }],
            "vg1": -8
        }, {
            "p": [{
                "va": 0,
                "vg1": -6,
                "ig1": 0,
                "vg2": null,
                "ig2": 0,
                "ik": 0
            }, {
                "va": 94.65737514518003,
                "vg1": -6,
                "ig1": 0,
                "vg2": null,
                "ig2": 0,
                "ik": 0.0007566938300349243
            }, {
                "va": 131.24274099883857,
                "vg1": -6,
                "ig1": 0,
                "vg2": null,
                "ig2": 0,
                "ik": 0.005180442374854482
            }, {
                "va": 166.08594657375144,
                "vg1": -6,
                "ig1": 0,
                "vg2": null,
                "ig2": 0,
                "ik": 0.015017462165308498
            }, {
                "va": 188.73403019744484,
                "vg1": -6,
                "ig1": 0,
                "vg2": null,
                "ig2": 0,
                "ik": 0.024912689173457507
            }, {
                "va": 232.86875725900117,
                "vg1": -6,
                "ig1": 0,
                "vg2": null,
                "ig2": 0,
                "ik": 0.04947613504074506
            }],
            "vg1": -6
        }, {
            "p": [{
                "va": 0,
                "vg1": -4,
                "ig1": 0,
                "vg2": null,
                "ig2": 0,
                "ik": 0
            }, {
                "va": 73.17073170731707,
                "vg1": -4,
                "ig1": 0,
                "vg2": null,
                "ig2": 0,
                "ik": 0.0013387660069848662
            }, {
                "va": 117.88617886178862,
                "vg1": -4,
                "ig1": 0,
                "vg2": null,
                "ig2": 0,
                "ik": 0.010069848661233992
            }, {
                "va": 152.7293844367015,
                "vg1": -4,
                "ig1": 0,
                "vg2": null,
                "ig2": 0,
                "ik": 0.025087310826542492
            }, {
                "va": 194.54123112659698,
                "vg1": -4,
                "ig1": 0,
                "vg2": null,
                "ig2": 0,
                "ik": 0.04959254947613504
            }],
            "vg1": -4
        }, {
            "p": [{
                "va": 0,
                "vg1": -2,
                "ig1": 0,
                "vg2": null,
                "ig2": 0,
                "ik": 0
            }, {
                "va": 47.038327526132406,
                "vg1": -2,
                "ig1": 0,
                "vg2": null,
                "ig2": 0,
                "ik": 0.001979045401629802
            }, {
                "va": 78.397212543554,
                "vg1": -2,
                "ig1": 0,
                "vg2": null,
                "ig2": 0,
                "ik": 0.010069848661233992
            }, {
                "va": 110.91753774680605,
                "vg1": -2,
                "ig1": 0,
                "vg2": null,
                "ig2": 0,
                "ik": 0.025087310826542492
            }, {
                "va": 150.98722415795586,
                "vg1": -2,
                "ig1": 0,
                "vg2": null,
                "ig2": 0,
                "ik": 0.04959254947613504
            }],
            "vg1": -2
        }, {
            "p": [{
                "va": 0,
                "vg1": 0,
                "ig1": 0,
                "vg2": null,
                "ig2": 0,
                "ik": 0
            }, {
                "va": 19.744483159117305,
                "vg1": 0,
                "ig1": 0,
                "vg2": null,
                "ig2": 0,
                "ik": 0.0022118742724097787
            }, {
                "va": 42.39256678281068,
                "vg1": 0,
                "ig1": 0,
                "vg2": null,
                "ig2": 0,
                "ik": 0.010069848661233992
            }, {
                "va": 72.00929152148665,
                "vg1": 0,
                "ig1": 0,
                "vg2": null,
                "ig2": 0,
                "ik": 0.025029103608847497
            }, {
                "va": 110.91753774680605,
                "vg1": 0,
                "ig1": 0,
                "vg2": null,
                "ig2": 0,
                "ik": 0.04965075669383003
            }],
            "vg1": 0
        }],
        "vg2": null,
        "logX": false,
        "logY": false,
        "name": "6N6P_TEK",
        "raw": false,
        "unit": null,
        "triode": false
    }
}
