{
    "filename": "6p15p_el83 triode.json",
    "tubeGraph": {
        "c": [{
            "p": [{
                "va": 0,
                "vg1": -10,
                "ig1": 0,
                "vg2": null,
                "ig2": 0,
                "ik": 0
            }, {
                "va": 184.10852713178295,
                "vg1": -10,
                "ig1": 0,
                "vg2": null,
                "ig2": 0,
                "ik": 0.00033287101248266295
            }, {
                "va": 199.6124031007752,
                "vg1": -10,
                "ig1": 0,
                "vg2": null,
                "ig2": 0,
                "ik": 0.001206657420249653
            }, {
                "va": 224.80620155038758,
                "vg1": -10,
                "ig1": 0,
                "vg2": null,
                "ig2": 0,
                "ik": 0.004535367545076283
            }, {
                "va": 249.03100775193798,
                "vg1": -10,
                "ig1": 0,
                "vg2": null,
                "ig2": 0,
                "ik": 0.010235783633841885
            }],
            "vg1": -10
        }, {
            "p": [{
                "va": 0,
                "vg1": -9,
                "ig1": 0,
                "vg2": null,
                "ig2": 0,
                "ik": 0
            }, {
                "va": 165.37467700258398,
                "vg1": -9,
                "ig1": 0,
                "vg2": null,
                "ig2": 0,
                "ik": 0.00033287101248266295
            }, {
                "va": 182.81653746770024,
                "vg1": -9,
                "ig1": 0,
                "vg2": null,
                "ig2": 0,
                "ik": 0.0013314840499306518
            }, {
                "va": 197.67441860465115,
                "vg1": -9,
                "ig1": 0,
                "vg2": null,
                "ig2": 0,
                "ik": 0.003162274618585298
            }, {
                "va": 218.02325581395348,
                "vg1": -9,
                "ig1": 0,
                "vg2": null,
                "ig2": 0,
                "ik": 0.007572815533980582
            }, {
                "va": 243.86304909560724,
                "vg1": -9,
                "ig1": 0,
                "vg2": null,
                "ig2": 0,
                "ik": 0.015145631067961164
            }],
            "vg1": -9
        }, {
            "p": [{
                "va": 0,
                "vg1": -8,
                "ig1": 0,
                "vg2": null,
                "ig2": 0,
                "ik": 0
            }, {
                "va": 148.9018087855297,
                "vg1": -8,
                "ig1": 0,
                "vg2": null,
                "ig2": 0,
                "ik": 0.0004160887656033287
            }, {
                "va": 171.51162790697674,
                "vg1": -8,
                "ig1": 0,
                "vg2": null,
                "ig2": 0,
                "ik": 0.002163661581137309
            }, {
                "va": 187.66149870801033,
                "vg1": -8,
                "ig1": 0,
                "vg2": null,
                "ig2": 0,
                "ik": 0.005034674063800277
            }, {
                "va": 206.3953488372093,
                "vg1": -8,
                "ig1": 0,
                "vg2": null,
                "ig2": 0,
                "ik": 0.009986130374479887
            }, {
                "va": 228.0361757105943,
                "vg1": -8,
                "ig1": 0,
                "vg2": null,
                "ig2": 0,
                "ik": 0.01793342579750347
            }],
            "vg1": -8
        }, {
            "p": [{
                "va": 0,
                "vg1": -7,
                "ig1": 0,
                "vg2": null,
                "ig2": 0,
                "ik": 0
            }, {
                "va": 131.45994832041345,
                "vg1": -7,
                "ig1": 0,
                "vg2": null,
                "ig2": 0,
                "ik": 0.00037447988904299584
            }, {
                "va": 149.54780361757105,
                "vg1": -7,
                "ig1": 0,
                "vg2": null,
                "ig2": 0,
                "ik": 0.0017891816920943134
            }, {
                "va": 168.28165374677002,
                "vg1": -7,
                "ig1": 0,
                "vg2": null,
                "ig2": 0,
                "ik": 0.005076282940360609
            }, {
                "va": 193.15245478036175,
                "vg1": -7,
                "ig1": 0,
                "vg2": null,
                "ig2": 0,
                "ik": 0.012524271844660192
            }, {
                "va": 216.7312661498708,
                "vg1": -7,
                "ig1": 0,
                "vg2": null,
                "ig2": 0,
                "ik": 0.021719833564493758
            }],
            "vg1": -7
        }, {
            "p": [{
                "va": 0,
                "vg1": -6,
                "ig1": 0,
                "vg2": null,
                "ig2": 0,
                "ik": 0
            }, {
                "va": 114.66408268733849,
                "vg1": -6,
                "ig1": 0,
                "vg2": null,
                "ig2": 0,
                "ik": 0.00037447988904299584
            }, {
                "va": 135.3359173126615,
                "vg1": -6,
                "ig1": 0,
                "vg2": null,
                "ig2": 0,
                "ik": 0.0025381414701803047
            }, {
                "va": 149.2248062015504,
                "vg1": -6,
                "ig1": 0,
                "vg2": null,
                "ig2": 0,
                "ik": 0.005201109570041608
            }, {
                "va": 172.80361757105942,
                "vg1": -6,
                "ig1": 0,
                "vg2": null,
                "ig2": 0,
                "ik": 0.012565880721220528
            }, {
                "va": 202.19638242894055,
                "vg1": -6,
                "ig1": 0,
                "vg2": null,
                "ig2": 0,
                "ik": 0.025339805825242718
            }],
            "vg1": -6
        }, {
            "p": [{
                "va": 0,
                "vg1": -5,
                "ig1": 0,
                "vg2": null,
                "ig2": 0,
                "ik": 0
            }, {
                "va": 92.05426356589147,
                "vg1": -5,
                "ig1": 0,
                "vg2": null,
                "ig2": 0,
                "ik": 0.00016643550624133148
            }, {
                "va": 115.63307493540051,
                "vg1": -5,
                "ig1": 0,
                "vg2": null,
                "ig2": 0,
                "ik": 0.0025381414701803047
            }, {
                "va": 136.95090439276484,
                "vg1": -5,
                "ig1": 0,
                "vg2": null,
                "ig2": 0,
                "ik": 0.007447988904299583
            }, {
                "va": 158.2687338501292,
                "vg1": -5,
                "ig1": 0,
                "vg2": null,
                "ig2": 0,
                "ik": 0.014979195561719833
            }, {
                "va": 183.4625322997416,
                "vg1": -5,
                "ig1": 0,
                "vg2": null,
                "ig2": 0,
                "ik": 0.026380027739251036
            }],
            "vg1": -5
        }, {
            "p": [{
                "va": 0,
                "vg1": -4,
                "ig1": 0,
                "vg2": null,
                "ig2": 0,
                "ik": 0
            }, {
                "va": 74.93540051679587,
                "vg1": -4,
                "ig1": 0,
                "vg2": null,
                "ig2": 0,
                "ik": 0.00033287101248266295
            }, {
                "va": 96.2532299741602,
                "vg1": -4,
                "ig1": 0,
                "vg2": null,
                "ig2": 0,
                "ik": 0.002454923717059639
            }, {
                "va": 117.24806201550388,
                "vg1": -4,
                "ig1": 0,
                "vg2": null,
                "ig2": 0,
                "ik": 0.007572815533980582
            }, {
                "va": 136.95090439276484,
                "vg1": -4,
                "ig1": 0,
                "vg2": null,
                "ig2": 0,
                "ik": 0.0149375866851595
            }, {
                "va": 163.43669250645993,
                "vg1": -4,
                "ig1": 0,
                "vg2": null,
                "ig2": 0,
                "ik": 0.027337031900138694
            }],
            "vg1": -4
        }, {
            "p": [{
                "va": 0,
                "vg1": -3,
                "ig1": 0,
                "vg2": null,
                "ig2": 0,
                "ik": 0
            }, {
                "va": 59.75452196382429,
                "vg1": -3,
                "ig1": 0,
                "vg2": null,
                "ig2": 0,
                "ik": 0.00037447988904299584
            }, {
                "va": 88.50129198966408,
                "vg1": -3,
                "ig1": 0,
                "vg2": null,
                "ig2": 0,
                "ik": 0.005034674063800277
            }, {
                "va": 110.14211886304909,
                "vg1": -3,
                "ig1": 0,
                "vg2": null,
                "ig2": 0,
                "ik": 0.012441054091539528
            }, {
                "va": 138.5658914728682,
                "vg1": -3,
                "ig1": 0,
                "vg2": null,
                "ig2": 0,
                "ik": 0.02579750346740638
            }],
            "vg1": -3
        }, {
            "p": [{
                "va": 0,
                "vg1": -2,
                "ig1": 0,
                "vg2": null,
                "ig2": 0,
                "ik": 0
            }, {
                "va": 41.666666666666664,
                "vg1": -2,
                "ig1": 0,
                "vg2": null,
                "ig2": 0,
                "ik": 0.00029126213592233006
            }, {
                "va": 67.50645994832041,
                "vg1": -2,
                "ig1": 0,
                "vg2": null,
                "ig2": 0,
                "ik": 0.005034674063800277
            }, {
                "va": 88.82428940568475,
                "vg1": -2,
                "ig1": 0,
                "vg2": null,
                "ig2": 0,
                "ik": 0.012482662968099861
            }, {
                "va": 118.86304909560724,
                "vg1": -2,
                "ig1": 0,
                "vg2": null,
                "ig2": 0,
                "ik": 0.026837725381414698
            }],
            "vg1": -2
        }, {
            "p": [{
                "va": 0,
                "vg1": -1,
                "ig1": 0,
                "vg2": null,
                "ig2": 0,
                "ik": 0
            }, {
                "va": 24.54780361757106,
                "vg1": -1,
                "ig1": 0,
                "vg2": null,
                "ig2": 0,
                "ik": 0.00045769764216366157
            }, {
                "va": 46.83462532299742,
                "vg1": -1,
                "ig1": 0,
                "vg2": null,
                "ig2": 0,
                "ik": 0.004951456310679611
            }, {
                "va": 66.86046511627907,
                "vg1": -1,
                "ig1": 0,
                "vg2": null,
                "ig2": 0,
                "ik": 0.012441054091539528
            }, {
                "va": 97.86821705426357,
                "vg1": -1,
                "ig1": 0,
                "vg2": null,
                "ig2": 0,
                "ik": 0.027337031900138694
            }],
            "vg1": -1
        }, {
            "p": [{
                "va": 0,
                "vg1": 0,
                "ig1": 0,
                "vg2": null,
                "ig2": 0,
                "ik": 0
            }, {
                "va": 23.901808785529717,
                "vg1": 0,
                "ig1": 0,
                "vg2": null,
                "ig2": 0,
                "ik": 0.0030790568654646324
            }, {
                "va": 50.064599483204134,
                "vg1": 0,
                "ig1": 0,
                "vg2": null,
                "ig2": 0,
                "ik": 0.012857142857142855
            }, {
                "va": 77.51937984496124,
                "vg1": 0,
                "ig1": 0,
                "vg2": null,
                "ig2": 0,
                "ik": 0.026712898751733702
            }],
            "vg1": 0
        }],
        "vg2": null,
        "logX": false,
        "logY": false,
        "name": "6p15p_el83 triode",
        "raw": false,
        "unit": null,
        "triode": true
    }
}
