{
    "filename": "6p18p vg2=210v graph extended.json",
    "tubeGraph": {
        "c": [{
            "p": [{
                "va": 0,
                "vg1": -12,
                "ig1": 0,
                "vg2": 210,
                "ig2": 0,
                "ik": 0
            }, {
                "va": 14.224137931034484,
                "vg1": -12,
                "ig1": 0,
                "vg2": 210,
                "ig2": 0,
                "ik": 0.004382470119521912
            }, {
                "va": 33.189655172413794,
                "vg1": -12,
                "ig1": 0,
                "vg2": 210,
                "ig2": 0,
                "ik": 0.01789508632138114
            }, {
                "va": 67.24137931034483,
                "vg1": -12,
                "ig1": 0,
                "vg2": 210,
                "ig2": 0,
                "ik": 0.02592961487383798
            }, {
                "va": 182.11206896551727,
                "vg1": -12,
                "ig1": 0,
                "vg2": 210,
                "ig2": 0,
                "ik": 0.028851261620185923
            }, {
                "va": 398.7068965517242,
                "vg1": -12,
                "ig1": 0,
                "vg2": 210,
                "ig2": 0,
                "ik": 0.030312084993359894
            }],
            "vg1": -12
        }, {
            "p": [{
                "va": 0,
                "vg1": -10,
                "ig1": 0,
                "vg2": 210,
                "ig2": 0,
                "ik": 0
            }, {
                "va": 12.715517241379311,
                "vg1": -10,
                "ig1": 0,
                "vg2": 210,
                "ig2": 0,
                "ik": 0.0073041168658698535
            }, {
                "va": 22.198275862068968,
                "vg1": -10,
                "ig1": 0,
                "vg2": 210,
                "ig2": 0,
                "ik": 0.02739043824701195
            }, {
                "va": 59.26724137931035,
                "vg1": -10,
                "ig1": 0,
                "vg2": 210,
                "ig2": 0,
                "ik": 0.043459495351925635
            }, {
                "va": 184.26724137931035,
                "vg1": -10,
                "ig1": 0,
                "vg2": 210,
                "ig2": 0,
                "ik": 0.051494023904382465
            }, {
                "va": 397.4137931034483,
                "vg1": -10,
                "ig1": 0,
                "vg2": 210,
                "ig2": 0,
                "ik": 0.05587649402390438
            }],
            "vg1": -10
        }, {
            "p": [{
                "va": 0,
                "vg1": -8,
                "ig1": 0,
                "vg2": 210,
                "ig2": 0,
                "ik": 0
            }, {
                "va": 14.655172413793105,
                "vg1": -8,
                "ig1": 0,
                "vg2": 210,
                "ig2": 0,
                "ik": 0.013877822045152723
            }, {
                "va": 23.70689655172414,
                "vg1": -8,
                "ig1": 0,
                "vg2": 210,
                "ig2": 0,
                "ik": 0.04455511288180611
            }, {
                "va": 51.508620689655174,
                "vg1": -8,
                "ig1": 0,
                "vg2": 210,
                "ig2": 0,
                "ik": 0.06537184594953518
            }, {
                "va": 120.47413793103449,
                "vg1": -8,
                "ig1": 0,
                "vg2": 210,
                "ig2": 0,
                "ik": 0.07815405046480745
            }, {
                "va": 398.0603448275862,
                "vg1": -8,
                "ig1": 0,
                "vg2": 210,
                "ig2": 0,
                "ik": 0.0902058432934927
            }],
            "vg1": -8
        }, {
            "p": [{
                "va": 0,
                "vg1": -6,
                "ig1": 0,
                "vg2": 210,
                "ig2": 0,
                "ik": 0
            }, {
                "va": 15.948275862068966,
                "vg1": -6,
                "ig1": 0,
                "vg2": 210,
                "ig2": 0,
                "ik": 0.020451527224435592
            }, {
                "va": 31.896551724137932,
                "vg1": -6,
                "ig1": 0,
                "vg2": 210,
                "ig2": 0,
                "ik": 0.07377158034528553
            }, {
                "va": 76.07758620689656,
                "vg1": -6,
                "ig1": 0,
                "vg2": 210,
                "ig2": 0,
                "ik": 0.10371845949535193
            }, {
                "va": 128.01724137931035,
                "vg1": -6,
                "ig1": 0,
                "vg2": 210,
                "ig2": 0,
                "ik": 0.11029216467463479
            }, {
                "va": 178.01724137931035,
                "vg1": -6,
                "ig1": 0,
                "vg2": 210,
                "ig2": 0,
                "ik": 0.11430942895086321
            }, {
                "va": 398.0603448275862,
                "vg1": -6,
                "ig1": 0,
                "vg2": 210,
                "ig2": 0,
                "ik": 0.12782204515272244
            }],
            "vg1": -6
        }, {
            "p": [{
                "va": 0,
                "vg1": -4,
                "ig1": 0,
                "vg2": 210,
                "ig2": 0,
                "ik": 0
            }, {
                "va": 14.439655172413794,
                "vg1": -4,
                "ig1": 0,
                "vg2": 210,
                "ig2": 0,
                "ik": 0.017529880478087647
            }, {
                "va": 36.63793103448276,
                "vg1": -4,
                "ig1": 0,
                "vg2": 210,
                "ig2": 0,
                "ik": 0.09130146082337318
            }, {
                "va": 64.4396551724138,
                "vg1": -4,
                "ig1": 0,
                "vg2": 210,
                "ig2": 0,
                "ik": 0.12891766268260293
            }, {
                "va": 107.32758620689656,
                "vg1": -4,
                "ig1": 0,
                "vg2": 210,
                "ig2": 0,
                "ik": 0.14790836653386452
            }, {
                "va": 180.17241379310346,
                "vg1": -4,
                "ig1": 0,
                "vg2": 210,
                "ig2": 0,
                "ik": 0.1552124833997344
            }, {
                "va": 398.0603448275862,
                "vg1": -4,
                "ig1": 0,
                "vg2": 210,
                "ig2": 0,
                "ik": 0.17456839309428948
            }],
            "vg1": -4
        }, {
            "p": [{
                "va": 0,
                "vg1": -2,
                "ig1": 0,
                "vg2": 210,
                "ig2": 0,
                "ik": 0
            }, {
                "va": 18.31896551724138,
                "vg1": -2,
                "ig1": 0,
                "vg2": 210,
                "ig2": 0,
                "ik": 0.028851261620185923
            }, {
                "va": 52.80172413793104,
                "vg1": -2,
                "ig1": 0,
                "vg2": 210,
                "ig2": 0,
                "ik": 0.1391434262948207
            }, {
                "va": 128.66379310344828,
                "vg1": -2,
                "ig1": 0,
                "vg2": 210,
                "ig2": 0,
                "ik": 0.1899070385126162
            }, {
                "va": 155.17241379310346,
                "vg1": -2,
                "ig1": 0,
                "vg2": 210,
                "ig2": 0,
                "ik": 0.19246347941567063
            }, {
                "va": 398.0603448275862,
                "vg1": -2,
                "ig1": 0,
                "vg2": 210,
                "ig2": 0,
                "ik": 0.21547144754316067
            }],
            "vg1": -2
        }, {
            "p": [{
                "va": 0,
                "vg1": 0,
                "ig1": 0,
                "vg2": 210,
                "ig2": 0,
                "ik": 0
            }, {
                "va": 15.301724137931036,
                "vg1": 0,
                "ig1": 0,
                "vg2": 210,
                "ig2": 0,
                "ik": 0.025199203187250992
            }, {
                "va": 66.37931034482759,
                "vg1": 0,
                "ig1": 0,
                "vg2": 210,
                "ig2": 0,
                "ik": 0.17822045152722443
            }, {
                "va": 120.90517241379311,
                "vg1": 0,
                "ig1": 0,
                "vg2": 210,
                "ig2": 0,
                "ik": 0.22861885790172642
            }, {
                "va": 205.17241379310346,
                "vg1": 0,
                "ig1": 0,
                "vg2": 210,
                "ig2": 0,
                "ik": 0.2395750332005312
            }, {
                "va": 398.7068965517242,
                "vg1": 0,
                "ig1": 0,
                "vg2": 210,
                "ig2": 0,
                "ik": 0.2545484727755644
            }],
            "vg1": 0
        }],
        "vg2": 210,
        "logX": false,
        "logY": false,
        "name": "6P18P VG2=210V Graph Extended",
        "raw": false,
        "unit": null,
        "triode": false
    }
}
