{
    "filename": "6p1p-ev-triode.json",
    "tubeGraph": {
        "c": [{
            "p": [{
                "va": 0,
                "vg1": -25,
                "ig1": 0,
                "vg2": null,
                "ig2": 0,
                "ik": 0
            }, {
                "va": 179.02590673575128,
                "vg1": -25,
                "ig1": 0,
                "vg2": null,
                "ig2": 0,
                "ik": 0.0005962732919254658
            }, {
                "va": 203.39896373056993,
                "vg1": -25,
                "ig1": 0,
                "vg2": null,
                "ig2": 0,
                "ik": 0.0017888198757763977
            }, {
                "va": 239.95854922279793,
                "vg1": -25,
                "ig1": 0,
                "vg2": null,
                "ig2": 0,
                "ik": 0.006260869565217392
            }, {
                "va": 275.0673575129534,
                "vg1": -25,
                "ig1": 0,
                "vg2": null,
                "ig2": 0,
                "ik": 0.01267080745341615
            }],
            "vg1": -25
        }, {
            "p": [{
                "va": 0,
                "vg1": -20,
                "ig1": 0,
                "vg2": null,
                "ig2": 0,
                "ik": 0
            }, {
                "va": 150.0103626943005,
                "vg1": -20,
                "ig1": 0,
                "vg2": null,
                "ig2": 0,
                "ik": 0.0004472049689440994
            }, {
                "va": 180.76683937823833,
                "vg1": -20,
                "ig1": 0,
                "vg2": null,
                "ig2": 0,
                "ik": 0.004024844720496895
            }, {
                "va": 219.93782383419688,
                "vg1": -20,
                "ig1": 0,
                "vg2": null,
                "ig2": 0,
                "ik": 0.012074534161490683
            }, {
                "va": 270.42487046632124,
                "vg1": -20,
                "ig1": 0,
                "vg2": null,
                "ig2": 0,
                "ik": 0.026832298136645963
            }],
            "vg1": -20
        }, {
            "p": [{
                "va": 0,
                "vg1": -15,
                "ig1": 0,
                "vg2": null,
                "ig2": 0,
                "ik": 0
            }, {
                "va": 122.44559585492227,
                "vg1": -15,
                "ig1": 0,
                "vg2": null,
                "ig2": 0,
                "ik": 0.0007453416149068323
            }, {
                "va": 149.13989637305698,
                "vg1": -15,
                "ig1": 0,
                "vg2": null,
                "ig2": 0,
                "ik": 0.0035776397515527953
            }, {
                "va": 179.3160621761658,
                "vg1": -15,
                "ig1": 0,
                "vg2": null,
                "ig2": 0,
                "ik": 0.010136645962732919
            }, {
                "va": 207.46113989637306,
                "vg1": -15,
                "ig1": 0,
                "vg2": null,
                "ig2": 0,
                "ik": 0.019080745341614906
            }, {
                "va": 257.0777202072539,
                "vg1": -15,
                "ig1": 0,
                "vg2": null,
                "ig2": 0,
                "ik": 0.04039751552795031
            }],
            "vg1": -15
        }, {
            "p": [{
                "va": 0,
                "vg1": -10,
                "ig1": 0,
                "vg2": null,
                "ig2": 0,
                "ik": 0
            }, {
                "va": 78.34196891191709,
                "vg1": -10,
                "ig1": 0,
                "vg2": null,
                "ig2": 0,
                "ik": 0.0005962732919254658
            }, {
                "va": 100.10362694300518,
                "vg1": -10,
                "ig1": 0,
                "vg2": null,
                "ig2": 0,
                "ik": 0.002832298136645963
            }, {
                "va": 125.34715025906735,
                "vg1": -10,
                "ig1": 0,
                "vg2": null,
                "ig2": 0,
                "ik": 0.009093167701863355
            }, {
                "va": 160.1658031088083,
                "vg1": -10,
                "ig1": 0,
                "vg2": null,
                "ig2": 0,
                "ik": 0.021018633540372672
            }, {
                "va": 180.76683937823833,
                "vg1": -10,
                "ig1": 0,
                "vg2": null,
                "ig2": 0,
                "ik": 0.030260869565217393
            }, {
                "va": 240.24870466321244,
                "vg1": -10,
                "ig1": 0,
                "vg2": null,
                "ig2": 0,
                "ik": 0.05530434782608696
            }],
            "vg1": -10
        }, {
            "p": [{
                "va": 0,
                "vg1": -5,
                "ig1": 0,
                "vg2": null,
                "ig2": 0,
                "ik": 0
            }, {
                "va": 31.917098445595855,
                "vg1": -5,
                "ig1": 0,
                "vg2": null,
                "ig2": 0,
                "ik": 0.0008944099378881988
            }, {
                "va": 49.90673575129534,
                "vg1": -5,
                "ig1": 0,
                "vg2": null,
                "ig2": 0,
                "ik": 0.002832298136645963
            }, {
                "va": 75.15025906735751,
                "vg1": -5,
                "ig1": 0,
                "vg2": null,
                "ig2": 0,
                "ik": 0.008347826086956521
            }, {
                "va": 100.10362694300518,
                "vg1": -5,
                "ig1": 0,
                "vg2": null,
                "ig2": 0,
                "ik": 0.016248447204968944
            }, {
                "va": 139.85492227979273,
                "vg1": -5,
                "ig1": 0,
                "vg2": null,
                "ig2": 0,
                "ik": 0.033987577639751555
            }, {
                "va": 223.41968911917098,
                "vg1": -5,
                "ig1": 0,
                "vg2": null,
                "ig2": 0,
                "ik": 0.072
            }],
            "vg1": -5
        }, {
            "p": [{
                "va": 0,
                "vg1": 0,
                "ig1": 0,
                "vg2": null,
                "ig2": 0,
                "ik": 0
            }, {
                "va": 49.90673575129534,
                "vg1": 0,
                "ig1": 0,
                "vg2": null,
                "ig2": 0,
                "ik": 0.014012422360248447
            }, {
                "va": 80.08290155440415,
                "vg1": 0,
                "ig1": 0,
                "vg2": null,
                "ig2": 0,
                "ik": 0.027577639751552793
            }, {
                "va": 120.70466321243522,
                "vg1": 0,
                "ig1": 0,
                "vg2": null,
                "ig2": 0,
                "ik": 0.04606211180124224
            }, {
                "va": 203.10880829015542,
                "vg1": 0,
                "ig1": 0,
                "vg2": null,
                "ig2": 0,
                "ik": 0.08496894409937888
            }],
            "vg1": 0
        }, {
            "p": [{
                "va": 0,
                "vg1": 5,
                "ig1": 0,
                "vg2": null,
                "ig2": 0,
                "ik": 0
            }, {
                "va": 40.62176165803108,
                "vg1": 5,
                "ig1": 0,
                "vg2": null,
                "ig2": 0,
                "ik": 0.0253416149068323
            }, {
                "va": 79.79274611398964,
                "vg1": 5,
                "ig1": 0,
                "vg2": null,
                "ig2": 0,
                "ik": 0.0457639751552795
            }, {
                "va": 184.53886010362694,
                "vg1": 5,
                "ig1": 0,
                "vg2": null,
                "ig2": 0,
                "ik": 0.09823602484472051
            }],
            "vg1": 5
        }, {
            "p": [{
                "va": 0,
                "vg1": 10,
                "ig1": 0,
                "vg2": null,
                "ig2": 0,
                "ik": 0
            }, {
                "va": 9.865284974093264,
                "vg1": 10,
                "ig1": 0,
                "vg2": null,
                "ig2": 0,
                "ik": 0.020124223602484472
            }, {
                "va": 22.05181347150259,
                "vg1": 10,
                "ig1": 0,
                "vg2": null,
                "ig2": 0,
                "ik": 0.033391304347826084
            }, {
                "va": 40.62176165803108,
                "vg1": 10,
                "ig1": 0,
                "vg2": null,
                "ig2": 0,
                "ik": 0.0457639751552795
            }, {
                "va": 79.79274611398964,
                "vg1": 10,
                "ig1": 0,
                "vg2": null,
                "ig2": 0,
                "ik": 0.06588819875776397
            }, {
                "va": 163.35751295336786,
                "vg1": 10,
                "ig1": 0,
                "vg2": null,
                "ig2": 0,
                "ik": 0.10792546583850933
            }],
            "vg1": 10
        }],
        "vg2": null,
        "logX": false,
        "logY": false,
        "name": "6P1P-EV-TRiode",
        "raw": false,
        "unit": null,
        "triode": true
    }
}
