{
    "filename": "6p30b - vg2 120v.json",
    "tubeGraph": {
        "c": [{
            "p": [{
                "va": 0,
                "vg1": -20,
                "ig1": 0,
                "vg2": 120,
                "ig2": 0,
                "ik": 0
            }, {
                "va": 8.190644307149162,
                "vg1": -20,
                "ig1": 0,
                "vg2": 120,
                "ig2": 0,
                "ik": 0.010258249641319942
            }, {
                "va": 28.384819064430715,
                "vg1": -20,
                "ig1": 0,
                "vg2": 120,
                "ig2": 0,
                "ik": 0.010258249641319942
            }, {
                "va": 56.76963812886143,
                "vg1": -20,
                "ig1": 0,
                "vg2": 120,
                "ig2": 0,
                "ik": 0.011621233859397418
            }, {
                "va": 148.1376875551633,
                "vg1": -20,
                "ig1": 0,
                "vg2": 120,
                "ig2": 0,
                "ik": 0.015279770444763273
            }],
            "vg1": -20
        }, {
            "p": [{
                "va": 0,
                "vg1": -18,
                "ig1": 0,
                "vg2": 120,
                "ig2": 0,
                "ik": 0
            }, {
                "va": 12.427184466019417,
                "vg1": -18,
                "ig1": 0,
                "vg2": 120,
                "ig2": 0,
                "ik": 0.015279770444763273
            }, {
                "va": 28.808473080317743,
                "vg1": -18,
                "ig1": 0,
                "vg2": 120,
                "ig2": 0,
                "ik": 0.014634146341463415
            }, {
                "va": 54.368932038834956,
                "vg1": -18,
                "ig1": 0,
                "vg2": 120,
                "ig2": 0,
                "ik": 0.017216642754662843
            }, {
                "va": 146.86672550750222,
                "vg1": -18,
                "ig1": 0,
                "vg2": 120,
                "ig2": 0,
                "ik": 0.02101865136298422
            }],
            "vg1": -18
        }, {
            "p": [{
                "va": 0,
                "vg1": -16,
                "ig1": 0,
                "vg2": 120,
                "ig2": 0,
                "ik": 0
            }, {
                "va": 7.484554280670785,
                "vg1": -16,
                "ig1": 0,
                "vg2": 120,
                "ig2": 0,
                "ik": 0.011190817790530848
            }, {
                "va": 14.68667255075022,
                "vg1": -16,
                "ig1": 0,
                "vg2": 120,
                "ig2": 0,
                "ik": 0.01987087517934003
            }, {
                "va": 29.93821712268314,
                "vg1": -16,
                "ig1": 0,
                "vg2": 120,
                "ig2": 0,
                "ik": 0.019942611190817795
            }, {
                "va": 49.42630185348632,
                "vg1": -16,
                "ig1": 0,
                "vg2": 120,
                "ig2": 0,
                "ik": 0.022022955523672883
            }, {
                "va": 150.67961165048544,
                "vg1": -16,
                "ig1": 0,
                "vg2": 120,
                "ig2": 0,
                "ik": 0.027474892395982786
            }],
            "vg1": -16
        }, {
            "p": [{
                "va": 0,
                "vg1": -14,
                "ig1": 0,
                "vg2": 120,
                "ig2": 0,
                "ik": 0
            }, {
                "va": 6.496028243601059,
                "vg1": -14,
                "ig1": 0,
                "vg2": 120,
                "ig2": 0,
                "ik": 0.011764705882352943
            }, {
                "va": 15.675198587819947,
                "vg1": -14,
                "ig1": 0,
                "vg2": 120,
                "ig2": 0,
                "ik": 0.026757532281205164
            }, {
                "va": 30.503089143865843,
                "vg1": -14,
                "ig1": 0,
                "vg2": 120,
                "ig2": 0,
                "ik": 0.02682926829268293
            }, {
                "va": 56.48720211827008,
                "vg1": -14,
                "ig1": 0,
                "vg2": 120,
                "ig2": 0,
                "ik": 0.02919655667144907
            }, {
                "va": 148.70255957634598,
                "vg1": -14,
                "ig1": 0,
                "vg2": 120,
                "ig2": 0,
                "ik": 0.034289813486370155
            }],
            "vg1": -14
        }, {
            "p": [{
                "va": 0,
                "vg1": -12,
                "ig1": 0,
                "vg2": 120,
                "ig2": 0,
                "ik": 0
            }, {
                "va": 6.496028243601059,
                "vg1": -12,
                "ig1": 0,
                "vg2": 120,
                "ig2": 0,
                "ik": 0.012266857962697275
            }, {
                "va": 11.156222418358341,
                "vg1": -12,
                "ig1": 0,
                "vg2": 120,
                "ig2": 0,
                "ik": 0.02381635581061693
            }, {
                "va": 22.453662842012356,
                "vg1": -12,
                "ig1": 0,
                "vg2": 120,
                "ig2": 0,
                "ik": 0.035868005738880916
            }, {
                "va": 35.8693733451015,
                "vg1": -12,
                "ig1": 0,
                "vg2": 120,
                "ig2": 0,
                "ik": 0.035222381635581064
            }, {
                "va": 55.63989408649603,
                "vg1": -12,
                "ig1": 0,
                "vg2": 120,
                "ig2": 0,
                "ik": 0.03730272596843616
            }, {
                "va": 149.40864960282437,
                "vg1": -12,
                "ig1": 0,
                "vg2": 120,
                "ig2": 0,
                "ik": 0.042395982783357246
            }],
            "vg1": -12
        }, {
            "p": [{
                "va": 0,
                "vg1": -10,
                "ig1": 0,
                "vg2": 120,
                "ig2": 0,
                "ik": 0
            }, {
                "va": 13.415710503089144,
                "vg1": -10,
                "ig1": 0,
                "vg2": 120,
                "ig2": 0,
                "ik": 0.02266857962697274
            }, {
                "va": 22.453662842012356,
                "vg1": -10,
                "ig1": 0,
                "vg2": 120,
                "ig2": 0,
                "ik": 0.046341463414634146
            }, {
                "va": 38.834951456310684,
                "vg1": -10,
                "ig1": 0,
                "vg2": 120,
                "ig2": 0,
                "ik": 0.04748923959827834
            }, {
                "va": 56.62842012356575,
                "vg1": -10,
                "ig1": 0,
                "vg2": 120,
                "ig2": 0,
                "ik": 0.04921090387374462
            }, {
                "va": 148.98499558693734,
                "vg1": -10,
                "ig1": 0,
                "vg2": 120,
                "ig2": 0,
                "ik": 0.0539454806312769
            }],
            "vg1": -10
        }, {
            "p": [{
                "va": 0,
                "vg1": -8,
                "ig1": 0,
                "vg2": 120,
                "ig2": 0,
                "ik": 0
            }, {
                "va": 15.392762577228597,
                "vg1": -8,
                "ig1": 0,
                "vg2": 120,
                "ig2": 0,
                "ik": 0.02697274031563845
            }, {
                "va": 20.759046778464256,
                "vg1": -8,
                "ig1": 0,
                "vg2": 120,
                "ig2": 0,
                "ik": 0.04691535150645624
            }, {
                "va": 30.36187113857017,
                "vg1": -8,
                "ig1": 0,
                "vg2": 120,
                "ig2": 0,
                "ik": 0.05667144906743185
            }, {
                "va": 50.697263901147394,
                "vg1": -8,
                "ig1": 0,
                "vg2": 120,
                "ig2": 0,
                "ik": 0.05875179340028695
            }, {
                "va": 87.83759929390997,
                "vg1": -8,
                "ig1": 0,
                "vg2": 120,
                "ig2": 0,
                "ik": 0.06284074605451938
            }, {
                "va": 149.97352162400708,
                "vg1": -8,
                "ig1": 0,
                "vg2": 120,
                "ig2": 0,
                "ik": 0.06621233859397418
            }],
            "vg1": -8
        }, {
            "p": [{
                "va": 0,
                "vg1": -6,
                "ig1": 0,
                "vg2": 120,
                "ig2": 0,
                "ik": 0
            }, {
                "va": 10.87378640776699,
                "vg1": -6,
                "ig1": 0,
                "vg2": 120,
                "ig2": 0,
                "ik": 0.017216642754662843
            }, {
                "va": 18.923212709620476,
                "vg1": -6,
                "ig1": 0,
                "vg2": 120,
                "ig2": 0,
                "ik": 0.03859397417503587
            }, {
                "va": 20.759046778464256,
                "vg1": -6,
                "ig1": 0,
                "vg2": 120,
                "ig2": 0,
                "ik": 0.05624103299856528
            }, {
                "va": 34.880847308031775,
                "vg1": -6,
                "ig1": 0,
                "vg2": 120,
                "ig2": 0,
                "ik": 0.07022955523672884
            }, {
                "va": 79.64695498676082,
                "vg1": -6,
                "ig1": 0,
                "vg2": 120,
                "ig2": 0,
                "ik": 0.07647058823529411
            }, {
                "va": 151.80935569285083,
                "vg1": -6,
                "ig1": 0,
                "vg2": 120,
                "ig2": 0,
                "ik": 0.07977044476327118
            }],
            "vg1": -6
        }, {
            "p": [{
                "va": 0,
                "vg1": -4,
                "ig1": 0,
                "vg2": 120,
                "ig2": 0,
                "ik": 0
            }, {
                "va": 16.804942630185348,
                "vg1": -4,
                "ig1": 0,
                "vg2": 120,
                "ig2": 0,
                "ik": 0.029483500717360115
            }, {
                "va": 20.61782877316858,
                "vg1": -4,
                "ig1": 0,
                "vg2": 120,
                "ig2": 0,
                "ik": 0.05294117647058824
            }, {
                "va": 25.136804942630185,
                "vg1": -4,
                "ig1": 0,
                "vg2": 120,
                "ig2": 0,
                "ik": 0.07754662840746054
            }, {
                "va": 47.308031774051194,
                "vg1": -4,
                "ig1": 0,
                "vg2": 120,
                "ig2": 0,
                "ik": 0.08938307030129125
            }, {
                "va": 123.28331862312446,
                "vg1": -4,
                "ig1": 0,
                "vg2": 120,
                "ig2": 0,
                "ik": 0.09519368723098996
            }, {
                "va": 149.97352162400708,
                "vg1": -4,
                "ig1": 0,
                "vg2": 120,
                "ig2": 0,
                "ik": 0.09583931133428981
            }],
            "vg1": -4
        }],
        "vg2": 120,
        "logX": false,
        "logY": false,
        "name": "6P30B - Vg2 120V",
        "raw": false,
        "unit": null,
        "triode": false
    }
}
