{
    "filename": "6p43ptwax_el86__tr.json",
    "tubeGraph": {
        "c": [{
            "p": [{
                "va": 0,
                "vg1": -50,
                "ig1": 0,
                "vg2": null,
                "ig2": 0,
                "ik": 0
            }, {
                "va": 281.94312796208527,
                "vg1": -50,
                "ig1": 0,
                "vg2": null,
                "ig2": 0,
                "ik": 0.0007585335018963338
            }, {
                "va": 322.8909952606635,
                "vg1": -50,
                "ig1": 0,
                "vg2": null,
                "ig2": 0,
                "ik": 0.007281921618204804
            }, {
                "va": 353.6018957345971,
                "vg1": -50,
                "ig1": 0,
                "vg2": null,
                "ig2": 0,
                "ik": 0.017901390644753476
            }, {
                "va": 389.43127962085305,
                "vg1": -50,
                "ig1": 0,
                "vg2": null,
                "ig2": 0,
                "ik": 0.037471554993678886
            }],
            "vg1": -50
        }, {
            "p": [{
                "va": 0,
                "vg1": -45,
                "ig1": 0,
                "vg2": null,
                "ig2": 0,
                "ik": 0
            }, {
                "va": 258.0568720379147,
                "vg1": -45,
                "ig1": 0,
                "vg2": null,
                "ig2": 0,
                "ik": 0.0003034134007585335
            }, {
                "va": 296.87203791469193,
                "vg1": -45,
                "ig1": 0,
                "vg2": null,
                "ig2": 0,
                "ik": 0.00652338811630847
            }, {
                "va": 329.2890995260663,
                "vg1": -45,
                "ig1": 0,
                "vg2": null,
                "ig2": 0,
                "ik": 0.018811630847029075
            }, {
                "va": 367.2511848341232,
                "vg1": -45,
                "ig1": 0,
                "vg2": null,
                "ig2": 0,
                "ik": 0.04111251580278129
            }],
            "vg1": -45
        }, {
            "p": [{
                "va": 0,
                "vg1": -40,
                "ig1": 0,
                "vg2": null,
                "ig2": 0,
                "ik": 0
            }, {
                "va": 228.6255924170616,
                "vg1": -40,
                "ig1": 0,
                "vg2": null,
                "ig2": 0,
                "ik": 0.0003034134007585335
            }, {
                "va": 268.29383886255926,
                "vg1": -40,
                "ig1": 0,
                "vg2": null,
                "ig2": 0,
                "ik": 0.007281921618204804
            }, {
                "va": 299.85781990521326,
                "vg1": -40,
                "ig1": 0,
                "vg2": null,
                "ig2": 0,
                "ik": 0.019873577749683943
            }, {
                "va": 339.0995260663507,
                "vg1": -40,
                "ig1": 0,
                "vg2": null,
                "ig2": 0,
                "ik": 0.04338811630847029
            }],
            "vg1": -40
        }, {
            "p": [{
                "va": 0,
                "vg1": -35,
                "ig1": 0,
                "vg2": null,
                "ig2": 0,
                "ik": 0
            }, {
                "va": 205.16587677725119,
                "vg1": -35,
                "ig1": 0,
                "vg2": null,
                "ig2": 0,
                "ik": 0.000606826801517067
            }, {
                "va": 244.4075829383886,
                "vg1": -35,
                "ig1": 0,
                "vg2": null,
                "ig2": 0,
                "ik": 0.009557522123893806
            }, {
                "va": 272.98578199052133,
                "vg1": -35,
                "ig1": 0,
                "vg2": null,
                "ig2": 0,
                "ik": 0.022149178255372944
            }, {
                "va": 309.66824644549763,
                "vg1": -35,
                "ig1": 0,
                "vg2": null,
                "ig2": 0,
                "ik": 0.047635903919089756
            }],
            "vg1": -35
        }, {
            "p": [{
                "va": 0,
                "vg1": -30,
                "ig1": 0,
                "vg2": null,
                "ig2": 0,
                "ik": 0
            }, {
                "va": 173.60189573459715,
                "vg1": -30,
                "ig1": 0,
                "vg2": null,
                "ig2": 0,
                "ik": 0.0007585335018963338
            }, {
                "va": 203.8862559241706,
                "vg1": -30,
                "ig1": 0,
                "vg2": null,
                "ig2": 0,
                "ik": 0.00652338811630847
            }, {
                "va": 237.5829383886256,
                "vg1": -30,
                "ig1": 0,
                "vg2": null,
                "ig2": 0,
                "ik": 0.020783817951959545
            }, {
                "va": 277.2511848341232,
                "vg1": -30,
                "ig1": 0,
                "vg2": null,
                "ig2": 0,
                "ik": 0.04809102402022756
            }],
            "vg1": -30
        }, {
            "p": [{
                "va": 0,
                "vg1": -25,
                "ig1": 0,
                "vg2": null,
                "ig2": 0,
                "ik": 0
            }, {
                "va": 147.1563981042654,
                "vg1": -25,
                "ig1": 0,
                "vg2": null,
                "ig2": 0,
                "ik": 0.0010619469026548671
            }, {
                "va": 174.02843601895734,
                "vg1": -25,
                "ig1": 0,
                "vg2": null,
                "ig2": 0,
                "ik": 0.006219974715549937
            }, {
                "va": 203.03317535545023,
                "vg1": -25,
                "ig1": 0,
                "vg2": null,
                "ig2": 0,
                "ik": 0.02017699115044248
            }, {
                "va": 250.80568720379145,
                "vg1": -25,
                "ig1": 0,
                "vg2": null,
                "ig2": 0,
                "ik": 0.05537294563843236
            }],
            "vg1": -25
        }, {
            "p": [{
                "va": 0,
                "vg1": -20,
                "ig1": 0,
                "vg2": null,
                "ig2": 0,
                "ik": 0
            }, {
                "va": 124.12322274881517,
                "vg1": -20,
                "ig1": 0,
                "vg2": null,
                "ig2": 0,
                "ik": 0.001213653603034134
            }, {
                "va": 153.98104265402844,
                "vg1": -20,
                "ig1": 0,
                "vg2": null,
                "ig2": 0,
                "ik": 0.010164348925410871
            }, {
                "va": 185.11848341232226,
                "vg1": -20,
                "ig1": 0,
                "vg2": null,
                "ig2": 0,
                "ik": 0.030037926675094816
            }, {
                "va": 226.06635071090045,
                "vg1": -20,
                "ig1": 0,
                "vg2": null,
                "ig2": 0,
                "ik": 0.06402022756005057
            }],
            "vg1": -20
        }, {
            "p": [{
                "va": 0,
                "vg1": -15,
                "ig1": 0,
                "vg2": null,
                "ig2": 0,
                "ik": 0
            }, {
                "va": 89.14691943127961,
                "vg1": -15,
                "ig1": 0,
                "vg2": null,
                "ig2": 0,
                "ik": 0.0007585335018963338
            }, {
                "va": 114.73933649289098,
                "vg1": -15,
                "ig1": 0,
                "vg2": null,
                "ig2": 0,
                "ik": 0.007888748419721871
            }, {
                "va": 148.43601895734596,
                "vg1": -15,
                "ig1": 0,
                "vg2": null,
                "ig2": 0,
                "ik": 0.029734513274336283
            }, {
                "va": 197.06161137440756,
                "vg1": -15,
                "ig1": 0,
                "vg2": null,
                "ig2": 0,
                "ik": 0.07403286978508217
            }],
            "vg1": -15
        }, {
            "p": [{
                "va": 0,
                "vg1": -10,
                "ig1": 0,
                "vg2": null,
                "ig2": 0,
                "ik": 0
            }, {
                "va": 58.00947867298578,
                "vg1": -10,
                "ig1": 0,
                "vg2": null,
                "ig2": 0,
                "ik": 0.000606826801517067
            }, {
                "va": 90.85308056872037,
                "vg1": -10,
                "ig1": 0,
                "vg2": null,
                "ig2": 0,
                "ik": 0.011984829329962074
            }, {
                "va": 124.54976303317535,
                "vg1": -10,
                "ig1": 0,
                "vg2": null,
                "ig2": 0,
                "ik": 0.03974715549936789
            }, {
                "va": 169.33649289099526,
                "vg1": -10,
                "ig1": 0,
                "vg2": null,
                "ig2": 0,
                "ik": 0.08495575221238938
            }],
            "vg1": -10
        }, {
            "p": [{
                "va": 0,
                "vg1": -5,
                "ig1": 0,
                "vg2": null,
                "ig2": 0,
                "ik": 0
            }, {
                "va": 29.00473933649289,
                "vg1": -5,
                "ig1": 0,
                "vg2": null,
                "ig2": 0,
                "ik": 0.0007585335018963338
            }, {
                "va": 65.260663507109,
                "vg1": -5,
                "ig1": 0,
                "vg2": null,
                "ig2": 0,
                "ik": 0.019721871049304677
            }, {
                "va": 90,
                "vg1": -5,
                "ig1": 0,
                "vg2": null,
                "ig2": 0,
                "ik": 0.043994943109987354
            }, {
                "va": 139.90521327014218,
                "vg1": -5,
                "ig1": 0,
                "vg2": null,
                "ig2": 0,
                "ik": 0.09754740834386852
            }],
            "vg1": -5
        }, {
            "p": [{
                "va": 0,
                "vg1": 0,
                "ig1": 0,
                "vg2": null,
                "ig2": 0,
                "ik": 0
            }, {
                "va": 17.061611374407583,
                "vg1": 0,
                "ig1": 0,
                "vg2": null,
                "ig2": 0,
                "ik": 0.011226295828065738
            }, {
                "va": 45.63981042654028,
                "vg1": 0,
                "ig1": 0,
                "vg2": null,
                "ig2": 0,
                "ik": 0.04005056890012642
            }, {
                "va": 113.03317535545023,
                "vg1": 0,
                "ig1": 0,
                "vg2": null,
                "ig2": 0,
                "ik": 0.11893805309734513
            }],
            "vg1": 0
        }],
        "vg2": null,
        "logX": false,
        "logY": false,
        "name": "6p43ptwax_EL86?_TR",
        "raw": false,
        "unit": null,
        "triode": true
    }
}
