{
    "filename": "6s33 1 filament.json",
    "tubeGraph": {
        "c": [{
            "p": [{
                "va": 0,
                "vg1": -110,
                "ig1": 0,
                "vg2": null,
                "ig2": 0,
                "ik": 0
            }, {
                "va": 222.76422764227644,
                "vg1": -110,
                "ig1": 0,
                "vg2": null,
                "ig2": 0,
                "ik": 0
            }, {
                "va": 298.6449864498645,
                "vg1": -110,
                "ig1": 0,
                "vg2": null,
                "ig2": 0,
                "ik": 0.039926739926739924
            }],
            "vg1": -110
        }, {
            "p": [{
                "va": 0,
                "vg1": -100,
                "ig1": 0,
                "vg2": null,
                "ig2": 0,
                "ik": 0
            }, {
                "va": 185.90785907859077,
                "vg1": -100,
                "ig1": 0,
                "vg2": null,
                "ig2": 0,
                "ik": 0.0007326007326007326
            }, {
                "va": 235.77235772357724,
                "vg1": -100,
                "ig1": 0,
                "vg2": null,
                "ig2": 0,
                "ik": 0.011355311355311357
            }, {
                "va": 268.2926829268293,
                "vg1": -100,
                "ig1": 0,
                "vg2": null,
                "ig2": 0,
                "ik": 0.05091575091575092
            }, {
                "va": 299.4579945799458,
                "vg1": -100,
                "ig1": 0,
                "vg2": null,
                "ig2": 0,
                "ik": 0.12454212454212454
            }],
            "vg1": -100
        }, {
            "p": [{
                "va": 0,
                "vg1": -90,
                "ig1": 0,
                "vg2": null,
                "ig2": 0,
                "ik": 0
            }, {
                "va": 172.08672086720867,
                "vg1": -90,
                "ig1": 0,
                "vg2": null,
                "ig2": 0,
                "ik": 0.0003663003663003663
            }, {
                "va": 230.89430894308944,
                "vg1": -90,
                "ig1": 0,
                "vg2": null,
                "ig2": 0,
                "ik": 0.03296703296703297
            }, {
                "va": 278.8617886178862,
                "vg1": -90,
                "ig1": 0,
                "vg2": null,
                "ig2": 0,
                "ik": 0.18571428571428572
            }],
            "vg1": -90
        }, {
            "p": [{
                "va": 0,
                "vg1": -80,
                "ig1": 0,
                "vg2": null,
                "ig2": 0,
                "ik": 0
            }, {
                "va": 145.52845528455285,
                "vg1": -80,
                "ig1": 0,
                "vg2": null,
                "ig2": 0,
                "ik": 0
            }, {
                "va": 201.3550135501355,
                "vg1": -80,
                "ig1": 0,
                "vg2": null,
                "ig2": 0,
                "ik": 0.03223443223443223
            }, {
                "va": 249.32249322493226,
                "vg1": -80,
                "ig1": 0,
                "vg2": null,
                "ig2": 0,
                "ik": 0.19157509157509156
            }],
            "vg1": -80
        }, {
            "p": [{
                "va": 0,
                "vg1": -70,
                "ig1": 0,
                "vg2": null,
                "ig2": 0,
                "ik": 0
            }, {
                "va": 123.30623306233062,
                "vg1": -70,
                "ig1": 0,
                "vg2": null,
                "ig2": 0,
                "ik": 0.001098901098901099
            }, {
                "va": 187.5338753387534,
                "vg1": -70,
                "ig1": 0,
                "vg2": null,
                "ig2": 0,
                "ik": 0.05970695970695971
            }, {
                "va": 227.37127371273712,
                "vg1": -70,
                "ig1": 0,
                "vg2": null,
                "ig2": 0,
                "ik": 0.22454212454212455
            }],
            "vg1": -70
        }, {
            "p": [{
                "va": 0,
                "vg1": -60,
                "ig1": 0,
                "vg2": null,
                "ig2": 0,
                "ik": 0
            }, {
                "va": 115.17615176151762,
                "vg1": -60,
                "ig1": 0,
                "vg2": null,
                "ig2": 0,
                "ik": 0
            }, {
                "va": 143.08943089430895,
                "vg1": -60,
                "ig1": 0,
                "vg2": null,
                "ig2": 0,
                "ik": 0.018315018315018312
            }, {
                "va": 205.420054200542,
                "vg1": -60,
                "ig1": 0,
                "vg2": null,
                "ig2": 0,
                "ik": 0.2501831501831502
            }],
            "vg1": -60
        }, {
            "p": [{
                "va": 0,
                "vg1": -50,
                "ig1": 0,
                "vg2": null,
                "ig2": 0,
                "ik": 0
            }, {
                "va": 93.22493224932249,
                "vg1": -50,
                "ig1": 0,
                "vg2": null,
                "ig2": 0,
                "ik": 0
            }, {
                "va": 122.22222222222223,
                "vg1": -50,
                "ig1": 0,
                "vg2": null,
                "ig2": 0,
                "ik": 0.022710622710622713
            }, {
                "va": 181.84281842818427,
                "vg1": -50,
                "ig1": 0,
                "vg2": null,
                "ig2": 0,
                "ik": 0.2765567765567766
            }],
            "vg1": -50
        }, {
            "p": [{
                "va": 0,
                "vg1": -40,
                "ig1": 0,
                "vg2": null,
                "ig2": 0,
                "ik": 0
            }, {
                "va": 68.29268292682927,
                "vg1": -40,
                "ig1": 0,
                "vg2": null,
                "ig2": 0,
                "ik": 0.0003663003663003663
            }, {
                "va": 110.56910569105692,
                "vg1": -40,
                "ig1": 0,
                "vg2": null,
                "ig2": 0,
                "ik": 0.043589743589743594
            }, {
                "va": 159.89159891598916,
                "vg1": -40,
                "ig1": 0,
                "vg2": null,
                "ig2": 0,
                "ik": 0.3139194139194139
            }],
            "vg1": -40
        }, {
            "p": [{
                "va": 0,
                "vg1": -30,
                "ig1": 0,
                "vg2": null,
                "ig2": 0,
                "ik": 0
            }, {
                "va": 48.23848238482385,
                "vg1": -30,
                "ig1": 0,
                "vg2": null,
                "ig2": 0,
                "ik": 0
            }, {
                "va": 95.1219512195122,
                "vg1": -30,
                "ig1": 0,
                "vg2": null,
                "ig2": 0,
                "ik": 0.05970695970695971
            }, {
                "va": 136.58536585365854,
                "vg1": -30,
                "ig1": 0,
                "vg2": null,
                "ig2": 0,
                "ik": 0.3454212454212454
            }],
            "vg1": -30
        }, {
            "p": [{
                "va": 0,
                "vg1": -20,
                "ig1": 0,
                "vg2": null,
                "ig2": 0,
                "ik": 0
            }, {
                "va": 31.43631436314363,
                "vg1": -20,
                "ig1": 0,
                "vg2": null,
                "ig2": 0,
                "ik": 0.0014652014652014652
            }, {
                "va": 63.956639566395665,
                "vg1": -20,
                "ig1": 0,
                "vg2": null,
                "ig2": 0,
                "ik": 0.05201465201465202
            }, {
                "va": 111.38211382113822,
                "vg1": -20,
                "ig1": 0,
                "vg2": null,
                "ig2": 0,
                "ik": 0.363003663003663
            }],
            "vg1": -20
        }, {
            "p": [{
                "va": 0,
                "vg1": -10,
                "ig1": 0,
                "vg2": null,
                "ig2": 0,
                "ik": 0
            }, {
                "va": 33.87533875338753,
                "vg1": -10,
                "ig1": 0,
                "vg2": null,
                "ig2": 0,
                "ik": 0.025274725274725275
            }, {
                "va": 87.8048780487805,
                "vg1": -10,
                "ig1": 0,
                "vg2": null,
                "ig2": 0,
                "ik": 0.4208791208791209
            }],
            "vg1": -10
        }, {
            "p": [{
                "va": 0,
                "vg1": -3,
                "ig1": 0,
                "vg2": null,
                "ig2": 0,
                "ik": 0
            }, {
                "va": 12.466124661246612,
                "vg1": -3,
                "ig1": 0,
                "vg2": null,
                "ig2": 0,
                "ik": 0.02087912087912088
            }, {
                "va": 56.36856368563686,
                "vg1": -3,
                "ig1": 0,
                "vg2": null,
                "ig2": 0,
                "ik": 0.35934065934065934
            }],
            "vg1": -3
        }],
        "vg2": null,
        "logX": false,
        "logY": false,
        "name": "6s33 1 filament",
        "raw": false,
        "unit": null,
        "triode": false
    }
}
