{
    "filename": "6s3pev_vah10ma-tr.json",
    "tubeGraph": {
        "c": [{
            "p": [{
                "va": 0,
                "vg1": -4,
                "ig1": 0,
                "vg2": null,
                "ig2": 0,
                "ik": 0
            }, {
                "va": 152.91201982651796,
                "vg1": -4,
                "ig1": 0,
                "vg2": null,
                "ig2": 0,
                "ik": 0.00008119079837618403
            }, {
                "va": 173.72986369268895,
                "vg1": -4,
                "ig1": 0,
                "vg2": null,
                "ig2": 0,
                "ik": 0.0003572395128552097
            }, {
                "va": 186.12143742255265,
                "vg1": -4,
                "ig1": 0,
                "vg2": null,
                "ig2": 0,
                "ik": 0.0008443843031123139
            }, {
                "va": 198.26517967781908,
                "vg1": -4,
                "ig1": 0,
                "vg2": null,
                "ig2": 0,
                "ik": 0.0015263870094722597
            }],
            "vg1": -4
        }, {
            "p": [{
                "va": 0,
                "vg1": -3.5,
                "ig1": 0,
                "vg2": null,
                "ig2": 0,
                "ik": 0
            }, {
                "va": 138.78562577447335,
                "vg1": -3.5,
                "ig1": 0,
                "vg2": null,
                "ig2": 0,
                "ik": 0.00008119079837618403
            }, {
                "va": 163.07311028500618,
                "vg1": -3.5,
                "ig1": 0,
                "vg2": null,
                "ig2": 0,
                "ik": 0.0006170500676589986
            }, {
                "va": 181.16480793060717,
                "vg1": -3.5,
                "ig1": 0,
                "vg2": null,
                "ig2": 0,
                "ik": 0.0018186738836265222
            }, {
                "va": 198.01734820322181,
                "vg1": -3.5,
                "ig1": 0,
                "vg2": null,
                "ig2": 0,
                "ik": 0.00396211096075778
            }],
            "vg1": -3.5
        }, {
            "p": [{
                "va": 0,
                "vg1": -3,
                "ig1": 0,
                "vg2": null,
                "ig2": 0,
                "ik": 0
            }, {
                "va": 124.16356877323419,
                "vg1": -3,
                "ig1": 0,
                "vg2": null,
                "ig2": 0,
                "ik": 0.00014614343707713127
            }, {
                "va": 149.6902106567534,
                "vg1": -3,
                "ig1": 0,
                "vg2": null,
                "ig2": 0,
                "ik": 0.0008930987821380243
            }, {
                "va": 162.57744733581166,
                "vg1": -3,
                "ig1": 0,
                "vg2": null,
                "ig2": 0,
                "ik": 0.00198105548037889
            }, {
                "va": 177.44733581164806,
                "vg1": -3,
                "ig1": 0,
                "vg2": null,
                "ig2": 0,
                "ik": 0.004010825439783491
            }, {
                "va": 198.01734820322181,
                "vg1": -3,
                "ig1": 0,
                "vg2": null,
                "ig2": 0,
                "ik": 0.008768606224627875
            }],
            "vg1": -3
        }, {
            "p": [{
                "va": 0,
                "vg1": -2.5,
                "ig1": 0,
                "vg2": null,
                "ig2": 0,
                "ik": 0
            }, {
                "va": 107.55885997521685,
                "vg1": -2.5,
                "ig1": 0,
                "vg2": null,
                "ig2": 0,
                "ik": 0.00012990527740189443
            }, {
                "va": 132.09417596034697,
                "vg1": -2.5,
                "ig1": 0,
                "vg2": null,
                "ig2": 0,
                "ik": 0.0010230040595399189
            }, {
                "va": 150.18587360594796,
                "vg1": -2.5,
                "ig1": 0,
                "vg2": null,
                "ig2": 0,
                "ik": 0.0030527740189445194
            }, {
                "va": 165.7992565055762,
                "vg1": -2.5,
                "ig1": 0,
                "vg2": null,
                "ig2": 0,
                "ik": 0.005975642760487145
            }, {
                "va": 184.38661710037175,
                "vg1": -2.5,
                "ig1": 0,
                "vg2": null,
                "ig2": 0,
                "ik": 0.011382949932341001
            }],
            "vg1": -2.5
        }, {
            "p": [{
                "va": 0,
                "vg1": -2,
                "ig1": 0,
                "vg2": null,
                "ig2": 0,
                "ik": 0
            }, {
                "va": 86.24535315985129,
                "vg1": -2,
                "ig1": 0,
                "vg2": null,
                "ig2": 0,
                "ik": 0.00009742895805142083
            }, {
                "va": 108.55018587360594,
                "vg1": -2,
                "ig1": 0,
                "vg2": null,
                "ig2": 0,
                "ik": 0.0007307171853856562
            }, {
                "va": 127.38537794299876,
                "vg1": -2,
                "ig1": 0,
                "vg2": null,
                "ig2": 0,
                "ik": 0.0027117726657645462
            }, {
                "va": 141.01610904584882,
                "vg1": -2,
                "ig1": 0,
                "vg2": null,
                "ig2": 0,
                "ik": 0.005179972936400541
            }, {
                "va": 159.35563816604707,
                "vg1": -2,
                "ig1": 0,
                "vg2": null,
                "ig2": 0,
                "ik": 0.010294993234100134
            }],
            "vg1": -2
        }, {
            "p": [{
                "va": 0,
                "vg1": -1.5,
                "ig1": 0,
                "vg2": null,
                "ig2": 0,
                "ik": 0
            }, {
                "va": 70.38413878562577,
                "vg1": -1.5,
                "ig1": 0,
                "vg2": null,
                "ig2": 0,
                "ik": 0.00009742895805142083
            }, {
                "va": 86.49318463444857,
                "vg1": -1.5,
                "ig1": 0,
                "vg2": null,
                "ig2": 0,
                "ik": 0.0006170500676589986
            }, {
                "va": 103.09789343246592,
                "vg1": -1.5,
                "ig1": 0,
                "vg2": null,
                "ig2": 0,
                "ik": 0.0020460081190798378
            }, {
                "va": 118.95910780669145,
                "vg1": -1.5,
                "ig1": 0,
                "vg2": null,
                "ig2": 0,
                "ik": 0.004968876860622463
            }, {
                "va": 140.02478314745971,
                "vg1": -1.5,
                "ig1": 0,
                "vg2": null,
                "ig2": 0,
                "ik": 0.011139377537212449
            }],
            "vg1": -1.5
        }, {
            "p": [{
                "va": 0,
                "vg1": -1,
                "ig1": 0,
                "vg2": null,
                "ig2": 0,
                "ik": 0
            }, {
                "va": 46.592317224287484,
                "vg1": -1,
                "ig1": 0,
                "vg2": null,
                "ig2": 0,
                "ik": 0.00006495263870094722
            }, {
                "va": 71.37546468401487,
                "vg1": -1,
                "ig1": 0,
                "vg2": null,
                "ig2": 0,
                "ik": 0.0008281461434370772
            }, {
                "va": 88.47583643122677,
                "vg1": -1,
                "ig1": 0,
                "vg2": null,
                "ig2": 0,
                "ik": 0.003004059539918809
            }, {
                "va": 97.64560099132589,
                "vg1": -1,
                "ig1": 0,
                "vg2": null,
                "ig2": 0,
                "ik": 0.004985115020297699
            }, {
                "va": 114.49814126394051,
                "vg1": -1,
                "ig1": 0,
                "vg2": null,
                "ig2": 0,
                "ik": 0.010197564276048714
            }],
            "vg1": -1
        }, {
            "p": [{
                "va": 0,
                "vg1": -0.5,
                "ig1": 0,
                "vg2": null,
                "ig2": 0,
                "ik": 0
            }, {
                "va": 34.44857496902107,
                "vg1": -0.5,
                "ig1": 0,
                "vg2": null,
                "ig2": 0,
                "ik": 0.00011366711772665764
            }, {
                "va": 54.27509293680297,
                "vg1": -0.5,
                "ig1": 0,
                "vg2": null,
                "ig2": 0,
                "ik": 0.001087956698240866
            }, {
                "va": 67.90582403965303,
                "vg1": -0.5,
                "ig1": 0,
                "vg2": null,
                "ig2": 0,
                "ik": 0.0030365358592692824
            }, {
                "va": 80.29739776951672,
                "vg1": -0.5,
                "ig1": 0,
                "vg2": null,
                "ig2": 0,
                "ik": 0.006008119079837618
            }, {
                "va": 94.42379182156134,
                "vg1": -0.5,
                "ig1": 0,
                "vg2": null,
                "ig2": 0,
                "ik": 0.011204330175913397
            }],
            "vg1": -0.5
        }, {
            "p": [{
                "va": 0,
                "vg1": 0,
                "ig1": 0,
                "vg2": null,
                "ig2": 0,
                "ik": 0
            }, {
                "va": 17.100371747211895,
                "vg1": 0,
                "ig1": 0,
                "vg2": null,
                "ig2": 0,
                "ik": 0.00008119079837618403
            }, {
                "va": 35.935563816604706,
                "vg1": 0,
                "ig1": 0,
                "vg2": null,
                "ig2": 0,
                "ik": 0.0010230040595399189
            }, {
                "va": 47.83147459727385,
                "vg1": 0,
                "ig1": 0,
                "vg2": null,
                "ig2": 0,
                "ik": 0.003004059539918809
            }, {
                "va": 55.762081784386616,
                "vg1": 0,
                "ig1": 0,
                "vg2": null,
                "ig2": 0,
                "ik": 0.005001353179972936
            }, {
                "va": 74.59727385377943,
                "vg1": 0,
                "ig1": 0,
                "vg2": null,
                "ig2": 0,
                "ik": 0.01164276048714479
            }],
            "vg1": 0
        }],
        "vg2": null,
        "logX": false,
        "logY": false,
        "name": "6s3pEV_vah10ma-TR",
        "raw": false,
        "unit": null,
        "triode": false
    }
}
