{
    "filename": "6s41s.json",
    "tubeGraph": {
        "c": [{
            "p": [{
                "va": 0,
                "vg1": -220,
                "ig1": 0,
                "vg2": null,
                "ig2": 0,
                "ik": 0
            }, {
                "va": 384.1985522233712,
                "vg1": -220,
                "ig1": 0,
                "vg2": null,
                "ig2": 0,
                "ik": 0.0009601181683899557
            }, {
                "va": 403.0610134436401,
                "vg1": -220,
                "ig1": 0,
                "vg2": null,
                "ig2": 0,
                "ik": 0.007200886262924667
            }, {
                "va": 423.9089968976215,
                "vg1": -220,
                "ig1": 0,
                "vg2": null,
                "ig2": 0,
                "ik": 0.01776218611521418
            }, {
                "va": 442.77145811789035,
                "vg1": -220,
                "ig1": 0,
                "vg2": null,
                "ig2": 0,
                "ik": 0.03408419497784342
            }, {
                "va": 460.14477766287484,
                "vg1": -220,
                "ig1": 0,
                "vg2": null,
                "ig2": 0,
                "ik": 0.058567208271787304
            }],
            "vg1": -220
        }, {
            "p": [{
                "va": 0,
                "vg1": -200,
                "ig1": 0,
                "vg2": null,
                "ig2": 0,
                "ik": 0
            }, {
                "va": 361.3650465356773,
                "vg1": -200,
                "ig1": 0,
                "vg2": null,
                "ig2": 0,
                "ik": 0.0028803545051698668
            }, {
                "va": 380.2275077559462,
                "vg1": -200,
                "ig1": 0,
                "vg2": null,
                "ig2": 0,
                "ik": 0.009601181683899557
            }, {
                "va": 398.593588417787,
                "vg1": -200,
                "ig1": 0,
                "vg2": null,
                "ig2": 0,
                "ik": 0.02448301329394387
            }, {
                "va": 416.46328852119956,
                "vg1": -200,
                "ig1": 0,
                "vg2": null,
                "ig2": 0,
                "ik": 0.04512555391432792
            }, {
                "va": 429.3691830403309,
                "vg1": -200,
                "ig1": 0,
                "vg2": null,
                "ig2": 0,
                "ik": 0.06768833087149187
            }],
            "vg1": -200
        }, {
            "p": [{
                "va": 0,
                "vg1": -180,
                "ig1": 0,
                "vg2": null,
                "ig2": 0,
                "ik": 0
            }, {
                "va": 322.1509824198552,
                "vg1": -180,
                "ig1": 0,
                "vg2": null,
                "ig2": 0,
                "ik": 0.0019202363367799113
            }, {
                "va": 350.4446742502585,
                "vg1": -180,
                "ig1": 0,
                "vg2": null,
                "ig2": 0,
                "ik": 0.016322008862629248
            }, {
                "va": 374.2709410548087,
                "vg1": -180,
                "ig1": 0,
                "vg2": null,
                "ig2": 0,
                "ik": 0.03504431314623339
            }, {
                "va": 403.55739400206824,
                "vg1": -180,
                "ig1": 0,
                "vg2": null,
                "ig2": 0,
                "ik": 0.0801698670605613
            }],
            "vg1": -180
        }, {
            "p": [{
                "va": 0,
                "vg1": -160,
                "ig1": 0,
                "vg2": null,
                "ig2": 0,
                "ik": 0
            }, {
                "va": 282.44053774560496,
                "vg1": -160,
                "ig1": 0,
                "vg2": null,
                "ig2": 0,
                "ik": 0.0019202363367799113
            }, {
                "va": 300.8066184074457,
                "vg1": -160,
                "ig1": 0,
                "vg2": null,
                "ig2": 0,
                "ik": 0.009601181683899557
            }, {
                "va": 321.158221302999,
                "vg1": -160,
                "ig1": 0,
                "vg2": null,
                "ig2": 0,
                "ik": 0.02256277695716396
            }, {
                "va": 339.02792140641156,
                "vg1": -160,
                "ig1": 0,
                "vg2": null,
                "ig2": 0,
                "ik": 0.041285081240768094
            }, {
                "va": 368.31437435367116,
                "vg1": -160,
                "ig1": 0,
                "vg2": null,
                "ig2": 0,
                "ik": 0.08737075332348597
            }],
            "vg1": -160
        }, {
            "p": [{
                "va": 0,
                "vg1": -140,
                "ig1": 0,
                "vg2": null,
                "ig2": 0,
                "ik": 0
            }, {
                "va": 246.2047569803516,
                "vg1": -140,
                "ig1": 0,
                "vg2": null,
                "ig2": 0,
                "ik": 0.0014401772525849334
            }, {
                "va": 266.55635987590483,
                "vg1": -140,
                "ig1": 0,
                "vg2": null,
                "ig2": 0,
                "ik": 0.007680945347119645
            }, {
                "va": 282.44053774560496,
                "vg1": -140,
                "ig1": 0,
                "vg2": null,
                "ig2": 0,
                "ik": 0.016322008862629248
            }, {
                "va": 297.3319544984488,
                "vg1": -140,
                "ig1": 0,
                "vg2": null,
                "ig2": 0,
                "ik": 0.03072378138847858
            }, {
                "va": 307.7559462254395,
                "vg1": -140,
                "ig1": 0,
                "vg2": null,
                "ig2": 0,
                "ik": 0.04704579025110783
            }, {
                "va": 332.57497414684593,
                "vg1": -140,
                "ig1": 0,
                "vg2": null,
                "ig2": 0,
                "ik": 0.09745199409158051
            }],
            "vg1": -140
        }, {
            "p": [{
                "va": 0,
                "vg1": -120,
                "ig1": 0,
                "vg2": null,
                "ig2": 0,
                "ik": 0
            }, {
                "va": 220.39296794208892,
                "vg1": -120,
                "ig1": 0,
                "vg2": null,
                "ig2": 0,
                "ik": 0.0014401772525849334
            }, {
                "va": 246.2047569803516,
                "vg1": -120,
                "ig1": 0,
                "vg2": null,
                "ig2": 0,
                "ik": 0.014401772525849335
            }, {
                "va": 264.07445708376423,
                "vg1": -120,
                "ig1": 0,
                "vg2": null,
                "ig2": 0,
                "ik": 0.03168389955686854
            }, {
                "va": 297.82833505687694,
                "vg1": -120,
                "ig1": 0,
                "vg2": null,
                "ig2": 0,
                "ik": 0.10801329394387
            }],
            "vg1": -120
        }, {
            "p": [{
                "va": 0,
                "vg1": -100,
                "ig1": 0,
                "vg2": null,
                "ig2": 0,
                "ik": 0
            }, {
                "va": 192.59565667011375,
                "vg1": -100,
                "ig1": 0,
                "vg2": null,
                "ig2": 0,
                "ik": 0.0009601181683899557
            }, {
                "va": 219.40020682523266,
                "vg1": -100,
                "ig1": 0,
                "vg2": null,
                "ig2": 0,
                "ik": 0.018722304283604135
            }, {
                "va": 234.29162357807652,
                "vg1": -100,
                "ig1": 0,
                "vg2": null,
                "ig2": 0,
                "ik": 0.043685376661742985
            }, {
                "va": 263.5780765253361,
                "vg1": -100,
                "ig1": 0,
                "vg2": null,
                "ig2": 0,
                "ik": 0.11761447562776958
            }],
            "vg1": -100
        }, {
            "p": [{
                "va": 0,
                "vg1": -90,
                "ig1": 0,
                "vg2": null,
                "ig2": 0,
                "ik": 0
            }, {
                "va": 167.77662874870734,
                "vg1": -90,
                "ig1": 0,
                "vg2": null,
                "ig2": 0,
                "ik": 0.0009601181683899557
            }, {
                "va": 194.08479834539813,
                "vg1": -90,
                "ig1": 0,
                "vg2": null,
                "ig2": 0,
                "ik": 0.021602658788774005
            }, {
                "va": 213.94002068252325,
                "vg1": -90,
                "ig1": 0,
                "vg2": null,
                "ig2": 0,
                "ik": 0.04704579025110783
            }, {
                "va": 243.22647362978282,
                "vg1": -90,
                "ig1": 0,
                "vg2": null,
                "ig2": 0,
                "ik": 0.11857459379615953
            }],
            "vg1": -90
        }, {
            "p": [{
                "va": 0,
                "vg1": -80,
                "ig1": 0,
                "vg2": null,
                "ig2": 0,
                "ik": 0
            }, {
                "va": 150.40330920372284,
                "vg1": -80,
                "ig1": 0,
                "vg2": null,
                "ig2": 0,
                "ik": 0.0009601181683899557
            }, {
                "va": 181.1789038262668,
                "vg1": -80,
                "ig1": 0,
                "vg2": null,
                "ig2": 0,
                "ik": 0.021602658788774005
            }, {
                "va": 194.08479834539813,
                "vg1": -80,
                "ig1": 0,
                "vg2": null,
                "ig2": 0,
                "ik": 0.043685376661742985
            }, {
                "va": 226.34953464322646,
                "vg1": -80,
                "ig1": 0,
                "vg2": null,
                "ig2": 0,
                "ik": 0.13969719350073856
            }],
            "vg1": -80
        }, {
            "p": [{
                "va": 0,
                "vg1": -70,
                "ig1": 0,
                "vg2": null,
                "ig2": 0,
                "ik": 0
            }, {
                "va": 136.50465356773526,
                "vg1": -70,
                "ig1": 0,
                "vg2": null,
                "ig2": 0,
                "ik": 0.0019202363367799113
            }, {
                "va": 159.83453981385728,
                "vg1": -70,
                "ig1": 0,
                "vg2": null,
                "ig2": 0,
                "ik": 0.025923190546528804
            }, {
                "va": 177.7042399172699,
                "vg1": -70,
                "ig1": 0,
                "vg2": null,
                "ig2": 0,
                "ik": 0.059527326440177254
            }, {
                "va": 206.49431230610134,
                "vg1": -70,
                "ig1": 0,
                "vg2": null,
                "ig2": 0,
                "ik": 0.14785819793205318
            }],
            "vg1": -70
        }, {
            "p": [{
                "va": 0,
                "vg1": -60,
                "ig1": 0,
                "vg2": null,
                "ig2": 0,
                "ik": 0
            }, {
                "va": 119.13133402275078,
                "vg1": -60,
                "ig1": 0,
                "vg2": null,
                "ig2": 0,
                "ik": 0.0009601181683899557
            }, {
                "va": 140.9720785935884,
                "vg1": -60,
                "ig1": 0,
                "vg2": null,
                "ig2": 0,
                "ik": 0.026883308714918758
            }, {
                "va": 153.87797311271976,
                "vg1": -60,
                "ig1": 0,
                "vg2": null,
                "ig2": 0,
                "ik": 0.04992614475627769
            }, {
                "va": 192.59565667011375,
                "vg1": -60,
                "ig1": 0,
                "vg2": null,
                "ig2": 0,
                "ik": 0.173301329394387
            }],
            "vg1": -60
        }, {
            "p": [{
                "va": 0,
                "vg1": -50,
                "ig1": 0,
                "vg2": null,
                "ig2": 0,
                "ik": 0
            }, {
                "va": 104.23991726990693,
                "vg1": -50,
                "ig1": 0,
                "vg2": null,
                "ig2": 0,
                "ik": 0.00048005908419497783
            }, {
                "va": 120.12409513960702,
                "vg1": -50,
                "ig1": 0,
                "vg2": null,
                "ig2": 0,
                "ik": 0.024002954209748892
            }, {
                "va": 140.9720785935884,
                "vg1": -50,
                "ig1": 0,
                "vg2": null,
                "ig2": 0,
                "ik": 0.0801698670605613
            }, {
                "va": 170.25853154084797,
                "vg1": -50,
                "ig1": 0,
                "vg2": null,
                "ig2": 0,
                "ik": 0.18530280649926142
            }],
            "vg1": -50
        }, {
            "p": [{
                "va": 0,
                "vg1": -40,
                "ig1": 0,
                "vg2": null,
                "ig2": 0,
                "ik": 0
            }, {
                "va": 79.91726990692864,
                "vg1": -40,
                "ig1": 0,
                "vg2": null,
                "ig2": 0,
                "ik": 0.0009601181683899557
            }, {
                "va": 97.29058945191314,
                "vg1": -40,
                "ig1": 0,
                "vg2": null,
                "ig2": 0,
                "ik": 0.021602658788774005
            }, {
                "va": 115.65667011375388,
                "vg1": -40,
                "ig1": 0,
                "vg2": null,
                "ig2": 0,
                "ik": 0.06000738552437223
            }, {
                "va": 155.36711478800413,
                "vg1": -40,
                "ig1": 0,
                "vg2": null,
                "ig2": 0,
                "ik": 0.23282865583456425
            }],
            "vg1": -40
        }, {
            "p": [{
                "va": 0,
                "vg1": -30,
                "ig1": 0,
                "vg2": null,
                "ig2": 0,
                "ik": 0
            }, {
                "va": 58.57290589451913,
                "vg1": -30,
                "ig1": 0,
                "vg2": null,
                "ig2": 0,
                "ik": 0.0009601181683899557
            }, {
                "va": 74.45708376421923,
                "vg1": -30,
                "ig1": 0,
                "vg2": null,
                "ig2": 0,
                "ik": 0.021602658788774005
            }, {
                "va": 85.87383660806618,
                "vg1": -30,
                "ig1": 0,
                "vg2": null,
                "ig2": 0,
                "ik": 0.04080502215657312
            }, {
                "va": 101.26163391933815,
                "vg1": -30,
                "ig1": 0,
                "vg2": null,
                "ig2": 0,
                "ik": 0.09937223042836041
            }, {
                "va": 136.00827300930712,
                "vg1": -30,
                "ig1": 0,
                "vg2": null,
                "ig2": 0,
                "ik": 0.24338995568685376
            }],
            "vg1": -30
        }, {
            "p": [{
                "va": 0,
                "vg1": -20,
                "ig1": 0,
                "vg2": null,
                "ig2": 0,
                "ik": 0
            }, {
                "va": 39.214064115822126,
                "vg1": -20,
                "ig1": 0,
                "vg2": null,
                "ig2": 0,
                "ik": 0.0014401772525849334
            }, {
                "va": 55.09824198552223,
                "vg1": -20,
                "ig1": 0,
                "vg2": null,
                "ig2": 0,
                "ik": 0.021602658788774005
            }, {
                "va": 67.01137538779732,
                "vg1": -20,
                "ig1": 0,
                "vg2": null,
                "ig2": 0,
                "ik": 0.05184638109305761
            }, {
                "va": 80.41365046535677,
                "vg1": -20,
                "ig1": 0,
                "vg2": null,
                "ig2": 0,
                "ik": 0.10081240768094536
            }, {
                "va": 114.16752843846949,
                "vg1": -20,
                "ig1": 0,
                "vg2": null,
                "ig2": 0,
                "ik": 0.28659527326440176
            }],
            "vg1": -20
        }, {
            "p": [{
                "va": 0,
                "vg1": -10,
                "ig1": 0,
                "vg2": null,
                "ig2": 0,
                "ik": 0
            }, {
                "va": 18.862461220268873,
                "vg1": -10,
                "ig1": 0,
                "vg2": null,
                "ig2": 0,
                "ik": 0.0009601181683899557
            }, {
                "va": 37.22854188210962,
                "vg1": -10,
                "ig1": 0,
                "vg2": null,
                "ig2": 0,
                "ik": 0.032644017725258496
            }, {
                "va": 51.623578076525334,
                "vg1": -10,
                "ig1": 0,
                "vg2": null,
                "ig2": 0,
                "ik": 0.08112998522895126
            }, {
                "va": 93.3195449844881,
                "vg1": -10,
                "ig1": 0,
                "vg2": null,
                "ig2": 0,
                "ik": 0.3187592319054653
            }],
            "vg1": -10
        }, {
            "p": [{
                "va": 0,
                "vg1": 1,
                "ig1": 0,
                "vg2": null,
                "ig2": 0,
                "ik": 0
            }, {
                "va": 8.934850051706308,
                "vg1": 1,
                "ig1": 0,
                "vg2": null,
                "ig2": 0,
                "ik": 0.019682422451994093
            }, {
                "va": 21.344364012409514,
                "vg1": 1,
                "ig1": 0,
                "vg2": null,
                "ig2": 0,
                "ik": 0.06096750369276219
            }, {
                "va": 42.1923474663909,
                "vg1": 1,
                "ig1": 0,
                "vg2": null,
                "ig2": 0,
                "ik": 0.17858197932053177
            }, {
                "va": 66.01861427094106,
                "vg1": 1,
                "ig1": 0,
                "vg2": null,
                "ig2": 0,
                "ik": 0.3187592319054653
            }],
            "vg1": 1
        }],
        "vg2": null,
        "logX": false,
        "logY": false,
        "name": "6S41S",
        "raw": false,
        "unit": null,
        "triode": false
    }
}
