{
    "filename": "6s7b-v.json",
    "tubeGraph": {
        "c": [{
            "p": [{
                "va": 0,
                "vg1": -5,
                "ig1": 0,
                "vg2": null,
                "ig2": 0,
                "ik": 0
            }, {
                "va": 306.33466135458167,
                "vg1": -5,
                "ig1": 0,
                "vg2": null,
                "ig2": 0,
                "ik": 0.00008733624454148471
            }, {
                "va": 340.0796812749004,
                "vg1": -5,
                "ig1": 0,
                "vg2": null,
                "ig2": 0,
                "ik": 0.0008384279475982532
            }, {
                "va": 371.195219123506,
                "vg1": -5,
                "ig1": 0,
                "vg2": null,
                "ig2": 0,
                "ik": 0.001764192139737991
            }, {
                "va": 411.51394422310756,
                "vg1": -5,
                "ig1": 0,
                "vg2": null,
                "ig2": 0,
                "ik": 0.0033187772925764194
            }, {
                "va": 471.99203187251,
                "vg1": -5,
                "ig1": 0,
                "vg2": null,
                "ig2": 0,
                "ik": 0.006131004366812227
            }],
            "vg1": -5
        }, {
            "p": [{
                "va": 0,
                "vg1": -4.5,
                "ig1": 0,
                "vg2": null,
                "ig2": 0,
                "ik": 0
            }, {
                "va": 283.9840637450199,
                "vg1": -4.5,
                "ig1": 0,
                "vg2": null,
                "ig2": 0,
                "ik": 0.0002096069868995633
            }, {
                "va": 309.40239043824704,
                "vg1": -4.5,
                "ig1": 0,
                "vg2": null,
                "ig2": 0,
                "ik": 0.0007860262008733624
            }, {
                "va": 343.14741035856576,
                "vg1": -4.5,
                "ig1": 0,
                "vg2": null,
                "ig2": 0,
                "ik": 0.001834061135371179
            }, {
                "va": 381.2749003984064,
                "vg1": -4.5,
                "ig1": 0,
                "vg2": null,
                "ig2": 0,
                "ik": 0.003353711790393013
            }, {
                "va": 422.0318725099602,
                "vg1": -4.5,
                "ig1": 0,
                "vg2": null,
                "ig2": 0,
                "ik": 0.005222707423580786
            }, {
                "va": 448.7649402390438,
                "vg1": -4.5,
                "ig1": 0,
                "vg2": null,
                "ig2": 0,
                "ik": 0.006620087336244541
            }],
            "vg1": -4.5
        }, {
            "p": [{
                "va": 0,
                "vg1": -4,
                "ig1": 0,
                "vg2": null,
                "ig2": 0,
                "ik": 0
            }, {
                "va": 240.597609561753,
                "vg1": -4,
                "ig1": 0,
                "vg2": null,
                "ig2": 0,
                "ik": 0.00013973799126637554
            }, {
                "va": 278.28685258964146,
                "vg1": -4,
                "ig1": 0,
                "vg2": null,
                "ig2": 0,
                "ik": 0.0007685589519650655
            }, {
                "va": 315.5378486055777,
                "vg1": -4,
                "ig1": 0,
                "vg2": null,
                "ig2": 0,
                "ik": 0.001834061135371179
            }, {
                "va": 354.9800796812749,
                "vg1": -4,
                "ig1": 0,
                "vg2": null,
                "ig2": 0,
                "ik": 0.003406113537117904
            }, {
                "va": 402.74900398406373,
                "vg1": -4,
                "ig1": 0,
                "vg2": null,
                "ig2": 0,
                "ik": 0.00588646288209607
            }, {
                "va": 423.7848605577689,
                "vg1": -4,
                "ig1": 0,
                "vg2": null,
                "ig2": 0,
                "ik": 0.0072314410480349344
            }],
            "vg1": -4
        }, {
            "p": [{
                "va": 0,
                "vg1": -3.5,
                "ig1": 0,
                "vg2": null,
                "ig2": 0,
                "ik": 0
            }, {
                "va": 211.67330677290838,
                "vg1": -3.5,
                "ig1": 0,
                "vg2": null,
                "ig2": 0,
                "ik": 0.00013973799126637554
            }, {
                "va": 243.66533864541833,
                "vg1": -3.5,
                "ig1": 0,
                "vg2": null,
                "ig2": 0,
                "ik": 0.0006986899563318777
            }, {
                "va": 271.2749003984064,
                "vg1": -3.5,
                "ig1": 0,
                "vg2": null,
                "ig2": 0,
                "ik": 0.0015021834061135371
            }, {
                "va": 305.4581673306773,
                "vg1": -3.5,
                "ig1": 0,
                "vg2": null,
                "ig2": 0,
                "ik": 0.002777292576419214
            }, {
                "va": 342.27091633466136,
                "vg1": -3.5,
                "ig1": 0,
                "vg2": null,
                "ig2": 0,
                "ik": 0.004558951965065503
            }, {
                "va": 376.8924302788845,
                "vg1": -3.5,
                "ig1": 0,
                "vg2": null,
                "ig2": 0,
                "ik": 0.006567685589519651
            }, {
                "va": 396.6135458167331,
                "vg1": -3.5,
                "ig1": 0,
                "vg2": null,
                "ig2": 0,
                "ik": 0.007825327510917031
            }],
            "vg1": -3.5
        }, {
            "p": [{
                "va": 0,
                "vg1": -3,
                "ig1": 0,
                "vg2": null,
                "ig2": 0,
                "ik": 0
            }, {
                "va": 186.25498007968127,
                "vg1": -3,
                "ig1": 0,
                "vg2": null,
                "ig2": 0,
                "ik": 0.00010480349344978165
            }, {
                "va": 213.86454183266932,
                "vg1": -3,
                "ig1": 0,
                "vg2": null,
                "ig2": 0,
                "ik": 0.0007510917030567686
            }, {
                "va": 247.60956175298804,
                "vg1": -3,
                "ig1": 0,
                "vg2": null,
                "ig2": 0,
                "ik": 0.0017991266375545851
            }, {
                "va": 281.792828685259,
                "vg1": -3,
                "ig1": 0,
                "vg2": null,
                "ig2": 0,
                "ik": 0.0032314410480349344
            }, {
                "va": 310.7171314741036,
                "vg1": -3,
                "ig1": 0,
                "vg2": null,
                "ig2": 0,
                "ik": 0.004751091703056769
            }, {
                "va": 341.39442231075697,
                "vg1": -3,
                "ig1": 0,
                "vg2": null,
                "ig2": 0,
                "ik": 0.006532751091703057
            }, {
                "va": 369.44223107569724,
                "vg1": -3,
                "ig1": 0,
                "vg2": null,
                "ig2": 0,
                "ik": 0.008419213973799126
            }],
            "vg1": -3
        }, {
            "p": [{
                "va": 0,
                "vg1": -2.5,
                "ig1": 0,
                "vg2": null,
                "ig2": 0,
                "ik": 0
            }, {
                "va": 160.8366533864542,
                "vg1": -2.5,
                "ig1": 0,
                "vg2": null,
                "ig2": 0,
                "ik": 0.00017467248908296942
            }, {
                "va": 191.5139442231076,
                "vg1": -2.5,
                "ig1": 0,
                "vg2": null,
                "ig2": 0,
                "ik": 0.0008733624454148472
            }, {
                "va": 220.4382470119522,
                "vg1": -2.5,
                "ig1": 0,
                "vg2": null,
                "ig2": 0,
                "ik": 0.001816593886462882
            }, {
                "va": 246.73306772908367,
                "vg1": -2.5,
                "ig1": 0,
                "vg2": null,
                "ig2": 0,
                "ik": 0.0029170305676855897
            }, {
                "va": 271.7131474103586,
                "vg1": -2.5,
                "ig1": 0,
                "vg2": null,
                "ig2": 0,
                "ik": 0.004192139737991266
            }, {
                "va": 297.56972111553785,
                "vg1": -2.5,
                "ig1": 0,
                "vg2": null,
                "ig2": 0,
                "ik": 0.005694323144104804
            }, {
                "va": 342.27091633466136,
                "vg1": -2.5,
                "ig1": 0,
                "vg2": null,
                "ig2": 0,
                "ik": 0.008890829694323145
            }],
            "vg1": -2.5
        }, {
            "p": [{
                "va": 0,
                "vg1": -2,
                "ig1": 0,
                "vg2": null,
                "ig2": 0,
                "ik": 0
            }, {
                "va": 129.72111553784862,
                "vg1": -2,
                "ig1": 0,
                "vg2": null,
                "ig2": 0,
                "ik": 0.00017467248908296942
            }, {
                "va": 158.64541832669323,
                "vg1": -2,
                "ig1": 0,
                "vg2": null,
                "ig2": 0,
                "ik": 0.0008209606986899564
            }, {
                "va": 194.58167330677293,
                "vg1": -2,
                "ig1": 0,
                "vg2": null,
                "ig2": 0,
                "ik": 0.0019213973799126639
            }, {
                "va": 225.2589641434263,
                "vg1": -2,
                "ig1": 0,
                "vg2": null,
                "ig2": 0,
                "ik": 0.003353711790393013
            }, {
                "va": 254.62151394422312,
                "vg1": -2,
                "ig1": 0,
                "vg2": null,
                "ig2": 0,
                "ik": 0.004960698689956332
            }, {
                "va": 296.6932270916335,
                "vg1": -2,
                "ig1": 0,
                "vg2": null,
                "ig2": 0,
                "ik": 0.00794759825327511
            }, {
                "va": 317.29083665338646,
                "vg1": -2,
                "ig1": 0,
                "vg2": null,
                "ig2": 0,
                "ik": 0.009537117903930132
            }],
            "vg1": -2
        }, {
            "p": [{
                "va": 0,
                "vg1": -1.5,
                "ig1": 0,
                "vg2": null,
                "ig2": 0,
                "ik": 0
            }, {
                "va": 94.22310756972112,
                "vg1": -1.5,
                "ig1": 0,
                "vg2": null,
                "ig2": 0,
                "ik": 0.0001222707423580786
            }, {
                "va": 121.83266932270917,
                "vg1": -1.5,
                "ig1": 0,
                "vg2": null,
                "ig2": 0,
                "ik": 0.0006637554585152838
            }, {
                "va": 147.68924302788844,
                "vg1": -1.5,
                "ig1": 0,
                "vg2": null,
                "ig2": 0,
                "ik": 0.0013799126637554586
            }, {
                "va": 171.35458167330677,
                "vg1": -1.5,
                "ig1": 0,
                "vg2": null,
                "ig2": 0,
                "ik": 0.002410480349344978
            }, {
                "va": 198.08764940239044,
                "vg1": -1.5,
                "ig1": 0,
                "vg2": null,
                "ig2": 0,
                "ik": 0.0037379912663755457
            }, {
                "va": 228.76494023904382,
                "vg1": -1.5,
                "ig1": 0,
                "vg2": null,
                "ig2": 0,
                "ik": 0.005554585152838428
            }, {
                "va": 257.68924302788844,
                "vg1": -1.5,
                "ig1": 0,
                "vg2": null,
                "ig2": 0,
                "ik": 0.007580786026200873
            }, {
                "va": 288.804780876494,
                "vg1": -1.5,
                "ig1": 0,
                "vg2": null,
                "ig2": 0,
                "ik": 0.010008733624454149
            }],
            "vg1": -1.5
        }, {
            "p": [{
                "va": 0,
                "vg1": -1,
                "ig1": 0,
                "vg2": null,
                "ig2": 0,
                "ik": 0
            }, {
                "va": 63.10756972111554,
                "vg1": -1,
                "ig1": 0,
                "vg2": null,
                "ig2": 0,
                "ik": 0.00013973799126637554
            }, {
                "va": 92.47011952191235,
                "vg1": -1,
                "ig1": 0,
                "vg2": null,
                "ig2": 0,
                "ik": 0.0007161572052401747
            }, {
                "va": 121.83266932270917,
                "vg1": -1,
                "ig1": 0,
                "vg2": null,
                "ig2": 0,
                "ik": 0.001764192139737991
            }, {
                "va": 146.37450199203187,
                "vg1": -1,
                "ig1": 0,
                "vg2": null,
                "ig2": 0,
                "ik": 0.002847161572052402
            }, {
                "va": 183.62549800796813,
                "vg1": -1,
                "ig1": 0,
                "vg2": null,
                "ig2": 0,
                "ik": 0.004943231441048035
            }, {
                "va": 222.62948207171314,
                "vg1": -1,
                "ig1": 0,
                "vg2": null,
                "ig2": 0,
                "ik": 0.007510917030567685
            }, {
                "va": 264.26294820717135,
                "vg1": -1,
                "ig1": 0,
                "vg2": null,
                "ig2": 0,
                "ik": 0.010724890829694323
            }],
            "vg1": -1
        }, {
            "p": [{
                "va": 0,
                "vg1": -0.5,
                "ig1": 0,
                "vg2": null,
                "ig2": 0,
                "ik": 0
            }, {
                "va": 34.18326693227092,
                "vg1": -0.5,
                "ig1": 0,
                "vg2": null,
                "ig2": 0,
                "ik": 0.00013973799126637554
            }, {
                "va": 56.97211155378486,
                "vg1": -0.5,
                "ig1": 0,
                "vg2": null,
                "ig2": 0,
                "ik": 0.0005589519650655021
            }, {
                "va": 96.85258964143426,
                "vg1": -0.5,
                "ig1": 0,
                "vg2": null,
                "ig2": 0,
                "ik": 0.0019388646288209608
            }, {
                "va": 136.29482071713147,
                "vg1": -0.5,
                "ig1": 0,
                "vg2": null,
                "ig2": 0,
                "ik": 0.003947598253275109
            }, {
                "va": 171.79282868525897,
                "vg1": -0.5,
                "ig1": 0,
                "vg2": null,
                "ig2": 0,
                "ik": 0.006323144104803493
            }, {
                "va": 207.29083665338646,
                "vg1": -0.5,
                "ig1": 0,
                "vg2": null,
                "ig2": 0,
                "ik": 0.008943231441048034
            }, {
                "va": 235.3386454183267,
                "vg1": -0.5,
                "ig1": 0,
                "vg2": null,
                "ig2": 0,
                "ik": 0.01137117903930131
            }],
            "vg1": -0.5
        }, {
            "p": [{
                "va": 0,
                "vg1": 0,
                "ig1": 0,
                "vg2": null,
                "ig2": 0,
                "ik": 0
            }, {
                "va": 21.47410358565737,
                "vg1": 0,
                "ig1": 0,
                "vg2": null,
                "ig2": 0,
                "ik": 0.0005589519650655021
            }, {
                "va": 47.330677290836654,
                "vg1": 0,
                "ig1": 0,
                "vg2": null,
                "ig2": 0,
                "ik": 0.0012751091703056769
            }, {
                "va": 71.43426294820718,
                "vg1": 0,
                "ig1": 0,
                "vg2": null,
                "ig2": 0,
                "ik": 0.0023231441048034937
            }, {
                "va": 103.86454183266933,
                "vg1": 0,
                "ig1": 0,
                "vg2": null,
                "ig2": 0,
                "ik": 0.003965065502183406
            }, {
                "va": 147.68924302788844,
                "vg1": 0,
                "ig1": 0,
                "vg2": null,
                "ig2": 0,
                "ik": 0.0069868995633187774
            }, {
                "va": 205.9760956175299,
                "vg1": 0,
                "ig1": 0,
                "vg2": null,
                "ig2": 0,
                "ik": 0.011982532751091703
            }],
            "vg1": 0
        }],
        "vg2": null,
        "logX": false,
        "logY": false,
        "name": "6s7b-v",
        "raw": false,
        "unit": null,
        "triode": false
    }
}
