{
    "filename": "6v6 vg2 100v.json",
    "tubeGraph": {
        "c": [{
            "p": [{
                "va": 0,
                "vg1": -12.5,
                "ig1": 0,
                "vg2": 100,
                "ig2": 0,
                "ik": 0
            }, {
                "va": 299.66222222222217,
                "vg1": -12.5,
                "ig1": 0,
                "vg2": 100,
                "ig2": 0,
                "ik": 0.001869158878504673
            }, {
                "va": 557.0133333333333,
                "vg1": -12.5,
                "ig1": 0,
                "vg2": 100,
                "ig2": 0,
                "ik": 0.00249221183800623
            }],
            "vg1": -12.5
        }, {
            "p": [{
                "va": 0,
                "vg1": -10,
                "ig1": 0,
                "vg2": 100,
                "ig2": 0,
                "ik": 0
            }, {
                "va": 9.457777777777777,
                "vg1": -10,
                "ig1": 0,
                "vg2": 100,
                "ig2": 0,
                "ik": 0.0022429906542056075
            }, {
                "va": 24.888888888888886,
                "vg1": -10,
                "ig1": 0,
                "vg2": 100,
                "ig2": 0,
                "ik": 0.00249221183800623
            }, {
                "va": 120.46222222222221,
                "vg1": -10,
                "ig1": 0,
                "vg2": 100,
                "ig2": 0,
                "ik": 0.0033644859813084112
            }, {
                "va": 250.3822222222222,
                "vg1": -10,
                "ig1": 0,
                "vg2": 100,
                "ig2": 0,
                "ik": 0.003738317757009346
            }, {
                "va": 557.5111111111111,
                "vg1": -10,
                "ig1": 0,
                "vg2": 100,
                "ig2": 0,
                "ik": 0.006479750778816199
            }],
            "vg1": -10
        }, {
            "p": [{
                "va": 0,
                "vg1": -7.5,
                "ig1": 0,
                "vg2": 100,
                "ig2": 0,
                "ik": 0
            }, {
                "va": 5.973333333333333,
                "vg1": -7.5,
                "ig1": 0,
                "vg2": 100,
                "ig2": 0,
                "ik": 0.0052336448598130835
            }, {
                "va": 18.417777777777776,
                "vg1": -7.5,
                "ig1": 0,
                "vg2": 100,
                "ig2": 0,
                "ik": 0.006105919003115265
            }, {
                "va": 47.288888888888884,
                "vg1": -7.5,
                "ig1": 0,
                "vg2": 100,
                "ig2": 0,
                "ik": 0.006604361370716511
            }, {
                "va": 100.5511111111111,
                "vg1": -7.5,
                "ig1": 0,
                "vg2": 100,
                "ig2": 0,
                "ik": 0.00822429906542056
            }, {
                "va": 200.60444444444443,
                "vg1": -7.5,
                "ig1": 0,
                "vg2": 100,
                "ig2": 0,
                "ik": 0.008722741433021807
            }, {
                "va": 399.7155555555555,
                "vg1": -7.5,
                "ig1": 0,
                "vg2": 100,
                "ig2": 0,
                "ik": 0.010467289719626167
            }, {
                "va": 544.071111111111,
                "vg1": -7.5,
                "ig1": 0,
                "vg2": 100,
                "ig2": 0,
                "ik": 0.011962616822429906
            }],
            "vg1": -7.5
        }, {
            "p": [{
                "va": 0,
                "vg1": -5,
                "ig1": 0,
                "vg2": 100,
                "ig2": 0,
                "ik": 0
            }, {
                "va": 14.435555555555554,
                "vg1": -5,
                "ig1": 0,
                "vg2": 100,
                "ig2": 0,
                "ik": 0.011339563862928349
            }, {
                "va": 34.346666666666664,
                "vg1": -5,
                "ig1": 0,
                "vg2": 100,
                "ig2": 0,
                "ik": 0.011962616822429906
            }, {
                "va": 58.73777777777777,
                "vg1": -5,
                "ig1": 0,
                "vg2": 100,
                "ig2": 0,
                "ik": 0.013956386292834891
            }, {
                "va": 149.83111111111108,
                "vg1": -5,
                "ig1": 0,
                "vg2": 100,
                "ig2": 0,
                "ik": 0.01632398753894081
            }, {
                "va": 249.88444444444443,
                "vg1": -5,
                "ig1": 0,
                "vg2": 100,
                "ig2": 0,
                "ik": 0.01769470404984424
            }, {
                "va": 399.2177777777777,
                "vg1": -5,
                "ig1": 0,
                "vg2": 100,
                "ig2": 0,
                "ik": 0.019563862928348906
            }, {
                "va": 533.12,
                "vg1": -5,
                "ig1": 0,
                "vg2": 100,
                "ig2": 0,
                "ik": 0.020436137071651088
            }],
            "vg1": -5
        }, {
            "p": [{
                "va": 0,
                "vg1": -2.5,
                "ig1": 0,
                "vg2": 100,
                "ig2": 0,
                "ik": 0
            }, {
                "va": 10.95111111111111,
                "vg1": -2.5,
                "ig1": 0,
                "vg2": 100,
                "ig2": 0,
                "ik": 0.016947040498442367
            }, {
                "va": 48.78222222222222,
                "vg1": -2.5,
                "ig1": 0,
                "vg2": 100,
                "ig2": 0,
                "ik": 0.021806853582554516
            }, {
                "va": 99.55555555555554,
                "vg1": -2.5,
                "ig1": 0,
                "vg2": 100,
                "ig2": 0,
                "ik": 0.02454828660436137
            }, {
                "va": 198.61333333333332,
                "vg1": -2.5,
                "ig1": 0,
                "vg2": 100,
                "ig2": 0,
                "ik": 0.02691588785046729
            }, {
                "va": 303.14666666666665,
                "vg1": -2.5,
                "ig1": 0,
                "vg2": 100,
                "ig2": 0,
                "ik": 0.02866043613707165
            }, {
                "va": 399.2177777777777,
                "vg1": -2.5,
                "ig1": 0,
                "vg2": 100,
                "ig2": 0,
                "ik": 0.0302803738317757
            }, {
                "va": 516.6933333333333,
                "vg1": -2.5,
                "ig1": 0,
                "vg2": 100,
                "ig2": 0,
                "ik": 0.03152647975077882
            }],
            "vg1": -2.5
        }, {
            "p": [{
                "va": 0,
                "vg1": 0,
                "ig1": 0,
                "vg2": 100,
                "ig2": 0,
                "ik": 0
            }, {
                "va": 20.408888888888885,
                "vg1": 0,
                "ig1": 0,
                "vg2": 100,
                "ig2": 0,
                "ik": 0.03015576323987539
            }, {
                "va": 48.78222222222222,
                "vg1": 0,
                "ig1": 0,
                "vg2": 100,
                "ig2": 0,
                "ik": 0.03414330218068536
            }, {
                "va": 100.05333333333333,
                "vg1": 0,
                "ig1": 0,
                "vg2": 100,
                "ig2": 0,
                "ik": 0.036884735202492205
            }, {
                "va": 199.60888888888886,
                "vg1": 0,
                "ig1": 0,
                "vg2": 100,
                "ig2": 0,
                "ik": 0.03937694704049844
            }, {
                "va": 300.15999999999997,
                "vg1": 0,
                "ig1": 0,
                "vg2": 100,
                "ig2": 0,
                "ik": 0.04099688473520249
            }, {
                "va": 498.2755555555555,
                "vg1": 0,
                "ig1": 0,
                "vg2": 100,
                "ig2": 0,
                "ik": 0.044485981308411214
            }],
            "vg1": 0
        }],
        "vg2": 100,
        "logX": false,
        "logY": false,
        "name": "6V6 VG2 100V",
        "raw": false,
        "unit": null,
        "triode": false
    }
}
