{
    "filename": "6v6gt vg2=250v transfert chart.json",
    "tubeGraph": {
        "c": [{
            "p": [{
                "va": 0,
                "vg1": -30,
                "ig1": 0,
                "vg2": 250,
                "ig2": 0,
                "ik": 0
            }, {
                "va": 3.284072249589491,
                "vg1": -30,
                "ig1": 0,
                "vg2": 250,
                "ig2": 0,
                "ik": 0.0027674418604651165
            }, {
                "va": 73.89162561576354,
                "vg1": -30,
                "ig1": 0,
                "vg2": 250,
                "ig2": 0,
                "ik": 0.0022790697674418604
            }, {
                "va": 225.7799671592775,
                "vg1": -30,
                "ig1": 0,
                "vg2": 250,
                "ig2": 0,
                "ik": 0.004395348837209302
            }, {
                "va": 399.83579638752053,
                "vg1": -30,
                "ig1": 0,
                "vg2": 250,
                "ig2": 0,
                "ik": 0.004232558139534884
            }],
            "vg1": -30
        }, {
            "p": [{
                "va": 0,
                "vg1": -25,
                "ig1": 0,
                "vg2": 250,
                "ig2": 0,
                "ik": 0
            }, {
                "va": 3.6945812807881775,
                "vg1": -25,
                "ig1": 0,
                "vg2": 250,
                "ig2": 0,
                "ik": 0.005860465116279069
            }, {
                "va": 10.262725779967159,
                "vg1": -25,
                "ig1": 0,
                "vg2": 250,
                "ig2": 0,
                "ik": 0.006674418604651162
            }, {
                "va": 48.85057471264368,
                "vg1": -25,
                "ig1": 0,
                "vg2": 250,
                "ig2": 0,
                "ik": 0.004395348837209302
            }, {
                "va": 202.38095238095238,
                "vg1": -25,
                "ig1": 0,
                "vg2": 250,
                "ig2": 0,
                "ik": 0.008627906976744185
            }, {
                "va": 399.42528735632186,
                "vg1": -25,
                "ig1": 0,
                "vg2": 250,
                "ig2": 0,
                "ik": 0.009116279069767442
            }],
            "vg1": -25
        }, {
            "p": [{
                "va": 0,
                "vg1": -22.5,
                "ig1": 0,
                "vg2": 250,
                "ig2": 0,
                "ik": 0
            }, {
                "va": 2.4630541871921183,
                "vg1": -22.5,
                "ig1": 0,
                "vg2": 250,
                "ig2": 0,
                "ik": 0.0076511627906976735
            }, {
                "va": 7.7996715927750415,
                "vg1": -22.5,
                "ig1": 0,
                "vg2": 250,
                "ig2": 0,
                "ik": 0.00927906976744186
            }, {
                "va": 52.545155993431855,
                "vg1": -22.5,
                "ig1": 0,
                "vg2": 250,
                "ig2": 0,
                "ik": 0.007325581395348837
            }, {
                "va": 178.57142857142858,
                "vg1": -22.5,
                "ig1": 0,
                "vg2": 250,
                "ig2": 0,
                "ik": 0.01286046511627907
            }, {
                "va": 399.42528735632186,
                "vg1": -22.5,
                "ig1": 0,
                "vg2": 250,
                "ig2": 0,
                "ik": 0.014651162790697675
            }],
            "vg1": -22.5
        }, {
            "p": [{
                "va": 0,
                "vg1": -20,
                "ig1": 0,
                "vg2": 250,
                "ig2": 0,
                "ik": 0
            }, {
                "va": 3.6945812807881775,
                "vg1": -20,
                "ig1": 0,
                "vg2": 250,
                "ig2": 0,
                "ik": 0.01041860465116279
            }, {
                "va": 12.31527093596059,
                "vg1": -20,
                "ig1": 0,
                "vg2": 250,
                "ig2": 0,
                "ik": 0.013186046511627905
            }, {
                "va": 43.10344827586207,
                "vg1": -20,
                "ig1": 0,
                "vg2": 250,
                "ig2": 0,
                "ik": 0.011395348837209301
            }, {
                "va": 176.51888341543514,
                "vg1": -20,
                "ig1": 0,
                "vg2": 250,
                "ig2": 0,
                "ik": 0.019209302325581393
            }, {
                "va": 399.83579638752053,
                "vg1": -20,
                "ig1": 0,
                "vg2": 250,
                "ig2": 0,
                "ik": 0.021325581395348833
            }],
            "vg1": -20
        }, {
            "p": [{
                "va": 0,
                "vg1": -17.5,
                "ig1": 0,
                "vg2": 250,
                "ig2": 0,
                "ik": 0
            }, {
                "va": 5.336617405582923,
                "vg1": -17.5,
                "ig1": 0,
                "vg2": 250,
                "ig2": 0,
                "ik": 0.01627906976744186
            }, {
                "va": 13.136288998357964,
                "vg1": -17.5,
                "ig1": 0,
                "vg2": 250,
                "ig2": 0,
                "ik": 0.018232558139534883
            }, {
                "va": 58.29228243021347,
                "vg1": -17.5,
                "ig1": 0,
                "vg2": 250,
                "ig2": 0,
                "ik": 0.017093023255813952
            }, {
                "va": 99.3431855500821,
                "vg1": -17.5,
                "ig1": 0,
                "vg2": 250,
                "ig2": 0,
                "ik": 0.020186046511627906
            }, {
                "va": 156.4039408866995,
                "vg1": -17.5,
                "ig1": 0,
                "vg2": 250,
                "ig2": 0,
                "ik": 0.02523255813953488
            }, {
                "va": 267.2413793103448,
                "vg1": -17.5,
                "ig1": 0,
                "vg2": 250,
                "ig2": 0,
                "ik": 0.02767441860465116
            }, {
                "va": 399.0147783251232,
                "vg1": -17.5,
                "ig1": 0,
                "vg2": 250,
                "ig2": 0,
                "ik": 0.02865116279069767
            }],
            "vg1": -17.5
        }, {
            "p": [{
                "va": 0,
                "vg1": -15,
                "ig1": 0,
                "vg2": 250,
                "ig2": 0,
                "ik": 0
            }, {
                "va": 9.0311986863711,
                "vg1": -15,
                "ig1": 0,
                "vg2": 250,
                "ig2": 0,
                "ik": 0.022627906976744185
            }, {
                "va": 53.77668308702792,
                "vg1": -15,
                "ig1": 0,
                "vg2": 250,
                "ig2": 0,
                "ik": 0.024093023255813955
            }, {
                "va": 187.60262725779967,
                "vg1": -15,
                "ig1": 0,
                "vg2": 250,
                "ig2": 0,
                "ik": 0.034186046511627904
            }, {
                "va": 399.42528735632186,
                "vg1": -15,
                "ig1": 0,
                "vg2": 250,
                "ig2": 0,
                "ik": 0.037767441860465115
            }],
            "vg1": -15
        }, {
            "p": [{
                "va": 0,
                "vg1": -12.5,
                "ig1": 0,
                "vg2": 250,
                "ig2": 0,
                "ik": 0
            }, {
                "va": 7.7996715927750415,
                "vg1": -12.5,
                "ig1": 0,
                "vg2": 250,
                "ig2": 0,
                "ik": 0.026046511627906978
            }, {
                "va": 42.692939244663386,
                "vg1": -12.5,
                "ig1": 0,
                "vg2": 250,
                "ig2": 0,
                "ik": 0.03223255813953488
            }, {
                "va": 194.58128078817734,
                "vg1": -12.5,
                "ig1": 0,
                "vg2": 250,
                "ig2": 0,
                "ik": 0.044116279069767436
            }, {
                "va": 399.42528735632186,
                "vg1": -12.5,
                "ig1": 0,
                "vg2": 250,
                "ig2": 0,
                "ik": 0.04753488372093023
            }],
            "vg1": -12.5
        }, {
            "p": [{
                "va": 0,
                "vg1": -10,
                "ig1": 0,
                "vg2": 250,
                "ig2": 0,
                "ik": 0
            }, {
                "va": 9.852216748768473,
                "vg1": -10,
                "ig1": 0,
                "vg2": 250,
                "ig2": 0,
                "ik": 0.03125581395348837
            }, {
                "va": 43.51395730706076,
                "vg1": -10,
                "ig1": 0,
                "vg2": 250,
                "ig2": 0,
                "ik": 0.041348837209302325
            }, {
                "va": 217.98029556650246,
                "vg1": -10,
                "ig1": 0,
                "vg2": 250,
                "ig2": 0,
                "ik": 0.05583720930232557
            }, {
                "va": 399.0147783251232,
                "vg1": -10,
                "ig1": 0,
                "vg2": 250,
                "ig2": 0,
                "ik": 0.05844186046511628
            }],
            "vg1": -10
        }, {
            "p": [{
                "va": 0,
                "vg1": -7.5,
                "ig1": 0,
                "vg2": 250,
                "ig2": 0,
                "ik": 0
            }, {
                "va": 11.904761904761905,
                "vg1": -7.5,
                "ig1": 0,
                "vg2": 250,
                "ig2": 0,
                "ik": 0.04020930232558139
            }, {
                "va": 50.08210180623974,
                "vg1": -7.5,
                "ig1": 0,
                "vg2": 250,
                "ig2": 0,
                "ik": 0.054046511627906975
            }, {
                "va": 73.89162561576354,
                "vg1": -7.5,
                "ig1": 0,
                "vg2": 250,
                "ig2": 0,
                "ik": 0.05648837209302325
            }, {
                "va": 162.15106732348113,
                "vg1": -7.5,
                "ig1": 0,
                "vg2": 250,
                "ig2": 0,
                "ik": 0.06527906976744186
            }, {
                "va": 399.83579638752053,
                "vg1": -7.5,
                "ig1": 0,
                "vg2": 250,
                "ig2": 0,
                "ik": 0.07130232558139535
            }],
            "vg1": -7.5
        }, {
            "p": [{
                "va": 0,
                "vg1": -5,
                "ig1": 0,
                "vg2": 250,
                "ig2": 0,
                "ik": 0
            }, {
                "va": 22.57799671592775,
                "vg1": -5,
                "ig1": 0,
                "vg2": 250,
                "ig2": 0,
                "ik": 0.059581395348837204
            }, {
                "va": 59.523809523809526,
                "vg1": -5,
                "ig1": 0,
                "vg2": 250,
                "ig2": 0,
                "ik": 0.06886046511627907
            }, {
                "va": 169.54022988505747,
                "vg1": -5,
                "ig1": 0,
                "vg2": 250,
                "ig2": 0,
                "ik": 0.07911627906976744
            }, {
                "va": 399.42528735632186,
                "vg1": -5,
                "ig1": 0,
                "vg2": 250,
                "ig2": 0,
                "ik": 0.08481395348837209
            }],
            "vg1": -5
        }, {
            "p": [{
                "va": 0,
                "vg1": -2.5,
                "ig1": 0,
                "vg2": 250,
                "ig2": 0,
                "ik": 0
            }, {
                "va": 26.683087027914613,
                "vg1": -2.5,
                "ig1": 0,
                "vg2": 250,
                "ig2": 0,
                "ik": 0.07618604651162791
            }, {
                "va": 61.98686371100165,
                "vg1": -2.5,
                "ig1": 0,
                "vg2": 250,
                "ig2": 0,
                "ik": 0.0841627906976744
            }, {
                "va": 212.23316912972086,
                "vg1": -2.5,
                "ig1": 0,
                "vg2": 250,
                "ig2": 0,
                "ik": 0.09539534883720929
            }, {
                "va": 399.83579638752053,
                "vg1": -2.5,
                "ig1": 0,
                "vg2": 250,
                "ig2": 0,
                "ik": 0.10027906976744186
            }],
            "vg1": -2.5
        }, {
            "p": [{
                "va": 0,
                "vg1": 0,
                "ig1": 0,
                "vg2": 250,
                "ig2": 0,
                "ik": 0
            }, {
                "va": 32.01970443349754,
                "vg1": 0,
                "ig1": 0,
                "vg2": 250,
                "ig2": 0,
                "ik": 0.09311627906976742
            }, {
                "va": 64.86042692939245,
                "vg1": 0,
                "ig1": 0,
                "vg2": 250,
                "ig2": 0,
                "ik": 0.0997906976744186
            }, {
                "va": 88.25944170771757,
                "vg1": 0,
                "ig1": 0,
                "vg2": 250,
                "ig2": 0,
                "ik": 0.10223255813953487
            }, {
                "va": 139.16256157635468,
                "vg1": 0,
                "ig1": 0,
                "vg2": 250,
                "ig2": 0,
                "ik": 0.1067906976744186
            }, {
                "va": 222.90640394088672,
                "vg1": 0,
                "ig1": 0,
                "vg2": 250,
                "ig2": 0,
                "ik": 0.11102325581395349
            }, {
                "va": 399.42528735632186,
                "vg1": 0,
                "ig1": 0,
                "vg2": 250,
                "ig2": 0,
                "ik": 0.11493023255813953
            }],
            "vg1": 0
        }],
        "vg2": 250,
        "logX": false,
        "logY": false,
        "name": "6V6GT Vg2=250V Transfert Chart",
        "raw": false,
        "unit": null,
        "triode": false
    }
}
