{
    "filename": "6z32b-g2=120v.json",
    "tubeGraph": {
        "c": [{
            "p": [{
                "va": 0,
                "vg1": -2.5,
                "ig1": 0,
                "vg2": 120,
                "ig2": 0,
                "ik": 0
            }, {
                "va": 3.270735524256651,
                "vg1": -2.5,
                "ig1": 0,
                "vg2": 120,
                "ig2": 0,
                "ik": 0.0010560640732265446
            }, {
                "va": 6.244131455399061,
                "vg1": -2.5,
                "ig1": 0,
                "vg2": 120,
                "ig2": 0,
                "ik": 0.0014279176201373
            }, {
                "va": 9.663536776212833,
                "vg1": -2.5,
                "ig1": 0,
                "vg2": 120,
                "ig2": 0,
                "ik": 0.0016510297482837531
            }, {
                "va": 19.327073552425666,
                "vg1": -2.5,
                "ig1": 0,
                "vg2": 120,
                "ig2": 0,
                "ik": 0.001814645308924485
            }, {
                "va": 29.58528951486698,
                "vg1": -2.5,
                "ig1": 0,
                "vg2": 120,
                "ig2": 0,
                "ik": 0.0019187643020594967
            }, {
                "va": 181.377151799687,
                "vg1": -2.5,
                "ig1": 0,
                "vg2": 120,
                "ig2": 0,
                "ik": 0.002305491990846682
            }],
            "vg1": -2.5
        }, {
            "p": [{
                "va": 0,
                "vg1": -2,
                "ig1": 0,
                "vg2": 120,
                "ig2": 0,
                "ik": 0
            }, {
                "va": 2.97339593114241,
                "vg1": -2,
                "ig1": 0,
                "vg2": 120,
                "ig2": 0,
                "ik": 0.0020377574370709383
            }, {
                "va": 7.136150234741784,
                "vg1": -2,
                "ig1": 0,
                "vg2": 120,
                "ig2": 0,
                "ik": 0.002989702517162471
            }, {
                "va": 10.258215962441314,
                "vg1": -2,
                "ig1": 0,
                "vg2": 120,
                "ig2": 0,
                "ik": 0.0033318077803203665
            }, {
                "va": 16.651017214397495,
                "vg1": -2,
                "ig1": 0,
                "vg2": 120,
                "ig2": 0,
                "ik": 0.0034805491990846683
            }, {
                "va": 29.7339593114241,
                "vg1": -2,
                "ig1": 0,
                "vg2": 120,
                "ig2": 0,
                "ik": 0.00358466819221968
            }, {
                "va": 174.24100156494524,
                "vg1": -2,
                "ig1": 0,
                "vg2": 120,
                "ig2": 0,
                "ik": 0.004417620137299772
            }],
            "vg1": -2
        }, {
            "p": [{
                "va": 0,
                "vg1": -1.5,
                "ig1": 0,
                "vg2": 120,
                "ig2": 0,
                "ik": 0
            }, {
                "va": 3.568075117370892,
                "vg1": -1.5,
                "ig1": 0,
                "vg2": 120,
                "ig2": 0,
                "ik": 0.0030491990846681924
            }, {
                "va": 9.960876369327073,
                "vg1": -1.5,
                "ig1": 0,
                "vg2": 120,
                "ig2": 0,
                "ik": 0.004923340961098399
            }, {
                "va": 13.826291079812206,
                "vg1": -1.5,
                "ig1": 0,
                "vg2": 120,
                "ig2": 0,
                "ik": 0.005414187643020595
            }, {
                "va": 20.070422535211268,
                "vg1": -1.5,
                "ig1": 0,
                "vg2": 120,
                "ig2": 0,
                "ik": 0.0057116704805492
            }, {
                "va": 29.7339593114241,
                "vg1": -1.5,
                "ig1": 0,
                "vg2": 120,
                "ig2": 0,
                "ik": 0.005830663615560641
            }, {
                "va": 49.65571205007825,
                "vg1": -1.5,
                "ig1": 0,
                "vg2": 120,
                "ig2": 0,
                "ik": 0.005949656750572083
            }, {
                "va": 184.2018779342723,
                "vg1": -1.5,
                "ig1": 0,
                "vg2": 120,
                "ig2": 0,
                "ik": 0.0066041189931350126
            }],
            "vg1": -1.5
        }, {
            "p": [{
                "va": 0,
                "vg1": -1,
                "ig1": 0,
                "vg2": 120,
                "ig2": 0,
                "ik": 0
            }, {
                "va": 13.528951486697965,
                "vg1": -1,
                "ig1": 0,
                "vg2": 120,
                "ig2": 0,
                "ik": 0.007005720823798627
            }, {
                "va": 16.651017214397495,
                "vg1": -1,
                "ig1": 0,
                "vg2": 120,
                "ig2": 0,
                "ik": 0.007764302059496568
            }, {
                "va": 20.516431924882628,
                "vg1": -1,
                "ig1": 0,
                "vg2": 120,
                "ig2": 0,
                "ik": 0.008151029748283753
            }, {
                "va": 29.7339593114241,
                "vg1": -1,
                "ig1": 0,
                "vg2": 120,
                "ig2": 0,
                "ik": 0.008403890160183067
            }, {
                "va": 42.370892018779344,
                "vg1": -1,
                "ig1": 0,
                "vg2": 120,
                "ig2": 0,
                "ik": 0.008493135011441649
            }, {
                "va": 157.88732394366198,
                "vg1": -1,
                "ig1": 0,
                "vg2": 120,
                "ig2": 0,
                "ik": 0.009370709382151031
            }],
            "vg1": -1
        }, {
            "p": [{
                "va": 0,
                "vg1": -0.5,
                "ig1": 0,
                "vg2": 120,
                "ig2": 0,
                "ik": 0
            }, {
                "va": 14.420970266040689,
                "vg1": -0.5,
                "ig1": 0,
                "vg2": 120,
                "ig2": 0,
                "ik": 0.007808924485125859
            }, {
                "va": 16.205007824726135,
                "vg1": -0.5,
                "ig1": 0,
                "vg2": 120,
                "ig2": 0,
                "ik": 0.009474828375286041
            }, {
                "va": 18.732394366197184,
                "vg1": -0.5,
                "ig1": 0,
                "vg2": 120,
                "ig2": 0,
                "ik": 0.010040045766590391
            }, {
                "va": 23.192488262910796,
                "vg1": -0.5,
                "ig1": 0,
                "vg2": 120,
                "ig2": 0,
                "ik": 0.010367276887871854
            }, {
                "va": 29.7339593114241,
                "vg1": -0.5,
                "ig1": 0,
                "vg2": 120,
                "ig2": 0,
                "ik": 0.010545766590389017
            }, {
                "va": 49.804381846635366,
                "vg1": -0.5,
                "ig1": 0,
                "vg2": 120,
                "ig2": 0,
                "ik": 0.01075400457665904
            }, {
                "va": 79.83568075117371,
                "vg1": -0.5,
                "ig1": 0,
                "vg2": 120,
                "ig2": 0,
                "ik": 0.011110983981693363
            }, {
                "va": 149.5618153364632,
                "vg1": -0.5,
                "ig1": 0,
                "vg2": 120,
                "ig2": 0,
                "ik": 0.012033180778032037
            }],
            "vg1": -0.5
        }],
        "vg2": 120,
        "logX": false,
        "logY": false,
        "name": "6z32b-g2=120V",
        "raw": false,
        "unit": null,
        "triode": false
    }
}
