{
    "filename": "7581a_vg2_400v.json",
    "tubeGraph": {
        "c": [{
            "p": [{
                "va": 0,
                "vg1": -50,
                "ig1": 0,
                "vg2": 400,
                "ig2": 0,
                "ik": 0
            }, {
                "va": 448.81889763779526,
                "vg1": -50,
                "ig1": 0,
                "vg2": 400,
                "ig2": 0,
                "ik": 0.02153846153846154
            }, {
                "va": 893.7007874015748,
                "vg1": -50,
                "ig1": 0,
                "vg2": 400,
                "ig2": 0,
                "ik": 0.02153846153846154
            }],
            "vg1": -50
        }, {
            "p": [{
                "va": 0,
                "vg1": -40,
                "ig1": 0,
                "vg2": 400,
                "ig2": 0,
                "ik": 0
            }, {
                "va": 16.73228346456693,
                "vg1": -40,
                "ig1": 0,
                "vg2": 400,
                "ig2": 0,
                "ik": 0.027412587412587414
            }, {
                "va": 67.91338582677166,
                "vg1": -40,
                "ig1": 0,
                "vg2": 400,
                "ig2": 0,
                "ik": 0.029370629370629373
            }, {
                "va": 151.5748031496063,
                "vg1": -40,
                "ig1": 0,
                "vg2": 400,
                "ig2": 0,
                "ik": 0.03426573426573427
            }, {
                "va": 389.76377952755905,
                "vg1": -40,
                "ig1": 0,
                "vg2": 400,
                "ig2": 0,
                "ik": 0.04699300699300699
            }, {
                "va": 881.8897637795276,
                "vg1": -40,
                "ig1": 0,
                "vg2": 400,
                "ig2": 0,
                "ik": 0.04993006993006993
            }],
            "vg1": -40
        }, {
            "p": [{
                "va": 0,
                "vg1": -30,
                "ig1": 0,
                "vg2": 400,
                "ig2": 0,
                "ik": 0
            }, {
                "va": 12.795275590551181,
                "vg1": -30,
                "ig1": 0,
                "vg2": 400,
                "ig2": 0,
                "ik": 0.05188811188811189
            }, {
                "va": 36.41732283464567,
                "vg1": -30,
                "ig1": 0,
                "vg2": 400,
                "ig2": 0,
                "ik": 0.06167832167832168
            }, {
                "va": 120.07874015748031,
                "vg1": -30,
                "ig1": 0,
                "vg2": 400,
                "ig2": 0,
                "ik": 0.07048951048951049
            }, {
                "va": 199.8031496062992,
                "vg1": -30,
                "ig1": 0,
                "vg2": 400,
                "ig2": 0,
                "ik": 0.0793006993006993
            }, {
                "va": 448.81889763779526,
                "vg1": -30,
                "ig1": 0,
                "vg2": 400,
                "ig2": 0,
                "ik": 0.09202797202797204
            }, {
                "va": 875,
                "vg1": -30,
                "ig1": 0,
                "vg2": 400,
                "ig2": 0,
                "ik": 0.09594405594405594
            }],
            "vg1": -30
        }, {
            "p": [{
                "va": 0,
                "vg1": -25,
                "ig1": 0,
                "vg2": 400,
                "ig2": 0,
                "ik": 0
            }, {
                "va": 26.5748031496063,
                "vg1": -25,
                "ig1": 0,
                "vg2": 400,
                "ig2": 0,
                "ik": 0.08517482517482519
            }, {
                "va": 109.25196850393701,
                "vg1": -25,
                "ig1": 0,
                "vg2": 400,
                "ig2": 0,
                "ik": 0.09888111888111889
            }, {
                "va": 250,
                "vg1": -25,
                "ig1": 0,
                "vg2": 400,
                "ig2": 0,
                "ik": 0.11356643356643358
            }, {
                "va": 450.78740157480314,
                "vg1": -25,
                "ig1": 0,
                "vg2": 400,
                "ig2": 0,
                "ik": 0.12041958041958042
            }, {
                "va": 858.267716535433,
                "vg1": -25,
                "ig1": 0,
                "vg2": 400,
                "ig2": 0,
                "ik": 0.12825174825174826
            }],
            "vg1": -25
        }, {
            "p": [{
                "va": 0,
                "vg1": -20,
                "ig1": 0,
                "vg2": 400,
                "ig2": 0,
                "ik": 0
            }, {
                "va": 22.637795275590552,
                "vg1": -20,
                "ig1": 0,
                "vg2": 400,
                "ig2": 0,
                "ik": 0.1027972027972028
            }, {
                "va": 49.21259842519685,
                "vg1": -20,
                "ig1": 0,
                "vg2": 400,
                "ig2": 0,
                "ik": 0.12041958041958042
            }, {
                "va": 188.9763779527559,
                "vg1": -20,
                "ig1": 0,
                "vg2": 400,
                "ig2": 0,
                "ik": 0.14293706293706296
            }, {
                "va": 450.78740157480314,
                "vg1": -20,
                "ig1": 0,
                "vg2": 400,
                "ig2": 0,
                "ik": 0.1586013986013986
            }, {
                "va": 854.3307086614174,
                "vg1": -20,
                "ig1": 0,
                "vg2": 400,
                "ig2": 0,
                "ik": 0.1683916083916084
            }],
            "vg1": -20
        }, {
            "p": [{
                "va": 0,
                "vg1": -16,
                "ig1": 0,
                "vg2": 400,
                "ig2": 0,
                "ik": 0
            }, {
                "va": 27.559055118110237,
                "vg1": -16,
                "ig1": 0,
                "vg2": 400,
                "ig2": 0,
                "ik": 0.12923076923076923
            }, {
                "va": 50.196850393700785,
                "vg1": -16,
                "ig1": 0,
                "vg2": 400,
                "ig2": 0,
                "ik": 0.14783216783216785
            }, {
                "va": 109.25196850393701,
                "vg1": -16,
                "ig1": 0,
                "vg2": 400,
                "ig2": 0,
                "ik": 0.1644755244755245
            }, {
                "va": 250,
                "vg1": -16,
                "ig1": 0,
                "vg2": 400,
                "ig2": 0,
                "ik": 0.1820979020979021
            }, {
                "va": 450.78740157480314,
                "vg1": -16,
                "ig1": 0,
                "vg2": 400,
                "ig2": 0,
                "ik": 0.1918881118881119
            }, {
                "va": 837.5984251968504,
                "vg1": -16,
                "ig1": 0,
                "vg2": 400,
                "ig2": 0,
                "ik": 0.2055944055944056
            }],
            "vg1": -16
        }, {
            "p": [{
                "va": 0,
                "vg1": -12,
                "ig1": 0,
                "vg2": 400,
                "ig2": 0,
                "ik": 0
            }, {
                "va": 34.44881889763779,
                "vg1": -12,
                "ig1": 0,
                "vg2": 400,
                "ig2": 0,
                "ik": 0.16545454545454547
            }, {
                "va": 90.55118110236221,
                "vg1": -12,
                "ig1": 0,
                "vg2": 400,
                "ig2": 0,
                "ik": 0.19972027972027973
            }, {
                "va": 249.01574803149606,
                "vg1": -12,
                "ig1": 0,
                "vg2": 400,
                "ig2": 0,
                "ik": 0.21930069930069931
            }, {
                "va": 450.78740157480314,
                "vg1": -12,
                "ig1": 0,
                "vg2": 400,
                "ig2": 0,
                "ik": 0.23006993006993007
            }, {
                "va": 829.7244094488188,
                "vg1": -12,
                "ig1": 0,
                "vg2": 400,
                "ig2": 0,
                "ik": 0.24475524475524477
            }],
            "vg1": -12
        }, {
            "p": [{
                "va": 0,
                "vg1": -8,
                "ig1": 0,
                "vg2": 400,
                "ig2": 0,
                "ik": 0
            }, {
                "va": 45.275590551181104,
                "vg1": -8,
                "ig1": 0,
                "vg2": 400,
                "ig2": 0,
                "ik": 0.20363636363636364
            }, {
                "va": 88.58267716535433,
                "vg1": -8,
                "ig1": 0,
                "vg2": 400,
                "ig2": 0,
                "ik": 0.24083916083916085
            }, {
                "va": 247.04724409448818,
                "vg1": -8,
                "ig1": 0,
                "vg2": 400,
                "ig2": 0,
                "ik": 0.2623776223776224
            }, {
                "va": 446.8503937007874,
                "vg1": -8,
                "ig1": 0,
                "vg2": 400,
                "ig2": 0,
                "ik": 0.27314685314685316
            }, {
                "va": 820.8661417322835,
                "vg1": -8,
                "ig1": 0,
                "vg2": 400,
                "ig2": 0,
                "ik": 0.2868531468531469
            }],
            "vg1": -8
        }, {
            "p": [{
                "va": 0,
                "vg1": -4,
                "ig1": 0,
                "vg2": 400,
                "ig2": 0,
                "ik": 0
            }, {
                "va": 49.21259842519685,
                "vg1": -4,
                "ig1": 0,
                "vg2": 400,
                "ig2": 0,
                "ik": 0.23496503496503499
            }, {
                "va": 90.55118110236221,
                "vg1": -4,
                "ig1": 0,
                "vg2": 400,
                "ig2": 0,
                "ik": 0.28
            }, {
                "va": 149.60629921259843,
                "vg1": -4,
                "ig1": 0,
                "vg2": 400,
                "ig2": 0,
                "ik": 0.2956643356643357
            }, {
                "va": 250,
                "vg1": -4,
                "ig1": 0,
                "vg2": 400,
                "ig2": 0,
                "ik": 0.30643356643356645
            }, {
                "va": 450.78740157480314,
                "vg1": -4,
                "ig1": 0,
                "vg2": 400,
                "ig2": 0,
                "ik": 0.3162237762237763
            }, {
                "va": 797.2440944881889,
                "vg1": -4,
                "ig1": 0,
                "vg2": 400,
                "ig2": 0,
                "ik": 0.3318881118881119
            }],
            "vg1": -4
        }, {
            "p": [{
                "va": 0,
                "vg1": 0,
                "ig1": 0,
                "vg2": 400,
                "ig2": 0,
                "ik": 0
            }, {
                "va": 63.976377952755904,
                "vg1": 0,
                "ig1": 0,
                "vg2": 400,
                "ig2": 0,
                "ik": 0.29958041958041964
            }, {
                "va": 119.09448818897637,
                "vg1": 0,
                "ig1": 0,
                "vg2": 400,
                "ig2": 0,
                "ik": 0.33384615384615385
            }, {
                "va": 209.64566929133858,
                "vg1": 0,
                "ig1": 0,
                "vg2": 400,
                "ig2": 0,
                "ik": 0.3475524475524476
            }, {
                "va": 379.9212598425197,
                "vg1": 0,
                "ig1": 0,
                "vg2": 400,
                "ig2": 0,
                "ik": 0.3612587412587413
            }, {
                "va": 788.3858267716536,
                "vg1": 0,
                "ig1": 0,
                "vg2": 400,
                "ig2": 0,
                "ik": 0.37790209790209794
            }],
            "vg1": 0
        }, {
            "p": [{
                "va": 0,
                "vg1": 4,
                "ig1": 0,
                "vg2": 400,
                "ig2": 0,
                "ik": 0
            }, {
                "va": 40.354330708661415,
                "vg1": 4,
                "ig1": 0,
                "vg2": 400,
                "ig2": 0,
                "ik": 0.2153846153846154
            }, {
                "va": 65.94488188976378,
                "vg1": 4,
                "ig1": 0,
                "vg2": 400,
                "ig2": 0,
                "ik": 0.34853146853146855
            }, {
                "va": 100.39370078740157,
                "vg1": 4,
                "ig1": 0,
                "vg2": 400,
                "ig2": 0,
                "ik": 0.3827972027972028
            }, {
                "va": 208.66141732283464,
                "vg1": 4,
                "ig1": 0,
                "vg2": 400,
                "ig2": 0,
                "ik": 0.4004195804195804
            }, {
                "va": 411.4173228346457,
                "vg1": 4,
                "ig1": 0,
                "vg2": 400,
                "ig2": 0,
                "ik": 0.41412587412587415
            }, {
                "va": 777.5590551181102,
                "vg1": 4,
                "ig1": 0,
                "vg2": 400,
                "ig2": 0,
                "ik": 0.4268531468531469
            }],
            "vg1": 4
        }, {
            "p": [{
                "va": 0,
                "vg1": 8,
                "ig1": 0,
                "vg2": 400,
                "ig2": 0,
                "ik": 0
            }, {
                "va": 42.32283464566929,
                "vg1": 8,
                "ig1": 0,
                "vg2": 400,
                "ig2": 0,
                "ik": 0.22321678321678323
            }, {
                "va": 95.47244094488188,
                "vg1": 8,
                "ig1": 0,
                "vg2": 400,
                "ig2": 0,
                "ik": 0.4248951048951049
            }, {
                "va": 187.99212598425197,
                "vg1": 8,
                "ig1": 0,
                "vg2": 400,
                "ig2": 0,
                "ik": 0.4542657342657343
            }, {
                "va": 389.76377952755905,
                "vg1": 8,
                "ig1": 0,
                "vg2": 400,
                "ig2": 0,
                "ik": 0.46993006993006997
            }, {
                "va": 755.9055118110236,
                "vg1": 8,
                "ig1": 0,
                "vg2": 400,
                "ig2": 0,
                "ik": 0.48265734265734267
            }],
            "vg1": 8
        }, {
            "p": [{
                "va": 0,
                "vg1": 12,
                "ig1": 0,
                "vg2": 400,
                "ig2": 0,
                "ik": 0
            }, {
                "va": 49.21259842519685,
                "vg1": 12,
                "ig1": 0,
                "vg2": 400,
                "ig2": 0,
                "ik": 0.2692307692307692
            }, {
                "va": 84.64566929133858,
                "vg1": 12,
                "ig1": 0,
                "vg2": 400,
                "ig2": 0,
                "ik": 0.4513286713286714
            }, {
                "va": 150.59055118110237,
                "vg1": 12,
                "ig1": 0,
                "vg2": 400,
                "ig2": 0,
                "ik": 0.5041958041958042
            }, {
                "va": 351.3779527559055,
                "vg1": 12,
                "ig1": 0,
                "vg2": 400,
                "ig2": 0,
                "ik": 0.5257342657342658
            }, {
                "va": 745.0787401574803,
                "vg1": 12,
                "ig1": 0,
                "vg2": 400,
                "ig2": 0,
                "ik": 0.5413986013986014
            }],
            "vg1": 12
        }, {
            "p": [{
                "va": 0,
                "vg1": 16,
                "ig1": 0,
                "vg2": 400,
                "ig2": 0,
                "ik": 0
            }, {
                "va": 58.07086614173228,
                "vg1": 16,
                "ig1": 0,
                "vg2": 400,
                "ig2": 0,
                "ik": 0.30153846153846153
            }, {
                "va": 98.4251968503937,
                "vg1": 16,
                "ig1": 0,
                "vg2": 400,
                "ig2": 0,
                "ik": 0.5071328671328671
            }, {
                "va": 198.81889763779526,
                "vg1": 16,
                "ig1": 0,
                "vg2": 400,
                "ig2": 0,
                "ik": 0.5697902097902098
            }, {
                "va": 450.78740157480314,
                "vg1": 16,
                "ig1": 0,
                "vg2": 400,
                "ig2": 0,
                "ik": 0.5883916083916084
            }, {
                "va": 719.488188976378,
                "vg1": 16,
                "ig1": 0,
                "vg2": 400,
                "ig2": 0,
                "ik": 0.6020979020979021
            }],
            "vg1": 16
        }, {
            "p": [{
                "va": 0,
                "vg1": 20,
                "ig1": 0,
                "vg2": 400,
                "ig2": 0,
                "ik": 0
            }, {
                "va": 61.023622047244096,
                "vg1": 20,
                "ig1": 0,
                "vg2": 400,
                "ig2": 0,
                "ik": 0.32993006993006996
            }, {
                "va": 122.04724409448819,
                "vg1": 20,
                "ig1": 0,
                "vg2": 400,
                "ig2": 0,
                "ik": 0.5795804195804196
            }, {
                "va": 199.8031496062992,
                "vg1": 20,
                "ig1": 0,
                "vg2": 400,
                "ig2": 0,
                "ik": 0.6275524475524475
            }, {
                "va": 350.39370078740154,
                "vg1": 20,
                "ig1": 0,
                "vg2": 400,
                "ig2": 0,
                "ik": 0.6422377622377622
            }, {
                "va": 698.8188976377953,
                "vg1": 20,
                "ig1": 0,
                "vg2": 400,
                "ig2": 0,
                "ik": 0.6657342657342659
            }],
            "vg1": 20
        }],
        "vg2": 400,
        "logX": false,
        "logY": false,
        "name": "7581A_VG2_400V",
        "raw": false,
        "unit": null,
        "triode": false
    }
}
