{
    "filename": "845 curves.json",
    "tubeGraph": {
        "c": [{
            "p": [{
                "va": 0,
                "vg1": -400,
                "ig1": 0,
                "vg2": null,
                "ig2": 0,
                "ik": 0
            }, {
                "va": 1891.476274165202,
                "vg1": -400,
                "ig1": 0,
                "vg2": null,
                "ig2": 0,
                "ik": 0.0012
            }, {
                "va": 2100.175746924429,
                "vg1": -400,
                "ig1": 0,
                "vg2": null,
                "ig2": 0,
                "ik": 0.012
            }, {
                "va": 2185.85237258348,
                "vg1": -400,
                "ig1": 0,
                "vg2": null,
                "ig2": 0,
                "ik": 0.0318
            }],
            "vg1": -400
        }, {
            "p": [{
                "va": 0,
                "vg1": -350,
                "ig1": 0,
                "vg2": null,
                "ig2": 0,
                "ik": 0
            }, {
                "va": 1682.7768014059754,
                "vg1": -350,
                "ig1": 0,
                "vg2": null,
                "ig2": 0,
                "ik": 0.0014
            }, {
                "va": 1873.9015817223199,
                "vg1": -350,
                "ig1": 0,
                "vg2": null,
                "ig2": 0,
                "ik": 0.0156
            }, {
                "va": 1979.3497363796134,
                "vg1": -350,
                "ig1": 0,
                "vg2": null,
                "ig2": 0,
                "ik": 0.0424
            }],
            "vg1": -350
        }, {
            "p": [{
                "va": 0,
                "vg1": -300,
                "ig1": 0,
                "vg2": null,
                "ig2": 0,
                "ik": 0
            }, {
                "va": 1359.8418277680141,
                "vg1": -300,
                "ig1": 0,
                "vg2": null,
                "ig2": 0,
                "ik": 0.0008
            }, {
                "va": 1605.8875219683655,
                "vg1": -300,
                "ig1": 0,
                "vg2": null,
                "ig2": 0,
                "ik": 0.0096
            }, {
                "va": 1757.469244288225,
                "vg1": -300,
                "ig1": 0,
                "vg2": null,
                "ig2": 0,
                "ik": 0.055600000000000004
            }],
            "vg1": -300
        }, {
            "p": [{
                "va": 0,
                "vg1": -250,
                "ig1": 0,
                "vg2": null,
                "ig2": 0,
                "ik": 0
            }, {
                "va": 1225.834797891037,
                "vg1": -250,
                "ig1": 0,
                "vg2": null,
                "ig2": 0,
                "ik": 0.0008
            }, {
                "va": 1421.353251318102,
                "vg1": -250,
                "ig1": 0,
                "vg2": null,
                "ig2": 0,
                "ik": 0.0248
            }, {
                "va": 1531.195079086116,
                "vg1": -250,
                "ig1": 0,
                "vg2": null,
                "ig2": 0,
                "ik": 0.069
            }],
            "vg1": -250
        }, {
            "p": [{
                "va": 0,
                "vg1": -200,
                "ig1": 0,
                "vg2": null,
                "ig2": 0,
                "ik": 0
            }, {
                "va": 856.7662565905097,
                "vg1": -200,
                "ig1": 0,
                "vg2": null,
                "ig2": 0,
                "ik": 0.0004
            }, {
                "va": 1083.0404217926186,
                "vg1": -200,
                "ig1": 0,
                "vg2": null,
                "ig2": 0,
                "ik": 0.008199999999999999
            }, {
                "va": 1311.5114235500878,
                "vg1": -200,
                "ig1": 0,
                "vg2": null,
                "ig2": 0,
                "ik": 0.0818
            }],
            "vg1": -200
        }, {
            "p": [{
                "va": 0,
                "vg1": -150,
                "ig1": 0,
                "vg2": null,
                "ig2": 0,
                "ik": 0
            }, {
                "va": 628.2952548330404,
                "vg1": -150,
                "ig1": 0,
                "vg2": null,
                "ig2": 0,
                "ik": 0.0004
            }, {
                "va": 753.5149384885765,
                "vg1": -150,
                "ig1": 0,
                "vg2": null,
                "ig2": 0,
                "ik": 0.0024
            }, {
                "va": 841.3884007029877,
                "vg1": -150,
                "ig1": 0,
                "vg2": null,
                "ig2": 0,
                "ik": 0.0088
            }, {
                "va": 1058.8752196836556,
                "vg1": -150,
                "ig1": 0,
                "vg2": null,
                "ig2": 0,
                "ik": 0.0948
            }],
            "vg1": -150
        }, {
            "p": [{
                "va": 0,
                "vg1": -100,
                "ig1": 0,
                "vg2": null,
                "ig2": 0,
                "ik": 0
            }, {
                "va": 257.0298769771529,
                "vg1": -100,
                "ig1": 0,
                "vg2": null,
                "ig2": 0,
                "ik": 0.0002
            }, {
                "va": 533.8312829525483,
                "vg1": -100,
                "ig1": 0,
                "vg2": null,
                "ig2": 0,
                "ik": 0.0026
            }, {
                "va": 832.6010544815466,
                "vg1": -100,
                "ig1": 0,
                "vg2": null,
                "ig2": 0,
                "ik": 0.1082
            }],
            "vg1": -100
        }, {
            "p": [{
                "va": 0,
                "vg1": -50,
                "ig1": 0,
                "vg2": null,
                "ig2": 0,
                "ik": 0
            }, {
                "va": 81.2829525483304,
                "vg1": -50,
                "ig1": 0,
                "vg2": null,
                "ig2": 0,
                "ik": 0.0002
            }, {
                "va": 276.8014059753954,
                "vg1": -50,
                "ig1": 0,
                "vg2": null,
                "ig2": 0,
                "ik": 0.0022
            }, {
                "va": 553.6028119507909,
                "vg1": -50,
                "ig1": 0,
                "vg2": null,
                "ig2": 0,
                "ik": 0.1088
            }],
            "vg1": -50
        }, {
            "p": [{
                "va": 0,
                "vg1": 0,
                "ig1": 0,
                "vg2": null,
                "ig2": 0,
                "ik": 0
            }, {
                "va": 59.31458699472759,
                "vg1": 0,
                "ig1": 0,
                "vg2": null,
                "ig2": 0,
                "ik": 0.009
            }, {
                "va": 144.99121265377855,
                "vg1": 0,
                "ig1": 0,
                "vg2": null,
                "ig2": 0,
                "ik": 0.0334
            }, {
                "va": 296.572934973638,
                "vg1": 0,
                "ig1": 0,
                "vg2": null,
                "ig2": 0,
                "ik": 0.10959999999999999
            }],
            "vg1": 0
        }],
        "vg2": null,
        "logX": false,
        "logY": false,
        "name": "845 curves",
        "raw": false,
        "unit": null,
        "triode": false
    }
}
