{
    "filename": "capture d’écran 2021-05-15 à 20.11.33.json",
    "tubeGraph": {
        "c": [{
            "p": [{
                "va": 302.73858921161826,
                "vg1": -50,
                "ig1": 0,
                "vg2": 400,
                "ig2": 0,
                "ik": 0.015544041450777202
            }, {
                "va": 398.83817427385895,
                "vg1": -50,
                "ig1": 0,
                "vg2": 400,
                "ig2": 0,
                "ik": 0.019689119170984454
            }, {
                "va": 596.5145228215767,
                "vg1": -50,
                "ig1": 0,
                "vg2": 400,
                "ig2": 0,
                "ik": 0.024179620034542312
            }],
            "vg1": -50
        }, {
            "p": [{
                "va": 201.16182572614107,
                "vg1": -35,
                "ig1": 0,
                "vg2": 400,
                "ig2": 0,
                "ik": 0.055267702936096716
            }, {
                "va": 273.36099585062243,
                "vg1": -35,
                "ig1": 0,
                "vg2": 400,
                "ig2": 0,
                "ik": 0.06563039723661486
            }, {
                "va": 398.83817427385895,
                "vg1": -35,
                "ig1": 0,
                "vg2": 400,
                "ig2": 0,
                "ik": 0.07219343696027634
            }, {
                "va": 597.5103734439834,
                "vg1": -35,
                "ig1": 0,
                "vg2": 400,
                "ig2": 0,
                "ik": 0.07426597582037997
            }],
            "vg1": -35
        }, {
            "p": [{
                "va": 141.41078838174275,
                "vg1": -25,
                "ig1": 0,
                "vg2": 400,
                "ig2": 0,
                "ik": 0.11502590673575129
            }, {
                "va": 169.29460580912863,
                "vg1": -25,
                "ig1": 0,
                "vg2": 400,
                "ig2": 0,
                "ik": 0.1226252158894646
            }, {
                "va": 198.6721991701245,
                "vg1": -25,
                "ig1": 0,
                "vg2": 400,
                "ig2": 0,
                "ik": 0.12677029360967185
            }, {
                "va": 250.4564315352697,
                "vg1": -25,
                "ig1": 0,
                "vg2": 400,
                "ig2": 0,
                "ik": 0.13022452504317789
            }, {
                "va": 598.50622406639,
                "vg1": -25,
                "ig1": 0,
                "vg2": 400,
                "ig2": 0,
                "ik": 0.13609671848013818
            }],
            "vg1": -25
        }, {
            "p": [{
                "va": 120.49792531120332,
                "vg1": -20,
                "ig1": 0,
                "vg2": 400,
                "ig2": 0,
                "ik": 0.15647668393782382
            }, {
                "va": 209.1286307053942,
                "vg1": -20,
                "ig1": 0,
                "vg2": 400,
                "ig2": 0,
                "ik": 0.170293609671848
            }, {
                "va": 248.46473029045643,
                "vg1": -20,
                "ig1": 0,
                "vg2": 400,
                "ig2": 0,
                "ik": 0.17409326424870467
            }, {
                "va": 297.7593360995851,
                "vg1": -20,
                "ig1": 0,
                "vg2": 400,
                "ig2": 0,
                "ik": 0.1768566493955095
            }, {
                "va": 349.04564315352695,
                "vg1": -20,
                "ig1": 0,
                "vg2": 400,
                "ig2": 0,
                "ik": 0.1775474956822107
            }, {
                "va": 449.1286307053942,
                "vg1": -20,
                "ig1": 0,
                "vg2": 400,
                "ig2": 0,
                "ik": 0.17962003454231432
            }, {
                "va": 498.42323651452284,
                "vg1": -20,
                "ig1": 0,
                "vg2": 400,
                "ig2": 0,
                "ik": 0.18169257340241796
            }, {
                "va": 598.0082987551867,
                "vg1": -20,
                "ig1": 0,
                "vg2": 400,
                "ig2": 0,
                "ik": 0.18238341968911917
            }],
            "vg1": -20
        }, {
            "p": [{
                "va": 50.788381742738586,
                "vg1": -15,
                "ig1": 0,
                "vg2": 400,
                "ig2": 0,
                "ik": 0.17512953367875647
            }, {
                "va": 95.60165975103735,
                "vg1": -15,
                "ig1": 0,
                "vg2": 400,
                "ig2": 0,
                "ik": 0.19723661485319516
            }, {
                "va": 148.87966804979254,
                "vg1": -15,
                "ig1": 0,
                "vg2": 400,
                "ig2": 0,
                "ik": 0.2079447322970639
            }, {
                "va": 200.16597510373444,
                "vg1": -15,
                "ig1": 0,
                "vg2": 400,
                "ig2": 0,
                "ik": 0.21450777202072538
            }, {
                "va": 299.75103734439836,
                "vg1": -15,
                "ig1": 0,
                "vg2": 400,
                "ig2": 0,
                "ik": 0.22694300518134716
            }, {
                "va": 347.551867219917,
                "vg1": -15,
                "ig1": 0,
                "vg2": 400,
                "ig2": 0,
                "ik": 0.2307426597582038
            }, {
                "va": 399.8340248962656,
                "vg1": -15,
                "ig1": 0,
                "vg2": 400,
                "ig2": 0,
                "ik": 0.23316062176165803
            }, {
                "va": 597.5103734439834,
                "vg1": -15,
                "ig1": 0,
                "vg2": 400,
                "ig2": 0,
                "ik": 0.23696027633851469
            }],
            "vg1": -15
        }, {
            "p": [{
                "va": 49.79253112033195,
                "vg1": -10,
                "ig1": 0,
                "vg2": 400,
                "ig2": 0,
                "ik": 0.2245250431778929
            }, {
                "va": 69.2116182572614,
                "vg1": -10,
                "ig1": 0,
                "vg2": 400,
                "ig2": 0,
                "ik": 0.24179620034542312
            }, {
                "va": 91.12033195020747,
                "vg1": -10,
                "ig1": 0,
                "vg2": 400,
                "ig2": 0,
                "ik": 0.2507772020725389
            }, {
                "va": 127.96680497925311,
                "vg1": -10,
                "ig1": 0,
                "vg2": 400,
                "ig2": 0,
                "ik": 0.261139896373057
            }, {
                "va": 190.70539419087137,
                "vg1": -10,
                "ig1": 0,
                "vg2": 400,
                "ig2": 0,
                "ik": 0.2753022452504318
            }, {
                "va": 250.95435684647302,
                "vg1": -10,
                "ig1": 0,
                "vg2": 400,
                "ig2": 0,
                "ik": 0.28359240069084624
            }, {
                "va": 349.5435684647303,
                "vg1": -10,
                "ig1": 0,
                "vg2": 400,
                "ig2": 0,
                "ik": 0.2915371329879102
            }, {
                "va": 399.33609958506224,
                "vg1": -10,
                "ig1": 0,
                "vg2": 400,
                "ig2": 0,
                "ik": 0.29360967184801384
            }, {
                "va": 449.1286307053942,
                "vg1": -10,
                "ig1": 0,
                "vg2": 400,
                "ig2": 0,
                "ik": 0.2939550949913644
            }, {
                "va": 497.9253112033195,
                "vg1": -10,
                "ig1": 0,
                "vg2": 400,
                "ig2": 0,
                "ik": 0.29430051813471503
            }, {
                "va": 548.2157676348547,
                "vg1": -10,
                "ig1": 0,
                "vg2": 400,
                "ig2": 0,
                "ik": 0.2939550949913644
            }, {
                "va": 593.0290456431535,
                "vg1": -10,
                "ig1": 0,
                "vg2": 400,
                "ig2": 0,
                "ik": 0.2932642487046632
            }],
            "vg1": -10
        }, {
            "p": [{
                "va": 45.809128630705395,
                "vg1": -5,
                "ig1": 0,
                "vg2": 400,
                "ig2": 0,
                "ik": 0.24145077720207253
            }, {
                "va": 73.69294605809128,
                "vg1": -5,
                "ig1": 0,
                "vg2": 400,
                "ig2": 0,
                "ik": 0.2877374784110535
            }, {
                "va": 149.87551867219918,
                "vg1": -5,
                "ig1": 0,
                "vg2": 400,
                "ig2": 0,
                "ik": 0.3243523316062176
            }, {
                "va": 300.24896265560164,
                "vg1": -5,
                "ig1": 0,
                "vg2": 400,
                "ig2": 0,
                "ik": 0.3512953367875648
            }, {
                "va": 449.1286307053942,
                "vg1": -5,
                "ig1": 0,
                "vg2": 400,
                "ig2": 0,
                "ik": 0.36062176165803106
            }, {
                "va": 548.2157676348547,
                "vg1": -5,
                "ig1": 0,
                "vg2": 400,
                "ig2": 0,
                "ik": 0.36062176165803106
            }, {
                "va": 596.0165975103735,
                "vg1": -5,
                "ig1": 0,
                "vg2": 400,
                "ig2": 0,
                "ik": 0.35889464594127807
            }],
            "vg1": -5
        }, {
            "p": [{
                "va": 51.28630705394191,
                "vg1": 0,
                "ig1": 0,
                "vg2": 400,
                "ig2": 0,
                "ik": 0.30259067357512953
            }, {
                "va": 61.2448132780083,
                "vg1": 0,
                "ig1": 0,
                "vg2": 400,
                "ig2": 0,
                "ik": 0.3398963730569948
            }, {
                "va": 102.0746887966805,
                "vg1": 0,
                "ig1": 0,
                "vg2": 400,
                "ig2": 0,
                "ik": 0.37443868739205527
            }, {
                "va": 173.2780082987552,
                "vg1": 0,
                "ig1": 0,
                "vg2": 400,
                "ig2": 0,
                "ik": 0.39758203799654573
            }],
            "vg1": 0
        }],
        "vg2": 400,
        "logX": false,
        "logY": false,
        "name": "Capture d’écran 2021-05-15 à 20.11.33",
        "raw": false,
        "unit": null,
        "triode": false
    }
}
