{
    "filename": "cv57g2g1.json",
    "tubeGraph": {
        "c": [{
            "p": [{
                "va": 0,
                "vg1": 5,
                "ig1": 0,
                "vg2": null,
                "ig2": 0,
                "ik": 0
            }, {
                "va": 42.54090471607314,
                "vg1": 5,
                "ig1": 0,
                "vg2": null,
                "ig2": 0,
                "ik": 0.0070904645476772615
            }, {
                "va": 194.70644850818093,
                "vg1": 5,
                "ig1": 0,
                "vg2": null,
                "ig2": 0,
                "ik": 0.011980440097799512
            }, {
                "va": 402.502406159769,
                "vg1": 5,
                "ig1": 0,
                "vg2": null,
                "ig2": 0,
                "ik": 0.016136919315403425
            }, {
                "va": 798.4600577478344,
                "vg1": 5,
                "ig1": 0,
                "vg2": null,
                "ig2": 0,
                "ik": 0.023960880195599023
            }, {
                "va": 1659.0952839268527,
                "vg1": 5,
                "ig1": 0,
                "vg2": null,
                "ig2": 0,
                "ik": 0.039364303178484106
            }],
            "vg1": 5
        }, {
            "p": [{
                "va": 0,
                "vg1": 6,
                "ig1": 0,
                "vg2": null,
                "ig2": 0,
                "ik": 0
            }, {
                "va": 13.089509143407122,
                "vg1": 6,
                "ig1": 0,
                "vg2": null,
                "ig2": 0,
                "ik": 0.012469437652811737
            }, {
                "va": 201.2512030798845,
                "vg1": 6,
                "ig1": 0,
                "vg2": null,
                "ig2": 0,
                "ik": 0.022493887530562348
            }, {
                "va": 598.8450433108758,
                "vg1": 6,
                "ig1": 0,
                "vg2": null,
                "ig2": 0,
                "ik": 0.036919315403422984
            }, {
                "va": 994.8026948989412,
                "vg1": 6,
                "ig1": 0,
                "vg2": null,
                "ig2": 0,
                "ik": 0.05036674816625917
            }, {
                "va": 1655.8229066410008,
                "vg1": 6,
                "ig1": 0,
                "vg2": null,
                "ig2": 0,
                "ik": 0.07408312958435208
            }],
            "vg1": 6
        }, {
            "p": [{
                "va": 0,
                "vg1": 7,
                "ig1": 0,
                "vg2": null,
                "ig2": 0,
                "ik": 0
            }, {
                "va": 11.453320500481231,
                "vg1": 7,
                "ig1": 0,
                "vg2": null,
                "ig2": 0,
                "ik": 0.02469437652811736
            }, {
                "va": 196.34263715110683,
                "vg1": 7,
                "ig1": 0,
                "vg2": null,
                "ig2": 0,
                "ik": 0.03740831295843521
            }, {
                "va": 397.5938402309913,
                "vg1": 7,
                "ig1": 0,
                "vg2": null,
                "ig2": 0,
                "ik": 0.044987775061124696
            }, {
                "va": 800.0962463907603,
                "vg1": 7,
                "ig1": 0,
                "vg2": null,
                "ig2": 0,
                "ik": 0.06161369193154034
            }, {
                "va": 1200.9624639076035,
                "vg1": 7,
                "ig1": 0,
                "vg2": null,
                "ig2": 0,
                "ik": 0.07799511002444989
            }, {
                "va": 1657.4590952839267,
                "vg1": 7,
                "ig1": 0,
                "vg2": null,
                "ig2": 0,
                "ik": 0.09535452322738386
            }],
            "vg1": 7
        }, {
            "p": [{
                "va": 0,
                "vg1": 8,
                "ig1": 0,
                "vg2": null,
                "ig2": 0,
                "ik": 0
            }, {
                "va": 22.906641000962463,
                "vg1": 8,
                "ig1": 0,
                "vg2": null,
                "ig2": 0,
                "ik": 0.035452322738386305
            }, {
                "va": 45.813282001924925,
                "vg1": 8,
                "ig1": 0,
                "vg2": null,
                "ig2": 0,
                "ik": 0.04914425427872861
            }, {
                "va": 212.70452358036573,
                "vg1": 8,
                "ig1": 0,
                "vg2": null,
                "ig2": 0,
                "ik": 0.060146699266503664
            }, {
                "va": 397.5938402309913,
                "vg1": 8,
                "ig1": 0,
                "vg2": null,
                "ig2": 0,
                "ik": 0.06894865525672372
            }, {
                "va": 598.8450433108758,
                "vg1": 8,
                "ig1": 0,
                "vg2": null,
                "ig2": 0,
                "ik": 0.07677261613691932
            }, {
                "va": 999.7112608277189,
                "vg1": 8,
                "ig1": 0,
                "vg2": null,
                "ig2": 0,
                "ik": 0.09339853300733496
            }, {
                "va": 1655.8229066410008,
                "vg1": 8,
                "ig1": 0,
                "vg2": null,
                "ig2": 0,
                "ik": 0.12127139364303179
            }],
            "vg1": 8
        }, {
            "p": [{
                "va": 0,
                "vg1": 9,
                "ig1": 0,
                "vg2": null,
                "ig2": 0,
                "ik": 0
            }, {
                "va": 16.361886429258902,
                "vg1": 9,
                "ig1": 0,
                "vg2": null,
                "ig2": 0,
                "ik": 0.033251833740831294
            }, {
                "va": 31.087584215591914,
                "vg1": 9,
                "ig1": 0,
                "vg2": null,
                "ig2": 0,
                "ik": 0.0645476772616137
            }, {
                "va": 58.902791145332046,
                "vg1": 9,
                "ig1": 0,
                "vg2": null,
                "ig2": 0,
                "ik": 0.07701711491442544
            }, {
                "va": 107.98845043310875,
                "vg1": 9,
                "ig1": 0,
                "vg2": null,
                "ig2": 0,
                "ik": 0.08288508557457214
            }, {
                "va": 639.749759384023,
                "vg1": 9,
                "ig1": 0,
                "vg2": null,
                "ig2": 0,
                "ik": 0.10513447432762837
            }, {
                "va": 1654.186717998075,
                "vg1": 9,
                "ig1": 0,
                "vg2": null,
                "ig2": 0,
                "ik": 0.14596577017114917
            }],
            "vg1": 9
        }, {
            "p": [{
                "va": 0,
                "vg1": 10,
                "ig1": 0,
                "vg2": null,
                "ig2": 0,
                "ik": 0
            }, {
                "va": 39.26852743022137,
                "vg1": 10,
                "ig1": 0,
                "vg2": null,
                "ig2": 0,
                "ik": 0.08924205378973106
            }, {
                "va": 63.811357074109715,
                "vg1": 10,
                "ig1": 0,
                "vg2": null,
                "ig2": 0,
                "ik": 0.09853300733496333
            }, {
                "va": 245.42829643888354,
                "vg1": 10,
                "ig1": 0,
                "vg2": null,
                "ig2": 0,
                "ik": 0.11246943765281174
            }, {
                "va": 395.9576515880654,
                "vg1": 10,
                "ig1": 0,
                "vg2": null,
                "ig2": 0,
                "ik": 0.12053789731051345
            }, {
                "va": 801.7324350336862,
                "vg1": 10,
                "ig1": 0,
                "vg2": null,
                "ig2": 0,
                "ik": 0.1430317848410758
            }, {
                "va": 1657.4590952839267,
                "vg1": 10,
                "ig1": 0,
                "vg2": null,
                "ig2": 0,
                "ik": 0.19070904645476772
            }],
            "vg1": 10
        }, {
            "p": [{
                "va": 0,
                "vg1": 11,
                "ig1": 0,
                "vg2": null,
                "ig2": 0,
                "ik": 0
            }, {
                "va": 27.815206929740132,
                "vg1": 11,
                "ig1": 0,
                "vg2": null,
                "ig2": 0,
                "ik": 0.05794621026894865
            }, {
                "va": 49.08565928777671,
                "vg1": 11,
                "ig1": 0,
                "vg2": null,
                "ig2": 0,
                "ik": 0.11051344743276284
            }, {
                "va": 199.6150144369586,
                "vg1": 11,
                "ig1": 0,
                "vg2": null,
                "ig2": 0,
                "ik": 0.13276283618581908
            }, {
                "va": 363.2338787295476,
                "vg1": 11,
                "ig1": 0,
                "vg2": null,
                "ig2": 0,
                "ik": 0.1471882640586797
            }, {
                "va": 986.6217516843118,
                "vg1": 11,
                "ig1": 0,
                "vg2": null,
                "ig2": 0,
                "ik": 0.19877750611246944
            }],
            "vg1": 11
        }],
        "vg2": null,
        "logX": false,
        "logY": false,
        "name": "CV57G2G1",
        "raw": false,
        "unit": null,
        "triode": true
    }
}
