{
    "filename": "ec8010curves.json",
    "tubeGraph": {
        "c": [{
            "p": [{
                "va": 0,
                "vg1": -3.5,
                "ig1": 0,
                "vg2": null,
                "ig2": 0,
                "ik": 0
            }, {
                "va": 153.38983050847457,
                "vg1": -3.5,
                "ig1": 0,
                "vg2": null,
                "ig2": 0,
                "ik": 0.00045454545454545455
            }, {
                "va": 206.77966101694915,
                "vg1": -3.5,
                "ig1": 0,
                "vg2": null,
                "ig2": 0,
                "ik": 0.005113636363636364
            }, {
                "va": 240.3954802259887,
                "vg1": -3.5,
                "ig1": 0,
                "vg2": null,
                "ig2": 0,
                "ik": 0.012045454545454545
            }, {
                "va": 269.49152542372883,
                "vg1": -3.5,
                "ig1": 0,
                "vg2": null,
                "ig2": 0,
                "ik": 0.020454545454545454
            }],
            "vg1": -3.5
        }, {
            "p": [{
                "va": 0,
                "vg1": -3,
                "ig1": 0,
                "vg2": null,
                "ig2": 0,
                "ik": 0
            }, {
                "va": 129.94350282485877,
                "vg1": -3,
                "ig1": 0,
                "vg2": null,
                "ig2": 0,
                "ik": 0.00022727272727272727
            }, {
                "va": 160.16949152542372,
                "vg1": -3,
                "ig1": 0,
                "vg2": null,
                "ig2": 0,
                "ik": 0.002840909090909091
            }, {
                "va": 192.93785310734464,
                "vg1": -3,
                "ig1": 0,
                "vg2": null,
                "ig2": 0,
                "ik": 0.008295454545454545
            }, {
                "va": 220.05649717514123,
                "vg1": -3,
                "ig1": 0,
                "vg2": null,
                "ig2": 0,
                "ik": 0.015340909090909089
            }, {
                "va": 253.10734463276836,
                "vg1": -3,
                "ig1": 0,
                "vg2": null,
                "ig2": 0,
                "ik": 0.025909090909090906
            }],
            "vg1": -3
        }, {
            "p": [{
                "va": 0,
                "vg1": -2.5,
                "ig1": 0,
                "vg2": null,
                "ig2": 0,
                "ik": 0
            }, {
                "va": 102.54237288135593,
                "vg1": -2.5,
                "ig1": 0,
                "vg2": null,
                "ig2": 0,
                "ik": 0.00022727272727272727
            }, {
                "va": 140.1129943502825,
                "vg1": -2.5,
                "ig1": 0,
                "vg2": null,
                "ig2": 0,
                "ik": 0.004204545454545454
            }, {
                "va": 175.4237288135593,
                "vg1": -2.5,
                "ig1": 0,
                "vg2": null,
                "ig2": 0,
                "ik": 0.012499999999999999
            }, {
                "va": 204.51977401129943,
                "vg1": -2.5,
                "ig1": 0,
                "vg2": null,
                "ig2": 0,
                "ik": 0.02125
            }, {
                "va": 241.24293785310735,
                "vg1": -2.5,
                "ig1": 0,
                "vg2": null,
                "ig2": 0,
                "ik": 0.035909090909090904
            }],
            "vg1": -2.5
        }, {
            "p": [{
                "va": 0,
                "vg1": -2,
                "ig1": 0,
                "vg2": null,
                "ig2": 0,
                "ik": 0
            }, {
                "va": 79.09604519774011,
                "vg1": -2,
                "ig1": 0,
                "vg2": null,
                "ig2": 0,
                "ik": 0.0003409090909090909
            }, {
                "va": 120.05649717514125,
                "vg1": -2,
                "ig1": 0,
                "vg2": null,
                "ig2": 0,
                "ik": 0.004772727272727272
            }, {
                "va": 150.56497175141243,
                "vg1": -2,
                "ig1": 0,
                "vg2": null,
                "ig2": 0,
                "ik": 0.012727272727272726
            }, {
                "va": 181.07344632768363,
                "vg1": -2,
                "ig1": 0,
                "vg2": null,
                "ig2": 0,
                "ik": 0.023863636363636365
            }, {
                "va": 222.31638418079095,
                "vg1": -2,
                "ig1": 0,
                "vg2": null,
                "ig2": 0,
                "ik": 0.04022727272727273
            }],
            "vg1": -2
        }, {
            "p": [{
                "va": 0,
                "vg1": -1.5,
                "ig1": 0,
                "vg2": null,
                "ig2": 0,
                "ik": 0
            }, {
                "va": 53.10734463276836,
                "vg1": -1.5,
                "ig1": 0,
                "vg2": null,
                "ig2": 0,
                "ik": 0.0003409090909090909
            }, {
                "va": 75.98870056497175,
                "vg1": -1.5,
                "ig1": 0,
                "vg2": null,
                "ig2": 0,
                "ik": 0.002386363636363636
            }, {
                "va": 100,
                "vg1": -1.5,
                "ig1": 0,
                "vg2": null,
                "ig2": 0,
                "ik": 0.006818181818181818
            }, {
                "va": 126.55367231638418,
                "vg1": -1.5,
                "ig1": 0,
                "vg2": null,
                "ig2": 0,
                "ik": 0.015113636363636362
            }, {
                "va": 157.909604519774,
                "vg1": -1.5,
                "ig1": 0,
                "vg2": null,
                "ig2": 0,
                "ik": 0.027159090909090907
            }, {
                "va": 204.51977401129943,
                "vg1": -1.5,
                "ig1": 0,
                "vg2": null,
                "ig2": 0,
                "ik": 0.046136363636363635
            }],
            "vg1": -1.5
        }, {
            "p": [{
                "va": 0,
                "vg1": -1,
                "ig1": 0,
                "vg2": null,
                "ig2": 0,
                "ik": 0
            }, {
                "va": 25.423728813559322,
                "vg1": -1,
                "ig1": 0,
                "vg2": null,
                "ig2": 0,
                "ik": 0.0007954545454545454
            }, {
                "va": 69.2090395480226,
                "vg1": -1,
                "ig1": 0,
                "vg2": null,
                "ig2": 0,
                "ik": 0.006931818181818181
            }, {
                "va": 100.28248587570621,
                "vg1": -1,
                "ig1": 0,
                "vg2": null,
                "ig2": 0,
                "ik": 0.01693181818181818
            }, {
                "va": 135.87570621468927,
                "vg1": -1,
                "ig1": 0,
                "vg2": null,
                "ig2": 0,
                "ik": 0.030909090909090907
            }, {
                "va": 184.74576271186442,
                "vg1": -1,
                "ig1": 0,
                "vg2": null,
                "ig2": 0,
                "ik": 0.051477272727272726
            }],
            "vg1": -1
        }, {
            "p": [{
                "va": 0,
                "vg1": -0.5,
                "ig1": 0,
                "vg2": null,
                "ig2": 0,
                "ik": 0
            }, {
                "va": 25.423728813559322,
                "vg1": -0.5,
                "ig1": 0,
                "vg2": null,
                "ig2": 0,
                "ik": 0.003977272727272727
            }, {
                "va": 50,
                "vg1": -0.5,
                "ig1": 0,
                "vg2": null,
                "ig2": 0,
                "ik": 0.010227272727272727
            }, {
                "va": 80.7909604519774,
                "vg1": -0.5,
                "ig1": 0,
                "vg2": null,
                "ig2": 0,
                "ik": 0.02068181818181818
            }, {
                "va": 116.66666666666667,
                "vg1": -0.5,
                "ig1": 0,
                "vg2": null,
                "ig2": 0,
                "ik": 0.03568181818181818
            }, {
                "va": 164.68926553672316,
                "vg1": -0.5,
                "ig1": 0,
                "vg2": null,
                "ig2": 0,
                "ik": 0.05761363636363636
            }],
            "vg1": -0.5
        }, {
            "p": [{
                "va": 0,
                "vg1": 0,
                "ig1": 0,
                "vg2": null,
                "ig2": 0,
                "ik": 0
            }, {
                "va": 58.75706214689266,
                "vg1": 0,
                "ig1": 0,
                "vg2": null,
                "ig2": 0,
                "ik": 0.022159090909090906
            }, {
                "va": 142.3728813559322,
                "vg1": 0,
                "ig1": 0,
                "vg2": null,
                "ig2": 0,
                "ik": 0.06295454545454544
            }],
            "vg1": 0
        }],
        "vg2": null,
        "logX": false,
        "logY": false,
        "name": "EC8010curves",
        "raw": false,
        "unit": null,
        "triode": false
    }
}
