{
    "filename": "ecc88 from philips datasheet graph 1962.json",
    "tubeGraph": {
        "c": [{
            "p": [{
                "va": 0,
                "vg1": -10,
                "ig1": 0,
                "vg2": null,
                "ig2": 0,
                "ik": 0
            }, {
                "va": 251.63793103448276,
                "vg1": -10,
                "ig1": 0,
                "vg2": null,
                "ig2": 0,
                "ik": 0.00015463917525773197
            }, {
                "va": 283.44827586206895,
                "vg1": -10,
                "ig1": 0,
                "vg2": null,
                "ig2": 0,
                "ik": 0.0019587628865979385
            }, {
                "va": 299.2241379310345,
                "vg1": -10,
                "ig1": 0,
                "vg2": null,
                "ig2": 0,
                "ik": 0.004278350515463917
            }],
            "vg1": -10
        }, {
            "p": [{
                "va": 0,
                "vg1": -9,
                "ig1": 0,
                "vg2": null,
                "ig2": 0,
                "ik": 0
            }, {
                "va": 227.06896551724137,
                "vg1": -9,
                "ig1": 0,
                "vg2": null,
                "ig2": 0,
                "ik": 0.00010309278350515464
            }, {
                "va": 270.2586206896552,
                "vg1": -9,
                "ig1": 0,
                "vg2": null,
                "ig2": 0,
                "ik": 0.0037886597938144332
            }, {
                "va": 297.9310344827586,
                "vg1": -9,
                "ig1": 0,
                "vg2": null,
                "ig2": 0,
                "ik": 0.01005154639175258
            }],
            "vg1": -9
        }, {
            "p": [{
                "va": 0,
                "vg1": -8,
                "ig1": 0,
                "vg2": null,
                "ig2": 0,
                "ik": 0
            }, {
                "va": 203.01724137931035,
                "vg1": -8,
                "ig1": 0,
                "vg2": null,
                "ig2": 0,
                "ik": 0.00023195876288659796
            }, {
                "va": 261.2068965517241,
                "vg1": -8,
                "ig1": 0,
                "vg2": null,
                "ig2": 0,
                "ik": 0.007422680412371135
            }, {
                "va": 297.67241379310343,
                "vg1": -8,
                "ig1": 0,
                "vg2": null,
                "ig2": 0,
                "ik": 0.017603092783505154
            }],
            "vg1": -8
        }, {
            "p": [{
                "va": 0,
                "vg1": -7,
                "ig1": 0,
                "vg2": null,
                "ig2": 0,
                "ik": 0
            }, {
                "va": 177.93103448275863,
                "vg1": -7,
                "ig1": 0,
                "vg2": null,
                "ig2": 0,
                "ik": 0.0002835051546391753
            }, {
                "va": 211.29310344827587,
                "vg1": -7,
                "ig1": 0,
                "vg2": null,
                "ig2": 0,
                "ik": 0.0026804123711340207
            }, {
                "va": 236.3793103448276,
                "vg1": -7,
                "ig1": 0,
                "vg2": null,
                "ig2": 0,
                "ik": 0.007989690721649486
            }, {
                "va": 260.4310344827586,
                "vg1": -7,
                "ig1": 0,
                "vg2": null,
                "ig2": 0,
                "ik": 0.014355670103092784
            }, {
                "va": 275.6896551724138,
                "vg1": -7,
                "ig1": 0,
                "vg2": null,
                "ig2": 0,
                "ik": 0.019871134020618558
            }],
            "vg1": -7
        }, {
            "p": [{
                "va": 0,
                "vg1": -6,
                "ig1": 0,
                "vg2": null,
                "ig2": 0,
                "ik": 0
            }, {
                "va": 158.27586206896552,
                "vg1": -6,
                "ig1": 0,
                "vg2": null,
                "ig2": 0,
                "ik": 0.00030927835051546395
            }, {
                "va": 205.60344827586206,
                "vg1": -6,
                "ig1": 0,
                "vg2": null,
                "ig2": 0,
                "ik": 0.00654639175257732
            }, {
                "va": 248.5344827586207,
                "vg1": -6,
                "ig1": 0,
                "vg2": null,
                "ig2": 0,
                "ik": 0.019871134020618558
            }],
            "vg1": -6
        }, {
            "p": [{
                "va": 0,
                "vg1": -5,
                "ig1": 0,
                "vg2": null,
                "ig2": 0,
                "ik": 0
            }, {
                "va": 124.91379310344827,
                "vg1": -5,
                "ig1": 0,
                "vg2": null,
                "ig2": 0,
                "ik": 0.0002061855670103093
            }, {
                "va": 164.74137931034483,
                "vg1": -5,
                "ig1": 0,
                "vg2": null,
                "ig2": 0,
                "ik": 0.0034793814432989693
            }, {
                "va": 191.3793103448276,
                "vg1": -5,
                "ig1": 0,
                "vg2": null,
                "ig2": 0,
                "ik": 0.009742268041237115
            }, {
                "va": 221.3793103448276,
                "vg1": -5,
                "ig1": 0,
                "vg2": null,
                "ig2": 0,
                "ik": 0.02
            }],
            "vg1": -5
        }, {
            "p": [{
                "va": 0,
                "vg1": -4,
                "ig1": 0,
                "vg2": null,
                "ig2": 0,
                "ik": 0
            }, {
                "va": 100.08620689655173,
                "vg1": -4,
                "ig1": 0,
                "vg2": null,
                "ig2": 0,
                "ik": 0.00023195876288659796
            }, {
                "va": 147.1551724137931,
                "vg1": -4,
                "ig1": 0,
                "vg2": null,
                "ig2": 0,
                "ik": 0.005824742268041238
            }, {
                "va": 190.86206896551724,
                "vg1": -4,
                "ig1": 0,
                "vg2": null,
                "ig2": 0,
                "ik": 0.02
            }],
            "vg1": -4
        }, {
            "p": [{
                "va": 0,
                "vg1": -3,
                "ig1": 0,
                "vg2": null,
                "ig2": 0,
                "ik": 0
            }, {
                "va": 67.75862068965517,
                "vg1": -3,
                "ig1": 0,
                "vg2": null,
                "ig2": 0,
                "ik": 0.00018041237113402064
            }, {
                "va": 98.27586206896552,
                "vg1": -3,
                "ig1": 0,
                "vg2": null,
                "ig2": 0,
                "ik": 0.002603092783505155
            }, {
                "va": 121.8103448275862,
                "vg1": -3,
                "ig1": 0,
                "vg2": null,
                "ig2": 0,
                "ik": 0.007809278350515465
            }, {
                "va": 158.79310344827587,
                "vg1": -3,
                "ig1": 0,
                "vg2": null,
                "ig2": 0,
                "ik": 0.019922680412371135
            }],
            "vg1": -3
        }, {
            "p": [{
                "va": 0,
                "vg1": -2,
                "ig1": 0,
                "vg2": null,
                "ig2": 0,
                "ik": 0
            }, {
                "va": 37.758620689655174,
                "vg1": -2,
                "ig1": 0,
                "vg2": null,
                "ig2": 0,
                "ik": 0.00023195876288659796
            }, {
                "va": 87.1551724137931,
                "vg1": -2,
                "ig1": 0,
                "vg2": null,
                "ig2": 0,
                "ik": 0.006675257731958763
            }, {
                "va": 125.17241379310344,
                "vg1": -2,
                "ig1": 0,
                "vg2": null,
                "ig2": 0,
                "ik": 0.019922680412371135
            }],
            "vg1": -2
        }, {
            "p": [{
                "va": 0,
                "vg1": -1,
                "ig1": 0,
                "vg2": null,
                "ig2": 0,
                "ik": 0
            }, {
                "va": 11.89655172413793,
                "vg1": -1,
                "ig1": 0,
                "vg2": null,
                "ig2": 0,
                "ik": 0.00018041237113402064
            }, {
                "va": 35.689655172413794,
                "vg1": -1,
                "ig1": 0,
                "vg2": null,
                "ig2": 0,
                "ik": 0.0025
            }, {
                "va": 61.55172413793103,
                "vg1": -1,
                "ig1": 0,
                "vg2": null,
                "ig2": 0,
                "ik": 0.008634020618556702
            }, {
                "va": 94.13793103448276,
                "vg1": -1,
                "ig1": 0,
                "vg2": null,
                "ig2": 0,
                "ik": 0.019922680412371135
            }],
            "vg1": -1
        }, {
            "p": [{
                "va": 0,
                "vg1": 0,
                "ig1": 0,
                "vg2": null,
                "ig2": 0,
                "ik": 0
            }, {
                "va": 25.603448275862068,
                "vg1": 0,
                "ig1": 0,
                "vg2": null,
                "ig2": 0,
                "ik": 0.0070360824742268045
            }, {
                "va": 61.293103448275865,
                "vg1": 0,
                "ig1": 0,
                "vg2": null,
                "ig2": 0,
                "ik": 0.02
            }],
            "vg1": 0
        }],
        "vg2": null,
        "logX": false,
        "logY": false,
        "name": "ECC88 From Philips Datasheet Graph 1962",
        "raw": false,
        "unit": null,
        "triode": false
    }
}
