{
    "filename": "ecc88_philips_ia_ua.json",
    "tubeGraph": {
        "c": [{
            "p": [{
                "va": 0,
                "vg1": -10,
                "ig1": 0,
                "vg2": null,
                "ig2": 0,
                "ik": 0
            }, {
                "va": 268.6006825938566,
                "vg1": -10,
                "ig1": 0,
                "vg2": null,
                "ig2": 0,
                "ik": 0
            }, {
                "va": 276.79180887372013,
                "vg1": -10,
                "ig1": 0,
                "vg2": null,
                "ig2": 0,
                "ik": 0.0007155025553662692
            }, {
                "va": 298.6348122866894,
                "vg1": -10,
                "ig1": 0,
                "vg2": null,
                "ig2": 0,
                "ik": 0.003713798977853492
            }],
            "vg1": -10
        }, {
            "p": [{
                "va": 0,
                "vg1": -9,
                "ig1": 0,
                "vg2": null,
                "ig2": 0,
                "ik": 0
            }, {
                "va": 243.3447098976109,
                "vg1": -9,
                "ig1": 0,
                "vg2": null,
                "ig2": 0,
                "ik": 0.00010221465076660988
            }, {
                "va": 252.55972696245732,
                "vg1": -9,
                "ig1": 0,
                "vg2": null,
                "ig2": 0,
                "ik": 0.001090289608177172
            }, {
                "va": 268.9419795221843,
                "vg1": -9,
                "ig1": 0,
                "vg2": null,
                "ig2": 0,
                "ik": 0.0032367972742759796
            }, {
                "va": 283.61774744027304,
                "vg1": -9,
                "ig1": 0,
                "vg2": null,
                "ig2": 0,
                "ik": 0.005928449744463373
            }, {
                "va": 299.31740614334467,
                "vg1": -9,
                "ig1": 0,
                "vg2": null,
                "ig2": 0,
                "ik": 0.009608177172061328
            }],
            "vg1": -9
        }, {
            "p": [{
                "va": 0,
                "vg1": -8,
                "ig1": 0,
                "vg2": null,
                "ig2": 0,
                "ik": 0
            }, {
                "va": 216.7235494880546,
                "vg1": -8,
                "ig1": 0,
                "vg2": null,
                "ig2": 0,
                "ik": 0.00017035775127768313
            }, {
                "va": 224.23208191126278,
                "vg1": -8,
                "ig1": 0,
                "vg2": null,
                "ig2": 0,
                "ik": 0.0008858603066439522
            }, {
                "va": 239.5904436860068,
                "vg1": -8,
                "ig1": 0,
                "vg2": null,
                "ig2": 0,
                "ik": 0.003066439522998296
            }, {
                "va": 259.7269624573379,
                "vg1": -8,
                "ig1": 0,
                "vg2": null,
                "ig2": 0,
                "ik": 0.007086882453151618
            }, {
                "va": 278.49829351535834,
                "vg1": -8,
                "ig1": 0,
                "vg2": null,
                "ig2": 0,
                "ik": 0.01161839863713799
            }, {
                "va": 298.6348122866894,
                "vg1": -8,
                "ig1": 0,
                "vg2": null,
                "ig2": 0,
                "ik": 0.017478705281090287
            }],
            "vg1": -8
        }, {
            "p": [{
                "va": 0,
                "vg1": -7,
                "ig1": 0,
                "vg2": null,
                "ig2": 0,
                "ik": 0
            }, {
                "va": 191.46757679180885,
                "vg1": -7,
                "ig1": 0,
                "vg2": null,
                "ig2": 0,
                "ik": 0.00006814310051107325
            }, {
                "va": 205.11945392491467,
                "vg1": -7,
                "ig1": 0,
                "vg2": null,
                "ig2": 0,
                "ik": 0.0016013628620102213
            }, {
                "va": 221.160409556314,
                "vg1": -7,
                "ig1": 0,
                "vg2": null,
                "ig2": 0,
                "ik": 0.004633730834752981
            }, {
                "va": 241.63822525597269,
                "vg1": -7,
                "ig1": 0,
                "vg2": null,
                "ig2": 0,
                "ik": 0.009335604770017035
            }, {
                "va": 275.4266211604095,
                "vg1": -7,
                "ig1": 0,
                "vg2": null,
                "ig2": 0,
                "ik": 0.019454855195911412
            }],
            "vg1": -7
        }, {
            "p": [{
                "va": 0,
                "vg1": -6,
                "ig1": 0,
                "vg2": null,
                "ig2": 0,
                "ik": 0
            }, {
                "va": 165.8703071672355,
                "vg1": -6,
                "ig1": 0,
                "vg2": null,
                "ig2": 0,
                "ik": 0.00010221465076660988
            }, {
                "va": 178.839590443686,
                "vg1": -6,
                "ig1": 0,
                "vg2": null,
                "ig2": 0,
                "ik": 0.0016013628620102213
            }, {
                "va": 194.19795221843003,
                "vg1": -6,
                "ig1": 0,
                "vg2": null,
                "ig2": 0,
                "ik": 0.0040204429301533215
            }, {
                "va": 217.06484641638224,
                "vg1": -6,
                "ig1": 0,
                "vg2": null,
                "ig2": 0,
                "ik": 0.009710391822827938
            }, {
                "va": 246.75767918088735,
                "vg1": -6,
                "ig1": 0,
                "vg2": null,
                "ig2": 0,
                "ik": 0.019557069846678023
            }],
            "vg1": -6
        }, {
            "p": [{
                "va": 0,
                "vg1": -5,
                "ig1": 0,
                "vg2": null,
                "ig2": 0,
                "ik": 0
            }, {
                "va": 137.8839590443686,
                "vg1": -5,
                "ig1": 0,
                "vg2": null,
                "ig2": 0,
                "ik": 0.00020442930153321976
            }, {
                "va": 153.92491467576792,
                "vg1": -5,
                "ig1": 0,
                "vg2": null,
                "ig2": 0,
                "ik": 0.002112436115843271
            }, {
                "va": 169.96587030716722,
                "vg1": -5,
                "ig1": 0,
                "vg2": null,
                "ig2": 0,
                "ik": 0.005008517887563884
            }, {
                "va": 190.44368600682594,
                "vg1": -5,
                "ig1": 0,
                "vg2": null,
                "ig2": 0,
                "ik": 0.009846678023850084
            }, {
                "va": 218.4300341296928,
                "vg1": -5,
                "ig1": 0,
                "vg2": null,
                "ig2": 0,
                "ik": 0.019522998296422487
            }],
            "vg1": -5
        }, {
            "p": [{
                "va": 0,
                "vg1": -4,
                "ig1": 0,
                "vg2": null,
                "ig2": 0,
                "ik": 0
            }, {
                "va": 112.62798634812286,
                "vg1": -4,
                "ig1": 0,
                "vg2": null,
                "ig2": 0,
                "ik": 0.00017035775127768313
            }, {
                "va": 121.84300341296928,
                "vg1": -4,
                "ig1": 0,
                "vg2": null,
                "ig2": 0,
                "ik": 0.001362862010221465
            }, {
                "va": 132.76450511945393,
                "vg1": -4,
                "ig1": 0,
                "vg2": null,
                "ig2": 0,
                "ik": 0.0032367972742759796
            }, {
                "va": 151.87713310580205,
                "vg1": -4,
                "ig1": 0,
                "vg2": null,
                "ig2": 0,
                "ik": 0.007768313458262351
            }, {
                "va": 169.96587030716722,
                "vg1": -4,
                "ig1": 0,
                "vg2": null,
                "ig2": 0,
                "ik": 0.013049403747870529
            }, {
                "va": 188.0546075085324,
                "vg1": -4,
                "ig1": 0,
                "vg2": null,
                "ig2": 0,
                "ik": 0.01959114139693356
            }],
            "vg1": -4
        }, {
            "p": [{
                "va": 0,
                "vg1": -3,
                "ig1": 0,
                "vg2": null,
                "ig2": 0,
                "ik": 0
            }, {
                "va": 80.88737201365187,
                "vg1": -3,
                "ig1": 0,
                "vg2": null,
                "ig2": 0,
                "ik": 0.00017035775127768313
            }, {
                "va": 88.39590443686006,
                "vg1": -3,
                "ig1": 0,
                "vg2": null,
                "ig2": 0,
                "ik": 0.0011243611584327087
            }, {
                "va": 97.61092150170649,
                "vg1": -3,
                "ig1": 0,
                "vg2": null,
                "ig2": 0,
                "ik": 0.00272572402044293
            }, {
                "va": 117.40614334470989,
                "vg1": -3,
                "ig1": 0,
                "vg2": null,
                "ig2": 0,
                "ik": 0.007052810902896081
            }, {
                "va": 135.49488054607508,
                "vg1": -3,
                "ig1": 0,
                "vg2": null,
                "ig2": 0,
                "ik": 0.011856899488926745
            }, {
                "va": 157.679180887372,
                "vg1": -3,
                "ig1": 0,
                "vg2": null,
                "ig2": 0,
                "ik": 0.019557069846678023
            }],
            "vg1": -3
        }, {
            "p": [{
                "va": 0,
                "vg1": -2,
                "ig1": 0,
                "vg2": null,
                "ig2": 0,
                "ik": 0
            }, {
                "va": 49.48805460750853,
                "vg1": -2,
                "ig1": 0,
                "vg2": null,
                "ig2": 0,
                "ik": 0.0001362862010221465
            }, {
                "va": 54.94880546075085,
                "vg1": -2,
                "ig1": 0,
                "vg2": null,
                "ig2": 0,
                "ik": 0.0006814310051107325
            }, {
                "va": 63.481228668941974,
                "vg1": -2,
                "ig1": 0,
                "vg2": null,
                "ig2": 0,
                "ik": 0.0019420783645655876
            }, {
                "va": 84.64163822525597,
                "vg1": -2,
                "ig1": 0,
                "vg2": null,
                "ig2": 0,
                "ik": 0.006132879045996592
            }, {
                "va": 124.57337883959043,
                "vg1": -2,
                "ig1": 0,
                "vg2": null,
                "ig2": 0,
                "ik": 0.019352640545144805
            }],
            "vg1": -2
        }, {
            "p": [{
                "va": 0,
                "vg1": -1,
                "ig1": 0,
                "vg2": null,
                "ig2": 0,
                "ik": 0
            }, {
                "va": 23.549488054607508,
                "vg1": -1,
                "ig1": 0,
                "vg2": null,
                "ig2": 0,
                "ik": 0.00010221465076660988
            }, {
                "va": 30.034129692832764,
                "vg1": -1,
                "ig1": 0,
                "vg2": null,
                "ig2": 0,
                "ik": 0.0012606473594548551
            }, {
                "va": 39.59044368600682,
                "vg1": -1,
                "ig1": 0,
                "vg2": null,
                "ig2": 0,
                "ik": 0.003339011925042589
            }, {
                "va": 61.774744027303754,
                "vg1": -1,
                "ig1": 0,
                "vg2": null,
                "ig2": 0,
                "ik": 0.009403747870528108
            }, {
                "va": 76.10921501706484,
                "vg1": -1,
                "ig1": 0,
                "vg2": null,
                "ig2": 0,
                "ik": 0.013867120954003406
            }, {
                "va": 92.4914675767918,
                "vg1": -1,
                "ig1": 0,
                "vg2": null,
                "ig2": 0,
                "ik": 0.01969335604770017
            }],
            "vg1": -1
        }, {
            "p": [{
                "va": 0,
                "vg1": 0,
                "ig1": 0,
                "vg2": null,
                "ig2": 0,
                "ik": 0
            }, {
                "va": 5.46075085324232,
                "vg1": 0,
                "ig1": 0,
                "vg2": null,
                "ig2": 0,
                "ik": 0.001090289608177172
            }, {
                "va": 15.017064846416382,
                "vg1": 0,
                "ig1": 0,
                "vg2": null,
                "ig2": 0,
                "ik": 0.0040204429301533215
            }, {
                "va": 29.01023890784983,
                "vg1": 0,
                "ig1": 0,
                "vg2": null,
                "ig2": 0,
                "ik": 0.0082793867120954
            }, {
                "va": 41.979522184300336,
                "vg1": 0,
                "ig1": 0,
                "vg2": null,
                "ig2": 0,
                "ik": 0.012947189097103918
            }, {
                "va": 60.06825938566553,
                "vg1": 0,
                "ig1": 0,
                "vg2": null,
                "ig2": 0,
                "ik": 0.01959114139693356
            }],
            "vg1": 0
        }],
        "vg2": null,
        "logX": false,
        "logY": false,
        "name": "ECC88_Philips_IA_UA",
        "raw": false,
        "unit": null,
        "triode": false
    }
}
