{
    "filename": "ef184 170.json",
    "tubeGraph": {
        "c": [{
            "p": [{
                "va": 0,
                "vg1": -3,
                "ig1": 0,
                "vg2": 170,
                "ig2": 0,
                "ik": 0
            }, {
                "va": 7.074235807860261,
                "vg1": -3,
                "ig1": 0,
                "vg2": 170,
                "ig2": 0,
                "ik": 0.0010430247718383311
            }, {
                "va": 16.244541484716155,
                "vg1": -3,
                "ig1": 0,
                "vg2": 170,
                "ig2": 0,
                "ik": 0.0015645371577574967
            }, {
                "va": 39.82532751091703,
                "vg1": -3,
                "ig1": 0,
                "vg2": 170,
                "ig2": 0,
                "ik": 0.001877444589308996
            }, {
                "va": 298.9519650655022,
                "vg1": -3,
                "ig1": 0,
                "vg2": 170,
                "ig2": 0,
                "ik": 0.0029204693611473275
            }],
            "vg1": -3
        }, {
            "p": [{
                "va": 0,
                "vg1": -2.5,
                "ig1": 0,
                "vg2": 170,
                "ig2": 0,
                "ik": 0
            }, {
                "va": 3.406113537117904,
                "vg1": -2.5,
                "ig1": 0,
                "vg2": 170,
                "ig2": 0,
                "ik": 0.0011473272490221643
            }, {
                "va": 14.672489082969431,
                "vg1": -2.5,
                "ig1": 0,
                "vg2": 170,
                "ig2": 0,
                "ik": 0.0034419817470664926
            }, {
                "va": 32.227074235807855,
                "vg1": -2.5,
                "ig1": 0,
                "vg2": 170,
                "ig2": 0,
                "ik": 0.0038591916558018253
            }, {
                "va": 42.969432314410476,
                "vg1": -2.5,
                "ig1": 0,
                "vg2": 170,
                "ig2": 0,
                "ik": 0.0041720990873533245
            }, {
                "va": 297.90393013100436,
                "vg1": -2.5,
                "ig1": 0,
                "vg2": 170,
                "ig2": 0,
                "ik": 0.0054237288135593215
            }],
            "vg1": -2.5
        }, {
            "p": [{
                "va": 0,
                "vg1": -2,
                "ig1": 0,
                "vg2": 170,
                "ig2": 0,
                "ik": 0
            }, {
                "va": 8.122270742358078,
                "vg1": -2,
                "ig1": 0,
                "vg2": 170,
                "ig2": 0,
                "ik": 0.004797913950456323
            }, {
                "va": 20.17467248908297,
                "vg1": -2,
                "ig1": 0,
                "vg2": 170,
                "ig2": 0,
                "ik": 0.008239895697522816
            }, {
                "va": 47.9475982532751,
                "vg1": -2,
                "ig1": 0,
                "vg2": 170,
                "ig2": 0,
                "ik": 0.009804432855280312
            }, {
                "va": 297.90393013100436,
                "vg1": -2,
                "ig1": 0,
                "vg2": 170,
                "ig2": 0,
                "ik": 0.011473272490221642
            }],
            "vg1": -2
        }, {
            "p": [{
                "va": 0,
                "vg1": -1.5,
                "ig1": 0,
                "vg2": 170,
                "ig2": 0,
                "ik": 0
            }, {
                "va": 22.00873362445415,
                "vg1": -1.5,
                "ig1": 0,
                "vg2": 170,
                "ig2": 0,
                "ik": 0.012620599739243807
            }, {
                "va": 47.4235807860262,
                "vg1": -1.5,
                "ig1": 0,
                "vg2": 170,
                "ig2": 0,
                "ik": 0.017940026075619293
            }, {
                "va": 108.20960698689956,
                "vg1": -1.5,
                "ig1": 0,
                "vg2": 170,
                "ig2": 0,
                "ik": 0.019608865710560624
            }, {
                "va": 296.85589519650654,
                "vg1": -1.5,
                "ig1": 0,
                "vg2": 170,
                "ig2": 0,
                "ik": 0.02044328552803129
            }],
            "vg1": -1.5
        }, {
            "p": [{
                "va": 0,
                "vg1": -1,
                "ig1": 0,
                "vg2": 170,
                "ig2": 0,
                "ik": 0
            }, {
                "va": 24.62882096069869,
                "vg1": -1,
                "ig1": 0,
                "vg2": 170,
                "ig2": 0,
                "ik": 0.01376792698826597
            }, {
                "va": 43.75545851528384,
                "vg1": -1,
                "ig1": 0,
                "vg2": 170,
                "ig2": 0,
                "ik": 0.024302477183833115
            }, {
                "va": 63.93013100436681,
                "vg1": -1,
                "ig1": 0,
                "vg2": 170,
                "ig2": 0,
                "ik": 0.029726205997392438
            }, {
                "va": 98.77729257641921,
                "vg1": -1,
                "ig1": 0,
                "vg2": 170,
                "ig2": 0,
                "ik": 0.03191655801825293
            }, {
                "va": 295.8078602620087,
                "vg1": -1,
                "ig1": 0,
                "vg2": 170,
                "ig2": 0,
                "ik": 0.03379400260756193
            }],
            "vg1": -1
        }, {
            "p": [{
                "va": 0,
                "vg1": -0.5,
                "ig1": 0,
                "vg2": 170,
                "ig2": 0,
                "ik": 0
            }, {
                "va": 20.17467248908297,
                "vg1": -0.5,
                "ig1": 0,
                "vg2": 170,
                "ig2": 0,
                "ik": 0.012203389830508475
            }, {
                "va": 26.200873362445414,
                "vg1": -0.5,
                "ig1": 0,
                "vg2": 170,
                "ig2": 0,
                "ik": 0.014080834419817471
            }, {
                "va": 40.61135371179039,
                "vg1": -0.5,
                "ig1": 0,
                "vg2": 170,
                "ig2": 0,
                "ik": 0.023050847457627116
            }, {
                "va": 51.61572052401746,
                "vg1": -0.5,
                "ig1": 0,
                "vg2": 170,
                "ig2": 0,
                "ik": 0.02753585397653194
            }, {
                "va": 66.02620087336244,
                "vg1": -0.5,
                "ig1": 0,
                "vg2": 170,
                "ig2": 0,
                "ik": 0.037444589308996086
            }, {
                "va": 80.69868995633188,
                "vg1": -0.5,
                "ig1": 0,
                "vg2": 170,
                "ig2": 0,
                "ik": 0.04276401564537158
            }, {
                "va": 112.92576419213974,
                "vg1": -0.5,
                "ig1": 0,
                "vg2": 170,
                "ig2": 0,
                "ik": 0.045580182529335066
            }, {
                "va": 297.90393013100436,
                "vg1": -0.5,
                "ig1": 0,
                "vg2": 170,
                "ig2": 0,
                "ik": 0.04808344198174706
            }],
            "vg1": -0.5
        }, {
            "p": [{
                "va": 0,
                "vg1": 0,
                "ig1": 0,
                "vg2": 170,
                "ig2": 0,
                "ik": 0
            }, {
                "va": 27.24890829694323,
                "vg1": 0,
                "ig1": 0,
                "vg2": 170,
                "ig2": 0,
                "ik": 0.014915254237288135
            }, {
                "va": 50.8296943231441,
                "vg1": 0,
                "ig1": 0,
                "vg2": 170,
                "ig2": 0,
                "ik": 0.02743155149934811
            }, {
                "va": 70.21834061135371,
                "vg1": 0,
                "ig1": 0,
                "vg2": 170,
                "ig2": 0,
                "ik": 0.03942633637548892
            }, {
                "va": 85.93886462882095,
                "vg1": 0,
                "ig1": 0,
                "vg2": 170,
                "ig2": 0,
                "ik": 0.04359843546284224
            }, {
                "va": 105.06550218340611,
                "vg1": 0,
                "ig1": 0,
                "vg2": 170,
                "ig2": 0,
                "ik": 0.05444589308996088
            }, {
                "va": 133.1004366812227,
                "vg1": 0,
                "ig1": 0,
                "vg2": 170,
                "ig2": 0,
                "ik": 0.0608083441981747
            }, {
                "va": 231.353711790393,
                "vg1": 0,
                "ig1": 0,
                "vg2": 170,
                "ig2": 0,
                "ik": 0.06310299869621903
            }, {
                "va": 296.85589519650654,
                "vg1": 0,
                "ig1": 0,
                "vg2": 170,
                "ig2": 0,
                "ik": 0.06404172099087353
            }],
            "vg1": 0
        }],
        "vg2": 170,
        "logX": false,
        "logY": false,
        "name": "ef184 170",
        "raw": false,
        "unit": null,
        "triode": false
    }
}
