{
    "filename": "ef184  230.json",
    "tubeGraph": {
        "c": [{
            "p": [{
                "va": 0,
                "vg1": -3.5,
                "ig1": 0,
                "vg2": 230,
                "ig2": 0,
                "ik": 0
            }, {
                "va": 8.24538258575198,
                "vg1": -3.5,
                "ig1": 0,
                "vg2": 230,
                "ig2": 0,
                "ik": 0.0025974025974025974
            }, {
                "va": 27.04485488126649,
                "vg1": -3.5,
                "ig1": 0,
                "vg2": 230,
                "ig2": 0,
                "ik": 0.004155844155844156
            }, {
                "va": 373.3509234828496,
                "vg1": -3.5,
                "ig1": 0,
                "vg2": 230,
                "ig2": 0,
                "ik": 0.004415584415584416
            }],
            "vg1": -3.5
        }, {
            "p": [{
                "va": 0,
                "vg1": -3,
                "ig1": 0,
                "vg2": 230,
                "ig2": 0,
                "ik": 0
            }, {
                "va": 13.192612137203167,
                "vg1": -3,
                "ig1": 0,
                "vg2": 230,
                "ig2": 0,
                "ik": 0.005324675324675325
            }, {
                "va": 29.683377308707122,
                "vg1": -3,
                "ig1": 0,
                "vg2": 230,
                "ig2": 0,
                "ik": 0.008571428571428572
            }, {
                "va": 46.50395778364116,
                "vg1": -3,
                "ig1": 0,
                "vg2": 230,
                "ig2": 0,
                "ik": 0.009870129870129871
            }, {
                "va": 373.3509234828496,
                "vg1": -3,
                "ig1": 0,
                "vg2": 230,
                "ig2": 0,
                "ik": 0.01
            }],
            "vg1": -3
        }, {
            "p": [{
                "va": 0,
                "vg1": -2.5,
                "ig1": 0,
                "vg2": 230,
                "ig2": 0,
                "ik": 0
            }, {
                "va": 18.46965699208443,
                "vg1": -2.5,
                "ig1": 0,
                "vg2": 230,
                "ig2": 0,
                "ik": 0.011558441558441558
            }, {
                "va": 31.99208443271768,
                "vg1": -2.5,
                "ig1": 0,
                "vg2": 230,
                "ig2": 0,
                "ik": 0.015844155844155845
            }, {
                "va": 55.738786279683374,
                "vg1": -2.5,
                "ig1": 0,
                "vg2": 230,
                "ig2": 0,
                "ik": 0.017922077922077922
            }, {
                "va": 371.7018469656992,
                "vg1": -2.5,
                "ig1": 0,
                "vg2": 230,
                "ig2": 0,
                "ik": 0.018441558441558443
            }],
            "vg1": -2.5
        }, {
            "p": [{
                "va": 0,
                "vg1": -2,
                "ig1": 0,
                "vg2": 230,
                "ig2": 0,
                "ik": 0
            }, {
                "va": 28.36411609498681,
                "vg1": -2,
                "ig1": 0,
                "vg2": 230,
                "ig2": 0,
                "ik": 0.01896103896103896
            }, {
                "va": 46.50395778364116,
                "vg1": -2,
                "ig1": 0,
                "vg2": 230,
                "ig2": 0,
                "ik": 0.025194805194805193
            }, {
                "va": 86.41160949868073,
                "vg1": -2,
                "ig1": 0,
                "vg2": 230,
                "ig2": 0,
                "ik": 0.028311688311688312
            }, {
                "va": 371.7018469656992,
                "vg1": -2,
                "ig1": 0,
                "vg2": 230,
                "ig2": 0,
                "ik": 0.028831168831168832
            }],
            "vg1": -2
        }, {
            "p": [{
                "va": 0,
                "vg1": -1.5,
                "ig1": 0,
                "vg2": 230,
                "ig2": 0,
                "ik": 0
            }, {
                "va": 32.321899736147756,
                "vg1": -1.5,
                "ig1": 0,
                "vg2": 230,
                "ig2": 0,
                "ik": 0.024545454545454544
            }, {
                "va": 51.78100263852243,
                "vg1": -1.5,
                "ig1": 0,
                "vg2": 230,
                "ig2": 0,
                "ik": 0.03428571428571429
            }, {
                "va": 98.28496042216359,
                "vg1": -1.5,
                "ig1": 0,
                "vg2": 230,
                "ig2": 0,
                "ik": 0.04038961038961039
            }, {
                "va": 372.0316622691293,
                "vg1": -1.5,
                "ig1": 0,
                "vg2": 230,
                "ig2": 0,
                "ik": 0.042727272727272725
            }],
            "vg1": -1.5
        }, {
            "p": [{
                "va": 0,
                "vg1": -1,
                "ig1": 0,
                "vg2": 230,
                "ig2": 0,
                "ik": 0
            }, {
                "va": 53.7598944591029,
                "vg1": -1,
                "ig1": 0,
                "vg2": 230,
                "ig2": 0,
                "ik": 0.038701298701298695
            }, {
                "va": 78.82585751978891,
                "vg1": -1,
                "ig1": 0,
                "vg2": 230,
                "ig2": 0,
                "ik": 0.05064935064935065
            }, {
                "va": 126.31926121372031,
                "vg1": -1,
                "ig1": 0,
                "vg2": 230,
                "ig2": 0,
                "ik": 0.05649350649350649
            }, {
                "va": 372.69129287598946,
                "vg1": -1,
                "ig1": 0,
                "vg2": 230,
                "ig2": 0,
                "ik": 0.05896103896103896
            }],
            "vg1": -1
        }, {
            "p": [{
                "va": 0,
                "vg1": -0.5,
                "ig1": 0,
                "vg2": 230,
                "ig2": 0,
                "ik": 0
            }, {
                "va": 51.45118733509235,
                "vg1": -0.5,
                "ig1": 0,
                "vg2": 230,
                "ig2": 0,
                "ik": 0.031818181818181815
            }, {
                "va": 83.11345646437995,
                "vg1": -0.5,
                "ig1": 0,
                "vg2": 230,
                "ig2": 0,
                "ik": 0.05597402597402597
            }, {
                "va": 117.0844327176781,
                "vg1": -0.5,
                "ig1": 0,
                "vg2": 230,
                "ig2": 0,
                "ik": 0.06766233766233766
            }, {
                "va": 168.86543535620052,
                "vg1": -0.5,
                "ig1": 0,
                "vg2": 230,
                "ig2": 0,
                "ik": 0.07194805194805194
            }, {
                "va": 372.69129287598946,
                "vg1": -0.5,
                "ig1": 0,
                "vg2": 230,
                "ig2": 0,
                "ik": 0.0751948051948052
            }],
            "vg1": -0.5
        }, {
            "p": [{
                "va": 0,
                "vg1": 0,
                "ig1": 0,
                "vg2": 230,
                "ig2": 0,
                "ik": 0
            }, {
                "va": 60.35620052770449,
                "vg1": 0,
                "ig1": 0,
                "vg2": 230,
                "ig2": 0,
                "ik": 0.03168831168831169
            }, {
                "va": 102.57255936675462,
                "vg1": 0,
                "ig1": 0,
                "vg2": 230,
                "ig2": 0,
                "ik": 0.06116883116883117
            }, {
                "va": 132.9155672823219,
                "vg1": 0,
                "ig1": 0,
                "vg2": 230,
                "ig2": 0,
                "ik": 0.07883116883116882
            }, {
                "va": 171.1741424802111,
                "vg1": 0,
                "ig1": 0,
                "vg2": 230,
                "ig2": 0,
                "ik": 0.08701298701298701
            }, {
                "va": 373.6807387862797,
                "vg1": 0,
                "ig1": 0,
                "vg2": 230,
                "ig2": 0,
                "ik": 0.09129870129870131
            }],
            "vg1": 0
        }],
        "vg2": 230,
        "logX": false,
        "logY": false,
        "name": "ef184  230",
        "raw": false,
        "unit": null,
        "triode": false
    }
}
