{
    "filename": "ef80-triode.json",
    "tubeGraph": {
        "c": [{
            "p": [{
                "va": 0,
                "vg1": -12,
                "ig1": 0,
                "vg2": null,
                "ig2": 0,
                "ik": 0
            }, {
                "va": 386.9786368260427,
                "vg1": -12,
                "ig1": 0,
                "vg2": null,
                "ig2": 0,
                "ik": 0.00015
            }, {
                "va": 416.27670396744657,
                "vg1": -12,
                "ig1": 0,
                "vg2": null,
                "ig2": 0,
                "ik": 0.00055
            }, {
                "va": 445.5747711088504,
                "vg1": -12,
                "ig1": 0,
                "vg2": null,
                "ig2": 0,
                "ik": 0.00125
            }, {
                "va": 476.09359104781277,
                "vg1": -12,
                "ig1": 0,
                "vg2": null,
                "ig2": 0,
                "ik": 0.00235
            }, {
                "va": 505.3916581892167,
                "vg1": -12,
                "ig1": 0,
                "vg2": null,
                "ig2": 0,
                "ik": 0.00375
            }, {
                "va": 521.261444557477,
                "vg1": -12,
                "ig1": 0,
                "vg2": null,
                "ig2": 0,
                "ik": 0.0047
            }],
            "vg1": -12
        }, {
            "p": [{
                "va": 0,
                "vg1": -11,
                "ig1": 0,
                "vg2": null,
                "ig2": 0,
                "ik": 0
            }, {
                "va": 351.57680569684635,
                "vg1": -11,
                "ig1": 0,
                "vg2": null,
                "ig2": 0,
                "ik": 0.00015
            }, {
                "va": 382.09562563580874,
                "vg1": -11,
                "ig1": 0,
                "vg2": null,
                "ig2": 0,
                "ik": 0.0006
            }, {
                "va": 413.2248219735503,
                "vg1": -11,
                "ig1": 0,
                "vg2": null,
                "ig2": 0,
                "ik": 0.0014
            }, {
                "va": 449.2370295015259,
                "vg1": -11,
                "ig1": 0,
                "vg2": null,
                "ig2": 0,
                "ik": 0.003
            }, {
                "va": 488.30111902339775,
                "vg1": -11,
                "ig1": 0,
                "vg2": null,
                "ig2": 0,
                "ik": 0.0052
            }],
            "vg1": -11
        }, {
            "p": [{
                "va": 0,
                "vg1": -10,
                "ig1": 0,
                "vg2": null,
                "ig2": 0,
                "ik": 0
            }, {
                "va": 316.17497456765005,
                "vg1": -10,
                "ig1": 0,
                "vg2": null,
                "ig2": 0,
                "ik": 0.0002
            }, {
                "va": 357.0701932858596,
                "vg1": -10,
                "ig1": 0,
                "vg2": null,
                "ig2": 0,
                "ik": 0.0008
            }, {
                "va": 388.1993896236012,
                "vg1": -10,
                "ig1": 0,
                "vg2": null,
                "ig2": 0,
                "ik": 0.0019
            }, {
                "va": 420.5493387589013,
                "vg1": -10,
                "ig1": 0,
                "vg2": null,
                "ig2": 0,
                "ik": 0.0034
            }, {
                "va": 452.8992878942014,
                "vg1": -10,
                "ig1": 0,
                "vg2": null,
                "ig2": 0,
                "ik": 0.00575
            }],
            "vg1": -10
        }, {
            "p": [{
                "va": 0,
                "vg1": -9,
                "ig1": 0,
                "vg2": null,
                "ig2": 0,
                "ik": 0
            }, {
                "va": 279.5523906408952,
                "vg1": -9,
                "ig1": 0,
                "vg2": null,
                "ig2": 0,
                "ik": 0.0001
            }, {
                "va": 318.00610376398777,
                "vg1": -9,
                "ig1": 0,
                "vg2": null,
                "ig2": 0,
                "ik": 0.00065
            }, {
                "va": 349.1353001017294,
                "vg1": -9,
                "ig1": 0,
                "vg2": null,
                "ig2": 0,
                "ik": 0.00165
            }, {
                "va": 376.6022380467955,
                "vg1": -9,
                "ig1": 0,
                "vg2": null,
                "ig2": 0,
                "ik": 0.003
            }, {
                "va": 399.7965412004069,
                "vg1": -9,
                "ig1": 0,
                "vg2": null,
                "ig2": 0,
                "ik": 0.0046
            }, {
                "va": 418.10783316378433,
                "vg1": -9,
                "ig1": 0,
                "vg2": null,
                "ig2": 0,
                "ik": 0.0063
            }],
            "vg1": -9
        }, {
            "p": [{
                "va": 0,
                "vg1": -8,
                "ig1": 0,
                "vg2": null,
                "ig2": 0,
                "ik": 0
            }, {
                "va": 255.13733468972532,
                "vg1": -8,
                "ig1": 0,
                "vg2": null,
                "ig2": 0,
                "ik": 0.00025
            }, {
                "va": 288.09766022380467,
                "vg1": -8,
                "ig1": 0,
                "vg2": null,
                "ig2": 0,
                "ik": 0.00075
            }, {
                "va": 318.00610376398777,
                "vg1": -8,
                "ig1": 0,
                "vg2": null,
                "ig2": 0,
                "ik": 0.0018
            }, {
                "va": 344.8626653102747,
                "vg1": -8,
                "ig1": 0,
                "vg2": null,
                "ig2": 0,
                "ik": 0.0034500000000000004
            }, {
                "va": 367.4465920651068,
                "vg1": -8,
                "ig1": 0,
                "vg2": null,
                "ig2": 0,
                "ik": 0.0054
            }, {
                "va": 382.09562563580874,
                "vg1": -8,
                "ig1": 0,
                "vg2": null,
                "ig2": 0,
                "ik": 0.006849999999999999
            }],
            "vg1": -8
        }, {
            "p": [{
                "va": 0,
                "vg1": -7,
                "ig1": 0,
                "vg2": null,
                "ig2": 0,
                "ik": 0
            }, {
                "va": 220.95625635808747,
                "vg1": -7,
                "ig1": 0,
                "vg2": null,
                "ig2": 0,
                "ik": 0.00015
            }, {
                "va": 259.40996948118004,
                "vg1": -7,
                "ig1": 0,
                "vg2": null,
                "ig2": 0,
                "ik": 0.00095
            }, {
                "va": 298.4740590030519,
                "vg1": -7,
                "ig1": 0,
                "vg2": null,
                "ig2": 0,
                "ik": 0.0029500000000000004
            }, {
                "va": 326.55137334689726,
                "vg1": -7,
                "ig1": 0,
                "vg2": null,
                "ig2": 0,
                "ik": 0.00525
            }, {
                "va": 348.52492370295016,
                "vg1": -7,
                "ig1": 0,
                "vg2": null,
                "ig2": 0,
                "ik": 0.0075
            }],
            "vg1": -7
        }, {
            "p": [{
                "va": 0,
                "vg1": -6,
                "ig1": 0,
                "vg2": null,
                "ig2": 0,
                "ik": 0
            }, {
                "va": 188.60630722278736,
                "vg1": -6,
                "ig1": 0,
                "vg2": null,
                "ig2": 0,
                "ik": 0.0001
            }, {
                "va": 230.72227873855542,
                "vg1": -6,
                "ig1": 0,
                "vg2": null,
                "ig2": 0,
                "ik": 0.00135
            }, {
                "va": 266.12410986775177,
                "vg1": -6,
                "ig1": 0,
                "vg2": null,
                "ig2": 0,
                "ik": 0.0035
            }, {
                "va": 291.75991861648015,
                "vg1": -6,
                "ig1": 0,
                "vg2": null,
                "ig2": 0,
                "ik": 0.006
            }, {
                "va": 313.1230925737538,
                "vg1": -6,
                "ig1": 0,
                "vg2": null,
                "ig2": 0,
                "ik": 0.0089
            }],
            "vg1": -6
        }, {
            "p": [{
                "va": 0,
                "vg1": -5,
                "ig1": 0,
                "vg2": null,
                "ig2": 0,
                "ik": 0
            }, {
                "va": 151.3733468972533,
                "vg1": -5,
                "ig1": 0,
                "vg2": null,
                "ig2": 0,
                "ik": 0.0001
            }, {
                "va": 193.48931841302135,
                "vg1": -5,
                "ig1": 0,
                "vg2": null,
                "ig2": 0,
                "ik": 0.0012
            }, {
                "va": 227.6703967446592,
                "vg1": -5,
                "ig1": 0,
                "vg2": null,
                "ig2": 0,
                "ik": 0.0036
            }, {
                "va": 256.3580874872838,
                "vg1": -5,
                "ig1": 0,
                "vg2": null,
                "ig2": 0,
                "ik": 0.006849999999999999
            }, {
                "va": 275.27975584944045,
                "vg1": -5,
                "ig1": 0,
                "vg2": null,
                "ig2": 0,
                "ik": 0.009550000000000001
            }],
            "vg1": -5
        }, {
            "p": [{
                "va": 0,
                "vg1": -4,
                "ig1": 0,
                "vg2": null,
                "ig2": 0,
                "ik": 0
            }, {
                "va": 122.07527975584944,
                "vg1": -4,
                "ig1": 0,
                "vg2": null,
                "ig2": 0,
                "ik": 0.00015
            }, {
                "va": 160.528992878942,
                "vg1": -4,
                "ig1": 0,
                "vg2": null,
                "ig2": 0,
                "ik": 0.0014
            }, {
                "va": 187.3855544252289,
                "vg1": -4,
                "ig1": 0,
                "vg2": null,
                "ig2": 0,
                "ik": 0.00365
            }, {
                "va": 215.46286876907425,
                "vg1": -4,
                "ig1": 0,
                "vg2": null,
                "ig2": 0,
                "ik": 0.0070999999999999995
            }, {
                "va": 239.87792472024412,
                "vg1": -4,
                "ig1": 0,
                "vg2": null,
                "ig2": 0,
                "ik": 0.01105
            }],
            "vg1": -4
        }, {
            "p": [{
                "va": 0,
                "vg1": -3,
                "ig1": 0,
                "vg2": null,
                "ig2": 0,
                "ik": 0
            }, {
                "va": 88.50457782299084,
                "vg1": -3,
                "ig1": 0,
                "vg2": null,
                "ig2": 0,
                "ik": 0.0001
            }, {
                "va": 130.01017293997964,
                "vg1": -3,
                "ig1": 0,
                "vg2": null,
                "ig2": 0,
                "ik": 0.0019
            }, {
                "va": 162.36012207527975,
                "vg1": -3,
                "ig1": 0,
                "vg2": null,
                "ig2": 0,
                "ik": 0.0054
            }, {
                "va": 191.04781281790437,
                "vg1": -3,
                "ig1": 0,
                "vg2": null,
                "ig2": 0,
                "ik": 0.01
            }, {
                "va": 209.96948118006102,
                "vg1": -3,
                "ig1": 0,
                "vg2": null,
                "ig2": 0,
                "ik": 0.0136
            }],
            "vg1": -3
        }, {
            "p": [{
                "va": 0,
                "vg1": -2,
                "ig1": 0,
                "vg2": null,
                "ig2": 0,
                "ik": 0
            }, {
                "va": 52.492370295015256,
                "vg1": -2,
                "ig1": 0,
                "vg2": null,
                "ig2": 0,
                "ik": 0.0001
            }, {
                "va": 92.16683621566632,
                "vg1": -2,
                "ig1": 0,
                "vg2": null,
                "ig2": 0,
                "ik": 0.0020499999999999997
            }, {
                "va": 122.07527975584944,
                "vg1": -2,
                "ig1": 0,
                "vg2": null,
                "ig2": 0,
                "ik": 0.00575
            }, {
                "va": 148.32146490335705,
                "vg1": -2,
                "ig1": 0,
                "vg2": null,
                "ig2": 0,
                "ik": 0.01045
            }, {
                "va": 170.90539165818922,
                "vg1": -2,
                "ig1": 0,
                "vg2": null,
                "ig2": 0,
                "ik": 0.0155
            }],
            "vg1": -2
        }, {
            "p": [{
                "va": 0,
                "vg1": -1,
                "ig1": 0,
                "vg2": null,
                "ig2": 0,
                "ik": 0
            }, {
                "va": 23.194303153611393,
                "vg1": -1,
                "ig1": 0,
                "vg2": null,
                "ig2": 0,
                "ik": 0.0001
            }, {
                "va": 51.27161749745676,
                "vg1": -1,
                "ig1": 0,
                "vg2": null,
                "ig2": 0,
                "ik": 0.0019
            }, {
                "va": 77.51780264496439,
                "vg1": -1,
                "ig1": 0,
                "vg2": null,
                "ig2": 0,
                "ik": 0.0056
            }, {
                "va": 109.86775178026448,
                "vg1": -1,
                "ig1": 0,
                "vg2": null,
                "ig2": 0,
                "ik": 0.01225
            }, {
                "va": 142.2177009155646,
                "vg1": -1,
                "ig1": 0,
                "vg2": null,
                "ig2": 0,
                "ik": 0.01975
            }],
            "vg1": -1
        }, {
            "p": [{
                "va": 0,
                "vg1": 0,
                "ig1": 0,
                "vg2": null,
                "ig2": 0,
                "ik": 0
            }, {
                "va": 6.714140386571719,
                "vg1": 0,
                "ig1": 0,
                "vg2": null,
                "ig2": 0,
                "ik": 0.0012
            }, {
                "va": 28.07731434384537,
                "vg1": 0,
                "ig1": 0,
                "vg2": null,
                "ig2": 0,
                "ik": 0.00495
            }, {
                "va": 59.81688708036622,
                "vg1": 0,
                "ig1": 0,
                "vg2": null,
                "ig2": 0,
                "ik": 0.0112
            }, {
                "va": 112.30925737538148,
                "vg1": 0,
                "ig1": 0,
                "vg2": null,
                "ig2": 0,
                "ik": 0.023649999999999997
            }],
            "vg1": 0
        }],
        "vg2": null,
        "logX": false,
        "logY": false,
        "name": "EF80-TRIODE",
        "raw": false,
        "unit": null,
        "triode": true
    }
}
