{
    "filename": "el156 triode big power.json",
    "tubeGraph": {
        "c": [{
            "p": [{
                "va": 0,
                "vg1": -48,
                "ig1": 0,
                "vg2": null,
                "ig2": 0,
                "ik": 0
            }, {
                "va": 558.984375,
                "vg1": -48,
                "ig1": 0,
                "vg2": null,
                "ig2": 0,
                "ik": 0.0008373205741626793
            }, {
                "va": 670.25390625,
                "vg1": -48,
                "ig1": 0,
                "vg2": null,
                "ig2": 0,
                "ik": 0.04730861244019138
            }],
            "vg1": -48
        }, {
            "p": [{
                "va": 0,
                "vg1": -44,
                "ig1": 0,
                "vg2": null,
                "ig2": 0,
                "ik": 0
            }, {
                "va": 512.578125,
                "vg1": -44,
                "ig1": 0,
                "vg2": null,
                "ig2": 0,
                "ik": 0.002511961722488038
            }, {
                "va": 592.20703125,
                "vg1": -44,
                "ig1": 0,
                "vg2": null,
                "ig2": 0,
                "ik": 0.031818181818181815
            }, {
                "va": 674.47265625,
                "vg1": -44,
                "ig1": 0,
                "vg2": null,
                "ig2": 0,
                "ik": 0.09126794258373205
            }],
            "vg1": -44
        }, {
            "p": [{
                "va": 0,
                "vg1": -40,
                "ig1": 0,
                "vg2": null,
                "ig2": 0,
                "ik": 0
            }, {
                "va": 456.6796875,
                "vg1": -40,
                "ig1": 0,
                "vg2": null,
                "ig2": 0,
                "ik": 0.002511961722488038
            }, {
                "va": 584.296875,
                "vg1": -40,
                "ig1": 0,
                "vg2": null,
                "ig2": 0,
                "ik": 0.05610047846889952
            }, {
                "va": 671.30859375,
                "vg1": -40,
                "ig1": 0,
                "vg2": null,
                "ig2": 0,
                "ik": 0.13145933014354066
            }],
            "vg1": -40
        }, {
            "p": [{
                "va": 0,
                "vg1": -36,
                "ig1": 0,
                "vg2": null,
                "ig2": 0,
                "ik": 0
            }, {
                "va": 408.1640625,
                "vg1": -36,
                "ig1": 0,
                "vg2": null,
                "ig2": 0,
                "ik": 0.0020933014354066986
            }, {
                "va": 508.359375,
                "vg1": -36,
                "ig1": 0,
                "vg2": null,
                "ig2": 0,
                "ik": 0.04144736842105263
            }, {
                "va": 673.41796875,
                "vg1": -36,
                "ig1": 0,
                "vg2": null,
                "ig2": 0,
                "ik": 0.17332535885167463
            }],
            "vg1": -36
        }, {
            "p": [{
                "va": 0,
                "vg1": -32,
                "ig1": 0,
                "vg2": null,
                "ig2": 0,
                "ik": 0
            }, {
                "va": 348.046875,
                "vg1": -32,
                "ig1": 0,
                "vg2": null,
                "ig2": 0,
                "ik": 0.002511961722488038
            }, {
                "va": 485.68359375,
                "vg1": -32,
                "ig1": 0,
                "vg2": null,
                "ig2": 0,
                "ik": 0.06238038277511961
            }, {
                "va": 672.36328125,
                "vg1": -32,
                "ig1": 0,
                "vg2": null,
                "ig2": 0,
                "ik": 0.22398325358851673
            }],
            "vg1": -32
        }, {
            "p": [{
                "va": 0,
                "vg1": -28,
                "ig1": 0,
                "vg2": null,
                "ig2": 0,
                "ik": 0
            }, {
                "va": 299.00390625,
                "vg1": -28,
                "ig1": 0,
                "vg2": null,
                "ig2": 0,
                "ik": 0.0008373205741626793
            }, {
                "va": 421.875,
                "vg1": -28,
                "ig1": 0,
                "vg2": null,
                "ig2": 0,
                "ik": 0.057775119617224875
            }, {
                "va": 671.30859375,
                "vg1": -28,
                "ig1": 0,
                "vg2": null,
                "ig2": 0,
                "ik": 0.28217703349282297
            }],
            "vg1": -28
        }, {
            "p": [{
                "va": 0,
                "vg1": -24,
                "ig1": 0,
                "vg2": null,
                "ig2": 0,
                "ik": 0
            }, {
                "va": 233.61328125,
                "vg1": -24,
                "ig1": 0,
                "vg2": null,
                "ig2": 0,
                "ik": 0.001255980861244019
            }, {
                "va": 378.6328125,
                "vg1": -24,
                "ig1": 0,
                "vg2": null,
                "ig2": 0,
                "ik": 0.06405502392344496
            }, {
                "va": 656.54296875,
                "vg1": -24,
                "ig1": 0,
                "vg2": null,
                "ig2": 0,
                "ik": 0.3449760765550239
            }],
            "vg1": -24
        }, {
            "p": [{
                "va": 0,
                "vg1": -20,
                "ig1": 0,
                "vg2": null,
                "ig2": 0,
                "ik": 0
            }, {
                "va": 196.171875,
                "vg1": -20,
                "ig1": 0,
                "vg2": null,
                "ig2": 0,
                "ik": 0.001255980861244019
            }, {
                "va": 358.59375,
                "vg1": -20,
                "ig1": 0,
                "vg2": null,
                "ig2": 0,
                "ik": 0.09168660287081339
            }, {
                "va": 573.22265625,
                "vg1": -20,
                "ig1": 0,
                "vg2": null,
                "ig2": 0,
                "ik": 0.3458133971291866
            }],
            "vg1": -20
        }, {
            "p": [{
                "va": 0,
                "vg1": -16,
                "ig1": 0,
                "vg2": null,
                "ig2": 0,
                "ik": 0
            }, {
                "va": 136.58203125,
                "vg1": -16,
                "ig1": 0,
                "vg2": null,
                "ig2": 0,
                "ik": 0.0016746411483253587
            }, {
                "va": 285.8203125,
                "vg1": -16,
                "ig1": 0,
                "vg2": null,
                "ig2": 0,
                "ik": 0.07159090909090908
            }, {
                "va": 525.234375,
                "vg1": -16,
                "ig1": 0,
                "vg2": null,
                "ig2": 0,
                "ik": 0.34623205741626795
            }],
            "vg1": -16
        }, {
            "p": [{
                "va": 0,
                "vg1": -12,
                "ig1": 0,
                "vg2": null,
                "ig2": 0,
                "ik": 0
            }, {
                "va": 71.71875,
                "vg1": -12,
                "ig1": 0,
                "vg2": null,
                "ig2": 0,
                "ik": 0.0016746411483253587
            }, {
                "va": 218.84765625,
                "vg1": -12,
                "ig1": 0,
                "vg2": null,
                "ig2": 0,
                "ik": 0.05442583732057416
            }, {
                "va": 469.86328125,
                "vg1": -12,
                "ig1": 0,
                "vg2": null,
                "ig2": 0,
                "ik": 0.3479066985645933
            }],
            "vg1": -12
        }, {
            "p": [{
                "va": 0,
                "vg1": -8,
                "ig1": 0,
                "vg2": null,
                "ig2": 0,
                "ik": 0
            }, {
                "va": 76.46484375,
                "vg1": -8,
                "ig1": 0,
                "vg2": null,
                "ig2": 0,
                "ik": 0.0029306220095693778
            }, {
                "va": 186.15234375,
                "vg1": -8,
                "ig1": 0,
                "vg2": null,
                "ig2": 0,
                "ik": 0.07535885167464114
            }, {
                "va": 419.23828125,
                "vg1": -8,
                "ig1": 0,
                "vg2": null,
                "ig2": 0,
                "ik": 0.34665071770334926
            }],
            "vg1": -8
        }, {
            "p": [{
                "va": 0,
                "vg1": -4,
                "ig1": 0,
                "vg2": null,
                "ig2": 0,
                "ik": 0
            }, {
                "va": 34.8046875,
                "vg1": -4,
                "ig1": 0,
                "vg2": null,
                "ig2": 0,
                "ik": 0.0029306220095693778
            }, {
                "va": 71.19140625,
                "vg1": -4,
                "ig1": 0,
                "vg2": null,
                "ig2": 0,
                "ik": 0.018839712918660285
            }, {
                "va": 146.6015625,
                "vg1": -4,
                "ig1": 0,
                "vg2": null,
                "ig2": 0,
                "ik": 0.08624401913875597
            }, {
                "va": 364.921875,
                "vg1": -4,
                "ig1": 0,
                "vg2": null,
                "ig2": 0,
                "ik": 0.3449760765550239
            }],
            "vg1": -4
        }, {
            "p": [{
                "va": 0,
                "vg1": 0,
                "ig1": 0,
                "vg2": null,
                "ig2": 0,
                "ik": 0
            }, {
                "va": 46.93359375,
                "vg1": 0,
                "ig1": 0,
                "vg2": null,
                "ig2": 0,
                "ik": 0.039354066985645926
            }, {
                "va": 118.65234375,
                "vg1": 0,
                "ig1": 0,
                "vg2": null,
                "ig2": 0,
                "ik": 0.11596889952153108
            }, {
                "va": 306.38671875,
                "vg1": 0,
                "ig1": 0,
                "vg2": null,
                "ig2": 0,
                "ik": 0.34623205741626795
            }],
            "vg1": 0
        }],
        "vg2": null,
        "logX": false,
        "logY": false,
        "name": "el156 triode big power",
        "raw": false,
        "unit": null,
        "triode": true
    }
}
