{
    "filename": "el156 triode vg1_0.json",
    "tubeGraph": {
        "c": [{
            "p": [{
                "va": -0.001,
                "vg1": -48,
                "ig1": 0,
                "vg2": null,
                "ig2": 0,
                "ik": 0
            }, {
                "va": 554.3704506604506,
                "vg1": -48,
                "ig1": 0,
                "vg2": null,
                "ig2": 0,
                "ik": 0.00125
            }, {
                "va": 672.9020947940948,
                "vg1": -48,
                "ig1": 0,
                "vg2": null,
                "ig2": 0,
                "ik": 0.05041666666666667
            }],
            "vg1": -48
        }, {
            "p": [{
                "va": -0.001,
                "vg1": -44,
                "ig1": 0,
                "vg2": null,
                "ig2": 0,
                "ik": 0
            }, {
                "va": 505.5941546231546,
                "vg1": -44,
                "ig1": 0,
                "vg2": null,
                "ig2": 0,
                "ik": 0.0016666666666666668
            }, {
                "va": 604.7201756021756,
                "vg1": -44,
                "ig1": 0,
                "vg2": null,
                "ig2": 0,
                "ik": 0.043333333333333335
            }, {
                "va": 650.8740901320901,
                "vg1": -44,
                "ig1": 0,
                "vg2": null,
                "ig2": 0,
                "ik": 0.07708333333333334
            }, {
                "va": 671.3286658896659,
                "vg1": -44,
                "ig1": 0,
                "vg2": null,
                "ig2": 0,
                "ik": 0.09375
            }],
            "vg1": -44
        }, {
            "p": [{
                "va": -0.001,
                "vg1": -40,
                "ig1": 0,
                "vg2": null,
                "ig2": 0,
                "ik": 0
            }, {
                "va": 452.09757187257185,
                "vg1": -40,
                "ig1": 0,
                "vg2": null,
                "ig2": 0,
                "ik": 0.0008333333333333334
            }, {
                "va": 507.16758352758353,
                "vg1": -40,
                "ig1": 0,
                "vg2": null,
                "ig2": 0,
                "ik": 0.015416666666666667
            }, {
                "va": 573.7760738150738,
                "vg1": -40,
                "ig1": 0,
                "vg2": null,
                "ig2": 0,
                "ik": 0.05333333333333334
            }, {
                "va": 611.5383675213675,
                "vg1": -40,
                "ig1": 0,
                "vg2": null,
                "ig2": 0,
                "ik": 0.08083333333333334
            }, {
                "va": 670.8041895881896,
                "vg1": -40,
                "ig1": 0,
                "vg2": null,
                "ig2": 0,
                "ik": 0.12583333333333335
            }],
            "vg1": -40
        }, {
            "p": [{
                "va": -0.001,
                "vg1": -36,
                "ig1": 0,
                "vg2": null,
                "ig2": 0,
                "ik": 0
            }, {
                "va": 400.17441802641804,
                "vg1": -36,
                "ig1": 0,
                "vg2": null,
                "ig2": 0,
                "ik": 0
            }, {
                "va": 466.7829083139083,
                "vg1": -36,
                "ig1": 0,
                "vg2": null,
                "ig2": 0,
                "ik": 0.020416666666666666
            }, {
                "va": 566.9578818958819,
                "vg1": -36,
                "ig1": 0,
                "vg2": null,
                "ig2": 0,
                "ik": 0.0875
            }, {
                "va": 671.3286658896659,
                "vg1": -36,
                "ig1": 0,
                "vg2": null,
                "ig2": 0,
                "ik": 0.18125
            }],
            "vg1": -36
        }, {
            "p": [{
                "va": -0.001,
                "vg1": -32,
                "ig1": 0,
                "vg2": null,
                "ig2": 0,
                "ik": 0
            }, {
                "va": 354.0205034965035,
                "vg1": -32,
                "ig1": 0,
                "vg2": null,
                "ig2": 0,
                "ik": 0.0025
            }, {
                "va": 419.58004118104117,
                "vg1": -32,
                "ig1": 0,
                "vg2": null,
                "ig2": 0,
                "ik": 0.022083333333333337
            }, {
                "va": 522.9018725718726,
                "vg1": -32,
                "ig1": 0,
                "vg2": null,
                "ig2": 0,
                "ik": 0.09416666666666668
            }, {
                "va": 674.4755236985237,
                "vg1": -32,
                "ig1": 0,
                "vg2": null,
                "ig2": 0,
                "ik": 0.23708333333333334
            }],
            "vg1": -32
        }, {
            "p": [{
                "va": -0.001,
                "vg1": -28,
                "ig1": 0,
                "vg2": null,
                "ig2": 0,
                "ik": 0
            }, {
                "va": 294.75468142968145,
                "vg1": -28,
                "ig1": 0,
                "vg2": null,
                "ig2": 0,
                "ik": 0.00125
            }, {
                "va": 367.132411033411,
                "vg1": -28,
                "ig1": 0,
                "vg2": null,
                "ig2": 0,
                "ik": 0.025
            }, {
                "va": 476.74795804195804,
                "vg1": -28,
                "ig1": 0,
                "vg2": null,
                "ig2": 0,
                "ik": 0.10333333333333335
            }, {
                "va": 666.6083791763791,
                "vg1": -28,
                "ig1": 0,
                "vg2": null,
                "ig2": 0,
                "ik": 0.29375
            }],
            "vg1": -28
        }, {
            "p": [{
                "va": -0.001,
                "vg1": -24,
                "ig1": 0,
                "vg2": null,
                "ig2": 0,
                "ik": 0
            }, {
                "va": 254.8944825174825,
                "vg1": -24,
                "ig1": 0,
                "vg2": null,
                "ig2": 0,
                "ik": 0.00125
            }, {
                "va": 320.4540202020202,
                "vg1": -24,
                "ig1": 0,
                "vg2": null,
                "ig2": 0,
                "ik": 0.024583333333333336
            }, {
                "va": 432.6919487179487,
                "vg1": -24,
                "ig1": 0,
                "vg2": null,
                "ig2": 0,
                "ik": 0.115
            }, {
                "va": 594.2306495726496,
                "vg1": -24,
                "ig1": 0,
                "vg2": null,
                "ig2": 0,
                "ik": 0.2933333333333334
            }],
            "vg1": -24
        }, {
            "p": [{
                "va": -0.001,
                "vg1": -20,
                "ig1": 0,
                "vg2": null,
                "ig2": 0,
                "ik": 0
            }, {
                "va": 201.92237606837605,
                "vg1": -20,
                "ig1": 0,
                "vg2": null,
                "ig2": 0,
                "ik": 0.0004166666666666667
            }, {
                "va": 278.4959160839161,
                "vg1": -20,
                "ig1": 0,
                "vg2": null,
                "ig2": 0,
                "ik": 0.02875
            }, {
                "va": 341.9575485625486,
                "vg1": -20,
                "ig1": 0,
                "vg2": null,
                "ig2": 0,
                "ik": 0.0775
            }, {
                "va": 391.7827972027972,
                "vg1": -20,
                "ig1": 0,
                "vg2": null,
                "ig2": 0,
                "ik": 0.1275
            }, {
                "va": 537.0627327117327,
                "vg1": -20,
                "ig1": 0,
                "vg2": null,
                "ig2": 0,
                "ik": 0.2941666666666667
            }],
            "vg1": -20
        }, {
            "p": [{
                "va": -0.001,
                "vg1": -16,
                "ig1": 0,
                "vg2": null,
                "ig2": 0,
                "ik": 0
            }, {
                "va": 154.7195089355089,
                "vg1": -16,
                "ig1": 0,
                "vg2": null,
                "ig2": 0,
                "ik": 0.00125
            }, {
                "va": 229.19514374514372,
                "vg1": -16,
                "ig1": 0,
                "vg2": null,
                "ig2": 0,
                "ik": 0.029583333333333336
            }, {
                "va": 271.67772416472417,
                "vg1": -16,
                "ig1": 0,
                "vg2": null,
                "ig2": 0,
                "ik": 0.06166666666666667
            }, {
                "va": 312.0623993783994,
                "vg1": -16,
                "ig1": 0,
                "vg2": null,
                "ig2": 0,
                "ik": 0.09791666666666667
            }, {
                "va": 352.9715508935509,
                "vg1": -16,
                "ig1": 0,
                "vg2": null,
                "ig2": 0,
                "ik": 0.1404166666666667
            }, {
                "va": 479.3703395493396,
                "vg1": -16,
                "ig1": 0,
                "vg2": null,
                "ig2": 0,
                "ik": 0.29375
            }],
            "vg1": -16
        }, {
            "p": [{
                "va": -0.001,
                "vg1": -12,
                "ig1": 0,
                "vg2": null,
                "ig2": 0,
                "ik": 0
            }, {
                "va": 118.53064413364412,
                "vg1": -12,
                "ig1": 0,
                "vg2": null,
                "ig2": 0,
                "ik": 0.004166666666666667
            }, {
                "va": 168.35589277389275,
                "vg1": -12,
                "ig1": 0,
                "vg2": null,
                "ig2": 0,
                "ik": 0.020833333333333336
            }, {
                "va": 241.25809867909865,
                "vg1": -12,
                "ig1": 0,
                "vg2": null,
                "ig2": 0,
                "ik": 0.07791666666666668
            }, {
                "va": 268.00639005439007,
                "vg1": -12,
                "ig1": 0,
                "vg2": null,
                "ig2": 0,
                "ik": 0.10666666666666667
            }, {
                "va": 313.6358282828283,
                "vg1": -12,
                "ig1": 0,
                "vg2": null,
                "ig2": 0,
                "ik": 0.15708333333333335
            }, {
                "va": 423.25137529137527,
                "vg1": -12,
                "ig1": 0,
                "vg2": null,
                "ig2": 0,
                "ik": 0.2958333333333334
            }],
            "vg1": -12
        }, {
            "p": [{
                "va": -0.001,
                "vg1": -8,
                "ig1": 0,
                "vg2": null,
                "ig2": 0,
                "ik": 0
            }, {
                "va": 68.18091919191919,
                "vg1": -8,
                "ig1": 0,
                "vg2": null,
                "ig2": 0,
                "ik": 0.002916666666666667
            }, {
                "va": 124.29988344988344,
                "vg1": -8,
                "ig1": 0,
                "vg2": null,
                "ig2": 0,
                "ik": 0.02375
            }, {
                "va": 184.0901818181818,
                "vg1": -8,
                "ig1": 0,
                "vg2": null,
                "ig2": 0,
                "ik": 0.07416666666666667
            }, {
                "va": 220.2790466200466,
                "vg1": -8,
                "ig1": 0,
                "vg2": null,
                "ig2": 0,
                "ik": 0.11291666666666667
            }, {
                "va": 274.3001056721057,
                "vg1": -8,
                "ig1": 0,
                "vg2": null,
                "ig2": 0,
                "ik": 0.1741666666666667
            }, {
                "va": 371.85269774669774,
                "vg1": -8,
                "ig1": 0,
                "vg2": null,
                "ig2": 0,
                "ik": 0.29541666666666666
            }],
            "vg1": -8
        }, {
            "p": [{
                "va": -0.001,
                "vg1": -4,
                "ig1": 0,
                "vg2": null,
                "ig2": 0,
                "ik": 0
            }, {
                "va": 27.271767676767674,
                "vg1": -4,
                "ig1": 0,
                "vg2": null,
                "ig2": 0,
                "ik": 0.002916666666666667
            }, {
                "va": 122.72645454545453,
                "vg1": -4,
                "ig1": 0,
                "vg2": null,
                "ig2": 0,
                "ik": 0.0625
            }, {
                "va": 245.97838539238538,
                "vg1": -4,
                "ig1": 0,
                "vg2": null,
                "ig2": 0,
                "ik": 0.20458333333333334
            }, {
                "va": 313.111351981352,
                "vg1": -4,
                "ig1": 0,
                "vg2": null,
                "ig2": 0,
                "ik": 0.2975
            }],
            "vg1": -4
        }, {
            "p": [{
                "va": -0.001,
                "vg1": 0,
                "ig1": 0,
                "vg2": null,
                "ig2": 0,
                "ik": 0
            }, {
                "va": 83.91520823620823,
                "vg1": 0,
                "ig1": 0,
                "vg2": null,
                "ig2": 0,
                "ik": 0.07833333333333334
            }, {
                "va": 212.93637839937838,
                "vg1": 0,
                "ig1": 0,
                "vg2": null,
                "ig2": 0,
                "ik": 0.23208333333333334
            }, {
                "va": 308.1971310077519,
                "vg1": 0,
                "ig1": 0,
                "vg2": null,
                "ig2": 0,
                "ik": 0.35709779179810724
            }],
            "vg1": 0
        }, {
            "p": [{
                "va": -0.001,
                "vg1": 4,
                "ig1": 0,
                "vg2": null,
                "ig2": 0,
                "ik": 0
            }, {
                "va": 24.124909867909867,
                "vg1": 4,
                "ig1": 0,
                "vg2": null,
                "ig2": 0,
                "ik": 0.042083333333333334
            }, {
                "va": 183.66206279069766,
                "vg1": 4,
                "ig1": 0,
                "vg2": null,
                "ig2": 0,
                "ik": 0.27381703470031543
            }, {
                "va": 263.19706434108525,
                "vg1": 4,
                "ig1": 0,
                "vg2": null,
                "ig2": 0,
                "ik": 0.3772870662460568
            }],
            "vg1": 4
        }, {
            "p": [{
                "va": -0.001,
                "vg1": 8,
                "ig1": 0,
                "vg2": null,
                "ig2": 0,
                "ik": 0
            }, {
                "va": 16.21995426356589,
                "vg1": 8,
                "ig1": 0,
                "vg2": null,
                "ig2": 0,
                "ik": 0.0694006309148265
            }, {
                "va": 205.1155829457364,
                "vg1": 8,
                "ig1": 0,
                "vg2": null,
                "ig2": 0,
                "ik": 0.3907465825446898
            }],
            "vg1": 8
        }],
        "vg2": null,
        "logX": false,
        "logY": false,
        "name": "El156 triode VG1>0",
        "raw": false,
        "unit": null,
        "triode": true
    }
}
