{
    "filename": "el300_vg2_170v-ext.json",
    "tubeGraph": {
        "c": [{
            "p": [{
                "va": 0,
                "vg1": -30,
                "ig1": 0,
                "vg2": 170,
                "ig2": 0,
                "ik": 0
            }, {
                "va": 20,
                "vg1": -30,
                "ig1": 0,
                "vg2": 170,
                "ig2": 0,
                "ik": 0.04072398190045248
            }, {
                "va": 29.090909090909093,
                "vg1": -30,
                "ig1": 0,
                "vg2": 170,
                "ig2": 0,
                "ik": 0.05279034690799397
            }, {
                "va": 40.60606060606061,
                "vg1": -30,
                "ig1": 0,
                "vg2": 170,
                "ig2": 0,
                "ik": 0.0497737556561086
            }, {
                "va": 60,
                "vg1": -30,
                "ig1": 0,
                "vg2": 170,
                "ig2": 0,
                "ik": 0.05279034690799397
            }, {
                "va": 120,
                "vg1": -30,
                "ig1": 0,
                "vg2": 170,
                "ig2": 0,
                "ik": 0.05580693815987934
            }, {
                "va": 180.3030303030303,
                "vg1": -30,
                "ig1": 0,
                "vg2": 170,
                "ig2": 0,
                "ik": 0.06184012066365007
            }, {
                "va": 240,
                "vg1": -30,
                "ig1": 0,
                "vg2": 170,
                "ig2": 0,
                "ik": 0.06184012066365007
            }, {
                "va": 298.7878787878788,
                "vg1": -30,
                "ig1": 0,
                "vg2": 170,
                "ig2": 0,
                "ik": 0.06787330316742081
            }],
            "vg1": -30
        }, {
            "p": [{
                "va": 0,
                "vg1": -25,
                "ig1": 0,
                "vg2": 170,
                "ig2": 0,
                "ik": 0
            }, {
                "va": 20.303030303030305,
                "vg1": -25,
                "ig1": 0,
                "vg2": 170,
                "ig2": 0,
                "ik": 0.06033182503770739
            }, {
                "va": 30.303030303030305,
                "vg1": -25,
                "ig1": 0,
                "vg2": 170,
                "ig2": 0,
                "ik": 0.09049773755656108
            }, {
                "va": 40,
                "vg1": -25,
                "ig1": 0,
                "vg2": 170,
                "ig2": 0,
                "ik": 0.09502262443438914
            }, {
                "va": 60.60606060606061,
                "vg1": -25,
                "ig1": 0,
                "vg2": 170,
                "ig2": 0,
                "ik": 0.09653092006033183
            }, {
                "va": 100.60606060606061,
                "vg1": -25,
                "ig1": 0,
                "vg2": 170,
                "ig2": 0,
                "ik": 0.10407239819004525
            }, {
                "va": 150.3030303030303,
                "vg1": -25,
                "ig1": 0,
                "vg2": 170,
                "ig2": 0,
                "ik": 0.11010558069381599
            }, {
                "va": 180.3030303030303,
                "vg1": -25,
                "ig1": 0,
                "vg2": 170,
                "ig2": 0,
                "ik": 0.11463046757164404
            }, {
                "va": 219.69696969696972,
                "vg1": -25,
                "ig1": 0,
                "vg2": 170,
                "ig2": 0,
                "ik": 0.11764705882352941
            }, {
                "va": 299.39393939393943,
                "vg1": -25,
                "ig1": 0,
                "vg2": 170,
                "ig2": 0,
                "ik": 0.1282051282051282
            }],
            "vg1": -25
        }, {
            "p": [{
                "va": 0,
                "vg1": -20,
                "ig1": 0,
                "vg2": 170,
                "ig2": 0,
                "ik": 0
            }, {
                "va": 12.121212121212121,
                "vg1": -20,
                "ig1": 0,
                "vg2": 170,
                "ig2": 0,
                "ik": 0.0497737556561086
            }, {
                "va": 24.84848484848485,
                "vg1": -20,
                "ig1": 0,
                "vg2": 170,
                "ig2": 0,
                "ik": 0.11010558069381599
            }, {
                "va": 40.909090909090914,
                "vg1": -20,
                "ig1": 0,
                "vg2": 170,
                "ig2": 0,
                "ik": 0.16138763197586725
            }, {
                "va": 60.60606060606061,
                "vg1": -20,
                "ig1": 0,
                "vg2": 170,
                "ig2": 0,
                "ik": 0.17043740573152338
            }, {
                "va": 120.60606060606061,
                "vg1": -20,
                "ig1": 0,
                "vg2": 170,
                "ig2": 0,
                "ik": 0.17496229260935145
            }, {
                "va": 180.60606060606062,
                "vg1": -20,
                "ig1": 0,
                "vg2": 170,
                "ig2": 0,
                "ik": 0.18250377073906485
            }, {
                "va": 298.7878787878788,
                "vg1": -20,
                "ig1": 0,
                "vg2": 170,
                "ig2": 0,
                "ik": 0.20060331825037708
            }],
            "vg1": -20
        }, {
            "p": [{
                "va": 0,
                "vg1": -15,
                "ig1": 0,
                "vg2": 170,
                "ig2": 0,
                "ik": 0
            }, {
                "va": 14.545454545454547,
                "vg1": -15,
                "ig1": 0,
                "vg2": 170,
                "ig2": 0,
                "ik": 0.07692307692307691
            }, {
                "va": 30.303030303030305,
                "vg1": -15,
                "ig1": 0,
                "vg2": 170,
                "ig2": 0,
                "ik": 0.17345399698340874
            }, {
                "va": 45.75757575757576,
                "vg1": -15,
                "ig1": 0,
                "vg2": 170,
                "ig2": 0,
                "ik": 0.22926093514328807
            }, {
                "va": 60.303030303030305,
                "vg1": -15,
                "ig1": 0,
                "vg2": 170,
                "ig2": 0,
                "ik": 0.248868778280543
            }, {
                "va": 100,
                "vg1": -15,
                "ig1": 0,
                "vg2": 170,
                "ig2": 0,
                "ik": 0.2624434389140271
            }, {
                "va": 160,
                "vg1": -15,
                "ig1": 0,
                "vg2": 170,
                "ig2": 0,
                "ik": 0.2669683257918552
            }, {
                "va": 219.69696969696972,
                "vg1": -15,
                "ig1": 0,
                "vg2": 170,
                "ig2": 0,
                "ik": 0.27601809954751133
            }, {
                "va": 298.4848484848485,
                "vg1": -15,
                "ig1": 0,
                "vg2": 170,
                "ig2": 0,
                "ik": 0.28808446455505277
            }],
            "vg1": -15
        }, {
            "p": [{
                "va": 0,
                "vg1": -10,
                "ig1": 0,
                "vg2": 170,
                "ig2": 0,
                "ik": 0
            }, {
                "va": 22.424242424242426,
                "vg1": -10,
                "ig1": 0,
                "vg2": 170,
                "ig2": 0,
                "ik": 0.16289592760180993
            }, {
                "va": 40.60606060606061,
                "vg1": -10,
                "ig1": 0,
                "vg2": 170,
                "ig2": 0,
                "ik": 0.3031674208144796
            }, {
                "va": 60.909090909090914,
                "vg1": -10,
                "ig1": 0,
                "vg2": 170,
                "ig2": 0,
                "ik": 0.363499245852187
            }, {
                "va": 80.60606060606061,
                "vg1": -10,
                "ig1": 0,
                "vg2": 170,
                "ig2": 0,
                "ik": 0.37104072398190047
            }, {
                "va": 100,
                "vg1": -10,
                "ig1": 0,
                "vg2": 170,
                "ig2": 0,
                "ik": 0.38009049773755654
            }, {
                "va": 120.60606060606061,
                "vg1": -10,
                "ig1": 0,
                "vg2": 170,
                "ig2": 0,
                "ik": 0.38763197586726994
            }, {
                "va": 180,
                "vg1": -10,
                "ig1": 0,
                "vg2": 170,
                "ig2": 0,
                "ik": 0.41025641025641024
            }, {
                "va": 219.3939393939394,
                "vg1": -10,
                "ig1": 0,
                "vg2": 170,
                "ig2": 0,
                "ik": 0.42684766214177977
            }, {
                "va": 298.4848484848485,
                "vg1": -10,
                "ig1": 0,
                "vg2": 170,
                "ig2": 0,
                "ik": 0.4630467571644042
            }],
            "vg1": -10
        }, {
            "p": [{
                "va": 0,
                "vg1": -5,
                "ig1": 0,
                "vg2": 170,
                "ig2": 0,
                "ik": 0
            }, {
                "va": 22.72727272727273,
                "vg1": -5,
                "ig1": 0,
                "vg2": 170,
                "ig2": 0,
                "ik": 0.20512820512820512
            }, {
                "va": 37.87878787878788,
                "vg1": -5,
                "ig1": 0,
                "vg2": 170,
                "ig2": 0,
                "ik": 0.3514328808446455
            }, {
                "va": 61.21212121212122,
                "vg1": -5,
                "ig1": 0,
                "vg2": 170,
                "ig2": 0,
                "ik": 0.48868778280542985
            }, {
                "va": 80.30303030303031,
                "vg1": -5,
                "ig1": 0,
                "vg2": 170,
                "ig2": 0,
                "ik": 0.5203619909502262
            }, {
                "va": 100,
                "vg1": -5,
                "ig1": 0,
                "vg2": 170,
                "ig2": 0,
                "ik": 0.5309200603318249
            }, {
                "va": 160.3030303030303,
                "vg1": -5,
                "ig1": 0,
                "vg2": 170,
                "ig2": 0,
                "ik": 0.5550527903469079
            }, {
                "va": 219.69696969696972,
                "vg1": -5,
                "ig1": 0,
                "vg2": 170,
                "ig2": 0,
                "ik": 0.5761689291101055
            }, {
                "va": 298.4848484848485,
                "vg1": -5,
                "ig1": 0,
                "vg2": 170,
                "ig2": 0,
                "ik": 0.6078431372549019
            }],
            "vg1": -5
        }, {
            "p": [{
                "va": 0,
                "vg1": 0,
                "ig1": 0,
                "vg2": 170,
                "ig2": 0,
                "ik": 0
            }, {
                "va": 16.96969696969697,
                "vg1": 0,
                "ig1": 0,
                "vg2": 170,
                "ig2": 0,
                "ik": 0.1779788838612368
            }, {
                "va": 44.84848484848485,
                "vg1": 0,
                "ig1": 0,
                "vg2": 170,
                "ig2": 0,
                "ik": 0.48868778280542985
            }, {
                "va": 60.60606060606061,
                "vg1": 0,
                "ig1": 0,
                "vg2": 170,
                "ig2": 0,
                "ik": 0.6184012066365008
            }, {
                "va": 80.60606060606061,
                "vg1": 0,
                "ig1": 0,
                "vg2": 170,
                "ig2": 0,
                "ik": 0.6772247360482654
            }, {
                "va": 99.6969696969697,
                "vg1": 0,
                "ig1": 0,
                "vg2": 170,
                "ig2": 0,
                "ik": 0.6892911010558068
            }, {
                "va": 119.6969696969697,
                "vg1": 0,
                "ig1": 0,
                "vg2": 170,
                "ig2": 0,
                "ik": 0.6953242835595776
            }, {
                "va": 180.3030303030303,
                "vg1": 0,
                "ig1": 0,
                "vg2": 170,
                "ig2": 0,
                "ik": 0.717948717948718
            }, {
                "va": 299.39393939393943,
                "vg1": 0,
                "ig1": 0,
                "vg2": 170,
                "ig2": 0,
                "ik": 0.7435897435897435
            }],
            "vg1": 0
        }],
        "vg2": 170,
        "logX": false,
        "logY": false,
        "name": "EL300_VG2_170V-ext",
        "raw": false,
        "unit": null,
        "triode": false
    }
}
