{
    "filename": "el34-250v.json",
    "tubeGraph": {
        "c": [{
            "p": [{
                "va": 0,
                "vg1": -25,
                "ig1": 0,
                "vg2": 250,
                "ig2": 0,
                "ik": 0
            }, {
                "va": 10.425716768027801,
                "vg1": -25,
                "ig1": 0,
                "vg2": 250,
                "ig2": 0,
                "ik": 0.00519159456118665
            }, {
                "va": 49.52215464813206,
                "vg1": -25,
                "ig1": 0,
                "vg2": 250,
                "ig2": 0,
                "ik": 0.004449938195302843
            }, {
                "va": 69.50477845351868,
                "vg1": -25,
                "ig1": 0,
                "vg2": 250,
                "ig2": 0,
                "ik": 0.004449938195302843
            }, {
                "va": 121.63336229365768,
                "vg1": -25,
                "ig1": 0,
                "vg2": 250,
                "ig2": 0,
                "ik": 0.007416563658838071
            }, {
                "va": 398.3492615117289,
                "vg1": -25,
                "ig1": 0,
                "vg2": 250,
                "ig2": 0,
                "ik": 0.010754017305315203
            }, {
                "va": 497.39357080799306,
                "vg1": -25,
                "ig1": 0,
                "vg2": 250,
                "ig2": 0,
                "ik": 0.011124845488257106
            }],
            "vg1": -25
        }, {
            "p": [{
                "va": 0,
                "vg1": -20,
                "ig1": 0,
                "vg2": 250,
                "ig2": 0,
                "ik": 0
            }, {
                "va": 2.6064291920069502,
                "vg1": -20,
                "ig1": 0,
                "vg2": 250,
                "ig2": 0,
                "ik": 0.010012360939431395
            }, {
                "va": 11.294526498696785,
                "vg1": -20,
                "ig1": 0,
                "vg2": 250,
                "ig2": 0,
                "ik": 0.011866501854140914
            }, {
                "va": 49.087749782797566,
                "vg1": -20,
                "ig1": 0,
                "vg2": 250,
                "ig2": 0,
                "ik": 0.011495673671199011
            }, {
                "va": 72.11120764552562,
                "vg1": -20,
                "ig1": 0,
                "vg2": 250,
                "ig2": 0,
                "ik": 0.014833127317676142
            }, {
                "va": 100.34752389226759,
                "vg1": -20,
                "ig1": 0,
                "vg2": 250,
                "ig2": 0,
                "ik": 0.018912237330037083
            }, {
                "va": 141.1815812337098,
                "vg1": -20,
                "ig1": 0,
                "vg2": 250,
                "ig2": 0,
                "ik": 0.022991347342398022
            }, {
                "va": 249.34839270199825,
                "vg1": -20,
                "ig1": 0,
                "vg2": 250,
                "ig2": 0,
                "ik": 0.025587144622991345
            }, {
                "va": 367.9409209383145,
                "vg1": -20,
                "ig1": 0,
                "vg2": 250,
                "ig2": 0,
                "ik": 0.02707045735475896
            }, {
                "va": 496.52476107732406,
                "vg1": -20,
                "ig1": 0,
                "vg2": 250,
                "ig2": 0,
                "ik": 0.03226205191594561
            }],
            "vg1": -20
        }, {
            "p": [{
                "va": 0,
                "vg1": -15,
                "ig1": 0,
                "vg2": 250,
                "ig2": 0,
                "ik": 0
            }, {
                "va": 5.2128583840139004,
                "vg1": -15,
                "ig1": 0,
                "vg2": 250,
                "ig2": 0,
                "ik": 0.018912237330037083
            }, {
                "va": 11.728931364031277,
                "vg1": -15,
                "ig1": 0,
                "vg2": 250,
                "ig2": 0,
                "ik": 0.0207663782447466
            }, {
                "va": 27.80191138140747,
                "vg1": -15,
                "ig1": 0,
                "vg2": 250,
                "ig2": 0,
                "ik": 0.02484548825710754
            }, {
                "va": 46.046915725456124,
                "vg1": -15,
                "ig1": 0,
                "vg2": 250,
                "ig2": 0,
                "ik": 0.030407911001236094
            }, {
                "va": 66.89834926151173,
                "vg1": -15,
                "ig1": 0,
                "vg2": 250,
                "ig2": 0,
                "ik": 0.03893695920889987
            }, {
                "va": 89.48740225890529,
                "vg1": -15,
                "ig1": 0,
                "vg2": 250,
                "ig2": 0,
                "ik": 0.04487021013597033
            }, {
                "va": 113.37966985230234,
                "vg1": -15,
                "ig1": 0,
                "vg2": 250,
                "ig2": 0,
                "ik": 0.050803461063040796
            }, {
                "va": 149.00086880973066,
                "vg1": -15,
                "ig1": 0,
                "vg2": 250,
                "ig2": 0,
                "ik": 0.05339925834363412
            }, {
                "va": 198.52302345786273,
                "vg1": -15,
                "ig1": 0,
                "vg2": 250,
                "ig2": 0,
                "ik": 0.056736711990111245
            }, {
                "va": 338.83579496090357,
                "vg1": -15,
                "ig1": 0,
                "vg2": 250,
                "ig2": 0,
                "ik": 0.061557478368356
            }, {
                "va": 403.9965247610773,
                "vg1": -15,
                "ig1": 0,
                "vg2": 250,
                "ig2": 0,
                "ik": 0.06415327564894932
            }, {
                "va": 497.39357080799306,
                "vg1": -15,
                "ig1": 0,
                "vg2": 250,
                "ig2": 0,
                "ik": 0.06971569839307787
            }],
            "vg1": -15
        }, {
            "p": [{
                "va": 0,
                "vg1": -10,
                "ig1": 0,
                "vg2": 250,
                "ig2": 0,
                "ik": 0
            }, {
                "va": 10.425716768027801,
                "vg1": -10,
                "ig1": 0,
                "vg2": 250,
                "ig2": 0,
                "ik": 0.03411619283065513
            }, {
                "va": 23.892267593397044,
                "vg1": -10,
                "ig1": 0,
                "vg2": 250,
                "ig2": 0,
                "ik": 0.0515451174289246
            }, {
                "va": 49.52215464813206,
                "vg1": -10,
                "ig1": 0,
                "vg2": 250,
                "ig2": 0,
                "ik": 0.0723114956736712
            }, {
                "va": 79.93049522154648,
                "vg1": -10,
                "ig1": 0,
                "vg2": 250,
                "ig2": 0,
                "ik": 0.08640296662546354
            }, {
                "va": 121.63336229365768,
                "vg1": -10,
                "ig1": 0,
                "vg2": 250,
                "ig2": 0,
                "ik": 0.09789864029666255
            }, {
                "va": 152.4761077324066,
                "vg1": -10,
                "ig1": 0,
                "vg2": 250,
                "ig2": 0,
                "ik": 0.1034610630407911
            }, {
                "va": 198.9574283231972,
                "vg1": -10,
                "ig1": 0,
                "vg2": 250,
                "ig2": 0,
                "ik": 0.10679851668726824
            }, {
                "va": 298.4361424847958,
                "vg1": -10,
                "ig1": 0,
                "vg2": 250,
                "ig2": 0,
                "ik": 0.11161928306551297
            }, {
                "va": 347.9582971329279,
                "vg1": -10,
                "ig1": 0,
                "vg2": 250,
                "ig2": 0,
                "ik": 0.11532756489493201
            }, {
                "va": 398.3492615117289,
                "vg1": -10,
                "ig1": 0,
                "vg2": 250,
                "ig2": 0,
                "ik": 0.11829419035846724
            }, {
                "va": 496.52476107732406,
                "vg1": -10,
                "ig1": 0,
                "vg2": 250,
                "ig2": 0,
                "ik": 0.12385661310259578
            }],
            "vg1": -10
        }, {
            "p": [{
                "va": 0,
                "vg1": -5,
                "ig1": 0,
                "vg2": 250,
                "ig2": 0,
                "ik": 0
            }, {
                "va": 9.99131190269331,
                "vg1": -5,
                "ig1": 0,
                "vg2": 250,
                "ig2": 0,
                "ik": 0.047466007416563656
            }, {
                "va": 17.81059947871416,
                "vg1": -5,
                "ig1": 0,
                "vg2": 250,
                "ig2": 0,
                "ik": 0.07416563658838073
            }, {
                "va": 30.40834057341442,
                "vg1": -5,
                "ig1": 0,
                "vg2": 250,
                "ig2": 0,
                "ik": 0.09901112484548825
            }, {
                "va": 40.834057341442225,
                "vg1": -5,
                "ig1": 0,
                "vg2": 250,
                "ig2": 0,
                "ik": 0.11273176761433867
            }, {
                "va": 53.431798436142486,
                "vg1": -5,
                "ig1": 0,
                "vg2": 250,
                "ig2": 0,
                "ik": 0.12682323856613104
            }, {
                "va": 70.37358818418767,
                "vg1": -5,
                "ig1": 0,
                "vg2": 250,
                "ig2": 0,
                "ik": 0.13794808405438813
            }, {
                "va": 98.17549956559513,
                "vg1": -5,
                "ig1": 0,
                "vg2": 250,
                "ig2": 0,
                "ik": 0.14944375772558716
            }, {
                "va": 134.23110338835795,
                "vg1": -5,
                "ig1": 0,
                "vg2": 250,
                "ig2": 0,
                "ik": 0.15797280593325091
            }, {
                "va": 170.72111207645526,
                "vg1": -5,
                "ig1": 0,
                "vg2": 250,
                "ig2": 0,
                "ik": 0.1642768850432633
            }, {
                "va": 211.12076455256297,
                "vg1": -5,
                "ig1": 0,
                "vg2": 250,
                "ig2": 0,
                "ik": 0.1687268232385661
            }, {
                "va": 384.4483058210252,
                "vg1": -5,
                "ig1": 0,
                "vg2": 250,
                "ig2": 0,
                "ik": 0.17725587144622992
            }],
            "vg1": -5
        }, {
            "p": [{
                "va": 0,
                "vg1": 0,
                "ig1": 0,
                "vg2": 250,
                "ig2": 0,
                "ik": 0
            }, {
                "va": 9.556907037358819,
                "vg1": 0,
                "ig1": 0,
                "vg2": 250,
                "ig2": 0,
                "ik": 0.053770086526576014
            }, {
                "va": 13.900955690703736,
                "vg1": 0,
                "ig1": 0,
                "vg2": 250,
                "ig2": 0,
                "ik": 0.09381953028430161
            }, {
                "va": 22.15464813205908,
                "vg1": 0,
                "ig1": 0,
                "vg2": 250,
                "ig2": 0,
                "ik": 0.1242274412855377
            }, {
                "va": 31.277150304083406,
                "vg1": 0,
                "ig1": 0,
                "vg2": 250,
                "ig2": 0,
                "ik": 0.14944375772558716
            }, {
                "va": 43.00608166811468,
                "vg1": 0,
                "ig1": 0,
                "vg2": 250,
                "ig2": 0,
                "ik": 0.17058096415327564
            }, {
                "va": 52.99739357080799,
                "vg1": 0,
                "ig1": 0,
                "vg2": 250,
                "ig2": 0,
                "ik": 0.18615574783683558
            }, {
                "va": 67.76715899218071,
                "vg1": 0,
                "ig1": 0,
                "vg2": 250,
                "ig2": 0,
                "ik": 0.1991347342398022
            }, {
                "va": 88.18418766290182,
                "vg1": 0,
                "ig1": 0,
                "vg2": 250,
                "ig2": 0,
                "ik": 0.2102595797280593
            }, {
                "va": 104.25716768027802,
                "vg1": 0,
                "ig1": 0,
                "vg2": 250,
                "ig2": 0,
                "ik": 0.21619283065512976
            }, {
                "va": 125.97741094700261,
                "vg1": 0,
                "ig1": 0,
                "vg2": 250,
                "ig2": 0,
                "ik": 0.22138442521631643
            }, {
                "va": 149.43527367506516,
                "vg1": 0,
                "ig1": 0,
                "vg2": 250,
                "ig2": 0,
                "ik": 0.22546353522867735
            }, {
                "va": 168.98349261511729,
                "vg1": 0,
                "ig1": 0,
                "vg2": 250,
                "ig2": 0,
                "ik": 0.2284301606922126
            }, {
                "va": 203.30147697654212,
                "vg1": 0,
                "ig1": 0,
                "vg2": 250,
                "ig2": 0,
                "ik": 0.23250927070457353
            }, {
                "va": 248.91398783666378,
                "vg1": 0,
                "ig1": 0,
                "vg2": 250,
                "ig2": 0,
                "ik": 0.23510506798516687
            }],
            "vg1": 0
        }],
        "vg2": 250,
        "logX": false,
        "logY": false,
        "name": "EL34-250V",
        "raw": false,
        "unit": null,
        "triode": false
    }
}
