{
    "filename": "el36 as triode.json",
    "tubeGraph": {
        "c": [{
            "p": [{
                "va": 0,
                "vg1": -84,
                "ig1": 0,
                "vg2": null,
                "ig2": 0,
                "ik": 0
            }, {
                "va": 414.8816234498309,
                "vg1": -84,
                "ig1": 0,
                "vg2": null,
                "ig2": 0,
                "ik": 0.003463203463203463
            }, {
                "va": 433.4836527621195,
                "vg1": -84,
                "ig1": 0,
                "vg2": null,
                "ig2": 0,
                "ik": 0.013852813852813853
            }, {
                "va": 451.52198421646,
                "vg1": -84,
                "ig1": 0,
                "vg2": null,
                "ig2": 0,
                "ik": 0.025974025974025972
            }, {
                "va": 462.2322435174746,
                "vg1": -84,
                "ig1": 0,
                "vg2": null,
                "ig2": 0,
                "ik": 0.03636363636363636
            }],
            "vg1": -84
        }, {
            "p": [{
                "va": 0,
                "vg1": -80,
                "ig1": 0,
                "vg2": null,
                "ig2": 0,
                "ik": 0
            }, {
                "va": 394.58850056369783,
                "vg1": -80,
                "ig1": 0,
                "vg2": null,
                "ig2": 0,
                "ik": 0.003896103896103896
            }, {
                "va": 412.0631341600902,
                "vg1": -80,
                "ig1": 0,
                "vg2": null,
                "ig2": 0,
                "ik": 0.013419913419913419
            }, {
                "va": 428.41037204058625,
                "vg1": -80,
                "ig1": 0,
                "vg2": null,
                "ig2": 0,
                "ik": 0.024242424242424242
            }, {
                "va": 441.9391206313416,
                "vg1": -80,
                "ig1": 0,
                "vg2": null,
                "ig2": 0,
                "ik": 0.03549783549783549
            }],
            "vg1": -80
        }, {
            "p": [{
                "va": 0,
                "vg1": -76,
                "ig1": 0,
                "vg2": null,
                "ig2": 0,
                "ik": 0
            }, {
                "va": 375.9864712514092,
                "vg1": -76,
                "ig1": 0,
                "vg2": null,
                "ig2": 0,
                "ik": 0.005194805194805195
            }, {
                "va": 396.8432919954904,
                "vg1": -76,
                "ig1": 0,
                "vg2": null,
                "ig2": 0,
                "ik": 0.016450216450216448
            }, {
                "va": 413.7542277339346,
                "vg1": -76,
                "ig1": 0,
                "vg2": null,
                "ig2": 0,
                "ik": 0.02987012987012987
            }, {
                "va": 423.9007891770011,
                "vg1": -76,
                "ig1": 0,
                "vg2": null,
                "ig2": 0,
                "ik": 0.03852813852813853
            }],
            "vg1": -76
        }, {
            "p": [{
                "va": 0,
                "vg1": -72,
                "ig1": 0,
                "vg2": null,
                "ig2": 0,
                "ik": 0
            }, {
                "va": 356.25704622322434,
                "vg1": -72,
                "ig1": 0,
                "vg2": null,
                "ig2": 0,
                "ik": 0.003896103896103896
            }, {
                "va": 370.34949267192786,
                "vg1": -72,
                "ig1": 0,
                "vg2": null,
                "ig2": 0,
                "ik": 0.011688311688311687
            }, {
                "va": 387.260428410372,
                "vg1": -72,
                "ig1": 0,
                "vg2": null,
                "ig2": 0,
                "ik": 0.022943722943722943
            }, {
                "va": 403.04396843291994,
                "vg1": -72,
                "ig1": 0,
                "vg2": null,
                "ig2": 0,
                "ik": 0.03766233766233766
            }],
            "vg1": -72
        }, {
            "p": [{
                "va": 0,
                "vg1": -68,
                "ig1": 0,
                "vg2": null,
                "ig2": 0,
                "ik": 0
            }, {
                "va": 339.3461104847801,
                "vg1": -68,
                "ig1": 0,
                "vg2": null,
                "ig2": 0,
                "ik": 0.0047619047619047615
            }, {
                "va": 359.075535512965,
                "vg1": -68,
                "ig1": 0,
                "vg2": null,
                "ig2": 0,
                "ik": 0.01818181818181818
            }, {
                "va": 377.1138669673055,
                "vg1": -68,
                "ig1": 0,
                "vg2": null,
                "ig2": 0,
                "ik": 0.032034632034632034
            }, {
                "va": 386.6967305524239,
                "vg1": -68,
                "ig1": 0,
                "vg2": null,
                "ig2": 0,
                "ik": 0.04199134199134199
            }],
            "vg1": -68
        }, {
            "p": [{
                "va": 0,
                "vg1": -64,
                "ig1": 0,
                "vg2": null,
                "ig2": 0,
                "ik": 0
            }, {
                "va": 320.1803833145434,
                "vg1": -64,
                "ig1": 0,
                "vg2": null,
                "ig2": 0,
                "ik": 0.004329004329004329
            }, {
                "va": 335.96392333709133,
                "vg1": -64,
                "ig1": 0,
                "vg2": null,
                "ig2": 0,
                "ik": 0.013852813852813853
            }, {
                "va": 355.12965050732805,
                "vg1": -64,
                "ig1": 0,
                "vg2": null,
                "ig2": 0,
                "ik": 0.02857142857142857
            }, {
                "va": 369.2220969560316,
                "vg1": -64,
                "ig1": 0,
                "vg2": null,
                "ig2": 0,
                "ik": 0.043722943722943726
            }],
            "vg1": -64
        }, {
            "p": [{
                "va": 0,
                "vg1": -60,
                "ig1": 0,
                "vg2": null,
                "ig2": 0,
                "ik": 0
            }, {
                "va": 300.4509582863585,
                "vg1": -60,
                "ig1": 0,
                "vg2": null,
                "ig2": 0,
                "ik": 0.005194805194805195
            }, {
                "va": 322.435174746336,
                "vg1": -60,
                "ig1": 0,
                "vg2": null,
                "ig2": 0,
                "ik": 0.01948051948051948
            }, {
                "va": 338.782412626832,
                "vg1": -60,
                "ig1": 0,
                "vg2": null,
                "ig2": 0,
                "ik": 0.03463203463203463
            }, {
                "va": 348.3652762119504,
                "vg1": -60,
                "ig1": 0,
                "vg2": null,
                "ig2": 0,
                "ik": 0.043722943722943726
            }],
            "vg1": -60
        }, {
            "p": [{
                "va": 0,
                "vg1": -56,
                "ig1": 0,
                "vg2": null,
                "ig2": 0,
                "ik": 0
            }, {
                "va": 280.15783540022545,
                "vg1": -56,
                "ig1": 0,
                "vg2": null,
                "ig2": 0,
                "ik": 0.0047619047619047615
            }, {
                "va": 298.7598647125141,
                "vg1": -56,
                "ig1": 0,
                "vg2": null,
                "ig2": 0,
                "ik": 0.016883116883116885
            }, {
                "va": 315.10710259301015,
                "vg1": -56,
                "ig1": 0,
                "vg2": null,
                "ig2": 0,
                "ik": 0.02987012987012987
            }, {
                "va": 329.7632468996618,
                "vg1": -56,
                "ig1": 0,
                "vg2": null,
                "ig2": 0,
                "ik": 0.04632034632034632
            }],
            "vg1": -56
        }, {
            "p": [{
                "va": 0,
                "vg1": -52,
                "ig1": 0,
                "vg2": null,
                "ig2": 0,
                "ik": 0
            }, {
                "va": 262.119503945885,
                "vg1": -52,
                "ig1": 0,
                "vg2": null,
                "ig2": 0,
                "ik": 0.0047619047619047615
            }, {
                "va": 280.15783540022545,
                "vg1": -52,
                "ig1": 0,
                "vg2": null,
                "ig2": 0,
                "ik": 0.016017316017316017
            }, {
                "va": 297.06877113866966,
                "vg1": -52,
                "ig1": 0,
                "vg2": null,
                "ig2": 0,
                "ik": 0.03116883116883117
            }, {
                "va": 312.28861330326947,
                "vg1": -52,
                "ig1": 0,
                "vg2": null,
                "ig2": 0,
                "ik": 0.05064935064935065
            }],
            "vg1": -52
        }, {
            "p": [{
                "va": 0,
                "vg1": -48,
                "ig1": 0,
                "vg2": null,
                "ig2": 0,
                "ik": 0
            }, {
                "va": 241.26268320180384,
                "vg1": -48,
                "ig1": 0,
                "vg2": null,
                "ig2": 0,
                "ik": 0.003896103896103896
            }, {
                "va": 256.4825253664036,
                "vg1": -48,
                "ig1": 0,
                "vg2": null,
                "ig2": 0,
                "ik": 0.014285714285714285
            }, {
                "va": 275.64825253664037,
                "vg1": -48,
                "ig1": 0,
                "vg2": null,
                "ig2": 0,
                "ik": 0.03116883116883117
            }, {
                "va": 293.6865839909808,
                "vg1": -48,
                "ig1": 0,
                "vg2": null,
                "ig2": 0,
                "ik": 0.05281385281385281
            }],
            "vg1": -48
        }, {
            "p": [{
                "va": 0,
                "vg1": -44,
                "ig1": 0,
                "vg2": null,
                "ig2": 0,
                "ik": 0
            }, {
                "va": 226.04284103720406,
                "vg1": -44,
                "ig1": 0,
                "vg2": null,
                "ig2": 0,
                "ik": 0.005627705627705627
            }, {
                "va": 244.08117249154452,
                "vg1": -44,
                "ig1": 0,
                "vg2": null,
                "ig2": 0,
                "ik": 0.018614718614718615
            }, {
                "va": 257.6099210822999,
                "vg1": -44,
                "ig1": 0,
                "vg2": null,
                "ig2": 0,
                "ik": 0.032900432900432895
            }, {
                "va": 277.33934611048477,
                "vg1": -44,
                "ig1": 0,
                "vg2": null,
                "ig2": 0,
                "ik": 0.05757575757575758
            }],
            "vg1": -44
        }, {
            "p": [{
                "va": 0,
                "vg1": -40,
                "ig1": 0,
                "vg2": null,
                "ig2": 0,
                "ik": 0
            }, {
                "va": 205.74971815107102,
                "vg1": -40,
                "ig1": 0,
                "vg2": null,
                "ig2": 0,
                "ik": 0.005627705627705627
            }, {
                "va": 223.7880496054115,
                "vg1": -40,
                "ig1": 0,
                "vg2": null,
                "ig2": 0,
                "ik": 0.018614718614718615
            }, {
                "va": 240.6989853438557,
                "vg1": -40,
                "ig1": 0,
                "vg2": null,
                "ig2": 0,
                "ik": 0.0367965367965368
            }, {
                "va": 258.73731679819616,
                "vg1": -40,
                "ig1": 0,
                "vg2": null,
                "ig2": 0,
                "ik": 0.06190476190476191
            }],
            "vg1": -40
        }, {
            "p": [{
                "va": 0,
                "vg1": -36,
                "ig1": 0,
                "vg2": null,
                "ig2": 0,
                "ik": 0
            }, {
                "va": 186.02029312288613,
                "vg1": -36,
                "ig1": 0,
                "vg2": null,
                "ig2": 0,
                "ik": 0.0047619047619047615
            }, {
                "va": 204.0586245772266,
                "vg1": -36,
                "ig1": 0,
                "vg2": null,
                "ig2": 0,
                "ik": 0.01948051948051948
            }, {
                "va": 222.0969560315671,
                "vg1": -36,
                "ig1": 0,
                "vg2": null,
                "ig2": 0,
                "ik": 0.03896103896103896
            }, {
                "va": 240.6989853438557,
                "vg1": -36,
                "ig1": 0,
                "vg2": null,
                "ig2": 0,
                "ik": 0.06666666666666667
            }],
            "vg1": -36
        }, {
            "p": [{
                "va": 0,
                "vg1": -32,
                "ig1": 0,
                "vg2": null,
                "ig2": 0,
                "ik": 0
            }, {
                "va": 162.34498308906427,
                "vg1": -32,
                "ig1": 0,
                "vg2": null,
                "ig2": 0,
                "ik": 0.0030303030303030303
            }, {
                "va": 183.20180383314542,
                "vg1": -32,
                "ig1": 0,
                "vg2": null,
                "ig2": 0,
                "ik": 0.018614718614718615
            }, {
                "va": 204.62232243517474,
                "vg1": -32,
                "ig1": 0,
                "vg2": null,
                "ig2": 0,
                "ik": 0.04242424242424242
            }, {
                "va": 223.22435174746334,
                "vg1": -32,
                "ig1": 0,
                "vg2": null,
                "ig2": 0,
                "ik": 0.07056277056277056
            }],
            "vg1": -32
        }, {
            "p": [{
                "va": 0,
                "vg1": -28,
                "ig1": 0,
                "vg2": null,
                "ig2": 0,
                "ik": 0
            }, {
                "va": 145.9977452085682,
                "vg1": -28,
                "ig1": 0,
                "vg2": null,
                "ig2": 0,
                "ik": 0.005627705627705627
            }, {
                "va": 167.98196166854567,
                "vg1": -28,
                "ig1": 0,
                "vg2": null,
                "ig2": 0,
                "ik": 0.022943722943722943
            }, {
                "va": 184.89289740698985,
                "vg1": -28,
                "ig1": 0,
                "vg2": null,
                "ig2": 0,
                "ik": 0.045454545454545456
            }, {
                "va": 205.18602029312288,
                "vg1": -28,
                "ig1": 0,
                "vg2": null,
                "ig2": 0,
                "ik": 0.07705627705627706
            }],
            "vg1": -28
        }, {
            "p": [{
                "va": 0,
                "vg1": -24,
                "ig1": 0,
                "vg2": null,
                "ig2": 0,
                "ik": 0
            }, {
                "va": 126.83201803833146,
                "vg1": -24,
                "ig1": 0,
                "vg2": null,
                "ig2": 0,
                "ik": 0.0047619047619047615
            }, {
                "va": 141.4881623449831,
                "vg1": -24,
                "ig1": 0,
                "vg2": null,
                "ig2": 0,
                "ik": 0.01818181818181818
            }, {
                "va": 165.16347237880495,
                "vg1": -24,
                "ig1": 0,
                "vg2": null,
                "ig2": 0,
                "ik": 0.04675324675324675
            }, {
                "va": 188.2750845546787,
                "vg1": -24,
                "ig1": 0,
                "vg2": null,
                "ig2": 0,
                "ik": 0.08614718614718615
            }],
            "vg1": -24
        }, {
            "p": [{
                "va": 0,
                "vg1": -20,
                "ig1": 0,
                "vg2": null,
                "ig2": 0,
                "ik": 0
            }, {
                "va": 108.22998872604283,
                "vg1": -20,
                "ig1": 0,
                "vg2": null,
                "ig2": 0,
                "ik": 0.005627705627705627
            }, {
                "va": 127.95941375422774,
                "vg1": -20,
                "ig1": 0,
                "vg2": null,
                "ig2": 0,
                "ik": 0.025108225108225107
            }, {
                "va": 147.68883878241263,
                "vg1": -20,
                "ig1": 0,
                "vg2": null,
                "ig2": 0,
                "ik": 0.053246753246753244
            }, {
                "va": 170.2367531003382,
                "vg1": -20,
                "ig1": 0,
                "vg2": null,
                "ig2": 0,
                "ik": 0.09307359307359307
            }],
            "vg1": -20
        }, {
            "p": [{
                "va": 0,
                "vg1": -16,
                "ig1": 0,
                "vg2": null,
                "ig2": 0,
                "ik": 0
            }, {
                "va": 87.37316798196167,
                "vg1": -16,
                "ig1": 0,
                "vg2": null,
                "ig2": 0,
                "ik": 0.006060606060606061
            }, {
                "va": 105.41149943630214,
                "vg1": -16,
                "ig1": 0,
                "vg2": null,
                "ig2": 0,
                "ik": 0.02380952380952381
            }, {
                "va": 126.83201803833146,
                "vg1": -16,
                "ig1": 0,
                "vg2": null,
                "ig2": 0,
                "ik": 0.053679653679653674
            }, {
                "va": 152.19842164599774,
                "vg1": -16,
                "ig1": 0,
                "vg2": null,
                "ig2": 0,
                "ik": 0.10216450216450217
            }],
            "vg1": -16
        }, {
            "p": [{
                "va": 0,
                "vg1": -12,
                "ig1": 0,
                "vg2": null,
                "ig2": 0,
                "ik": 0
            }, {
                "va": 67.64374295377678,
                "vg1": -12,
                "ig1": 0,
                "vg2": null,
                "ig2": 0,
                "ik": 0.005627705627705627
            }, {
                "va": 79.48139797068771,
                "vg1": -12,
                "ig1": 0,
                "vg2": null,
                "ig2": 0,
                "ik": 0.017316017316017316
            }, {
                "va": 98.64712514092446,
                "vg1": -12,
                "ig1": 0,
                "vg2": null,
                "ig2": 0,
                "ik": 0.04112554112554113
            }, {
                "va": 113.86696730552424,
                "vg1": -12,
                "ig1": 0,
                "vg2": null,
                "ig2": 0,
                "ik": 0.07012987012987013
            }, {
                "va": 128.52311161217588,
                "vg1": -12,
                "ig1": 0,
                "vg2": null,
                "ig2": 0,
                "ik": 0.09826839826839827
            }, {
                "va": 135.8511837655017,
                "vg1": -12,
                "ig1": 0,
                "vg2": null,
                "ig2": 0,
                "ik": 0.11558441558441558
            }],
            "vg1": -12
        }, {
            "p": [{
                "va": 0,
                "vg1": -8,
                "ig1": 0,
                "vg2": null,
                "ig2": 0,
                "ik": 0
            }, {
                "va": 47.91431792559188,
                "vg1": -8,
                "ig1": 0,
                "vg2": null,
                "ig2": 0,
                "ik": 0.006060606060606061
            }, {
                "va": 63.134160090191656,
                "vg1": -8,
                "ig1": 0,
                "vg2": null,
                "ig2": 0,
                "ik": 0.02251082251082251
            }, {
                "va": 81.17249154453214,
                "vg1": -8,
                "ig1": 0,
                "vg2": null,
                "ig2": 0,
                "ik": 0.050216450216450215
            }, {
                "va": 96.3923337091319,
                "vg1": -8,
                "ig1": 0,
                "vg2": null,
                "ig2": 0,
                "ik": 0.07922077922077922
            }, {
                "va": 109.92108229988726,
                "vg1": -8,
                "ig1": 0,
                "vg2": null,
                "ig2": 0,
                "ik": 0.10779220779220779
            }, {
                "va": 120.63134160090192,
                "vg1": -8,
                "ig1": 0,
                "vg2": null,
                "ig2": 0,
                "ik": 0.1354978354978355
            }],
            "vg1": -8
        }, {
            "p": [{
                "va": 0,
                "vg1": -4,
                "ig1": 0,
                "vg2": null,
                "ig2": 0,
                "ik": 0
            }, {
                "va": 27.05749718151071,
                "vg1": -4,
                "ig1": 0,
                "vg2": null,
                "ig2": 0,
                "ik": 0.005194805194805195
            }, {
                "va": 44.53213077790304,
                "vg1": -4,
                "ig1": 0,
                "vg2": null,
                "ig2": 0,
                "ik": 0.025974025974025972
            }, {
                "va": 64.26155580608794,
                "vg1": -4,
                "ig1": 0,
                "vg2": null,
                "ig2": 0,
                "ik": 0.05974025974025974
            }, {
                "va": 80.608793686584,
                "vg1": -4,
                "ig1": 0,
                "vg2": null,
                "ig2": 0,
                "ik": 0.09567099567099567
            }, {
                "va": 102.0293122886133,
                "vg1": -4,
                "ig1": 0,
                "vg2": null,
                "ig2": 0,
                "ik": 0.15238095238095237
            }],
            "vg1": -4
        }, {
            "p": [{
                "va": 0,
                "vg1": 0,
                "ig1": 0,
                "vg2": null,
                "ig2": 0,
                "ik": 0
            }, {
                "va": 13.528748590755354,
                "vg1": 0,
                "ig1": 0,
                "vg2": null,
                "ig2": 0,
                "ik": 0.015584415584415584
            }, {
                "va": 30.439684329199547,
                "vg1": 0,
                "ig1": 0,
                "vg2": null,
                "ig2": 0,
                "ik": 0.04675324675324675
            }, {
                "va": 51.29650507328072,
                "vg1": 0,
                "ig1": 0,
                "vg2": null,
                "ig2": 0,
                "ik": 0.09134199134199135
            }, {
                "va": 71.02593010146562,
                "vg1": 0,
                "ig1": 0,
                "vg2": null,
                "ig2": 0,
                "ik": 0.14199134199134197
            }, {
                "va": 86.24577226606539,
                "vg1": 0,
                "ig1": 0,
                "vg2": null,
                "ig2": 0,
                "ik": 0.18484848484848485
            }],
            "vg1": 0
        }],
        "vg2": null,
        "logX": false,
        "logY": false,
        "name": "el36 as triode",
        "raw": false,
        "unit": null,
        "triode": true
    }
}
