{
    "filename": "el802 graph from datasheet g2=170v.json",
    "tubeGraph": {
        "c": [{
            "p": [{
                "va": 0,
                "vg1": -2,
                "ig1": 0,
                "vg2": 170,
                "ig2": 0,
                "ik": 0
            }, {
                "va": 4.364224137931035,
                "vg1": -2,
                "ig1": 0,
                "vg2": 170,
                "ig2": 0,
                "ik": 0.003380281690140845
            }, {
                "va": 6.788793103448276,
                "vg1": -2,
                "ig1": 0,
                "vg2": 170,
                "ig2": 0,
                "ik": 0.008209255533199195
            }, {
                "va": 448.54525862068965,
                "vg1": -2,
                "ig1": 0,
                "vg2": 170,
                "ig2": 0,
                "ik": 0.015211267605633804
            }],
            "vg1": -2
        }, {
            "p": [{
                "va": 0,
                "vg1": -1.75,
                "ig1": 0,
                "vg2": 170,
                "ig2": 0,
                "ik": 0
            }, {
                "va": 5.818965517241379,
                "vg1": -1.75,
                "ig1": 0,
                "vg2": 170,
                "ig2": 0,
                "ik": 0.005070422535211268
            }, {
                "va": 11.153017241379311,
                "vg1": -1.75,
                "ig1": 0,
                "vg2": 170,
                "ig2": 0,
                "ik": 0.011348088531187123
            }, {
                "va": 251.67025862068965,
                "vg1": -1.75,
                "ig1": 0,
                "vg2": 170,
                "ig2": 0,
                "ik": 0.019798792756539237
            }, {
                "va": 449.51508620689657,
                "vg1": -1.75,
                "ig1": 0,
                "vg2": 170,
                "ig2": 0,
                "ik": 0.021730382293762576
            }],
            "vg1": -1.75
        }, {
            "p": [{
                "va": 0,
                "vg1": -1.5,
                "ig1": 0,
                "vg2": 170,
                "ig2": 0,
                "ik": 0
            }, {
                "va": 11.637931034482758,
                "vg1": -1.5,
                "ig1": 0,
                "vg2": 170,
                "ig2": 0,
                "ik": 0.017142857142857144
            }, {
                "va": 447.0905172413793,
                "vg1": -1.5,
                "ig1": 0,
                "vg2": 170,
                "ig2": 0,
                "ik": 0.02800804828973843
            }],
            "vg1": -1.5
        }, {
            "p": [{
                "va": 0,
                "vg1": -1.25,
                "ig1": 0,
                "vg2": 170,
                "ig2": 0,
                "ik": 0
            }, {
                "va": 9.213362068965518,
                "vg1": -1.25,
                "ig1": 0,
                "vg2": 170,
                "ig2": 0,
                "ik": 0.013279678068410464
            }, {
                "va": 13.577586206896552,
                "vg1": -1.25,
                "ig1": 0,
                "vg2": 170,
                "ig2": 0,
                "ik": 0.024144869215291753
            }, {
                "va": 62.553879310344826,
                "vg1": -1.25,
                "ig1": 0,
                "vg2": 170,
                "ig2": 0,
                "ik": 0.026076458752515092
            }, {
                "va": 168.75,
                "vg1": -1.25,
                "ig1": 0,
                "vg2": 170,
                "ig2": 0,
                "ik": 0.0316297786720322
            }, {
                "va": 448.54525862068965,
                "vg1": -1.25,
                "ig1": 0,
                "vg2": 170,
                "ig2": 0,
                "ik": 0.0386317907444668
            }],
            "vg1": -1.25
        }, {
            "p": [{
                "va": 0,
                "vg1": -1,
                "ig1": 0,
                "vg2": 170,
                "ig2": 0,
                "ik": 0
            }, {
                "va": 12.122844827586206,
                "vg1": -1,
                "ig1": 0,
                "vg2": 170,
                "ig2": 0,
                "ik": 0.019557344064386317
            }, {
                "va": 17.45689655172414,
                "vg1": -1,
                "ig1": 0,
                "vg2": 170,
                "ig2": 0,
                "ik": 0.03235412474849095
            }, {
                "va": 79.04094827586206,
                "vg1": -1,
                "ig1": 0,
                "vg2": 170,
                "ig2": 0,
                "ik": 0.037665995975855134
            }, {
                "va": 273.0064655172414,
                "vg1": -1,
                "ig1": 0,
                "vg2": 170,
                "ig2": 0,
                "ik": 0.04659959758551308
            }, {
                "va": 447.0905172413793,
                "vg1": -1,
                "ig1": 0,
                "vg2": 170,
                "ig2": 0,
                "ik": 0.05142857142857143
            }],
            "vg1": -1
        }, {
            "p": [{
                "va": 0,
                "vg1": -0.75,
                "ig1": 0,
                "vg2": 170,
                "ig2": 0,
                "ik": 0
            }, {
                "va": 16.002155172413794,
                "vg1": -0.75,
                "ig1": 0,
                "vg2": 170,
                "ig2": 0,
                "ik": 0.023903420523138832
            }, {
                "va": 21.336206896551726,
                "vg1": -0.75,
                "ig1": 0,
                "vg2": 170,
                "ig2": 0,
                "ik": 0.04515090543259557
            }, {
                "va": 446.6056034482759,
                "vg1": -0.75,
                "ig1": 0,
                "vg2": 170,
                "ig2": 0,
                "ik": 0.06277665995975855
            }],
            "vg1": -0.75
        }, {
            "p": [{
                "va": 0,
                "vg1": -0.5,
                "ig1": 0,
                "vg2": 170,
                "ig2": 0,
                "ik": 0
            }, {
                "va": 21.336206896551726,
                "vg1": -0.5,
                "ig1": 0,
                "vg2": 170,
                "ig2": 0,
                "ik": 0.03742454728370221
            }, {
                "va": 29.094827586206897,
                "vg1": -0.5,
                "ig1": 0,
                "vg2": 170,
                "ig2": 0,
                "ik": 0.059637826961770626
            }, {
                "va": 446.6056034482759,
                "vg1": -0.5,
                "ig1": 0,
                "vg2": 170,
                "ig2": 0,
                "ik": 0.07629778672032193
            }],
            "vg1": -0.5
        }, {
            "p": [{
                "va": 0,
                "vg1": -0.25,
                "ig1": 0,
                "vg2": 170,
                "ig2": 0,
                "ik": 0
            }, {
                "va": 25.21551724137931,
                "vg1": -0.25,
                "ig1": 0,
                "vg2": 170,
                "ig2": 0,
                "ik": 0.03814889336016097
            }, {
                "va": 36.85344827586207,
                "vg1": -0.25,
                "ig1": 0,
                "vg2": 170,
                "ig2": 0,
                "ik": 0.0758148893360161
            }, {
                "va": 96.4978448275862,
                "vg1": -0.25,
                "ig1": 0,
                "vg2": 170,
                "ig2": 0,
                "ik": 0.07943661971830986
            }, {
                "va": 178.44827586206898,
                "vg1": -0.25,
                "ig1": 0,
                "vg2": 170,
                "ig2": 0,
                "ik": 0.0842655935613682
            }, {
                "va": 447.0905172413793,
                "vg1": -0.25,
                "ig1": 0,
                "vg2": 170,
                "ig2": 0,
                "ik": 0.09295774647887324
            }],
            "vg1": -0.25
        }, {
            "p": [{
                "va": 0,
                "vg1": 0,
                "ig1": 0,
                "vg2": 170,
                "ig2": 0,
                "ik": 0
            }, {
                "va": 29.579741379310345,
                "vg1": 0,
                "ig1": 0,
                "vg2": 170,
                "ig2": 0,
                "ik": 0.037665995975855134
            }, {
                "va": 45.58189655172414,
                "vg1": 0,
                "ig1": 0,
                "vg2": 170,
                "ig2": 0,
                "ik": 0.09078470824949698
            }, {
                "va": 77.58620689655173,
                "vg1": 0,
                "ig1": 0,
                "vg2": 170,
                "ig2": 0,
                "ik": 0.09319919517102616
            }, {
                "va": 126.07758620689656,
                "vg1": 0,
                "ig1": 0,
                "vg2": 170,
                "ig2": 0,
                "ik": 0.09657947686116701
            }, {
                "va": 250.2155172413793,
                "vg1": 0,
                "ig1": 0,
                "vg2": 170,
                "ig2": 0,
                "ik": 0.10261569416498995
            }, {
                "va": 447.5754310344828,
                "vg1": 0,
                "ig1": 0,
                "vg2": 170,
                "ig2": 0,
                "ik": 0.10816901408450703
            }],
            "vg1": 0
        }],
        "vg2": 170,
        "logX": false,
        "logY": false,
        "name": "EL802 graph from datasheet G2=170V",
        "raw": false,
        "unit": null,
        "triode": false
    }
}
