{
    "filename": "el81-triode.json",
    "tubeGraph": {
        "c": [{
            "p": [{
                "va": 0,
                "vg1": -80,
                "ig1": 0,
                "vg2": null,
                "ig2": 0,
                "ik": 0
            }, {
                "va": 355.1724137931035,
                "vg1": -80,
                "ig1": 0,
                "vg2": null,
                "ig2": 0,
                "ik": 0.0007035175879396985
            }, {
                "va": 375.86206896551727,
                "vg1": -80,
                "ig1": 0,
                "vg2": null,
                "ig2": 0,
                "ik": 0.003986599664991625
            }, {
                "va": 397.8448275862069,
                "vg1": -80,
                "ig1": 0,
                "vg2": null,
                "ig2": 0,
                "ik": 0.009145728643216082
            }],
            "vg1": -80
        }, {
            "p": [{
                "va": 0,
                "vg1": -75,
                "ig1": 0,
                "vg2": null,
                "ig2": 0,
                "ik": 0
            }, {
                "va": 336.2068965517242,
                "vg1": -75,
                "ig1": 0,
                "vg2": null,
                "ig2": 0,
                "ik": 0.0007035175879396985
            }, {
                "va": 365.08620689655174,
                "vg1": -75,
                "ig1": 0,
                "vg2": null,
                "ig2": 0,
                "ik": 0.006800670016750419
            }, {
                "va": 397.8448275862069,
                "vg1": -75,
                "ig1": 0,
                "vg2": null,
                "ig2": 0,
                "ik": 0.01782244556113903
            }],
            "vg1": -75
        }, {
            "p": [{
                "va": 0,
                "vg1": -70,
                "ig1": 0,
                "vg2": null,
                "ig2": 0,
                "ik": 0
            }, {
                "va": 309.48275862068965,
                "vg1": -70,
                "ig1": 0,
                "vg2": null,
                "ig2": 0,
                "ik": 0.00046901172529313233
            }, {
                "va": 340.08620689655174,
                "vg1": -70,
                "ig1": 0,
                "vg2": null,
                "ig2": 0,
                "ik": 0.00609715242881072
            }, {
                "va": 364.22413793103453,
                "vg1": -70,
                "ig1": 0,
                "vg2": null,
                "ig2": 0,
                "ik": 0.015242881072026801
            }, {
                "va": 397.8448275862069,
                "vg1": -70,
                "ig1": 0,
                "vg2": null,
                "ig2": 0,
                "ik": 0.0340033500837521
            }],
            "vg1": -70
        }, {
            "p": [{
                "va": 0,
                "vg1": -65,
                "ig1": 0,
                "vg2": null,
                "ig2": 0,
                "ik": 0
            }, {
                "va": 285.7758620689655,
                "vg1": -65,
                "ig1": 0,
                "vg2": null,
                "ig2": 0,
                "ik": 0.0009380234505862647
            }, {
                "va": 315.08620689655174,
                "vg1": -65,
                "ig1": 0,
                "vg2": null,
                "ig2": 0,
                "ik": 0.006331658291457287
            }, {
                "va": 337.0689655172414,
                "vg1": -65,
                "ig1": 0,
                "vg2": null,
                "ig2": 0,
                "ik": 0.014539363484087103
            }, {
                "va": 359.05172413793105,
                "vg1": -65,
                "ig1": 0,
                "vg2": null,
                "ig2": 0,
                "ik": 0.027671691792294808
            }, {
                "va": 379.3103448275862,
                "vg1": -65,
                "ig1": 0,
                "vg2": null,
                "ig2": 0,
                "ik": 0.04338358458961474
            }],
            "vg1": -65
        }, {
            "p": [{
                "va": 0,
                "vg1": -60,
                "ig1": 0,
                "vg2": null,
                "ig2": 0,
                "ik": 0
            }, {
                "va": 267.2413793103448,
                "vg1": -60,
                "ig1": 0,
                "vg2": null,
                "ig2": 0,
                "ik": 0.00046901172529313233
            }, {
                "va": 293.5344827586207,
                "vg1": -60,
                "ig1": 0,
                "vg2": null,
                "ig2": 0,
                "ik": 0.006566164154103853
            }, {
                "va": 310.7758620689655,
                "vg1": -60,
                "ig1": 0,
                "vg2": null,
                "ig2": 0,
                "ik": 0.013835845896147404
            }, {
                "va": 331.46551724137936,
                "vg1": -60,
                "ig1": 0,
                "vg2": null,
                "ig2": 0,
                "ik": 0.026264656616415413
            }, {
                "va": 365.948275862069,
                "vg1": -60,
                "ig1": 0,
                "vg2": null,
                "ig2": 0,
                "ik": 0.05417085427135679
            }],
            "vg1": -60
        }, {
            "p": [{
                "va": 0,
                "vg1": -55,
                "ig1": 0,
                "vg2": null,
                "ig2": 0,
                "ik": 0
            }, {
                "va": 242.24137931034485,
                "vg1": -55,
                "ig1": 0,
                "vg2": null,
                "ig2": 0,
                "ik": 0.0007035175879396985
            }, {
                "va": 275,
                "vg1": -55,
                "ig1": 0,
                "vg2": null,
                "ig2": 0,
                "ik": 0.009380234505862648
            }, {
                "va": 295.68965517241384,
                "vg1": -55,
                "ig1": 0,
                "vg2": null,
                "ig2": 0,
                "ik": 0.021340033500837522
            }, {
                "va": 321.98275862068965,
                "vg1": -55,
                "ig1": 0,
                "vg2": null,
                "ig2": 0,
                "ik": 0.03845896147403685
            }, {
                "va": 348.2758620689655,
                "vg1": -55,
                "ig1": 0,
                "vg2": null,
                "ig2": 0,
                "ik": 0.05815745393634841
            }],
            "vg1": -55
        }, {
            "p": [{
                "va": 0,
                "vg1": -50,
                "ig1": 0,
                "vg2": null,
                "ig2": 0,
                "ik": 0
            }, {
                "va": 221.98275862068968,
                "vg1": -50,
                "ig1": 0,
                "vg2": null,
                "ig2": 0,
                "ik": 0.00046901172529313233
            }, {
                "va": 252.1551724137931,
                "vg1": -50,
                "ig1": 0,
                "vg2": null,
                "ig2": 0,
                "ik": 0.009380234505862648
            }, {
                "va": 272.4137931034483,
                "vg1": -50,
                "ig1": 0,
                "vg2": null,
                "ig2": 0,
                "ik": 0.021105527638190957
            }, {
                "va": 294.82758620689657,
                "vg1": -50,
                "ig1": 0,
                "vg2": null,
                "ig2": 0,
                "ik": 0.03564489112227806
            }, {
                "va": 329.3103448275862,
                "vg1": -50,
                "ig1": 0,
                "vg2": null,
                "ig2": 0,
                "ik": 0.06425460636515913
            }],
            "vg1": -50
        }, {
            "p": [{
                "va": 0,
                "vg1": -45,
                "ig1": 0,
                "vg2": null,
                "ig2": 0,
                "ik": 0
            }, {
                "va": 197.84482758620692,
                "vg1": -45,
                "ig1": 0,
                "vg2": null,
                "ig2": 0,
                "ik": 0.0007035175879396985
            }, {
                "va": 234.91379310344828,
                "vg1": -45,
                "ig1": 0,
                "vg2": null,
                "ig2": 0,
                "ik": 0.01289782244556114
            }, {
                "va": 256.89655172413796,
                "vg1": -45,
                "ig1": 0,
                "vg2": null,
                "ig2": 0,
                "ik": 0.026968174204355107
            }, {
                "va": 275.43103448275866,
                "vg1": -45,
                "ig1": 0,
                "vg2": null,
                "ig2": 0,
                "ik": 0.04197654941373534
            }, {
                "va": 312.93103448275866,
                "vg1": -45,
                "ig1": 0,
                "vg2": null,
                "ig2": 0,
                "ik": 0.07433835845896147
            }],
            "vg1": -45
        }, {
            "p": [{
                "va": 0,
                "vg1": -40,
                "ig1": 0,
                "vg2": null,
                "ig2": 0,
                "ik": 0
            }, {
                "va": 175,
                "vg1": -40,
                "ig1": 0,
                "vg2": null,
                "ig2": 0,
                "ik": 0.0016415410385259633
            }, {
                "va": 200,
                "vg1": -40,
                "ig1": 0,
                "vg2": null,
                "ig2": 0,
                "ik": 0.007269681742043552
            }, {
                "va": 220.25862068965517,
                "vg1": -40,
                "ig1": 0,
                "vg2": null,
                "ig2": 0,
                "ik": 0.016649916247906196
            }, {
                "va": 237.93103448275863,
                "vg1": -40,
                "ig1": 0,
                "vg2": null,
                "ig2": 0,
                "ik": 0.030251256281407034
            }, {
                "va": 259.05172413793105,
                "vg1": -40,
                "ig1": 0,
                "vg2": null,
                "ig2": 0,
                "ik": 0.04830820770519263
            }, {
                "va": 298.2758620689655,
                "vg1": -40,
                "ig1": 0,
                "vg2": null,
                "ig2": 0,
                "ik": 0.09051926298157455
            }],
            "vg1": -40
        }, {
            "p": [{
                "va": 0,
                "vg1": -35,
                "ig1": 0,
                "vg2": null,
                "ig2": 0,
                "ik": 0
            }, {
                "va": 151.29310344827587,
                "vg1": -35,
                "ig1": 0,
                "vg2": null,
                "ig2": 0,
                "ik": 0.001172529313232831
            }, {
                "va": 183.1896551724138,
                "vg1": -35,
                "ig1": 0,
                "vg2": null,
                "ig2": 0,
                "ik": 0.010083752093802346
            }, {
                "va": 207.75862068965517,
                "vg1": -35,
                "ig1": 0,
                "vg2": null,
                "ig2": 0,
                "ik": 0.02509212730318258
            }, {
                "va": 233.1896551724138,
                "vg1": -35,
                "ig1": 0,
                "vg2": null,
                "ig2": 0,
                "ik": 0.04690117252931324
            }, {
                "va": 274.5689655172414,
                "vg1": -35,
                "ig1": 0,
                "vg2": null,
                "ig2": 0,
                "ik": 0.09544388609715243
            }],
            "vg1": -35
        }, {
            "p": [{
                "va": 0,
                "vg1": -30,
                "ig1": 0,
                "vg2": null,
                "ig2": 0,
                "ik": 0
            }, {
                "va": 126.72413793103449,
                "vg1": -30,
                "ig1": 0,
                "vg2": null,
                "ig2": 0,
                "ik": 0.0009380234505862647
            }, {
                "va": 160.34482758620692,
                "vg1": -30,
                "ig1": 0,
                "vg2": null,
                "ig2": 0,
                "ik": 0.01102177554438861
            }, {
                "va": 184.91379310344828,
                "vg1": -30,
                "ig1": 0,
                "vg2": null,
                "ig2": 0,
                "ik": 0.027202680067001675
            }, {
                "va": 210.34482758620692,
                "vg1": -30,
                "ig1": 0,
                "vg2": null,
                "ig2": 0,
                "ik": 0.05182579564489112
            }, {
                "va": 254.74137931034485,
                "vg1": -30,
                "ig1": 0,
                "vg2": null,
                "ig2": 0,
                "ik": 0.10130653266331659
            }],
            "vg1": -30
        }, {
            "p": [{
                "va": 0,
                "vg1": -25,
                "ig1": 0,
                "vg2": null,
                "ig2": 0,
                "ik": 0
            }, {
                "va": 101.29310344827587,
                "vg1": -25,
                "ig1": 0,
                "vg2": null,
                "ig2": 0,
                "ik": 0.0009380234505862647
            }, {
                "va": 131.46551724137933,
                "vg1": -25,
                "ig1": 0,
                "vg2": null,
                "ig2": 0,
                "ik": 0.00984924623115578
            }, {
                "va": 159.48275862068968,
                "vg1": -25,
                "ig1": 0,
                "vg2": null,
                "ig2": 0,
                "ik": 0.02814070351758794
            }, {
                "va": 187.5,
                "vg1": -25,
                "ig1": 0,
                "vg2": null,
                "ig2": 0,
                "ik": 0.05768844221105528
            }, {
                "va": 225.00000000000003,
                "vg1": -25,
                "ig1": 0,
                "vg2": null,
                "ig2": 0,
                "ik": 0.10646566164154105
            }],
            "vg1": -25
        }, {
            "p": [{
                "va": 0,
                "vg1": -20,
                "ig1": 0,
                "vg2": null,
                "ig2": 0,
                "ik": 0
            }, {
                "va": 82.75862068965517,
                "vg1": -20,
                "ig1": 0,
                "vg2": null,
                "ig2": 0,
                "ik": 0.0018760469011725293
            }, {
                "va": 113.79310344827587,
                "vg1": -20,
                "ig1": 0,
                "vg2": null,
                "ig2": 0,
                "ik": 0.01289782244556114
            }, {
                "va": 137.5,
                "vg1": -20,
                "ig1": 0,
                "vg2": null,
                "ig2": 0,
                "ik": 0.0311892797319933
            }, {
                "va": 165.94827586206898,
                "vg1": -20,
                "ig1": 0,
                "vg2": null,
                "ig2": 0,
                "ik": 0.06448911222780569
            }, {
                "va": 198.70689655172416,
                "vg1": -20,
                "ig1": 0,
                "vg2": null,
                "ig2": 0,
                "ik": 0.11185929648241207
            }],
            "vg1": -20
        }, {
            "p": [{
                "va": 0,
                "vg1": -15,
                "ig1": 0,
                "vg2": null,
                "ig2": 0,
                "ik": 0
            }, {
                "va": 53.01724137931035,
                "vg1": -15,
                "ig1": 0,
                "vg2": null,
                "ig2": 0,
                "ik": 0.001407035175879397
            }, {
                "va": 86.20689655172414,
                "vg1": -15,
                "ig1": 0,
                "vg2": null,
                "ig2": 0,
                "ik": 0.010318257956448912
            }, {
                "va": 109.05172413793105,
                "vg1": -15,
                "ig1": 0,
                "vg2": null,
                "ig2": 0,
                "ik": 0.026733668341708546
            }, {
                "va": 135.34482758620692,
                "vg1": -15,
                "ig1": 0,
                "vg2": null,
                "ig2": 0,
                "ik": 0.05815745393634841
            }, {
                "va": 174.5689655172414,
                "vg1": -15,
                "ig1": 0,
                "vg2": null,
                "ig2": 0,
                "ik": 0.12241206030150754
            }],
            "vg1": -15
        }, {
            "p": [{
                "va": 0,
                "vg1": -10,
                "ig1": 0,
                "vg2": null,
                "ig2": 0,
                "ik": 0
            }, {
                "va": 34.91379310344828,
                "vg1": -10,
                "ig1": 0,
                "vg2": null,
                "ig2": 0,
                "ik": 0.0018760469011725293
            }, {
                "va": 67.67241379310346,
                "vg1": -10,
                "ig1": 0,
                "vg2": null,
                "ig2": 0,
                "ik": 0.015711892797319934
            }, {
                "va": 95.25862068965517,
                "vg1": -10,
                "ig1": 0,
                "vg2": null,
                "ig2": 0,
                "ik": 0.04314907872696818
            }, {
                "va": 114.22413793103449,
                "vg1": -10,
                "ig1": 0,
                "vg2": null,
                "ig2": 0,
                "ik": 0.06964824120603015
            }, {
                "va": 147.41379310344828,
                "vg1": -10,
                "ig1": 0,
                "vg2": null,
                "ig2": 0,
                "ik": 0.12710217755443887
            }],
            "vg1": -10
        }, {
            "p": [{
                "va": 0,
                "vg1": -5,
                "ig1": 0,
                "vg2": null,
                "ig2": 0,
                "ik": 0
            }, {
                "va": 12.06896551724138,
                "vg1": -5,
                "ig1": 0,
                "vg2": null,
                "ig2": 0,
                "ik": 0.0018760469011725293
            }, {
                "va": 37.931034482758626,
                "vg1": -5,
                "ig1": 0,
                "vg2": null,
                "ig2": 0,
                "ik": 0.01102177554438861
            }, {
                "va": 59.91379310344828,
                "vg1": -5,
                "ig1": 0,
                "vg2": null,
                "ig2": 0,
                "ik": 0.02931323283082077
            }, {
                "va": 78.01724137931035,
                "vg1": -5,
                "ig1": 0,
                "vg2": null,
                "ig2": 0,
                "ik": 0.05909547738693467
            }, {
                "va": 115.51724137931035,
                "vg1": -5,
                "ig1": 0,
                "vg2": null,
                "ig2": 0,
                "ik": 0.13835845896147403
            }],
            "vg1": -5
        }, {
            "p": [{
                "va": 0,
                "vg1": 0,
                "ig1": 0,
                "vg2": null,
                "ig2": 0,
                "ik": 0
            }, {
                "va": 2.1551724137931036,
                "vg1": 0,
                "ig1": 0,
                "vg2": null,
                "ig2": 0,
                "ik": 0.002814070351758794
            }, {
                "va": 25,
                "vg1": 0,
                "ig1": 0,
                "vg2": null,
                "ig2": 0,
                "ik": 0.022981574539363486
            }, {
                "va": 46.12068965517242,
                "vg1": 0,
                "ig1": 0,
                "vg2": null,
                "ig2": 0,
                "ik": 0.055812395309882745
            }, {
                "va": 61.63793103448276,
                "vg1": 0,
                "ig1": 0,
                "vg2": null,
                "ig2": 0,
                "ik": 0.095678391959799
            }, {
                "va": 74.56896551724138,
                "vg1": 0,
                "ig1": 0,
                "vg2": null,
                "ig2": 0,
                "ik": 0.13906197654941374
            }],
            "vg1": 0
        }],
        "vg2": null,
        "logX": false,
        "logY": false,
        "name": "EL81-TRIODE",
        "raw": false,
        "unit": null,
        "triode": true
    }
}
