{
    "filename": "el84 anode transfert chart g2=250v pentode.json",
    "tubeGraph": {
        "c": [{
            "p": [{
                "va": 0,
                "vg1": -10,
                "ig1": 0,
                "vg2": 250,
                "ig2": 0,
                "ik": 0
            }, {
                "va": 3.475935828877005,
                "vg1": -10,
                "ig1": 0,
                "vg2": 250,
                "ig2": 0,
                "ik": 0.01283763277693475
            }, {
                "va": 13.36898395721925,
                "vg1": -10,
                "ig1": 0,
                "vg2": 250,
                "ig2": 0,
                "ik": 0.015569044006069803
            }, {
                "va": 24.331550802139034,
                "vg1": -10,
                "ig1": 0,
                "vg2": 250,
                "ig2": 0,
                "ik": 0.013930197268588771
            }, {
                "va": 39.839572192513366,
                "vg1": -10,
                "ig1": 0,
                "vg2": 250,
                "ig2": 0,
                "ik": 0.016115326251896815
            }, {
                "va": 67.37967914438502,
                "vg1": -10,
                "ig1": 0,
                "vg2": 250,
                "ig2": 0,
                "ik": 0.018846737481031866
            }, {
                "va": 241.17647058823528,
                "vg1": -10,
                "ig1": 0,
                "vg2": 250,
                "ig2": 0,
                "ik": 0.02267071320182094
            }, {
                "va": 347.8609625668449,
                "vg1": -10,
                "ig1": 0,
                "vg2": 250,
                "ig2": 0,
                "ik": 0.024036418816388468
            }],
            "vg1": -10
        }, {
            "p": [{
                "va": 0,
                "vg1": -8,
                "ig1": 0,
                "vg2": 250,
                "ig2": 0,
                "ik": 0
            }, {
                "va": 2.941176470588235,
                "vg1": -8,
                "ig1": 0,
                "vg2": 250,
                "ig2": 0,
                "ik": 0.01638846737481032
            }, {
                "va": 14.705882352941176,
                "vg1": -8,
                "ig1": 0,
                "vg2": 250,
                "ig2": 0,
                "ik": 0.0256752655538695
            }, {
                "va": 29.679144385026735,
                "vg1": -8,
                "ig1": 0,
                "vg2": 250,
                "ig2": 0,
                "ik": 0.027314112291350532
            }, {
                "va": 51.336898395721924,
                "vg1": -8,
                "ig1": 0,
                "vg2": 250,
                "ig2": 0,
                "ik": 0.034688922610015174
            }, {
                "va": 79.14438502673796,
                "vg1": -8,
                "ig1": 0,
                "vg2": 250,
                "ig2": 0,
                "ik": 0.03878603945371775
            }, {
                "va": 268.9839572192513,
                "vg1": -8,
                "ig1": 0,
                "vg2": 250,
                "ig2": 0,
                "ik": 0.04315629742033384
            }, {
                "va": 348.39572192513367,
                "vg1": -8,
                "ig1": 0,
                "vg2": 250,
                "ig2": 0,
                "ik": 0.04424886191198786
            }],
            "vg1": -8
        }, {
            "p": [{
                "va": 0,
                "vg1": -6,
                "ig1": 0,
                "vg2": 250,
                "ig2": 0,
                "ik": 0
            }, {
                "va": 3.2085561497326203,
                "vg1": -6,
                "ig1": 0,
                "vg2": 250,
                "ig2": 0,
                "ik": 0.027040971168437025
            }, {
                "va": 22.99465240641711,
                "vg1": -6,
                "ig1": 0,
                "vg2": 250,
                "ig2": 0,
                "ik": 0.04261001517450683
            }, {
                "va": 45.45454545454545,
                "vg1": -6,
                "ig1": 0,
                "vg2": 250,
                "ig2": 0,
                "ik": 0.05380880121396055
            }, {
                "va": 80.74866310160428,
                "vg1": -6,
                "ig1": 0,
                "vg2": 250,
                "ig2": 0,
                "ik": 0.06118361153262519
            }, {
                "va": 266.3101604278075,
                "vg1": -6,
                "ig1": 0,
                "vg2": 250,
                "ig2": 0,
                "ik": 0.06883156297420334
            }, {
                "va": 348.93048128342247,
                "vg1": -6,
                "ig1": 0,
                "vg2": 250,
                "ig2": 0,
                "ik": 0.0721092564491654
            }],
            "vg1": -6
        }, {
            "p": [{
                "va": 0,
                "vg1": -4,
                "ig1": 0,
                "vg2": 250,
                "ig2": 0,
                "ik": 0
            }, {
                "va": 5.347593582887701,
                "vg1": -4,
                "ig1": 0,
                "vg2": 250,
                "ig2": 0,
                "ik": 0.040698027314112296
            }, {
                "va": 25.668449197860962,
                "vg1": -4,
                "ig1": 0,
                "vg2": 250,
                "ig2": 0,
                "ik": 0.06992412746585737
            }, {
                "va": 88.50267379679144,
                "vg1": -4,
                "ig1": 0,
                "vg2": 250,
                "ig2": 0,
                "ik": 0.08631259484066768
            }, {
                "va": 225.40106951871655,
                "vg1": -4,
                "ig1": 0,
                "vg2": 250,
                "ig2": 0,
                "ik": 0.09450682852807285
            }, {
                "va": 348.39572192513367,
                "vg1": -4,
                "ig1": 0,
                "vg2": 250,
                "ig2": 0,
                "ik": 0.0977845220030349
            }],
            "vg1": -4
        }, {
            "p": [{
                "va": 0,
                "vg1": -2,
                "ig1": 0,
                "vg2": 250,
                "ig2": 0,
                "ik": 0
            }, {
                "va": 6.149732620320855,
                "vg1": -2,
                "ig1": 0,
                "vg2": 250,
                "ig2": 0,
                "ik": 0.046707132018209405
            }, {
                "va": 18.983957219251337,
                "vg1": -2,
                "ig1": 0,
                "vg2": 250,
                "ig2": 0,
                "ik": 0.08412746585735964
            }, {
                "va": 49.465240641711226,
                "vg1": -2,
                "ig1": 0,
                "vg2": 250,
                "ig2": 0,
                "ik": 0.1076176024279211
            }, {
                "va": 90.64171122994652,
                "vg1": -2,
                "ig1": 0,
                "vg2": 250,
                "ig2": 0,
                "ik": 0.11635811836115327
            }, {
                "va": 140.9090909090909,
                "vg1": -2,
                "ig1": 0,
                "vg2": 250,
                "ig2": 0,
                "ik": 0.12127465857359637
            }, {
                "va": 183.6898395721925,
                "vg1": -2,
                "ig1": 0,
                "vg2": 250,
                "ig2": 0,
                "ik": 0.12427921092564492
            }, {
                "va": 243.58288770053474,
                "vg1": -2,
                "ig1": 0,
                "vg2": 250,
                "ig2": 0,
                "ik": 0.12673748103186647
            }, {
                "va": 347.5935828877005,
                "vg1": -2,
                "ig1": 0,
                "vg2": 250,
                "ig2": 0,
                "ik": 0.13028831562974205
            }],
            "vg1": -2
        }, {
            "p": [{
                "va": 0,
                "vg1": 0,
                "ig1": 0,
                "vg2": 250,
                "ig2": 0,
                "ik": 0
            }, {
                "va": 5.347593582887701,
                "vg1": 0,
                "ig1": 0,
                "vg2": 250,
                "ig2": 0,
                "ik": 0.044795144157814874
            }, {
                "va": 22.727272727272727,
                "vg1": 0,
                "ig1": 0,
                "vg2": 250,
                "ig2": 0,
                "ik": 0.10707132018209409
            }, {
                "va": 62.56684491978609,
                "vg1": 0,
                "ig1": 0,
                "vg2": 250,
                "ig2": 0,
                "ik": 0.14012139605462823
            }, {
                "va": 108.02139037433155,
                "vg1": 0,
                "ig1": 0,
                "vg2": 250,
                "ig2": 0,
                "ik": 0.15022761760242792
            }, {
                "va": 152.94117647058823,
                "vg1": 0,
                "ig1": 0,
                "vg2": 250,
                "ig2": 0,
                "ik": 0.15487101669195752
            }, {
                "va": 347.8609625668449,
                "vg1": 0,
                "ig1": 0,
                "vg2": 250,
                "ig2": 0,
                "ik": 0.16634294385432474
            }],
            "vg1": 0
        }],
        "vg2": 250,
        "logX": false,
        "logY": false,
        "name": "EL84 Anode transfert chart G2=250V Pentode",
        "raw": false,
        "unit": null,
        "triode": false
    }
}
