{
    "filename": "el90-6aq5-vg2-250.json",
    "tubeGraph": {
        "c": [{
            "p": [{
                "va": 0,
                "vg1": -30,
                "ig1": 0,
                "vg2": 250,
                "ig2": 0,
                "ik": 0
            }, {
                "va": 2.57201646090535,
                "vg1": -30,
                "ig1": 0,
                "vg2": 250,
                "ig2": 0,
                "ik": 0.0028488372093023254
            }, {
                "va": 48.35390946502058,
                "vg1": -30,
                "ig1": 0,
                "vg2": 250,
                "ig2": 0,
                "ik": 0.002441860465116279
            }, {
                "va": 99.2798353909465,
                "vg1": -30,
                "ig1": 0,
                "vg2": 250,
                "ig2": 0,
                "ik": 0.0018313953488372093
            }, {
                "va": 200.10288065843622,
                "vg1": -30,
                "ig1": 0,
                "vg2": 250,
                "ig2": 0,
                "ik": 0.0036627906976744186
            }, {
                "va": 399.6913580246914,
                "vg1": -30,
                "ig1": 0,
                "vg2": 250,
                "ig2": 0,
                "ik": 0.003459302325581395
            }],
            "vg1": -30
        }, {
            "p": [{
                "va": 0,
                "vg1": -25,
                "ig1": 0,
                "vg2": 250,
                "ig2": 0,
                "ik": 0
            }, {
                "va": 3.60082304526749,
                "vg1": -25,
                "ig1": 0,
                "vg2": 250,
                "ig2": 0,
                "ik": 0.006104651162790697
            }, {
                "va": 48.86831275720165,
                "vg1": -25,
                "ig1": 0,
                "vg2": 250,
                "ig2": 0,
                "ik": 0.004680232558139535
            }, {
                "va": 97.7366255144033,
                "vg1": -25,
                "ig1": 0,
                "vg2": 250,
                "ig2": 0,
                "ik": 0.004476744186046512
            }, {
                "va": 148.66255144032922,
                "vg1": -25,
                "ig1": 0,
                "vg2": 250,
                "ig2": 0,
                "ik": 0.007325581395348837
            }, {
                "va": 273.66255144032925,
                "vg1": -25,
                "ig1": 0,
                "vg2": 250,
                "ig2": 0,
                "ik": 0.007936046511627907
            }, {
                "va": 398.66255144032925,
                "vg1": -25,
                "ig1": 0,
                "vg2": 250,
                "ig2": 0,
                "ik": 0.008546511627906976
            }],
            "vg1": -25
        }, {
            "p": [{
                "va": 0,
                "vg1": -22.5,
                "ig1": 0,
                "vg2": 250,
                "ig2": 0,
                "ik": 0
            }, {
                "va": 4.62962962962963,
                "vg1": -22.5,
                "ig1": 0,
                "vg2": 250,
                "ig2": 0,
                "ik": 0.00875
            }, {
                "va": 48.35390946502058,
                "vg1": -22.5,
                "ig1": 0,
                "vg2": 250,
                "ig2": 0,
                "ik": 0.007936046511627907
            }, {
                "va": 98.76543209876543,
                "vg1": -22.5,
                "ig1": 0,
                "vg2": 250,
                "ig2": 0,
                "ik": 0.00875
            }, {
                "va": 199.58847736625515,
                "vg1": -22.5,
                "ig1": 0,
                "vg2": 250,
                "ig2": 0,
                "ik": 0.013023255813953489
            }, {
                "va": 274.69135802469134,
                "vg1": -22.5,
                "ig1": 0,
                "vg2": 250,
                "ig2": 0,
                "ik": 0.013430232558139535
            }, {
                "va": 399.1769547325103,
                "vg1": -22.5,
                "ig1": 0,
                "vg2": 250,
                "ig2": 0,
                "ik": 0.013430232558139535
            }],
            "vg1": -22.5
        }, {
            "p": [{
                "va": 0,
                "vg1": -20,
                "ig1": 0,
                "vg2": 250,
                "ig2": 0,
                "ik": 0
            }, {
                "va": 7.71604938271605,
                "vg1": -20,
                "ig1": 0,
                "vg2": 250,
                "ig2": 0,
                "ik": 0.012819767441860464
            }, {
                "va": 49.89711934156379,
                "vg1": -20,
                "ig1": 0,
                "vg2": 250,
                "ig2": 0,
                "ik": 0.011395348837209301
            }, {
                "va": 99.79423868312757,
                "vg1": -20,
                "ig1": 0,
                "vg2": 250,
                "ig2": 0,
                "ik": 0.013226744186046512
            }, {
                "va": 148.66255144032922,
                "vg1": -20,
                "ig1": 0,
                "vg2": 250,
                "ig2": 0,
                "ik": 0.0175
            }, {
                "va": 199.58847736625515,
                "vg1": -20,
                "ig1": 0,
                "vg2": 250,
                "ig2": 0,
                "ik": 0.01892441860465116
            }, {
                "va": 299.38271604938274,
                "vg1": -20,
                "ig1": 0,
                "vg2": 250,
                "ig2": 0,
                "ik": 0.019941860465116278
            }, {
                "va": 398.14814814814815,
                "vg1": -20,
                "ig1": 0,
                "vg2": 250,
                "ig2": 0,
                "ik": 0.019941860465116278
            }],
            "vg1": -20
        }, {
            "p": [{
                "va": 0,
                "vg1": -17.5,
                "ig1": 0,
                "vg2": 250,
                "ig2": 0,
                "ik": 0
            }, {
                "va": 7.20164609053498,
                "vg1": -17.5,
                "ig1": 0,
                "vg2": 250,
                "ig2": 0,
                "ik": 0.017906976744186048
            }, {
                "va": 47.839506172839506,
                "vg1": -17.5,
                "ig1": 0,
                "vg2": 250,
                "ig2": 0,
                "ik": 0.017093023255813952
            }, {
                "va": 74.07407407407408,
                "vg1": -17.5,
                "ig1": 0,
                "vg2": 250,
                "ig2": 0,
                "ik": 0.01811046511627907
            }, {
                "va": 123.4567901234568,
                "vg1": -17.5,
                "ig1": 0,
                "vg2": 250,
                "ig2": 0,
                "ik": 0.022994186046511624
            }, {
                "va": 199.07407407407408,
                "vg1": -17.5,
                "ig1": 0,
                "vg2": 250,
                "ig2": 0,
                "ik": 0.026453488372093024
            }, {
                "va": 299.38271604938274,
                "vg1": -17.5,
                "ig1": 0,
                "vg2": 250,
                "ig2": 0,
                "ik": 0.027267441860465116
            }, {
                "va": 399.6913580246914,
                "vg1": -17.5,
                "ig1": 0,
                "vg2": 250,
                "ig2": 0,
                "ik": 0.027267441860465116
            }],
            "vg1": -17.5
        }, {
            "p": [{
                "va": 0,
                "vg1": -15,
                "ig1": 0,
                "vg2": 250,
                "ig2": 0,
                "ik": 0
            }, {
                "va": 7.20164609053498,
                "vg1": -15,
                "ig1": 0,
                "vg2": 250,
                "ig2": 0,
                "ik": 0.022790697674418603
            }, {
                "va": 47.839506172839506,
                "vg1": -15,
                "ig1": 0,
                "vg2": 250,
                "ig2": 0,
                "ik": 0.02380813953488372
            }, {
                "va": 73.559670781893,
                "vg1": -15,
                "ig1": 0,
                "vg2": 250,
                "ig2": 0,
                "ik": 0.026046511627906978
            }, {
                "va": 125,
                "vg1": -15,
                "ig1": 0,
                "vg2": 250,
                "ig2": 0,
                "ik": 0.030319767441860462
            }, {
                "va": 199.07407407407408,
                "vg1": -15,
                "ig1": 0,
                "vg2": 250,
                "ig2": 0,
                "ik": 0.03438953488372093
            }, {
                "va": 300.4115226337449,
                "vg1": -15,
                "ig1": 0,
                "vg2": 250,
                "ig2": 0,
                "ik": 0.035813953488372095
            }, {
                "va": 398.66255144032925,
                "vg1": -15,
                "ig1": 0,
                "vg2": 250,
                "ig2": 0,
                "ik": 0.036424418604651156
            }],
            "vg1": -15
        }, {
            "p": [{
                "va": 0,
                "vg1": -12.5,
                "ig1": 0,
                "vg2": 250,
                "ig2": 0,
                "ik": 0
            }, {
                "va": 6.68724279835391,
                "vg1": -12.5,
                "ig1": 0,
                "vg2": 250,
                "ig2": 0,
                "ik": 0.02625
            }, {
                "va": 25.720164609053498,
                "vg1": -12.5,
                "ig1": 0,
                "vg2": 250,
                "ig2": 0,
                "ik": 0.031133720930232558
            }, {
                "va": 49.382716049382715,
                "vg1": -12.5,
                "ig1": 0,
                "vg2": 250,
                "ig2": 0,
                "ik": 0.03174418604651163
            }, {
                "va": 98.76543209876543,
                "vg1": -12.5,
                "ig1": 0,
                "vg2": 250,
                "ig2": 0,
                "ik": 0.03825581395348837
            }, {
                "va": 149.1769547325103,
                "vg1": -12.5,
                "ig1": 0,
                "vg2": 250,
                "ig2": 0,
                "ik": 0.04130813953488372
            }, {
                "va": 199.58847736625515,
                "vg1": -12.5,
                "ig1": 0,
                "vg2": 250,
                "ig2": 0,
                "ik": 0.042936046511627905
            }, {
                "va": 299.38271604938274,
                "vg1": -12.5,
                "ig1": 0,
                "vg2": 250,
                "ig2": 0,
                "ik": 0.045174418604651156
            }, {
                "va": 398.66255144032925,
                "vg1": -12.5,
                "ig1": 0,
                "vg2": 250,
                "ig2": 0,
                "ik": 0.045581395348837206
            }],
            "vg1": -12.5
        }, {
            "p": [{
                "va": 0,
                "vg1": -10,
                "ig1": 0,
                "vg2": 250,
                "ig2": 0,
                "ik": 0
            }, {
                "va": 9.77366255144033,
                "vg1": -10,
                "ig1": 0,
                "vg2": 250,
                "ig2": 0,
                "ik": 0.03215116279069768
            }, {
                "va": 32.92181069958848,
                "vg1": -10,
                "ig1": 0,
                "vg2": 250,
                "ig2": 0,
                "ik": 0.040290697674418605
            }, {
                "va": 55.041152263374485,
                "vg1": -10,
                "ig1": 0,
                "vg2": 250,
                "ig2": 0,
                "ik": 0.042936046511627905
            }, {
                "va": 99.2798353909465,
                "vg1": -10,
                "ig1": 0,
                "vg2": 250,
                "ig2": 0,
                "ik": 0.04822674418604651
            }, {
                "va": 148.66255144032922,
                "vg1": -10,
                "ig1": 0,
                "vg2": 250,
                "ig2": 0,
                "ik": 0.051686046511627906
            }, {
                "va": 200.10288065843622,
                "vg1": -10,
                "ig1": 0,
                "vg2": 250,
                "ig2": 0,
                "ik": 0.05453488372093023
            }, {
                "va": 244.8559670781893,
                "vg1": -10,
                "ig1": 0,
                "vg2": 250,
                "ig2": 0,
                "ik": 0.05575581395348837
            }, {
                "va": 299.8971193415638,
                "vg1": -10,
                "ig1": 0,
                "vg2": 250,
                "ig2": 0,
                "ik": 0.05677325581395348
            }, {
                "va": 398.14814814814815,
                "vg1": -10,
                "ig1": 0,
                "vg2": 250,
                "ig2": 0,
                "ik": 0.05738372093023256
            }],
            "vg1": -10
        }, {
            "p": [{
                "va": 0,
                "vg1": -7.5,
                "ig1": 0,
                "vg2": 250,
                "ig2": 0,
                "ik": 0
            }, {
                "va": 9.25925925925926,
                "vg1": -7.5,
                "ig1": 0,
                "vg2": 250,
                "ig2": 0,
                "ik": 0.035610465116279064
            }, {
                "va": 26.23456790123457,
                "vg1": -7.5,
                "ig1": 0,
                "vg2": 250,
                "ig2": 0,
                "ik": 0.0498546511627907
            }, {
                "va": 49.382716049382715,
                "vg1": -7.5,
                "ig1": 0,
                "vg2": 250,
                "ig2": 0,
                "ik": 0.05433139534883721
            }, {
                "va": 75.10288065843622,
                "vg1": -7.5,
                "ig1": 0,
                "vg2": 250,
                "ig2": 0,
                "ik": 0.056569767441860465
            }, {
                "va": 123.97119341563787,
                "vg1": -7.5,
                "ig1": 0,
                "vg2": 250,
                "ig2": 0,
                "ik": 0.062267441860465116
            }, {
                "va": 174.89711934156378,
                "vg1": -7.5,
                "ig1": 0,
                "vg2": 250,
                "ig2": 0,
                "ik": 0.06552325581395348
            }, {
                "va": 244.8559670781893,
                "vg1": -7.5,
                "ig1": 0,
                "vg2": 250,
                "ig2": 0,
                "ik": 0.06776162790697673
            }, {
                "va": 305.0411522633745,
                "vg1": -7.5,
                "ig1": 0,
                "vg2": 250,
                "ig2": 0,
                "ik": 0.06837209302325581
            }, {
                "va": 397.119341563786,
                "vg1": -7.5,
                "ig1": 0,
                "vg2": 250,
                "ig2": 0,
                "ik": 0.06938953488372093
            }],
            "vg1": -7.5
        }, {
            "p": [{
                "va": 0,
                "vg1": -5,
                "ig1": 0,
                "vg2": 250,
                "ig2": 0,
                "ik": 0
            }, {
                "va": 12.345679012345679,
                "vg1": -5,
                "ig1": 0,
                "vg2": 250,
                "ig2": 0,
                "ik": 0.04843023255813953
            }, {
                "va": 27.26337448559671,
                "vg1": -5,
                "ig1": 0,
                "vg2": 250,
                "ig2": 0,
                "ik": 0.06369186046511628
            }, {
                "va": 48.35390946502058,
                "vg1": -5,
                "ig1": 0,
                "vg2": 250,
                "ig2": 0,
                "ik": 0.06816860465116278
            }, {
                "va": 74.58847736625515,
                "vg1": -5,
                "ig1": 0,
                "vg2": 250,
                "ig2": 0,
                "ik": 0.07081395348837209
            }, {
                "va": 123.97119341563787,
                "vg1": -5,
                "ig1": 0,
                "vg2": 250,
                "ig2": 0,
                "ik": 0.07610465116279069
            }, {
                "va": 173.86831275720166,
                "vg1": -5,
                "ig1": 0,
                "vg2": 250,
                "ig2": 0,
                "ik": 0.07915697674418604
            }, {
                "va": 249.48559670781893,
                "vg1": -5,
                "ig1": 0,
                "vg2": 250,
                "ig2": 0,
                "ik": 0.08159883720930232
            }, {
                "va": 398.66255144032925,
                "vg1": -5,
                "ig1": 0,
                "vg2": 250,
                "ig2": 0,
                "ik": 0.08343023255813954
            }],
            "vg1": -5
        }, {
            "p": [{
                "va": 0,
                "vg1": -2.5,
                "ig1": 0,
                "vg2": 250,
                "ig2": 0,
                "ik": 0
            }, {
                "va": 18.51851851851852,
                "vg1": -2.5,
                "ig1": 0,
                "vg2": 250,
                "ig2": 0,
                "ik": 0.06776162790697673
            }, {
                "va": 42.181069958847736,
                "vg1": -2.5,
                "ig1": 0,
                "vg2": 250,
                "ig2": 0,
                "ik": 0.0824127906976744
            }, {
                "va": 73.559670781893,
                "vg1": -2.5,
                "ig1": 0,
                "vg2": 250,
                "ig2": 0,
                "ik": 0.08526162790697674
            }, {
                "va": 123.97119341563787,
                "vg1": -2.5,
                "ig1": 0,
                "vg2": 250,
                "ig2": 0,
                "ik": 0.08994186046511628
            }, {
                "va": 199.58847736625515,
                "vg1": -2.5,
                "ig1": 0,
                "vg2": 250,
                "ig2": 0,
                "ik": 0.09421511627906975
            }, {
                "va": 294.7530864197531,
                "vg1": -2.5,
                "ig1": 0,
                "vg2": 250,
                "ig2": 0,
                "ik": 0.09726744186046511
            }, {
                "va": 399.6913580246914,
                "vg1": -2.5,
                "ig1": 0,
                "vg2": 250,
                "ig2": 0,
                "ik": 0.09930232558139533
            }],
            "vg1": -2.5
        }, {
            "p": [{
                "va": 0,
                "vg1": 0,
                "ig1": 0,
                "vg2": 250,
                "ig2": 0,
                "ik": 0
            }, {
                "va": 23.14814814814815,
                "vg1": 0,
                "ig1": 0,
                "vg2": 250,
                "ig2": 0,
                "ik": 0.08424418604651163
            }, {
                "va": 37.03703703703704,
                "vg1": 0,
                "ig1": 0,
                "vg2": 250,
                "ig2": 0,
                "ik": 0.0954360465116279
            }, {
                "va": 67.38683127572017,
                "vg1": 0,
                "ig1": 0,
                "vg2": 250,
                "ig2": 0,
                "ik": 0.09930232558139533
            }, {
                "va": 100.30864197530865,
                "vg1": 0,
                "ig1": 0,
                "vg2": 250,
                "ig2": 0,
                "ik": 0.10276162790697674
            }, {
                "va": 149.69135802469137,
                "vg1": 0,
                "ig1": 0,
                "vg2": 250,
                "ig2": 0,
                "ik": 0.1076453488372093
            }, {
                "va": 224.7942386831276,
                "vg1": 0,
                "ig1": 0,
                "vg2": 250,
                "ig2": 0,
                "ik": 0.11049418604651161
            }, {
                "va": 399.1769547325103,
                "vg1": 0,
                "ig1": 0,
                "vg2": 250,
                "ig2": 0,
                "ik": 0.11354651162790697
            }],
            "vg1": 0
        }],
        "vg2": 250,
        "logX": false,
        "logY": false,
        "name": "el90-6aq5-vg2-250",
        "raw": false,
        "unit": null,
        "triode": false
    }
}
