{
    "filename": "g2 100 v.json",
    "tubeGraph": {
        "c": [{
            "p": [{
                "va": 0,
                "vg1": -12,
                "ig1": 0,
                "vg2": 100,
                "ig2": 0,
                "ik": 0
            }, {
                "va": 6.4393939393939394,
                "vg1": -12,
                "ig1": 0,
                "vg2": 100,
                "ig2": 0,
                "ik": 0.02790346907993967
            }, {
                "va": 47.348484848484844,
                "vg1": -12,
                "ig1": 0,
                "vg2": 100,
                "ig2": 0,
                "ik": 0.02564102564102564
            }, {
                "va": 153.78787878787878,
                "vg1": -12,
                "ig1": 0,
                "vg2": 100,
                "ig2": 0,
                "ik": 0.033936651583710405
            }, {
                "va": 297.7272727272727,
                "vg1": -12,
                "ig1": 0,
                "vg2": 100,
                "ig2": 0,
                "ik": 0.030920060331825035
            }],
            "vg1": -12
        }, {
            "p": [{
                "va": 0,
                "vg1": -10,
                "ig1": 0,
                "vg2": 100,
                "ig2": 0,
                "ik": 0
            }, {
                "va": 1.8939393939393938,
                "vg1": -10,
                "ig1": 0,
                "vg2": 100,
                "ig2": 0,
                "ik": 0.03695324283559577
            }, {
                "va": 12.121212121212121,
                "vg1": -10,
                "ig1": 0,
                "vg2": 100,
                "ig2": 0,
                "ik": 0.05052790346907994
            }, {
                "va": 35.22727272727273,
                "vg1": -10,
                "ig1": 0,
                "vg2": 100,
                "ig2": 0,
                "ik": 0.04600301659125189
            }, {
                "va": 99.24242424242424,
                "vg1": -10,
                "ig1": 0,
                "vg2": 100,
                "ig2": 0,
                "ik": 0.058823529411764705
            }, {
                "va": 298.8636363636364,
                "vg1": -10,
                "ig1": 0,
                "vg2": 100,
                "ig2": 0,
                "ik": 0.07390648567119154
            }],
            "vg1": -10
        }, {
            "p": [{
                "va": 0,
                "vg1": -8,
                "ig1": 0,
                "vg2": 100,
                "ig2": 0,
                "ik": 0
            }, {
                "va": 3.7878787878787876,
                "vg1": -8,
                "ig1": 0,
                "vg2": 100,
                "ig2": 0,
                "ik": 0.06787330316742081
            }, {
                "va": 13.257575757575758,
                "vg1": -8,
                "ig1": 0,
                "vg2": 100,
                "ig2": 0,
                "ik": 0.08823529411764706
            }, {
                "va": 42.04545454545455,
                "vg1": -8,
                "ig1": 0,
                "vg2": 100,
                "ig2": 0,
                "ik": 0.09200603318250378
            }, {
                "va": 113.63636363636363,
                "vg1": -8,
                "ig1": 0,
                "vg2": 100,
                "ig2": 0,
                "ik": 0.11085972850678733
            }, {
                "va": 296.59090909090907,
                "vg1": -8,
                "ig1": 0,
                "vg2": 100,
                "ig2": 0,
                "ik": 0.1282051282051282
            }],
            "vg1": -8
        }, {
            "p": [{
                "va": 0,
                "vg1": -6,
                "ig1": 0,
                "vg2": 100,
                "ig2": 0,
                "ik": 0
            }, {
                "va": 7.575757575757575,
                "vg1": -6,
                "ig1": 0,
                "vg2": 100,
                "ig2": 0,
                "ik": 0.11840120663650075
            }, {
                "va": 10.606060606060606,
                "vg1": -6,
                "ig1": 0,
                "vg2": 100,
                "ig2": 0,
                "ik": 0.1372549019607843
            }, {
                "va": 33.71212121212121,
                "vg1": -6,
                "ig1": 0,
                "vg2": 100,
                "ig2": 0,
                "ik": 0.15082956259426847
            }, {
                "va": 52.65151515151515,
                "vg1": -6,
                "ig1": 0,
                "vg2": 100,
                "ig2": 0,
                "ik": 0.15610859728506787
            }, {
                "va": 128.03030303030303,
                "vg1": -6,
                "ig1": 0,
                "vg2": 100,
                "ig2": 0,
                "ik": 0.1832579185520362
            }, {
                "va": 297.7272727272727,
                "vg1": -6,
                "ig1": 0,
                "vg2": 100,
                "ig2": 0,
                "ik": 0.1975867269984917
            }],
            "vg1": -6
        }, {
            "p": [{
                "va": 0,
                "vg1": -4,
                "ig1": 0,
                "vg2": 100,
                "ig2": 0,
                "ik": 0
            }, {
                "va": 13.257575757575758,
                "vg1": -4,
                "ig1": 0,
                "vg2": 100,
                "ig2": 0,
                "ik": 0.1606334841628959
            }, {
                "va": 19.696969696969695,
                "vg1": -4,
                "ig1": 0,
                "vg2": 100,
                "ig2": 0,
                "ik": 0.20889894419306182
            }, {
                "va": 36.36363636363636,
                "vg1": -4,
                "ig1": 0,
                "vg2": 100,
                "ig2": 0,
                "ik": 0.2315233785822021
            }, {
                "va": 132.57575757575756,
                "vg1": -4,
                "ig1": 0,
                "vg2": 100,
                "ig2": 0,
                "ik": 0.2669683257918552
            }, {
                "va": 298.4848484848485,
                "vg1": -4,
                "ig1": 0,
                "vg2": 100,
                "ig2": 0,
                "ik": 0.2971342383107089
            }],
            "vg1": -4
        }, {
            "p": [{
                "va": 0,
                "vg1": -2,
                "ig1": 0,
                "vg2": 100,
                "ig2": 0,
                "ik": 0
            }, {
                "va": 20.075757575757574,
                "vg1": -2,
                "ig1": 0,
                "vg2": 100,
                "ig2": 0,
                "ik": 0.19155354449472098
            }, {
                "va": 32.196969696969695,
                "vg1": -2,
                "ig1": 0,
                "vg2": 100,
                "ig2": 0,
                "ik": 0.3205128205128205
            }, {
                "va": 60.984848484848484,
                "vg1": -2,
                "ig1": 0,
                "vg2": 100,
                "ig2": 0,
                "ik": 0.33408748114630465
            }, {
                "va": 147.72727272727272,
                "vg1": -2,
                "ig1": 0,
                "vg2": 100,
                "ig2": 0,
                "ik": 0.3627450980392157
            }, {
                "va": 297.3484848484848,
                "vg1": -2,
                "ig1": 0,
                "vg2": 100,
                "ig2": 0,
                "ik": 0.3936651583710407
            }],
            "vg1": -2
        }, {
            "p": [{
                "va": 0,
                "vg1": 0,
                "ig1": 0,
                "vg2": 100,
                "ig2": 0,
                "ik": 0
            }, {
                "va": 37.878787878787875,
                "vg1": 0,
                "ig1": 0,
                "vg2": 100,
                "ig2": 0,
                "ik": 0.3024132730015083
            }, {
                "va": 42.04545454545455,
                "vg1": 0,
                "ig1": 0,
                "vg2": 100,
                "ig2": 0,
                "ik": 0.447209653092006
            }, {
                "va": 61.74242424242424,
                "vg1": 0,
                "ig1": 0,
                "vg2": 100,
                "ig2": 0,
                "ik": 0.4562594268476621
            }, {
                "va": 121.2121212121212,
                "vg1": 0,
                "ig1": 0,
                "vg2": 100,
                "ig2": 0,
                "ik": 0.4720965309200603
            }, {
                "va": 198.1060606060606,
                "vg1": 0,
                "ig1": 0,
                "vg2": 100,
                "ig2": 0,
                "ik": 0.497737556561086
            }],
            "vg1": 0
        }],
        "vg2": 100,
        "logX": false,
        "logY": false,
        "name": "g2 100 V",
        "raw": false,
        "unit": null,
        "triode": false
    }
}
