{
    "filename": "g2 125v.json",
    "tubeGraph": {
        "c": [{
            "p": [{
                "va": 0,
                "vg1": -30,
                "ig1": 0,
                "vg2": 125,
                "ig2": 0,
                "ik": 0
            }, {
                "va": 18.93238434163701,
                "vg1": -30,
                "ig1": 0,
                "vg2": 125,
                "ig2": 0,
                "ik": 0.004331683168316831
            }, {
                "va": 149.96441281138792,
                "vg1": -30,
                "ig1": 0,
                "vg2": 125,
                "ig2": 0,
                "ik": 0.0061881188118811875
            }, {
                "va": 498.220640569395,
                "vg1": -30,
                "ig1": 0,
                "vg2": 125,
                "ig2": 0,
                "ik": 0.012376237623762375
            }],
            "vg1": -30
        }, {
            "p": [{
                "va": 0,
                "vg1": -27.5,
                "ig1": 0,
                "vg2": 125,
                "ig2": 0,
                "ik": 0
            }, {
                "va": 9.9644128113879,
                "vg1": -27.5,
                "ig1": 0,
                "vg2": 125,
                "ig2": 0,
                "ik": 0.008044554455445545
            }, {
                "va": 98.14946619217082,
                "vg1": -27.5,
                "ig1": 0,
                "vg2": 125,
                "ig2": 0,
                "ik": 0.009282178217821782
            }, {
                "va": 187.82918149466192,
                "vg1": -27.5,
                "ig1": 0,
                "vg2": 125,
                "ig2": 0,
                "ik": 0.01608910891089109
            }, {
                "va": 494.7330960854093,
                "vg1": -27.5,
                "ig1": 0,
                "vg2": 125,
                "ig2": 0,
                "ik": 0.02413366336633663
            }],
            "vg1": -27.5
        }, {
            "p": [{
                "va": 0,
                "vg1": -25,
                "ig1": 0,
                "vg2": 125,
                "ig2": 0,
                "ik": 0
            }, {
                "va": 4.483985765124555,
                "vg1": -25,
                "ig1": 0,
                "vg2": 125,
                "ig2": 0,
                "ik": 0.008663366336633662
            }, {
                "va": 21.423487544483987,
                "vg1": -25,
                "ig1": 0,
                "vg2": 125,
                "ig2": 0,
                "ik": 0.013613861386138612
            }, {
                "va": 67.25978647686833,
                "vg1": -25,
                "ig1": 0,
                "vg2": 125,
                "ig2": 0,
                "ik": 0.01485148514851485
            }, {
                "va": 144.48398576512454,
                "vg1": -25,
                "ig1": 0,
                "vg2": 125,
                "ig2": 0,
                "ik": 0.022896039603960392
            }, {
                "va": 489.7508896797153,
                "vg1": -25,
                "ig1": 0,
                "vg2": 125,
                "ig2": 0,
                "ik": 0.03712871287128713
            }],
            "vg1": -25
        }, {
            "p": [{
                "va": 0,
                "vg1": -22.5,
                "ig1": 0,
                "vg2": 125,
                "ig2": 0,
                "ik": 0
            }, {
                "va": 7.97153024911032,
                "vg1": -22.5,
                "ig1": 0,
                "vg2": 125,
                "ig2": 0,
                "ik": 0.017945544554455444
            }, {
                "va": 46.33451957295374,
                "vg1": -22.5,
                "ig1": 0,
                "vg2": 125,
                "ig2": 0,
                "ik": 0.022896039603960392
            }, {
                "va": 115.08896797153025,
                "vg1": -22.5,
                "ig1": 0,
                "vg2": 125,
                "ig2": 0,
                "ik": 0.03403465346534653
            }, {
                "va": 188.32740213523132,
                "vg1": -22.5,
                "ig1": 0,
                "vg2": 125,
                "ig2": 0,
                "ik": 0.041460396039603956
            }, {
                "va": 486.2633451957295,
                "vg1": -22.5,
                "ig1": 0,
                "vg2": 125,
                "ig2": 0,
                "ik": 0.053836633663366336
            }],
            "vg1": -22.5
        }, {
            "p": [{
                "va": 0,
                "vg1": -20,
                "ig1": 0,
                "vg2": 125,
                "ig2": 0,
                "ik": 0
            }, {
                "va": 5.480427046263345,
                "vg1": -20,
                "ig1": 0,
                "vg2": 125,
                "ig2": 0,
                "ik": 0.021658415841584157
            }, {
                "va": 22.419928825622776,
                "vg1": -20,
                "ig1": 0,
                "vg2": 125,
                "ig2": 0,
                "ik": 0.03403465346534653
            }, {
                "va": 56.29893238434164,
                "vg1": -20,
                "ig1": 0,
                "vg2": 125,
                "ig2": 0,
                "ik": 0.03712871287128713
            }, {
                "va": 130.53380782918148,
                "vg1": -20,
                "ig1": 0,
                "vg2": 125,
                "ig2": 0,
                "ik": 0.0525990099009901
            }, {
                "va": 482.2775800711744,
                "vg1": -20,
                "ig1": 0,
                "vg2": 125,
                "ig2": 0,
                "ik": 0.07611386138613861
            }],
            "vg1": -20
        }, {
            "p": [{
                "va": 0,
                "vg1": -17.5,
                "ig1": 0,
                "vg2": 125,
                "ig2": 0,
                "ik": 0
            }, {
                "va": 8.469750889679716,
                "vg1": -17.5,
                "ig1": 0,
                "vg2": 125,
                "ig2": 0,
                "ik": 0.03341584158415842
            }, {
                "va": 24.412811387900355,
                "vg1": -17.5,
                "ig1": 0,
                "vg2": 125,
                "ig2": 0,
                "ik": 0.05074257425742574
            }, {
                "va": 63.77224199288256,
                "vg1": -17.5,
                "ig1": 0,
                "vg2": 125,
                "ig2": 0,
                "ik": 0.05754950495049505
            }, {
                "va": 138.00711743772243,
                "vg1": -17.5,
                "ig1": 0,
                "vg2": 125,
                "ig2": 0,
                "ik": 0.07735148514851484
            }, {
                "va": 477.79359430604984,
                "vg1": -17.5,
                "ig1": 0,
                "vg2": 125,
                "ig2": 0,
                "ik": 0.10952970297029703
            }],
            "vg1": -17.5
        }, {
            "p": [{
                "va": 0,
                "vg1": -15,
                "ig1": 0,
                "vg2": 125,
                "ig2": 0,
                "ik": 0
            }, {
                "va": 9.466192170818506,
                "vg1": -15,
                "ig1": 0,
                "vg2": 125,
                "ig2": 0,
                "ik": 0.043316831683168314
            }, {
                "va": 28.398576512455517,
                "vg1": -15,
                "ig1": 0,
                "vg2": 125,
                "ig2": 0,
                "ik": 0.06992574257425743
            }, {
                "va": 84.69750889679716,
                "vg1": -15,
                "ig1": 0,
                "vg2": 125,
                "ig2": 0,
                "ik": 0.09282178217821782
            }, {
                "va": 169.39501779359432,
                "vg1": -15,
                "ig1": 0,
                "vg2": 125,
                "ig2": 0,
                "ik": 0.11014851485148515
            }, {
                "va": 470.3202846975089,
                "vg1": -15,
                "ig1": 0,
                "vg2": 125,
                "ig2": 0,
                "ik": 0.1478960396039604
            }],
            "vg1": -15
        }, {
            "p": [{
                "va": 0,
                "vg1": -12.5,
                "ig1": 0,
                "vg2": 125,
                "ig2": 0,
                "ik": 0
            }, {
                "va": 11.459074733096086,
                "vg1": -12.5,
                "ig1": 0,
                "vg2": 125,
                "ig2": 0,
                "ik": 0.05569306930693069
            }, {
                "va": 22.419928825622776,
                "vg1": -12.5,
                "ig1": 0,
                "vg2": 125,
                "ig2": 0,
                "ik": 0.09282178217821782
            }, {
                "va": 142.49110320284697,
                "vg1": -12.5,
                "ig1": 0,
                "vg2": 125,
                "ig2": 0,
                "ik": 0.14047029702970296
            }, {
                "va": 463.84341637010675,
                "vg1": -12.5,
                "ig1": 0,
                "vg2": 125,
                "ig2": 0,
                "ik": 0.18440594059405938
            }],
            "vg1": -12.5
        }, {
            "p": [{
                "va": 0,
                "vg1": -10,
                "ig1": 0,
                "vg2": 125,
                "ig2": 0,
                "ik": 0
            }, {
                "va": 15.444839857651246,
                "vg1": -10,
                "ig1": 0,
                "vg2": 125,
                "ig2": 0,
                "ik": 0.08477722772277227
            }, {
                "va": 23.416370106761565,
                "vg1": -10,
                "ig1": 0,
                "vg2": 125,
                "ig2": 0,
                "ik": 0.12252475247524751
            }, {
                "va": 108.61209964412812,
                "vg1": -10,
                "ig1": 0,
                "vg2": 125,
                "ig2": 0,
                "ik": 0.16831683168316833
            }, {
                "va": 458.8612099644128,
                "vg1": -10,
                "ig1": 0,
                "vg2": 125,
                "ig2": 0,
                "ik": 0.22586633663366337
            }],
            "vg1": -10
        }, {
            "p": [{
                "va": 0,
                "vg1": -7.5,
                "ig1": 0,
                "vg2": 125,
                "ig2": 0,
                "ik": 0
            }, {
                "va": 19.9288256227758,
                "vg1": -7.5,
                "ig1": 0,
                "vg2": 125,
                "ig2": 0,
                "ik": 0.11943069306930693
            }, {
                "va": 26.405693950177938,
                "vg1": -7.5,
                "ig1": 0,
                "vg2": 125,
                "ig2": 0,
                "ik": 0.1553217821782178
            }, {
                "va": 66.76156583629893,
                "vg1": -7.5,
                "ig1": 0,
                "vg2": 125,
                "ig2": 0,
                "ik": 0.19121287128712872
            }, {
                "va": 162.41992882562278,
                "vg1": -7.5,
                "ig1": 0,
                "vg2": 125,
                "ig2": 0,
                "ik": 0.22462871287128713
            }, {
                "va": 443.4163701067616,
                "vg1": -7.5,
                "ig1": 0,
                "vg2": 125,
                "ig2": 0,
                "ik": 0.2728960396039604
            }],
            "vg1": -7.5
        }, {
            "p": [{
                "va": 0,
                "vg1": -5,
                "ig1": 0,
                "vg2": 125,
                "ig2": 0,
                "ik": 0
            }, {
                "va": 27.90035587188612,
                "vg1": -5,
                "ig1": 0,
                "vg2": 125,
                "ig2": 0,
                "ik": 0.17636138613861385
            }, {
                "va": 35.37366548042705,
                "vg1": -5,
                "ig1": 0,
                "vg2": 125,
                "ig2": 0,
                "ik": 0.21349009900990099
            }, {
                "va": 47.829181494661924,
                "vg1": -5,
                "ig1": 0,
                "vg2": 125,
                "ig2": 0,
                "ik": 0.23143564356435642
            }, {
                "va": 124.55516014234875,
                "vg1": -5,
                "ig1": 0,
                "vg2": 125,
                "ig2": 0,
                "ik": 0.2599009900990099
            }, {
                "va": 438.93238434163703,
                "vg1": -5,
                "ig1": 0,
                "vg2": 125,
                "ig2": 0,
                "ik": 0.32116336633663367
            }],
            "vg1": -5
        }, {
            "p": [{
                "va": 0,
                "vg1": -2.5,
                "ig1": 0,
                "vg2": 125,
                "ig2": 0,
                "ik": 0
            }, {
                "va": 34.87544483985765,
                "vg1": -2.5,
                "ig1": 0,
                "vg2": 125,
                "ig2": 0,
                "ik": 0.23205445544554454
            }, {
                "va": 42.34875444839858,
                "vg1": -2.5,
                "ig1": 0,
                "vg2": 125,
                "ig2": 0,
                "ik": 0.2679455445544554
            }, {
                "va": 132.52669039145908,
                "vg1": -2.5,
                "ig1": 0,
                "vg2": 125,
                "ig2": 0,
                "ik": 0.31126237623762376
            }, {
                "va": 428.9679715302491,
                "vg1": -2.5,
                "ig1": 0,
                "vg2": 125,
                "ig2": 0,
                "ik": 0.3712871287128713
            }],
            "vg1": -2.5
        }, {
            "p": [{
                "va": 0,
                "vg1": 0,
                "ig1": 0,
                "vg2": 125,
                "ig2": 0,
                "ik": 0
            }, {
                "va": 29.395017793594306,
                "vg1": 0,
                "ig1": 0,
                "vg2": 125,
                "ig2": 0,
                "ik": 0.1813118811881188
            }, {
                "va": 45.836298932384345,
                "vg1": 0,
                "ig1": 0,
                "vg2": 125,
                "ig2": 0,
                "ik": 0.3056930693069307
            }, {
                "va": 64.76868327402136,
                "vg1": 0,
                "ig1": 0,
                "vg2": 125,
                "ig2": 0,
                "ik": 0.3360148514851485
            }, {
                "va": 139.5017793594306,
                "vg1": 0,
                "ig1": 0,
                "vg2": 125,
                "ig2": 0,
                "ik": 0.36448019801980197
            }, {
                "va": 418.0071174377224,
                "vg1": 0,
                "ig1": 0,
                "vg2": 125,
                "ig2": 0,
                "ik": 0.4300742574257425
            }],
            "vg1": 0
        }],
        "vg2": 125,
        "logX": false,
        "logY": false,
        "name": "G2 125v",
        "raw": false,
        "unit": null,
        "triode": false
    }
}
