{
    "filename": "g2 350.json",
    "tubeGraph": {
        "c": [{
            "p": [{
                "va": 0,
                "vg1": -24,
                "ig1": 0,
                "vg2": 350,
                "ig2": 0,
                "ik": 0
            }, {
                "va": 31.380753138075317,
                "vg1": -24,
                "ig1": 0,
                "vg2": 350,
                "ig2": 0,
                "ik": 0.015973072215422275
            }, {
                "va": 177.82426778242677,
                "vg1": -24,
                "ig1": 0,
                "vg2": 350,
                "ig2": 0,
                "ik": 0.0302937576499388
            }, {
                "va": 355.64853556485355,
                "vg1": -24,
                "ig1": 0,
                "vg2": 350,
                "ig2": 0,
                "ik": 0.0324969400244798
            }, {
                "va": 538.7029288702929,
                "vg1": -24,
                "ig1": 0,
                "vg2": 350,
                "ig2": 0,
                "ik": 0.040758873929008566
            }, {
                "va": 797.071129707113,
                "vg1": -24,
                "ig1": 0,
                "vg2": 350,
                "ig2": 0,
                "ik": 0.040758873929008566
            }],
            "vg1": -24
        }, {
            "p": [{
                "va": 0,
                "vg1": -20,
                "ig1": 0,
                "vg2": 350,
                "ig2": 0,
                "ik": 0
            }, {
                "va": 31.380753138075317,
                "vg1": -20,
                "ig1": 0,
                "vg2": 350,
                "ig2": 0,
                "ik": 0.03745410036719706
            }, {
                "va": 72.17573221757323,
                "vg1": -20,
                "ig1": 0,
                "vg2": 350,
                "ig2": 0,
                "ik": 0.05232558139534883
            }, {
                "va": 285.5648535564854,
                "vg1": -20,
                "ig1": 0,
                "vg2": 350,
                "ig2": 0,
                "ik": 0.06995104039167686
            }, {
                "va": 484.30962343096235,
                "vg1": -20,
                "ig1": 0,
                "vg2": 350,
                "ig2": 0,
                "ik": 0.08482252141982864
            }, {
                "va": 786.6108786610879,
                "vg1": -20,
                "ig1": 0,
                "vg2": 350,
                "ig2": 0,
                "ik": 0.08372093023255814
            }],
            "vg1": -20
        }, {
            "p": [{
                "va": 0,
                "vg1": -16,
                "ig1": 0,
                "vg2": 350,
                "ig2": 0,
                "ik": 0
            }, {
                "va": 47.07112970711297,
                "vg1": -16,
                "ig1": 0,
                "vg2": 350,
                "ig2": 0,
                "ik": 0.06719706242350061
            }, {
                "va": 98.32635983263599,
                "vg1": -16,
                "ig1": 0,
                "vg2": 350,
                "ig2": 0,
                "ik": 0.09363525091799264
            }, {
                "va": 225.94142259414227,
                "vg1": -16,
                "ig1": 0,
                "vg2": 350,
                "ig2": 0,
                "ik": 0.11346389228886168
            }, {
                "va": 362.97071129707115,
                "vg1": -16,
                "ig1": 0,
                "vg2": 350,
                "ig2": 0,
                "ik": 0.12943696450428396
            }, {
                "va": 614.0167364016737,
                "vg1": -16,
                "ig1": 0,
                "vg2": 350,
                "ig2": 0,
                "ik": 0.14100367197062422
            }],
            "vg1": -16
        }, {
            "p": [{
                "va": 0,
                "vg1": -12,
                "ig1": 0,
                "vg2": 350,
                "ig2": 0,
                "ik": 0
            }, {
                "va": 40.79497907949791,
                "vg1": -12,
                "ig1": 0,
                "vg2": 350,
                "ig2": 0,
                "ik": 0.11676866585067319
            }, {
                "va": 59.6234309623431,
                "vg1": -12,
                "ig1": 0,
                "vg2": 350,
                "ig2": 0,
                "ik": 0.14265605875153
            }, {
                "va": 157.9497907949791,
                "vg1": -12,
                "ig1": 0,
                "vg2": 350,
                "ig2": 0,
                "ik": 0.16854345165238677
            }, {
                "va": 518.8284518828452,
                "vg1": -12,
                "ig1": 0,
                "vg2": 350,
                "ig2": 0,
                "ik": 0.19993880048959609
            }],
            "vg1": -12
        }, {
            "p": [{
                "va": 0,
                "vg1": -8,
                "ig1": 0,
                "vg2": 350,
                "ig2": 0,
                "ik": 0
            }, {
                "va": 49.16317991631799,
                "vg1": -8,
                "ig1": 0,
                "vg2": 350,
                "ig2": 0,
                "ik": 0.17570379436964503
            }, {
                "va": 62.761506276150634,
                "vg1": -8,
                "ig1": 0,
                "vg2": 350,
                "ig2": 0,
                "ik": 0.20379436964504286
            }, {
                "va": 108.7866108786611,
                "vg1": -8,
                "ig1": 0,
                "vg2": 350,
                "ig2": 0,
                "ik": 0.22527539779681763
            }, {
                "va": 228.03347280334728,
                "vg1": -8,
                "ig1": 0,
                "vg2": 350,
                "ig2": 0,
                "ik": 0.2489596083231334
            }, {
                "va": 508.3682008368201,
                "vg1": -8,
                "ig1": 0,
                "vg2": 350,
                "ig2": 0,
                "ik": 0.2726438188494492
            }],
            "vg1": -8
        }, {
            "p": [{
                "va": 0,
                "vg1": -4,
                "ig1": 0,
                "vg2": 350,
                "ig2": 0,
                "ik": 0
            }, {
                "va": 48.11715481171548,
                "vg1": -4,
                "ig1": 0,
                "vg2": 350,
                "ig2": 0,
                "ik": 0.2533659730722154
            }, {
                "va": 88.91213389121339,
                "vg1": -4,
                "ig1": 0,
                "vg2": 350,
                "ig2": 0,
                "ik": 0.2930232558139535
            }, {
                "va": 198.744769874477,
                "vg1": -4,
                "ig1": 0,
                "vg2": 350,
                "ig2": 0,
                "ik": 0.3172582619339045
            }, {
                "va": 497.907949790795,
                "vg1": -4,
                "ig1": 0,
                "vg2": 350,
                "ig2": 0,
                "ik": 0.3453488372093023
            }],
            "vg1": -4
        }, {
            "p": [{
                "va": 0,
                "vg1": 0,
                "ig1": 0,
                "vg2": 350,
                "ig2": 0,
                "ik": 0
            }, {
                "va": 52.30125523012553,
                "vg1": 0,
                "ig1": 0,
                "vg2": 350,
                "ig2": 0,
                "ik": 0.33929008567931457
            }, {
                "va": 91.00418410041841,
                "vg1": 0,
                "ig1": 0,
                "vg2": 350,
                "ig2": 0,
                "ik": 0.37619339045287636
            }, {
                "va": 180.96234309623432,
                "vg1": 0,
                "ig1": 0,
                "vg2": 350,
                "ig2": 0,
                "ik": 0.3987760097919216
            }, {
                "va": 502.09205020920507,
                "vg1": 0,
                "ig1": 0,
                "vg2": 350,
                "ig2": 0,
                "ik": 0.4274173806609547
            }],
            "vg1": 0
        }],
        "vg2": 350,
        "logX": false,
        "logY": false,
        "name": "g2 350",
        "raw": false,
        "unit": null,
        "triode": false
    }
}
