{
    "filename": "gu19_anode_transfert_chart_from_datasheet_g2_200v.json",
    "tubeGraph": {
        "c": [{
            "p": [{
                "va": 0,
                "vg1": -25,
                "ig1": 0,
                "vg2": 250,
                "ig2": 0,
                "ik": 0
            }, {
                "va": 29.381443298969074,
                "vg1": -25,
                "ig1": 0,
                "vg2": 250,
                "ig2": 0,
                "ik": 0.005840821566110398
            }, {
                "va": 70.61855670103093,
                "vg1": -25,
                "ig1": 0,
                "vg2": 250,
                "ig2": 0,
                "ik": 0.005006418485237484
            }, {
                "va": 223.71134020618558,
                "vg1": -25,
                "ig1": 0,
                "vg2": 250,
                "ig2": 0,
                "ik": 0.009178433889602055
            }, {
                "va": 595.8762886597939,
                "vg1": -25,
                "ig1": 0,
                "vg2": 250,
                "ig2": 0,
                "ik": 0.012933247753530165
            }],
            "vg1": -25
        }, {
            "p": [{
                "va": 0,
                "vg1": -20,
                "ig1": 0,
                "vg2": 250,
                "ig2": 0,
                "ik": 0
            }, {
                "va": 27.319587628865982,
                "vg1": -20,
                "ig1": 0,
                "vg2": 250,
                "ig2": 0,
                "ik": 0.013350449293966624
            }, {
                "va": 95.36082474226805,
                "vg1": -20,
                "ig1": 0,
                "vg2": 250,
                "ig2": 0,
                "ik": 0.013350449293966624
            }, {
                "va": 177.83505154639175,
                "vg1": -20,
                "ig1": 0,
                "vg2": 250,
                "ig2": 0,
                "ik": 0.01668806161745828
            }, {
                "va": 595.360824742268,
                "vg1": -20,
                "ig1": 0,
                "vg2": 250,
                "ig2": 0,
                "ik": 0.028786906290115533
            }],
            "vg1": -20
        }, {
            "p": [{
                "va": 0,
                "vg1": -15,
                "ig1": 0,
                "vg2": 250,
                "ig2": 0,
                "ik": 0
            }, {
                "va": 27.319587628865982,
                "vg1": -15,
                "ig1": 0,
                "vg2": 250,
                "ig2": 0,
                "ik": 0.02753530166880616
            }, {
                "va": 63.402061855670105,
                "vg1": -15,
                "ig1": 0,
                "vg2": 250,
                "ig2": 0,
                "ik": 0.030038510911424905
            }, {
                "va": 127.83505154639175,
                "vg1": -15,
                "ig1": 0,
                "vg2": 250,
                "ig2": 0,
                "ik": 0.040051347881899874
            }, {
                "va": 263.4020618556701,
                "vg1": -15,
                "ig1": 0,
                "vg2": 250,
                "ig2": 0,
                "ik": 0.05256739409499358
            }, {
                "va": 594.8453608247423,
                "vg1": -15,
                "ig1": 0,
                "vg2": 250,
                "ig2": 0,
                "ik": 0.059242618741976893
            }],
            "vg1": -15
        }, {
            "p": [{
                "va": 0,
                "vg1": -10,
                "ig1": 0,
                "vg2": 250,
                "ig2": 0,
                "ik": 0
            }, {
                "va": 12.371134020618557,
                "vg1": -10,
                "ig1": 0,
                "vg2": 250,
                "ig2": 0,
                "ik": 0.04130295250320924
            }, {
                "va": 55.154639175257735,
                "vg1": -10,
                "ig1": 0,
                "vg2": 250,
                "ig2": 0,
                "ik": 0.0659178433889602
            }, {
                "va": 254.63917525773198,
                "vg1": -10,
                "ig1": 0,
                "vg2": 250,
                "ig2": 0,
                "ik": 0.09387034659820283
            }, {
                "va": 596.9072164948453,
                "vg1": -10,
                "ig1": 0,
                "vg2": 250,
                "ig2": 0,
                "ik": 0.09762516046213093
            }],
            "vg1": -10
        }, {
            "p": [{
                "va": 0,
                "vg1": -5,
                "ig1": 0,
                "vg2": 250,
                "ig2": 0,
                "ik": 0
            }, {
                "va": 14.948453608247423,
                "vg1": -5,
                "ig1": 0,
                "vg2": 250,
                "ig2": 0,
                "ik": 0.0796854942233633
            }, {
                "va": 139.17525773195877,
                "vg1": -5,
                "ig1": 0,
                "vg2": 250,
                "ig2": 0,
                "ik": 0.14059691912708602
            }, {
                "va": 313.4020618556701,
                "vg1": -5,
                "ig1": 0,
                "vg2": 250,
                "ig2": 0,
                "ik": 0.14768934531450578
            }, {
                "va": 594.8453608247423,
                "vg1": -5,
                "ig1": 0,
                "vg2": 250,
                "ig2": 0,
                "ik": 0.1572849807445443
            }],
            "vg1": -5
        }, {
            "p": [{
                "va": 0,
                "vg1": 0,
                "ig1": 0,
                "vg2": 250,
                "ig2": 0,
                "ik": 0
            }, {
                "va": 29.896907216494846,
                "vg1": 0,
                "ig1": 0,
                "vg2": 250,
                "ig2": 0,
                "ik": 0.12724646983311938
            }, {
                "va": 45.36082474226804,
                "vg1": 0,
                "ig1": 0,
                "vg2": 250,
                "ig2": 0,
                "ik": 0.1589537869062901
            }, {
                "va": 86.5979381443299,
                "vg1": 0,
                "ig1": 0,
                "vg2": 250,
                "ig2": 0,
                "ik": 0.1823170731707317
            }, {
                "va": 180.41237113402062,
                "vg1": 0,
                "ig1": 0,
                "vg2": 250,
                "ig2": 0,
                "ik": 0.19900513478818999
            }, {
                "va": 594.8453608247423,
                "vg1": 0,
                "ig1": 0,
                "vg2": 250,
                "ig2": 0,
                "ik": 0.21402439024390243
            }],
            "vg1": 0
        }, {
            "p": [{
                "va": 0,
                "vg1": 5,
                "ig1": 0,
                "vg2": 250,
                "ig2": 0,
                "ik": 0
            }, {
                "va": 39.175257731958766,
                "vg1": 5,
                "ig1": 0,
                "vg2": 250,
                "ig2": 0,
                "ik": 0.16646341463414635
            }, {
                "va": 75.77319587628867,
                "vg1": 5,
                "ig1": 0,
                "vg2": 250,
                "ig2": 0,
                "ik": 0.22987804878048781
            }, {
                "va": 143.29896907216497,
                "vg1": 5,
                "ig1": 0,
                "vg2": 250,
                "ig2": 0,
                "ik": 0.2590821566110398
            }, {
                "va": 236.08247422680412,
                "vg1": 5,
                "ig1": 0,
                "vg2": 250,
                "ig2": 0,
                "ik": 0.2686777920410783
            }, {
                "va": 597.4226804123712,
                "vg1": 5,
                "ig1": 0,
                "vg2": 250,
                "ig2": 0,
                "ik": 0.28035943517329914
            }],
            "vg1": 5
        }, {
            "p": [{
                "va": 0,
                "vg1": 10,
                "ig1": 0,
                "vg2": 250,
                "ig2": 0,
                "ik": 0
            }, {
                "va": 14.43298969072165,
                "vg1": 10,
                "ig1": 0,
                "vg2": 250,
                "ig2": 0,
                "ik": 0.009178433889602055
            }, {
                "va": 51.03092783505155,
                "vg1": 10,
                "ig1": 0,
                "vg2": 250,
                "ig2": 0,
                "ik": 0.21485879332477534
            }, {
                "va": 62.371134020618555,
                "vg1": 10,
                "ig1": 0,
                "vg2": 250,
                "ig2": 0,
                "ik": 0.2674261874197689
            }, {
                "va": 93.81443298969073,
                "vg1": 10,
                "ig1": 0,
                "vg2": 250,
                "ig2": 0,
                "ik": 0.3020539152759949
            }, {
                "va": 181.44329896907217,
                "vg1": 10,
                "ig1": 0,
                "vg2": 250,
                "ig2": 0,
                "ik": 0.32
            }],
            "vg1": 10
        }],
        "vg2": 250,
        "logX": false,
        "logY": false,
        "name": "GU19 Anode transfert chart from datasheet G2=200V",
        "raw": false,
        "unit": null
    }
}
