{
    "filename": "kt150 transfert chart.json",
    "tubeGraph": {
        "c": [{
            "p": [{
                "va": 0,
                "vg1": -25,
                "ig1": 0,
                "vg2": 225,
                "ig2": 0,
                "ik": 0
            }, {
                "va": 8.280507131537243,
                "vg1": -25,
                "ig1": 0,
                "vg2": 225,
                "ig2": 0,
                "ik": 0.019801980198019802
            }, {
                "va": 26.584786053882727,
                "vg1": -25,
                "ig1": 0,
                "vg2": 225,
                "ig2": 0,
                "ik": 0.026282628262826284
            }, {
                "va": 58.8351822503962,
                "vg1": -25,
                "ig1": 0,
                "vg2": 225,
                "ig2": 0,
                "ik": 0.02124212421242124
            }, {
                "va": 96.31537242472267,
                "vg1": -25,
                "ig1": 0,
                "vg2": 225,
                "ig2": 0,
                "ik": 0.023402340234023402
            }, {
                "va": 148.61331220285263,
                "vg1": -25,
                "ig1": 0,
                "vg2": 225,
                "ig2": 0,
                "ik": 0.03456345634563456
            }, {
                "va": 204.39778129952458,
                "vg1": -25,
                "ig1": 0,
                "vg2": 225,
                "ig2": 0,
                "ik": 0.04104410441044105
            }, {
                "va": 499.44532488114106,
                "vg1": -25,
                "ig1": 0,
                "vg2": 225,
                "ig2": 0,
                "ik": 0.054005400540054004
            }],
            "vg1": -25
        }, {
            "p": [{
                "va": 0,
                "vg1": -20,
                "ig1": 0,
                "vg2": 225,
                "ig2": 0,
                "ik": 0
            }, {
                "va": 6.537242472266245,
                "vg1": -20,
                "ig1": 0,
                "vg2": 225,
                "ig2": 0,
                "ik": 0.034203420342034205
            }, {
                "va": 27.02060221870048,
                "vg1": -20,
                "ig1": 0,
                "vg2": 225,
                "ig2": 0,
                "ik": 0.05328532853285328
            }, {
                "va": 48.37559429477021,
                "vg1": -20,
                "ig1": 0,
                "vg2": 225,
                "ig2": 0,
                "ik": 0.05148514851485149
            }, {
                "va": 133.79556259904913,
                "vg1": -20,
                "ig1": 0,
                "vg2": 225,
                "ig2": 0,
                "ik": 0.0712871287128713
            }, {
                "va": 196.55309033280508,
                "vg1": -20,
                "ig1": 0,
                "vg2": 225,
                "ig2": 0,
                "ik": 0.0820882088208821
            }, {
                "va": 499.44532488114106,
                "vg1": -20,
                "ig1": 0,
                "vg2": 225,
                "ig2": 0,
                "ik": 0.10117011701170119
            }],
            "vg1": -20
        }, {
            "p": [{
                "va": 0,
                "vg1": -14,
                "ig1": 0,
                "vg2": 225,
                "ig2": 0,
                "ik": 0
            }, {
                "va": 15.689381933438986,
                "vg1": -14,
                "ig1": 0,
                "vg2": 225,
                "ig2": 0,
                "ik": 0.08496849684968497
            }, {
                "va": 26.584786053882727,
                "vg1": -14,
                "ig1": 0,
                "vg2": 225,
                "ig2": 0,
                "ik": 0.10765076507650766
            }, {
                "va": 66.24405705229795,
                "vg1": -14,
                "ig1": 0,
                "vg2": 225,
                "ig2": 0,
                "ik": 0.12385238523852386
            }, {
                "va": 141.20443740095087,
                "vg1": -14,
                "ig1": 0,
                "vg2": 225,
                "ig2": 0,
                "ik": 0.1486948694869487
            }, {
                "va": 499.44532488114106,
                "vg1": -14,
                "ig1": 0,
                "vg2": 225,
                "ig2": 0,
                "ik": 0.1875787578757876
            }],
            "vg1": -14
        }, {
            "p": [{
                "va": 0,
                "vg1": -10,
                "ig1": 0,
                "vg2": 225,
                "ig2": 0,
                "ik": 0
            }, {
                "va": 14.817749603803486,
                "vg1": -10,
                "ig1": 0,
                "vg2": 225,
                "ig2": 0,
                "ik": 0.13465346534653466
            }, {
                "va": 28.763866877971473,
                "vg1": -10,
                "ig1": 0,
                "vg2": 225,
                "ig2": 0,
                "ik": 0.17785778577857786
            }, {
                "va": 166.0459587955626,
                "vg1": -10,
                "ig1": 0,
                "vg2": 225,
                "ig2": 0,
                "ik": 0.22178217821782178
            }, {
                "va": 364.34231378763866,
                "vg1": -10,
                "ig1": 0,
                "vg2": 225,
                "ig2": 0,
                "ik": 0.2441044104410441
            }, {
                "va": 501.18858954041207,
                "vg1": -10,
                "ig1": 0,
                "vg2": 225,
                "ig2": 0,
                "ik": 0.2595859585958596
            }],
            "vg1": -10
        }, {
            "p": [{
                "va": 0,
                "vg1": -5,
                "ig1": 0,
                "vg2": 225,
                "ig2": 0,
                "ik": 0
            }, {
                "va": 22.662440570522982,
                "vg1": -5,
                "ig1": 0,
                "vg2": 225,
                "ig2": 0,
                "ik": 0.2556255625562556
            }, {
                "va": 38.787638668779714,
                "vg1": -5,
                "ig1": 0,
                "vg2": 225,
                "ig2": 0,
                "ik": 0.2894689468946895
            }, {
                "va": 152.53565768621237,
                "vg1": -5,
                "ig1": 0,
                "vg2": 225,
                "ig2": 0,
                "ik": 0.31863186318631864
            }, {
                "va": 173.8906497622821,
                "vg1": -5,
                "ig1": 0,
                "vg2": 225,
                "ig2": 0,
                "ik": 0.3225922592259226
            }, {
                "va": 207.88431061806656,
                "vg1": -5,
                "ig1": 0,
                "vg2": 225,
                "ig2": 0,
                "ik": 0.3330333033303331
            }, {
                "va": 248.85103011093503,
                "vg1": -5,
                "ig1": 0,
                "vg2": 225,
                "ig2": 0,
                "ik": 0.33663366336633666
            }, {
                "va": 364.7781299524564,
                "vg1": -5,
                "ig1": 0,
                "vg2": 225,
                "ig2": 0,
                "ik": 0.3582358235823582
            }, {
                "va": 393.97781299524564,
                "vg1": -5,
                "ig1": 0,
                "vg2": 225,
                "ig2": 0,
                "ik": 0.3675967596759676
            }, {
                "va": 501.18858954041207,
                "vg1": -5,
                "ig1": 0,
                "vg2": 225,
                "ig2": 0,
                "ik": 0.3701170117011702
            }],
            "vg1": -5
        }],
        "vg2": 225,
        "logX": false,
        "logY": false,
        "name": "KT150 Transfert Chart",
        "raw": false,
        "unit": null,
        "triode": false
    }
}
