{
    "filename": "kt66.json",
    "tubeGraph": {
        "c": [{
            "p": [{
                "va": 78.34628670120898,
                "vg1": -40,
                "ig1": 0,
                "vg2": 300,
                "ig2": 0,
                "ik": 0.002459016393442623
            }, {
                "va": 81.62780656303973,
                "vg1": -40,
                "ig1": 0,
                "vg2": 300,
                "ig2": 0,
                "ik": 0.004918032786885246
            }, {
                "va": 86.55008635578584,
                "vg1": -40,
                "ig1": 0,
                "vg2": 300,
                "ig2": 0,
                "ik": 0.007377049180327868
            }, {
                "va": 91.8825561312608,
                "vg1": -40,
                "ig1": 0,
                "vg2": 300,
                "ig2": 0,
                "ik": 0.008196721311475409
            }, {
                "va": 96.39464594127807,
                "vg1": -40,
                "ig1": 0,
                "vg2": 300,
                "ig2": 0,
                "ik": 0.009836065573770493
            }, {
                "va": 105.41882556131262,
                "vg1": -40,
                "ig1": 0,
                "vg2": 300,
                "ig2": 0,
                "ik": 0.011475409836065573
            }, {
                "va": 115.67357512953369,
                "vg1": -40,
                "ig1": 0,
                "vg2": 300,
                "ig2": 0,
                "ik": 0.013114754098360656
            }, {
                "va": 126.74870466321244,
                "vg1": -40,
                "ig1": 0,
                "vg2": 300,
                "ig2": 0,
                "ik": 0.013114754098360656
            }, {
                "va": 138.23402417962004,
                "vg1": -40,
                "ig1": 0,
                "vg2": 300,
                "ig2": 0,
                "ik": 0.013114754098360656
            }, {
                "va": 147.25820379965458,
                "vg1": -40,
                "ig1": 0,
                "vg2": 300,
                "ig2": 0,
                "ik": 0.012295081967213115
            }, {
                "va": 163.25561312607945,
                "vg1": -40,
                "ig1": 0,
                "vg2": 300,
                "ig2": 0,
                "ik": 0.013114754098360656
            }, {
                "va": 179.25302245250433,
                "vg1": -40,
                "ig1": 0,
                "vg2": 300,
                "ig2": 0,
                "ik": 0.013934426229508197
            }, {
                "va": 195.2504317789292,
                "vg1": -40,
                "ig1": 0,
                "vg2": 300,
                "ig2": 0,
                "ik": 0.013934426229508197
            }, {
                "va": 214.93955094991367,
                "vg1": -40,
                "ig1": 0,
                "vg2": 300,
                "ig2": 0,
                "ik": 0.01557377049180328
            }, {
                "va": 239.96113989637308,
                "vg1": -40,
                "ig1": 0,
                "vg2": 300,
                "ig2": 0,
                "ik": 0.017213114754098358
            }, {
                "va": 259.24006908462866,
                "vg1": -40,
                "ig1": 0,
                "vg2": 300,
                "ig2": 0,
                "ik": 0.018852459016393444
            }, {
                "va": 273.5967184801382,
                "vg1": -40,
                "ig1": 0,
                "vg2": 300,
                "ig2": 0,
                "ik": 0.020491803278688527
            }, {
                "va": 291.64507772020727,
                "vg1": -40,
                "ig1": 0,
                "vg2": 300,
                "ig2": 0,
                "ik": 0.021311475409836068
            }, {
                "va": 473.7694300518135,
                "vg1": -40,
                "ig1": 0,
                "vg2": 300,
                "ig2": 0,
                "ik": 0.023770491803278688
            }],
            "vg1": -40
        }, {
            "p": [{
                "va": 78.34628670120898,
                "vg1": -30,
                "ig1": 0,
                "vg2": 300,
                "ig2": 0,
                "ik": 0.028688524590163935
            }, {
                "va": 86.55008635578584,
                "vg1": -30,
                "ig1": 0,
                "vg2": 300,
                "ig2": 0,
                "ik": 0.03114754098360656
            }, {
                "va": 98.44559585492229,
                "vg1": -30,
                "ig1": 0,
                "vg2": 300,
                "ig2": 0,
                "ik": 0.03360655737704918
            }, {
                "va": 113.21243523316063,
                "vg1": -30,
                "ig1": 0,
                "vg2": 300,
                "ig2": 0,
                "ik": 0.036065573770491806
            }, {
                "va": 127.56908462867013,
                "vg1": -30,
                "ig1": 0,
                "vg2": 300,
                "ig2": 0,
                "ik": 0.036885245901639344
            }, {
                "va": 140.6951640759931,
                "vg1": -30,
                "ig1": 0,
                "vg2": 300,
                "ig2": 0,
                "ik": 0.036885245901639344
            }, {
                "va": 162.84542314335062,
                "vg1": -30,
                "ig1": 0,
                "vg2": 300,
                "ig2": 0,
                "ik": 0.038524590163934426
            }, {
                "va": 180.48359240069087,
                "vg1": -30,
                "ig1": 0,
                "vg2": 300,
                "ig2": 0,
                "ik": 0.038524590163934426
            }, {
                "va": 203.0440414507772,
                "vg1": -30,
                "ig1": 0,
                "vg2": 300,
                "ig2": 0,
                "ik": 0.03770491803278689
            }, {
                "va": 222.73316062176167,
                "vg1": -30,
                "ig1": 0,
                "vg2": 300,
                "ig2": 0,
                "ik": 0.04016393442622951
            }, {
                "va": 245.70379965457687,
                "vg1": -30,
                "ig1": 0,
                "vg2": 300,
                "ig2": 0,
                "ik": 0.04180327868852459
            }, {
                "va": 266.62348877374785,
                "vg1": -30,
                "ig1": 0,
                "vg2": 300,
                "ig2": 0,
                "ik": 0.042622950819672135
            }, {
                "va": 293.6960276338515,
                "vg1": -30,
                "ig1": 0,
                "vg2": 300,
                "ig2": 0,
                "ik": 0.04672131147540983
            }, {
                "va": 340.8678756476684,
                "vg1": -30,
                "ig1": 0,
                "vg2": 300,
                "ig2": 0,
                "ik": 0.05081967213114754
            }, {
                "va": 474.1796200345423,
                "vg1": -30,
                "ig1": 0,
                "vg2": 300,
                "ig2": 0,
                "ik": 0.059016393442622946
            }],
            "vg1": -30
        }, {
            "p": [{
                "va": 52.91450777202073,
                "vg1": -20,
                "ig1": 0,
                "vg2": 300,
                "ig2": 0,
                "ik": 0.05327868852459017
            }, {
                "va": 68.09153713298791,
                "vg1": -20,
                "ig1": 0,
                "vg2": 300,
                "ig2": 0,
                "ik": 0.06229508196721312
            }, {
                "va": 79.98704663212436,
                "vg1": -20,
                "ig1": 0,
                "vg2": 300,
                "ig2": 0,
                "ik": 0.06721311475409836
            }, {
                "va": 92.29274611398964,
                "vg1": -20,
                "ig1": 0,
                "vg2": 300,
                "ig2": 0,
                "ik": 0.07213114754098361
            }, {
                "va": 108.29015544041451,
                "vg1": -20,
                "ig1": 0,
                "vg2": 300,
                "ig2": 0,
                "ik": 0.07459016393442623
            }, {
                "va": 122.23661485319518,
                "vg1": -20,
                "ig1": 0,
                "vg2": 300,
                "ig2": 0,
                "ik": 0.0778688524590164
            }, {
                "va": 137.8238341968912,
                "vg1": -20,
                "ig1": 0,
                "vg2": 300,
                "ig2": 0,
                "ik": 0.07950819672131147
            }, {
                "va": 152.1804835924007,
                "vg1": -20,
                "ig1": 0,
                "vg2": 300,
                "ig2": 0,
                "ik": 0.08114754098360656
            }, {
                "va": 171.04922279792748,
                "vg1": -20,
                "ig1": 0,
                "vg2": 300,
                "ig2": 0,
                "ik": 0.08606557377049182
            }, {
                "va": 196.89119170984458,
                "vg1": -20,
                "ig1": 0,
                "vg2": 300,
                "ig2": 0,
                "ik": 0.08688524590163935
            }, {
                "va": 216.99050086355788,
                "vg1": -20,
                "ig1": 0,
                "vg2": 300,
                "ig2": 0,
                "ik": 0.09016393442622951
            }, {
                "va": 241.1917098445596,
                "vg1": -20,
                "ig1": 0,
                "vg2": 300,
                "ig2": 0,
                "ik": 0.09262295081967213
            }, {
                "va": 262.9317789291883,
                "vg1": -20,
                "ig1": 0,
                "vg2": 300,
                "ig2": 0,
                "ik": 0.09344262295081966
            }, {
                "va": 296.5673575129534,
                "vg1": -20,
                "ig1": 0,
                "vg2": 300,
                "ig2": 0,
                "ik": 0.09836065573770492
            }, {
                "va": 344.559585492228,
                "vg1": -20,
                "ig1": 0,
                "vg2": 300,
                "ig2": 0,
                "ik": 0.10163934426229508
            }, {
                "va": 389.6804835924007,
                "vg1": -20,
                "ig1": 0,
                "vg2": 300,
                "ig2": 0,
                "ik": 0.1040983606557377
            }, {
                "va": 474.1796200345423,
                "vg1": -20,
                "ig1": 0,
                "vg2": 300,
                "ig2": 0,
                "ik": 0.1098360655737705
            }],
            "vg1": -20
        }, {
            "p": [{
                "va": 48.402417962003454,
                "vg1": -15,
                "ig1": 0,
                "vg2": 300,
                "ig2": 0,
                "ik": 0.08934426229508198
            }, {
                "va": 77.93609671848014,
                "vg1": -15,
                "ig1": 0,
                "vg2": 300,
                "ig2": 0,
                "ik": 0.09918032786885246
            }, {
                "va": 121.41623488773749,
                "vg1": -15,
                "ig1": 0,
                "vg2": 300,
                "ig2": 0,
                "ik": 0.11229508196721312
            }, {
                "va": 158.74352331606218,
                "vg1": -15,
                "ig1": 0,
                "vg2": 300,
                "ig2": 0,
                "ik": 0.1221311475409836
            }, {
                "va": 198.53195164075996,
                "vg1": -15,
                "ig1": 0,
                "vg2": 300,
                "ig2": 0,
                "ik": 0.12622950819672132
            }, {
                "va": 241.60189982728843,
                "vg1": -15,
                "ig1": 0,
                "vg2": 300,
                "ig2": 0,
                "ik": 0.1319672131147541
            }, {
                "va": 286.3126079447323,
                "vg1": -15,
                "ig1": 0,
                "vg2": 300,
                "ig2": 0,
                "ik": 0.13770491803278687
            }, {
                "va": 321.99913644214166,
                "vg1": -15,
                "ig1": 0,
                "vg2": 300,
                "ig2": 0,
                "ik": 0.13934426229508196
            }, {
                "va": 379.8359240069085,
                "vg1": -15,
                "ig1": 0,
                "vg2": 300,
                "ig2": 0,
                "ik": 0.14262295081967213
            }, {
                "va": 474.5898100172712,
                "vg1": -15,
                "ig1": 0,
                "vg2": 300,
                "ig2": 0,
                "ik": 0.14754098360655737
            }],
            "vg1": -15
        }, {
            "p": [{
                "va": 45.9412780656304,
                "vg1": -10,
                "ig1": 0,
                "vg2": 300,
                "ig2": 0,
                "ik": 0.12786885245901639
            }, {
                "va": 59.06735751295337,
                "vg1": -10,
                "ig1": 0,
                "vg2": 300,
                "ig2": 0,
                "ik": 0.1360655737704918
            }, {
                "va": 75.88514680483593,
                "vg1": -10,
                "ig1": 0,
                "vg2": 300,
                "ig2": 0,
                "ik": 0.14262295081967213
            }, {
                "va": 89.0112262521589,
                "vg1": -10,
                "ig1": 0,
                "vg2": 300,
                "ig2": 0,
                "ik": 0.14754098360655737
            }, {
                "va": 104.59844559585493,
                "vg1": -10,
                "ig1": 0,
                "vg2": 300,
                "ig2": 0,
                "ik": 0.15
            }, {
                "va": 122.64680483592402,
                "vg1": -10,
                "ig1": 0,
                "vg2": 300,
                "ig2": 0,
                "ik": 0.15655737704918032
            }, {
                "va": 141.5155440414508,
                "vg1": -10,
                "ig1": 0,
                "vg2": 300,
                "ig2": 0,
                "ik": 0.15901639344262294
            }, {
                "va": 162.02504317789294,
                "vg1": -10,
                "ig1": 0,
                "vg2": 300,
                "ig2": 0,
                "ik": 0.1598360655737705
            }, {
                "va": 187.04663212435236,
                "vg1": -10,
                "ig1": 0,
                "vg2": 300,
                "ig2": 0,
                "ik": 0.1639344262295082
            }, {
                "va": 228.88601036269432,
                "vg1": -10,
                "ig1": 0,
                "vg2": 300,
                "ig2": 0,
                "ik": 0.16721311475409836
            }, {
                "va": 258.82987910189985,
                "vg1": -10,
                "ig1": 0,
                "vg2": 300,
                "ig2": 0,
                "ik": 0.16967213114754098
            }, {
                "va": 296.15716753022457,
                "vg1": -10,
                "ig1": 0,
                "vg2": 300,
                "ig2": 0,
                "ik": 0.1737704918032787
            }, {
                "va": 337.1761658031088,
                "vg1": -10,
                "ig1": 0,
                "vg2": 300,
                "ig2": 0,
                "ik": 0.18032786885245902
            }, {
                "va": 374.5034542314335,
                "vg1": -10,
                "ig1": 0,
                "vg2": 300,
                "ig2": 0,
                "ik": 0.18278688524590164
            }],
            "vg1": -10
        }, {
            "p": [{
                "va": 42.24956822107082,
                "vg1": -5,
                "ig1": 0,
                "vg2": 300,
                "ig2": 0,
                "ik": 0.16721311475409836
            }, {
                "va": 52.094127806563044,
                "vg1": -5,
                "ig1": 0,
                "vg2": 300,
                "ig2": 0,
                "ik": 0.17540983606557378
            }, {
                "va": 59.47754749568222,
                "vg1": -5,
                "ig1": 0,
                "vg2": 300,
                "ig2": 0,
                "ik": 0.18114754098360658
            }, {
                "va": 76.29533678756478,
                "vg1": -5,
                "ig1": 0,
                "vg2": 300,
                "ig2": 0,
                "ik": 0.1901639344262295
            }, {
                "va": 92.70293609671849,
                "vg1": -5,
                "ig1": 0,
                "vg2": 300,
                "ig2": 0,
                "ik": 0.19672131147540983
            }, {
                "va": 110.75129533678758,
                "vg1": -5,
                "ig1": 0,
                "vg2": 300,
                "ig2": 0,
                "ik": 0.19836065573770492
            }, {
                "va": 130.44041450777203,
                "vg1": -5,
                "ig1": 0,
                "vg2": 300,
                "ig2": 0,
                "ik": 0.20163934426229507
            }, {
                "va": 155.46200345423145,
                "vg1": -5,
                "ig1": 0,
                "vg2": 300,
                "ig2": 0,
                "ik": 0.20491803278688525
            }, {
                "va": 177.61226252158895,
                "vg1": -5,
                "ig1": 0,
                "vg2": 300,
                "ig2": 0,
                "ik": 0.20737704918032787
            }, {
                "va": 204.27461139896374,
                "vg1": -5,
                "ig1": 0,
                "vg2": 300,
                "ig2": 0,
                "ik": 0.21311475409836067
            }, {
                "va": 259.24006908462866,
                "vg1": -5,
                "ig1": 0,
                "vg2": 300,
                "ig2": 0,
                "ik": 0.219672131147541
            }, {
                "va": 324.87046632124355,
                "vg1": -5,
                "ig1": 0,
                "vg2": 300,
                "ig2": 0,
                "ik": 0.23278688524590166
            }],
            "vg1": -5
        }, {
            "p": [{
                "va": 43.0699481865285,
                "vg1": 0,
                "ig1": 0,
                "vg2": 300,
                "ig2": 0,
                "ik": 0.21065573770491805
            }, {
                "va": 50.04317789291883,
                "vg1": 0,
                "ig1": 0,
                "vg2": 300,
                "ig2": 0,
                "ik": 0.21721311475409838
            }, {
                "va": 58.24697754749569,
                "vg1": 0,
                "ig1": 0,
                "vg2": 300,
                "ig2": 0,
                "ik": 0.22704918032786886
            }, {
                "va": 67.68134715025907,
                "vg1": 0,
                "ig1": 0,
                "vg2": 300,
                "ig2": 0,
                "ik": 0.23442622950819672
            }, {
                "va": 80.3972366148532,
                "vg1": 0,
                "ig1": 0,
                "vg2": 300,
                "ig2": 0,
                "ik": 0.24098360655737705
            }, {
                "va": 94.7538860103627,
                "vg1": 0,
                "ig1": 0,
                "vg2": 300,
                "ig2": 0,
                "ik": 0.24672131147540982
            }, {
                "va": 109.93091537132989,
                "vg1": 0,
                "ig1": 0,
                "vg2": 300,
                "ig2": 0,
                "ik": 0.25
            }, {
                "va": 127.97927461139898,
                "vg1": 0,
                "ig1": 0,
                "vg2": 300,
                "ig2": 0,
                "ik": 0.25491803278688524
            }, {
                "va": 144.3868739205527,
                "vg1": 0,
                "ig1": 0,
                "vg2": 300,
                "ig2": 0,
                "ik": 0.259016393442623
            }, {
                "va": 159.15371329879102,
                "vg1": 0,
                "ig1": 0,
                "vg2": 300,
                "ig2": 0,
                "ik": 0.26311475409836066
            }, {
                "va": 175.9715025906736,
                "vg1": 0,
                "ig1": 0,
                "vg2": 300,
                "ig2": 0,
                "ik": 0.2647540983606557
            }, {
                "va": 196.07081174438687,
                "vg1": 0,
                "ig1": 0,
                "vg2": 300,
                "ig2": 0,
                "ik": 0.26557377049180325
            }, {
                "va": 235.4490500863558,
                "vg1": 0,
                "ig1": 0,
                "vg2": 300,
                "ig2": 0,
                "ik": 0.2713114754098361
            }, {
                "va": 253.49740932642487,
                "vg1": 0,
                "ig1": 0,
                "vg2": 300,
                "ig2": 0,
                "ik": 0.27704918032786885
            }, {
                "va": 274.00690846286705,
                "vg1": 0,
                "ig1": 0,
                "vg2": 300,
                "ig2": 0,
                "ik": 0.2795081967213115
            }],
            "vg1": 0
        }, {
            "p": [{
                "va": 50.86355785837652,
                "vg1": 5,
                "ig1": 0,
                "vg2": 300,
                "ig2": 0,
                "ik": 0.24098360655737705
            }, {
                "va": 54.965457685664944,
                "vg1": 5,
                "ig1": 0,
                "vg2": 300,
                "ig2": 0,
                "ik": 0.2540983606557377
            }, {
                "va": 60.2979274611399,
                "vg1": 5,
                "ig1": 0,
                "vg2": 300,
                "ig2": 0,
                "ik": 0.26639344262295084
            }, {
                "va": 67.68134715025907,
                "vg1": 5,
                "ig1": 0,
                "vg2": 300,
                "ig2": 0,
                "ik": 0.2795081967213115
            }, {
                "va": 77.11571675302245,
                "vg1": 5,
                "ig1": 0,
                "vg2": 300,
                "ig2": 0,
                "ik": 0.289344262295082
            }, {
                "va": 86.55008635578584,
                "vg1": 5,
                "ig1": 0,
                "vg2": 300,
                "ig2": 0,
                "ik": 0.2991803278688525
            }, {
                "va": 100.90673575129534,
                "vg1": 5,
                "ig1": 0,
                "vg2": 300,
                "ig2": 0,
                "ik": 0.30655737704918035
            }, {
                "va": 116.90414507772022,
                "vg1": 5,
                "ig1": 0,
                "vg2": 300,
                "ig2": 0,
                "ik": 0.3139344262295082
            }, {
                "va": 133.31174438687393,
                "vg1": 5,
                "ig1": 0,
                "vg2": 300,
                "ig2": 0,
                "ik": 0.31721311475409836
            }, {
                "va": 150.53972366148534,
                "vg1": 5,
                "ig1": 0,
                "vg2": 300,
                "ig2": 0,
                "ik": 0.319672131147541
            }, {
                "va": 167.76770293609673,
                "vg1": 5,
                "ig1": 0,
                "vg2": 300,
                "ig2": 0,
                "ik": 0.3229508196721312
            }, {
                "va": 186.22625215889465,
                "vg1": 5,
                "ig1": 0,
                "vg2": 300,
                "ig2": 0,
                "ik": 0.32459016393442625
            }, {
                "va": 194.84024179620036,
                "vg1": 5,
                "ig1": 0,
                "vg2": 300,
                "ig2": 0,
                "ik": 0.32459016393442625
            }],
            "vg1": 5
        }, {
            "p": [{
                "va": 59.887737478411054,
                "vg1": 10,
                "ig1": 0,
                "vg2": 300,
                "ig2": 0,
                "ik": 0.30245901639344264
            }, {
                "va": 61.93868739205527,
                "vg1": 10,
                "ig1": 0,
                "vg2": 300,
                "ig2": 0,
                "ik": 0.31311475409836065
            }, {
                "va": 67.68134715025907,
                "vg1": 10,
                "ig1": 0,
                "vg2": 300,
                "ig2": 0,
                "ik": 0.3286885245901639
            }, {
                "va": 72.19343696027634,
                "vg1": 10,
                "ig1": 0,
                "vg2": 300,
                "ig2": 0,
                "ik": 0.3377049180327869
            }, {
                "va": 78.34628670120898,
                "vg1": 10,
                "ig1": 0,
                "vg2": 300,
                "ig2": 0,
                "ik": 0.3491803278688525
            }, {
                "va": 83.2685664939551,
                "vg1": 10,
                "ig1": 0,
                "vg2": 300,
                "ig2": 0,
                "ik": 0.3581967213114754
            }, {
                "va": 89.0112262521589,
                "vg1": 10,
                "ig1": 0,
                "vg2": 300,
                "ig2": 0,
                "ik": 0.36475409836065575
            }],
            "vg1": 10
        }],
        "vg2": 300,
        "logX": false,
        "logY": false,
        "name": "KT66",
        "raw": false,
        "unit": null,
        "triode": false
    }
}
