{
    "filename": "kt66 tr.json",
    "tubeGraph": {
        "c": [{
            "p": [{
                "va": 0,
                "vg1": -120,
                "ig1": 0,
                "vg2": null,
                "ig2": 0,
                "ik": 0
            }, {
                "va": 800.9259259259259,
                "vg1": -120,
                "ig1": 0,
                "vg2": null,
                "ig2": 0,
                "ik": 0.0009041591320072332
            }, {
                "va": 836.1111111111111,
                "vg1": -120,
                "ig1": 0,
                "vg2": null,
                "ig2": 0,
                "ik": 0.004520795660036166
            }, {
                "va": 883.3333333333333,
                "vg1": -120,
                "ig1": 0,
                "vg2": null,
                "ig2": 0,
                "ik": 0.013019891500904159
            }, {
                "va": 945.3703703703703,
                "vg1": -120,
                "ig1": 0,
                "vg2": null,
                "ig2": 0,
                "ik": 0.027848101265822784
            }],
            "vg1": -120
        }, {
            "p": [{
                "va": 0,
                "vg1": -110,
                "ig1": 0,
                "vg2": null,
                "ig2": 0,
                "ik": 0
            }, {
                "va": 737.037037037037,
                "vg1": -110,
                "ig1": 0,
                "vg2": null,
                "ig2": 0,
                "ik": 0.00108499095840868
            }, {
                "va": 778.7037037037037,
                "vg1": -110,
                "ig1": 0,
                "vg2": null,
                "ig2": 0,
                "ik": 0.006148282097649185
            }, {
                "va": 829.6296296296296,
                "vg1": -110,
                "ig1": 0,
                "vg2": null,
                "ig2": 0,
                "ik": 0.016636528028933093
            }, {
                "va": 895.3703703703703,
                "vg1": -110,
                "ig1": 0,
                "vg2": null,
                "ig2": 0,
                "ik": 0.03779385171790235
            }],
            "vg1": -110
        }, {
            "p": [{
                "va": 0,
                "vg1": -100,
                "ig1": 0,
                "vg2": null,
                "ig2": 0,
                "ik": 0
            }, {
                "va": 674.074074074074,
                "vg1": -100,
                "ig1": 0,
                "vg2": null,
                "ig2": 0,
                "ik": 0.0009041591320072332
            }, {
                "va": 732.4074074074074,
                "vg1": -100,
                "ig1": 0,
                "vg2": null,
                "ig2": 0,
                "ik": 0.00976491862567812
            }, {
                "va": 775,
                "vg1": -100,
                "ig1": 0,
                "vg2": null,
                "ig2": 0,
                "ik": 0.01989150090415913
            }, {
                "va": 833.3333333333333,
                "vg1": -100,
                "ig1": 0,
                "vg2": null,
                "ig2": 0,
                "ik": 0.03797468354430379
            }],
            "vg1": -100
        }, {
            "p": [{
                "va": 0,
                "vg1": -90,
                "ig1": 0,
                "vg2": null,
                "ig2": 0,
                "ik": 0
            }, {
                "va": 606.4814814814814,
                "vg1": -90,
                "ig1": 0,
                "vg2": null,
                "ig2": 0,
                "ik": 0.0007233273056057866
            }, {
                "va": 653.7037037037037,
                "vg1": -90,
                "ig1": 0,
                "vg2": null,
                "ig2": 0,
                "ik": 0.007594936708860759
            }, {
                "va": 703.7037037037037,
                "vg1": -90,
                "ig1": 0,
                "vg2": null,
                "ig2": 0,
                "ik": 0.020433996383363472
            }, {
                "va": 759.2592592592592,
                "vg1": -90,
                "ig1": 0,
                "vg2": null,
                "ig2": 0,
                "ik": 0.041952983725135624
            }],
            "vg1": -90
        }, {
            "p": [{
                "va": 0,
                "vg1": -80,
                "ig1": 0,
                "vg2": null,
                "ig2": 0,
                "ik": 0
            }, {
                "va": 532.4074074074074,
                "vg1": -80,
                "ig1": 0,
                "vg2": null,
                "ig2": 0,
                "ik": 0.0007233273056057866
            }, {
                "va": 594.4444444444445,
                "vg1": -80,
                "ig1": 0,
                "vg2": null,
                "ig2": 0,
                "ik": 0.010126582278481011
            }, {
                "va": 634.2592592592592,
                "vg1": -80,
                "ig1": 0,
                "vg2": null,
                "ig2": 0,
                "ik": 0.020433996383363472
            }, {
                "va": 707.4074074074074,
                "vg1": -80,
                "ig1": 0,
                "vg2": null,
                "ig2": 0,
                "ik": 0.049909584086799276
            }],
            "vg1": -80
        }, {
            "p": [{
                "va": 0,
                "vg1": -70,
                "ig1": 0,
                "vg2": null,
                "ig2": 0,
                "ik": 0
            }, {
                "va": 465.7407407407407,
                "vg1": -70,
                "ig1": 0,
                "vg2": null,
                "ig2": 0,
                "ik": 0.00054249547920434
            }, {
                "va": 511.1111111111111,
                "vg1": -70,
                "ig1": 0,
                "vg2": null,
                "ig2": 0,
                "ik": 0.007052441229656419
            }, {
                "va": 552.7777777777777,
                "vg1": -70,
                "ig1": 0,
                "vg2": null,
                "ig2": 0,
                "ik": 0.015913200723327307
            }, {
                "va": 596.2962962962963,
                "vg1": -70,
                "ig1": 0,
                "vg2": null,
                "ig2": 0,
                "ik": 0.030198915009041587
            }, {
                "va": 640.7407407407406,
                "vg1": -70,
                "ig1": 0,
                "vg2": null,
                "ig2": 0,
                "ik": 0.055334538878842675
            }],
            "vg1": -70
        }, {
            "p": [{
                "va": 0,
                "vg1": -60,
                "ig1": 0,
                "vg2": null,
                "ig2": 0,
                "ik": 0
            }, {
                "va": 399.0740740740741,
                "vg1": -60,
                "ig1": 0,
                "vg2": null,
                "ig2": 0,
                "ik": 0.0009041591320072332
            }, {
                "va": 431.48148148148147,
                "vg1": -60,
                "ig1": 0,
                "vg2": null,
                "ig2": 0,
                "ik": 0.005786618444846293
            }, {
                "va": 474.99999999999994,
                "vg1": -60,
                "ig1": 0,
                "vg2": null,
                "ig2": 0,
                "ik": 0.014828209764918625
            }, {
                "va": 519.4444444444445,
                "vg1": -60,
                "ig1": 0,
                "vg2": null,
                "ig2": 0,
                "ik": 0.030198915009041587
            }, {
                "va": 569.4444444444445,
                "vg1": -60,
                "ig1": 0,
                "vg2": null,
                "ig2": 0,
                "ik": 0.06112115732368897
            }],
            "vg1": -60
        }, {
            "p": [{
                "va": 0,
                "vg1": -50,
                "ig1": 0,
                "vg2": null,
                "ig2": 0,
                "ik": 0
            }, {
                "va": 327.77777777777777,
                "vg1": -50,
                "ig1": 0,
                "vg2": null,
                "ig2": 0,
                "ik": 0.0007233273056057866
            }, {
                "va": 380.55555555555554,
                "vg1": -50,
                "ig1": 0,
                "vg2": null,
                "ig2": 0,
                "ik": 0.00867992766726944
            }, {
                "va": 421.29629629629625,
                "vg1": -50,
                "ig1": 0,
                "vg2": null,
                "ig2": 0,
                "ik": 0.020253164556962022
            }, {
                "va": 459.25925925925924,
                "vg1": -50,
                "ig1": 0,
                "vg2": null,
                "ig2": 0,
                "ik": 0.03960216998191682
            }, {
                "va": 498.1481481481481,
                "vg1": -50,
                "ig1": 0,
                "vg2": null,
                "ig2": 0,
                "ik": 0.06763110307414105
            }],
            "vg1": -50
        }, {
            "p": [{
                "va": 0,
                "vg1": -40,
                "ig1": 0,
                "vg2": null,
                "ig2": 0,
                "ik": 0
            }, {
                "va": 253.7037037037037,
                "vg1": -40,
                "ig1": 0,
                "vg2": null,
                "ig2": 0,
                "ik": 0.00054249547920434
            }, {
                "va": 287.96296296296293,
                "vg1": -40,
                "ig1": 0,
                "vg2": null,
                "ig2": 0,
                "ik": 0.0056057866184448454
            }, {
                "va": 330.55555555555554,
                "vg1": -40,
                "ig1": 0,
                "vg2": null,
                "ig2": 0,
                "ik": 0.015913200723327307
            }, {
                "va": 368.5185185185185,
                "vg1": -40,
                "ig1": 0,
                "vg2": null,
                "ig2": 0,
                "ik": 0.030379746835443037
            }, {
                "va": 449.99999999999994,
                "vg1": -40,
                "ig1": 0,
                "vg2": null,
                "ig2": 0,
                "ik": 0.07775768535262206
            }],
            "vg1": -40
        }, {
            "p": [{
                "va": 0,
                "vg1": -30,
                "ig1": 0,
                "vg2": null,
                "ig2": 0,
                "ik": 0
            }, {
                "va": 187.03703703703704,
                "vg1": -30,
                "ig1": 0,
                "vg2": null,
                "ig2": 0,
                "ik": 0.0003616636528028933
            }, {
                "va": 233.33333333333331,
                "vg1": -30,
                "ig1": 0,
                "vg2": null,
                "ig2": 0,
                "ik": 0.0081374321880651
            }, {
                "va": 270.3703703703704,
                "vg1": -30,
                "ig1": 0,
                "vg2": null,
                "ig2": 0,
                "ik": 0.020253164556962022
            }, {
                "va": 313.88888888888886,
                "vg1": -30,
                "ig1": 0,
                "vg2": null,
                "ig2": 0,
                "ik": 0.040867992766726945
            }, {
                "va": 380.55555555555554,
                "vg1": -30,
                "ig1": 0,
                "vg2": null,
                "ig2": 0,
                "ik": 0.09403254972875226
            }],
            "vg1": -30
        }, {
            "p": [{
                "va": 0,
                "vg1": -20,
                "ig1": 0,
                "vg2": null,
                "ig2": 0,
                "ik": 0
            }, {
                "va": 130.55555555555554,
                "vg1": -20,
                "ig1": 0,
                "vg2": null,
                "ig2": 0,
                "ik": 0.0007233273056057866
            }, {
                "va": 165.74074074074073,
                "vg1": -20,
                "ig1": 0,
                "vg2": null,
                "ig2": 0,
                "ik": 0.007414104882459313
            }, {
                "va": 195.37037037037035,
                "vg1": -20,
                "ig1": 0,
                "vg2": null,
                "ig2": 0,
                "ik": 0.020253164556962022
            }, {
                "va": 227.77777777777777,
                "vg1": -20,
                "ig1": 0,
                "vg2": null,
                "ig2": 0,
                "ik": 0.03978300180831826
            }, {
                "va": 307.4074074074074,
                "vg1": -20,
                "ig1": 0,
                "vg2": null,
                "ig2": 0,
                "ik": 0.09728752260397829
            }],
            "vg1": -20
        }, {
            "p": [{
                "va": 0,
                "vg1": -10,
                "ig1": 0,
                "vg2": null,
                "ig2": 0,
                "ik": 0
            }, {
                "va": 46.29629629629629,
                "vg1": -10,
                "ig1": 0,
                "vg2": null,
                "ig2": 0,
                "ik": 0.0007233273056057866
            }, {
                "va": 103.7037037037037,
                "vg1": -10,
                "ig1": 0,
                "vg2": null,
                "ig2": 0,
                "ik": 0.012115732368896926
            }, {
                "va": 148.14814814814815,
                "vg1": -10,
                "ig1": 0,
                "vg2": null,
                "ig2": 0,
                "ik": 0.039963833634719705
            }, {
                "va": 221.29629629629628,
                "vg1": -10,
                "ig1": 0,
                "vg2": null,
                "ig2": 0,
                "ik": 0.09819168173598553
            }],
            "vg1": -10
        }, {
            "p": [{
                "va": 0,
                "vg1": 0,
                "ig1": 0,
                "vg2": null,
                "ig2": 0,
                "ik": 0
            }, {
                "va": 67.5925925925926,
                "vg1": 0,
                "ig1": 0,
                "vg2": null,
                "ig2": 0,
                "ik": 0.03960216998191682
            }, {
                "va": 137.96296296296296,
                "vg1": 0,
                "ig1": 0,
                "vg2": null,
                "ig2": 0,
                "ik": 0.09728752260397829
            }],
            "vg1": 0
        }],
        "vg2": null,
        "logX": false,
        "logY": false,
        "name": "KT66 TR",
        "raw": false,
        "unit": null,
        "triode": true
    }
}
