{
    "filename": "kt88 - pseudo triode.json",
    "tubeGraph": {
        "c": [{
            "p": [{
                "va": 468.4569479965899,
                "vg1": -80,
                "ig1": 0,
                "vg2": null,
                "ig2": 0,
                "ik": 0.000851063829787234
            }, {
                "va": 477.4083546462063,
                "vg1": -80,
                "ig1": 0,
                "vg2": null,
                "ig2": 0,
                "ik": 0.003829787234042553
            }, {
                "va": 489.34356351236147,
                "vg1": -80,
                "ig1": 0,
                "vg2": null,
                "ig2": 0,
                "ik": 0.005957446808510638
            }, {
                "va": 497.44245524296673,
                "vg1": -80,
                "ig1": 0,
                "vg2": null,
                "ig2": 0,
                "ik": 0.010212765957446808
            }],
            "vg1": -80
        }, {
            "p": [{
                "va": 424.55242966751916,
                "vg1": -75,
                "ig1": 0,
                "vg2": null,
                "ig2": 0,
                "ik": 0.000851063829787234
            }, {
                "va": 443.307757885763,
                "vg1": -75,
                "ig1": 0,
                "vg2": null,
                "ig2": 0,
                "ik": 0.003829787234042553
            }, {
                "va": 463.76811594202894,
                "vg1": -75,
                "ig1": 0,
                "vg2": null,
                "ig2": 0,
                "ik": 0.009361702127659575
            }, {
                "va": 484.6547314578005,
                "vg1": -75,
                "ig1": 0,
                "vg2": null,
                "ig2": 0,
                "ik": 0.016170212765957447
            }, {
                "va": 498.2949701619778,
                "vg1": -75,
                "ig1": 0,
                "vg2": null,
                "ig2": 0,
                "ik": 0.02212765957446808
            }],
            "vg1": -75
        }, {
            "p": [{
                "va": 391.7306052855925,
                "vg1": -70,
                "ig1": 0,
                "vg2": null,
                "ig2": 0,
                "ik": 0.001702127659574468
            }, {
                "va": 402.38704177323103,
                "vg1": -70,
                "ig1": 0,
                "vg2": null,
                "ig2": 0,
                "ik": 0.003404255319148936
            }, {
                "va": 416.02728047740834,
                "vg1": -70,
                "ig1": 0,
                "vg2": null,
                "ig2": 0,
                "ik": 0.005106382978723404
            }, {
                "va": 427.9624893435635,
                "vg1": -70,
                "ig1": 0,
                "vg2": null,
                "ig2": 0,
                "ik": 0.007659574468085106
            }, {
                "va": 443.7340153452685,
                "vg1": -70,
                "ig1": 0,
                "vg2": null,
                "ig2": 0,
                "ik": 0.012340425531914893
            }, {
                "va": 456.9479965899403,
                "vg1": -70,
                "ig1": 0,
                "vg2": null,
                "ig2": 0,
                "ik": 0.016170212765957447
            }, {
                "va": 472.71952259164533,
                "vg1": -70,
                "ig1": 0,
                "vg2": null,
                "ig2": 0,
                "ik": 0.02297872340425532
            }, {
                "va": 488.9173060528559,
                "vg1": -70,
                "ig1": 0,
                "vg2": null,
                "ig2": 0,
                "ik": 0.029361702127659574
            }, {
                "va": 499.57374254049444,
                "vg1": -70,
                "ig1": 0,
                "vg2": null,
                "ig2": 0,
                "ik": 0.035744680851063824
            }],
            "vg1": -70
        }, {
            "p": [{
                "va": 372.1227621483376,
                "vg1": -65,
                "ig1": 0,
                "vg2": null,
                "ig2": 0,
                "ik": 0.000851063829787234
            }, {
                "va": 389.17306052855923,
                "vg1": -65,
                "ig1": 0,
                "vg2": null,
                "ig2": 0,
                "ik": 0.005106382978723404
            }, {
                "va": 407.5021312872975,
                "vg1": -65,
                "ig1": 0,
                "vg2": null,
                "ig2": 0,
                "ik": 0.010638297872340425
            }, {
                "va": 423.27365728900253,
                "vg1": -65,
                "ig1": 0,
                "vg2": null,
                "ig2": 0,
                "ik": 0.01574468085106383
            }, {
                "va": 448.4228473998295,
                "vg1": -65,
                "ig1": 0,
                "vg2": null,
                "ig2": 0,
                "ik": 0.02382978723404255
            }, {
                "va": 463.76811594202894,
                "vg1": -65,
                "ig1": 0,
                "vg2": null,
                "ig2": 0,
                "ik": 0.032765957446808505
            }, {
                "va": 484.22847399829493,
                "vg1": -65,
                "ig1": 0,
                "vg2": null,
                "ig2": 0,
                "ik": 0.04425531914893616
            }, {
                "va": 497.44245524296673,
                "vg1": -65,
                "ig1": 0,
                "vg2": null,
                "ig2": 0,
                "ik": 0.05276595744680851
            }],
            "vg1": -65
        }, {
            "p": [{
                "va": 363.1713554987212,
                "vg1": -60,
                "ig1": 0,
                "vg2": null,
                "ig2": 0,
                "ik": 0.00425531914893617
            }, {
                "va": 380.22165387894285,
                "vg1": -60,
                "ig1": 0,
                "vg2": null,
                "ig2": 0,
                "ik": 0.009361702127659575
            }, {
                "va": 395.1406649616368,
                "vg1": -60,
                "ig1": 0,
                "vg2": null,
                "ig2": 0,
                "ik": 0.014042553191489362
            }, {
                "va": 414.7485080988917,
                "vg1": -60,
                "ig1": 0,
                "vg2": null,
                "ig2": 0,
                "ik": 0.02382978723404255
            }, {
                "va": 433.50383631713555,
                "vg1": -60,
                "ig1": 0,
                "vg2": null,
                "ig2": 0,
                "ik": 0.032765957446808505
            }, {
                "va": 452.25916453537934,
                "vg1": -60,
                "ig1": 0,
                "vg2": null,
                "ig2": 0,
                "ik": 0.0425531914893617
            }, {
                "va": 468.8832054560955,
                "vg1": -60,
                "ig1": 0,
                "vg2": null,
                "ig2": 0,
                "ik": 0.05361702127659574
            }, {
                "va": 483.8022165387894,
                "vg1": -60,
                "ig1": 0,
                "vg2": null,
                "ig2": 0,
                "ik": 0.06382978723404255
            }, {
                "va": 497.8687127024723,
                "vg1": -60,
                "ig1": 0,
                "vg2": null,
                "ig2": 0,
                "ik": 0.07531914893617021
            }],
            "vg1": -60
        }, {
            "p": [{
                "va": 343.98976982097184,
                "vg1": -55,
                "ig1": 0,
                "vg2": null,
                "ig2": 0,
                "ik": 0.005106382978723404
            }, {
                "va": 358.4825234441603,
                "vg1": -55,
                "ig1": 0,
                "vg2": null,
                "ig2": 0,
                "ik": 0.010638297872340425
            }, {
                "va": 369.9914748508099,
                "vg1": -55,
                "ig1": 0,
                "vg2": null,
                "ig2": 0,
                "ik": 0.01574468085106383
            }, {
                "va": 390.0255754475703,
                "vg1": -55,
                "ig1": 0,
                "vg2": null,
                "ig2": 0,
                "ik": 0.024680851063829785
            }, {
                "va": 410.91219096334186,
                "vg1": -55,
                "ig1": 0,
                "vg2": null,
                "ig2": 0,
                "ik": 0.03659574468085106
            }, {
                "va": 437.76641091219096,
                "vg1": -55,
                "ig1": 0,
                "vg2": null,
                "ig2": 0,
                "ik": 0.05489361702127659
            }, {
                "va": 454.8167092924126,
                "vg1": -55,
                "ig1": 0,
                "vg2": null,
                "ig2": 0,
                "ik": 0.06723404255319149
            }, {
                "va": 468.8832054560955,
                "vg1": -55,
                "ig1": 0,
                "vg2": null,
                "ig2": 0,
                "ik": 0.08
            }, {
                "va": 491.0485933503836,
                "vg1": -55,
                "ig1": 0,
                "vg2": null,
                "ig2": 0,
                "ik": 0.09957446808510638
            }],
            "vg1": -55
        }, {
            "p": [{
                "va": 311.5942028985507,
                "vg1": -50,
                "ig1": 0,
                "vg2": null,
                "ig2": 0,
                "ik": 0.005106382978723404
            }, {
                "va": 329.49701619778347,
                "vg1": -50,
                "ig1": 0,
                "vg2": null,
                "ig2": 0,
                "ik": 0.010638297872340425
            }, {
                "va": 349.5311167945439,
                "vg1": -50,
                "ig1": 0,
                "vg2": null,
                "ig2": 0,
                "ik": 0.01957446808510638
            }, {
                "va": 371.696504688832,
                "vg1": -50,
                "ig1": 0,
                "vg2": null,
                "ig2": 0,
                "ik": 0.03148936170212766
            }, {
                "va": 390.8780903665814,
                "vg1": -50,
                "ig1": 0,
                "vg2": null,
                "ig2": 0,
                "ik": 0.04468085106382978
            }, {
                "va": 410.91219096334186,
                "vg1": -50,
                "ig1": 0,
                "vg2": null,
                "ig2": 0,
                "ik": 0.06042553191489362
            }, {
                "va": 429.24126172208014,
                "vg1": -50,
                "ig1": 0,
                "vg2": null,
                "ig2": 0,
                "ik": 0.0748936170212766
            }, {
                "va": 445.01278772378515,
                "vg1": -50,
                "ig1": 0,
                "vg2": null,
                "ig2": 0,
                "ik": 0.0902127659574468
            }, {
                "va": 466.7519181585678,
                "vg1": -50,
                "ig1": 0,
                "vg2": null,
                "ig2": 0,
                "ik": 0.11148936170212766
            }],
            "vg1": -50
        }, {
            "p": [{
                "va": 289.8550724637681,
                "vg1": -45,
                "ig1": 0,
                "vg2": null,
                "ig2": 0,
                "ik": 0.010212765957446808
            }, {
                "va": 303.49531116794543,
                "vg1": -45,
                "ig1": 0,
                "vg2": null,
                "ig2": 0,
                "ik": 0.014042553191489362
            }, {
                "va": 318.84057971014494,
                "vg1": -45,
                "ig1": 0,
                "vg2": null,
                "ig2": 0,
                "ik": 0.01957446808510638
            }, {
                "va": 331.2020460358056,
                "vg1": -45,
                "ig1": 0,
                "vg2": null,
                "ig2": 0,
                "ik": 0.02595744680851064
            }, {
                "va": 341.43222506393863,
                "vg1": -45,
                "ig1": 0,
                "vg2": null,
                "ig2": 0,
                "ik": 0.030638297872340424
            }, {
                "va": 351.23614663256603,
                "vg1": -45,
                "ig1": 0,
                "vg2": null,
                "ig2": 0,
                "ik": 0.035744680851063824
            }, {
                "va": 362.7450980392157,
                "vg1": -45,
                "ig1": 0,
                "vg2": null,
                "ig2": 0,
                "ik": 0.04340425531914894
            }, {
                "va": 374.68030690537086,
                "vg1": -45,
                "ig1": 0,
                "vg2": null,
                "ig2": 0,
                "ik": 0.05446808510638298
            }, {
                "va": 391.7306052855925,
                "vg1": -45,
                "ig1": 0,
                "vg2": null,
                "ig2": 0,
                "ik": 0.0702127659574468
            }, {
                "va": 409.20716112531966,
                "vg1": -45,
                "ig1": 0,
                "vg2": null,
                "ig2": 0,
                "ik": 0.08680851063829788
            }, {
                "va": 424.55242966751916,
                "vg1": -45,
                "ig1": 0,
                "vg2": null,
                "ig2": 0,
                "ik": 0.10425531914893617
            }, {
                "va": 441.1764705882353,
                "vg1": -45,
                "ig1": 0,
                "vg2": null,
                "ig2": 0,
                "ik": 0.12085106382978723
            }],
            "vg1": -45
        }, {
            "p": [{
                "va": 243.81926683716964,
                "vg1": -40,
                "ig1": 0,
                "vg2": null,
                "ig2": 0,
                "ik": 0.005106382978723404
            }, {
                "va": 254.47570332480817,
                "vg1": -40,
                "ig1": 0,
                "vg2": null,
                "ig2": 0,
                "ik": 0.006808510638297872
            }, {
                "va": 264.70588235294116,
                "vg1": -40,
                "ig1": 0,
                "vg2": null,
                "ig2": 0,
                "ik": 0.010212765957446808
            }, {
                "va": 279.6248934356351,
                "vg1": -40,
                "ig1": 0,
                "vg2": null,
                "ig2": 0,
                "ik": 0.015319148936170212
            }, {
                "va": 291.56010230179027,
                "vg1": -40,
                "ig1": 0,
                "vg2": null,
                "ig2": 0,
                "ik": 0.020425531914893616
            }, {
                "va": 308.1841432225064,
                "vg1": -40,
                "ig1": 0,
                "vg2": null,
                "ig2": 0,
                "ik": 0.028936170212765955
            }, {
                "va": 323.9556692242114,
                "vg1": -40,
                "ig1": 0,
                "vg2": null,
                "ig2": 0,
                "ik": 0.04085106382978723
            }, {
                "va": 339.3009377664109,
                "vg1": -40,
                "ig1": 0,
                "vg2": null,
                "ig2": 0,
                "ik": 0.05191489361702128
            }, {
                "va": 354.6462063086104,
                "vg1": -40,
                "ig1": 0,
                "vg2": null,
                "ig2": 0,
                "ik": 0.0651063829787234
            }, {
                "va": 371.2702472293265,
                "vg1": -40,
                "ig1": 0,
                "vg2": null,
                "ig2": 0,
                "ik": 0.08170212765957446
            }, {
                "va": 389.17306052855923,
                "vg1": -40,
                "ig1": 0,
                "vg2": null,
                "ig2": 0,
                "ik": 0.09872340425531914
            }, {
                "va": 402.38704177323103,
                "vg1": -40,
                "ig1": 0,
                "vg2": null,
                "ig2": 0,
                "ik": 0.11404255319148936
            }, {
                "va": 419.0110826939471,
                "vg1": -40,
                "ig1": 0,
                "vg2": null,
                "ig2": 0,
                "ik": 0.13659574468085106
            }],
            "vg1": -40
        }, {
            "p": [{
                "va": 211.4236999147485,
                "vg1": -35,
                "ig1": 0,
                "vg2": null,
                "ig2": 0,
                "ik": 0.003404255319148936
            }, {
                "va": 225.49019607843135,
                "vg1": -35,
                "ig1": 0,
                "vg2": null,
                "ig2": 0,
                "ik": 0.005957446808510638
            }, {
                "va": 239.1304347826087,
                "vg1": -35,
                "ig1": 0,
                "vg2": null,
                "ig2": 0,
                "ik": 0.011914893617021275
            }, {
                "va": 257.45950554134697,
                "vg1": -35,
                "ig1": 0,
                "vg2": null,
                "ig2": 0,
                "ik": 0.019148936170212762
            }, {
                "va": 272.8047740835465,
                "vg1": -35,
                "ig1": 0,
                "vg2": null,
                "ig2": 0,
                "ik": 0.028085106382978724
            }, {
                "va": 291.56010230179027,
                "vg1": -35,
                "ig1": 0,
                "vg2": null,
                "ig2": 0,
                "ik": 0.04
            }, {
                "va": 310.7416879795396,
                "vg1": -35,
                "ig1": 0,
                "vg2": null,
                "ig2": 0,
                "ik": 0.05617021276595745
            }, {
                "va": 325.23444160272805,
                "vg1": -35,
                "ig1": 0,
                "vg2": null,
                "ig2": 0,
                "ik": 0.06851063829787234
            }, {
                "va": 338.87468030690536,
                "vg1": -35,
                "ig1": 0,
                "vg2": null,
                "ig2": 0,
                "ik": 0.08255319148936169
            }, {
                "va": 359.33503836317135,
                "vg1": -35,
                "ig1": 0,
                "vg2": null,
                "ig2": 0,
                "ik": 0.10212765957446808
            }, {
                "va": 386.61551577152596,
                "vg1": -35,
                "ig1": 0,
                "vg2": null,
                "ig2": 0,
                "ik": 0.1353191489361702
            }, {
                "va": 398.5507246376811,
                "vg1": -35,
                "ig1": 0,
                "vg2": null,
                "ig2": 0,
                "ik": 0.1497872340425532
            }],
            "vg1": -35
        }, {
            "p": [{
                "va": 191.38959931798806,
                "vg1": -30,
                "ig1": 0,
                "vg2": null,
                "ig2": 0,
                "ik": 0.005957446808510638
            }, {
                "va": 201.61977834612105,
                "vg1": -30,
                "ig1": 0,
                "vg2": null,
                "ig2": 0,
                "ik": 0.008936170212765956
            }, {
                "va": 214.4075021312873,
                "vg1": -30,
                "ig1": 0,
                "vg2": null,
                "ig2": 0,
                "ik": 0.013617021276595745
            }, {
                "va": 229.75277067348676,
                "vg1": -30,
                "ig1": 0,
                "vg2": null,
                "ig2": 0,
                "ik": 0.020425531914893616
            }, {
                "va": 246.80306905370844,
                "vg1": -30,
                "ig1": 0,
                "vg2": null,
                "ig2": 0,
                "ik": 0.031063829787234043
            }, {
                "va": 264.70588235294116,
                "vg1": -30,
                "ig1": 0,
                "vg2": null,
                "ig2": 0,
                "ik": 0.0451063829787234
            }, {
                "va": 278.34612105711847,
                "vg1": -30,
                "ig1": 0,
                "vg2": null,
                "ig2": 0,
                "ik": 0.05659574468085106
            }, {
                "va": 291.1338448422847,
                "vg1": -30,
                "ig1": 0,
                "vg2": null,
                "ig2": 0,
                "ik": 0.06893617021276596
            }, {
                "va": 307.3316283034953,
                "vg1": -30,
                "ig1": 0,
                "vg2": null,
                "ig2": 0,
                "ik": 0.08553191489361701
            }, {
                "va": 320.97186700767264,
                "vg1": -30,
                "ig1": 0,
                "vg2": null,
                "ig2": 0,
                "ik": 0.10085106382978723
            }, {
                "va": 341.43222506393863,
                "vg1": -30,
                "ig1": 0,
                "vg2": null,
                "ig2": 0,
                "ik": 0.12468085106382978
            }, {
                "va": 372.1227621483376,
                "vg1": -30,
                "ig1": 0,
                "vg2": null,
                "ig2": 0,
                "ik": 0.16340425531914893
            }],
            "vg1": -30
        }, {
            "p": [{
                "va": 150.46888320545608,
                "vg1": -25,
                "ig1": 0,
                "vg2": null,
                "ig2": 0,
                "ik": 0.00425531914893617
            }, {
                "va": 163.25660699062232,
                "vg1": -25,
                "ig1": 0,
                "vg2": null,
                "ig2": 0,
                "ik": 0.00851063829787234
            }, {
                "va": 183.7169650468883,
                "vg1": -25,
                "ig1": 0,
                "vg2": null,
                "ig2": 0,
                "ik": 0.014468085106382977
            }, {
                "va": 199.48849104859335,
                "vg1": -25,
                "ig1": 0,
                "vg2": null,
                "ig2": 0,
                "ik": 0.02212765957446808
            }, {
                "va": 220.37510656436487,
                "vg1": -25,
                "ig1": 0,
                "vg2": null,
                "ig2": 0,
                "ik": 0.03446808510638298
            }, {
                "va": 233.58908780903664,
                "vg1": -25,
                "ig1": 0,
                "vg2": null,
                "ig2": 0,
                "ik": 0.0451063829787234
            }, {
                "va": 243.3930093776641,
                "vg1": -25,
                "ig1": 0,
                "vg2": null,
                "ig2": 0,
                "ik": 0.05361702127659574
            }, {
                "va": 252.77067348678602,
                "vg1": -25,
                "ig1": 0,
                "vg2": null,
                "ig2": 0,
                "ik": 0.06297872340425532
            }, {
                "va": 266.41091219096336,
                "vg1": -25,
                "ig1": 0,
                "vg2": null,
                "ig2": 0,
                "ik": 0.0748936170212766
            }, {
                "va": 280.05115089514067,
                "vg1": -25,
                "ig1": 0,
                "vg2": null,
                "ig2": 0,
                "ik": 0.08893617021276595
            }, {
                "va": 293.2651321398124,
                "vg1": -25,
                "ig1": 0,
                "vg2": null,
                "ig2": 0,
                "ik": 0.10553191489361702
            }, {
                "va": 312.4467178175618,
                "vg1": -25,
                "ig1": 0,
                "vg2": null,
                "ig2": 0,
                "ik": 0.1302127659574468
            }, {
                "va": 330.7757885763001,
                "vg1": -25,
                "ig1": 0,
                "vg2": null,
                "ig2": 0,
                "ik": 0.15659574468085105
            }, {
                "va": 346.5473145780051,
                "vg1": -25,
                "ig1": 0,
                "vg2": null,
                "ig2": 0,
                "ik": 0.18085106382978722
            }],
            "vg1": -25
        }, {
            "p": [{
                "va": 129.15601023017902,
                "vg1": -20,
                "ig1": 0,
                "vg2": null,
                "ig2": 0,
                "ik": 0.005106382978723404
            }, {
                "va": 143.64876385336743,
                "vg1": -20,
                "ig1": 0,
                "vg2": null,
                "ig2": 0,
                "ik": 0.010212765957446808
            }, {
                "va": 158.9940323955669,
                "vg1": -20,
                "ig1": 0,
                "vg2": null,
                "ig2": 0,
                "ik": 0.016170212765957447
            }, {
                "va": 175.19181585677748,
                "vg1": -20,
                "ig1": 0,
                "vg2": null,
                "ig2": 0,
                "ik": 0.024680851063829785
            }, {
                "va": 197.35720375106564,
                "vg1": -20,
                "ig1": 0,
                "vg2": null,
                "ig2": 0,
                "ik": 0.04085106382978723
            }, {
                "va": 212.70247229326512,
                "vg1": -20,
                "ig1": 0,
                "vg2": null,
                "ig2": 0,
                "ik": 0.05489361702127659
            }, {
                "va": 223.35890878090365,
                "vg1": -20,
                "ig1": 0,
                "vg2": null,
                "ig2": 0,
                "ik": 0.06553191489361701
            }, {
                "va": 239.98294970161976,
                "vg1": -20,
                "ig1": 0,
                "vg2": null,
                "ig2": 0,
                "ik": 0.08255319148936169
            }, {
                "va": 256.18073316283034,
                "vg1": -20,
                "ig1": 0,
                "vg2": null,
                "ig2": 0,
                "ik": 0.10553191489361702
            }, {
                "va": 280.05115089514067,
                "vg1": -20,
                "ig1": 0,
                "vg2": null,
                "ig2": 0,
                "ik": 0.14
            }, {
                "va": 320.5456095481671,
                "vg1": -20,
                "ig1": 0,
                "vg2": null,
                "ig2": 0,
                "ik": 0.1995744680851064
            }],
            "vg1": -20
        }, {
            "p": [{
                "va": 91.64535379369138,
                "vg1": -15,
                "ig1": 0,
                "vg2": null,
                "ig2": 0,
                "ik": 0.002553191489361702
            }, {
                "va": 107.84313725490196,
                "vg1": -15,
                "ig1": 0,
                "vg2": null,
                "ig2": 0,
                "ik": 0.00851063829787234
            }, {
                "va": 122.7621483375959,
                "vg1": -15,
                "ig1": 0,
                "vg2": null,
                "ig2": 0,
                "ik": 0.014468085106382977
            }, {
                "va": 135.1236146632566,
                "vg1": -15,
                "ig1": 0,
                "vg2": null,
                "ig2": 0,
                "ik": 0.02127659574468085
            }, {
                "va": 148.76385336743394,
                "vg1": -15,
                "ig1": 0,
                "vg2": null,
                "ig2": 0,
                "ik": 0.03148936170212766
            }, {
                "va": 163.25660699062232,
                "vg1": -15,
                "ig1": 0,
                "vg2": null,
                "ig2": 0,
                "ik": 0.04340425531914894
            }, {
                "va": 172.63427109974424,
                "vg1": -15,
                "ig1": 0,
                "vg2": null,
                "ig2": 0,
                "ik": 0.05446808510638298
            }, {
                "va": 187.55328218243818,
                "vg1": -15,
                "ig1": 0,
                "vg2": null,
                "ig2": 0,
                "ik": 0.0702127659574468
            }, {
                "va": 204.1773231031543,
                "vg1": -15,
                "ig1": 0,
                "vg2": null,
                "ig2": 0,
                "ik": 0.09063829787234041
            }, {
                "va": 218.24381926683716,
                "vg1": -15,
                "ig1": 0,
                "vg2": null,
                "ig2": 0,
                "ik": 0.10936170212765957
            }, {
                "va": 232.31031543052003,
                "vg1": -15,
                "ig1": 0,
                "vg2": null,
                "ig2": 0,
                "ik": 0.1302127659574468
            }, {
                "va": 247.22932651321398,
                "vg1": -15,
                "ig1": 0,
                "vg2": null,
                "ig2": 0,
                "ik": 0.15361702127659574
            }, {
                "va": 289.42881500426256,
                "vg1": -15,
                "ig1": 0,
                "vg2": null,
                "ig2": 0,
                "ik": 0.2178723404255319
            }],
            "vg1": -15
        }, {
            "p": [{
                "va": 59.249786871270246,
                "vg1": -10,
                "ig1": 0,
                "vg2": null,
                "ig2": 0,
                "ik": 0.003829787234042553
            }, {
                "va": 75.44757033248082,
                "vg1": -10,
                "ig1": 0,
                "vg2": null,
                "ig2": 0,
                "ik": 0.009361702127659575
            }, {
                "va": 92.07161125319693,
                "vg1": -10,
                "ig1": 0,
                "vg2": null,
                "ig2": 0,
                "ik": 0.01702127659574468
            }, {
                "va": 107.41687979539641,
                "vg1": -10,
                "ig1": 0,
                "vg2": null,
                "ig2": 0,
                "ik": 0.02723404255319149
            }, {
                "va": 120.6308610400682,
                "vg1": -10,
                "ig1": 0,
                "vg2": null,
                "ig2": 0,
                "ik": 0.03659574468085106
            }, {
                "va": 131.71355498721226,
                "vg1": -10,
                "ig1": 0,
                "vg2": null,
                "ig2": 0,
                "ik": 0.04808510638297872
            }, {
                "va": 149.616368286445,
                "vg1": -10,
                "ig1": 0,
                "vg2": null,
                "ig2": 0,
                "ik": 0.06680851063829787
            }, {
                "va": 164.9616368286445,
                "vg1": -10,
                "ig1": 0,
                "vg2": null,
                "ig2": 0,
                "ik": 0.08680851063829788
            }, {
                "va": 187.97953964194372,
                "vg1": -10,
                "ig1": 0,
                "vg2": null,
                "ig2": 0,
                "ik": 0.11914893617021276
            }, {
                "va": 207.58738277919863,
                "vg1": -10,
                "ig1": 0,
                "vg2": null,
                "ig2": 0,
                "ik": 0.15361702127659574
            }, {
                "va": 234.01534526854218,
                "vg1": -10,
                "ig1": 0,
                "vg2": null,
                "ig2": 0,
                "ik": 0.19744680851063828
            }, {
                "va": 260.44330775788575,
                "vg1": -10,
                "ig1": 0,
                "vg2": null,
                "ig2": 0,
                "ik": 0.24085106382978722
            }],
            "vg1": -10
        }, {
            "p": [{
                "va": 20.460358056265985,
                "vg1": -5,
                "ig1": 0,
                "vg2": null,
                "ig2": 0,
                "ik": 0.002553191489361702
            }, {
                "va": 30.264279624893433,
                "vg1": -5,
                "ig1": 0,
                "vg2": null,
                "ig2": 0,
                "ik": 0.006808510638297872
            }, {
                "va": 40.92071611253197,
                "vg1": -5,
                "ig1": 0,
                "vg2": null,
                "ig2": 0,
                "ik": 0.012340425531914893
            }, {
                "va": 52.429667519181585,
                "vg1": -5,
                "ig1": 0,
                "vg2": null,
                "ig2": 0,
                "ik": 0.019148936170212762
            }, {
                "va": 69.47996589940324,
                "vg1": -5,
                "ig1": 0,
                "vg2": null,
                "ig2": 0,
                "ik": 0.03234042553191489
            }, {
                "va": 85.25149190110827,
                "vg1": -5,
                "ig1": 0,
                "vg2": null,
                "ig2": 0,
                "ik": 0.04425531914893616
            }, {
                "va": 100.17050298380221,
                "vg1": -5,
                "ig1": 0,
                "vg2": null,
                "ig2": 0,
                "ik": 0.05957446808510638
            }, {
                "va": 114.66325660699061,
                "vg1": -5,
                "ig1": 0,
                "vg2": null,
                "ig2": 0,
                "ik": 0.07702127659574468
            }, {
                "va": 130.0085251491901,
                "vg1": -5,
                "ig1": 0,
                "vg2": null,
                "ig2": 0,
                "ik": 0.09914893617021277
            }, {
                "va": 150.04262574595055,
                "vg1": -5,
                "ig1": 0,
                "vg2": null,
                "ig2": 0,
                "ik": 0.12680851063829787
            }, {
                "va": 169.2242114236999,
                "vg1": -5,
                "ig1": 0,
                "vg2": null,
                "ig2": 0,
                "ik": 0.16
            }, {
                "va": 187.55328218243818,
                "vg1": -5,
                "ig1": 0,
                "vg2": null,
                "ig2": 0,
                "ik": 0.1906382978723404
            }, {
                "va": 205.88235294117646,
                "vg1": -5,
                "ig1": 0,
                "vg2": null,
                "ig2": 0,
                "ik": 0.22340425531914893
            }, {
                "va": 228.47399829497016,
                "vg1": -5,
                "ig1": 0,
                "vg2": null,
                "ig2": 0,
                "ik": 0.2625531914893617
            }],
            "vg1": -5
        }, {
            "p": [{
                "va": 9.80392156862745,
                "vg1": 0,
                "ig1": 0,
                "vg2": null,
                "ig2": 0,
                "ik": 0.00553191489361702
            }, {
                "va": 20.460358056265985,
                "vg1": 0,
                "ig1": 0,
                "vg2": null,
                "ig2": 0,
                "ik": 0.014468085106382977
            }, {
                "va": 35.80562659846547,
                "vg1": 0,
                "ig1": 0,
                "vg2": null,
                "ig2": 0,
                "ik": 0.028085106382978724
            }, {
                "va": 52.429667519181585,
                "vg1": 0,
                "ig1": 0,
                "vg2": null,
                "ig2": 0,
                "ik": 0.04595744680851064
            }, {
                "va": 64.79113384484228,
                "vg1": 0,
                "ig1": 0,
                "vg2": null,
                "ig2": 0,
                "ik": 0.06297872340425532
            }, {
                "va": 82.26768968456948,
                "vg1": 0,
                "ig1": 0,
                "vg2": null,
                "ig2": 0,
                "ik": 0.08680851063829788
            }, {
                "va": 105.2855924978687,
                "vg1": 0,
                "ig1": 0,
                "vg2": null,
                "ig2": 0,
                "ik": 0.12127659574468085
            }, {
                "va": 118.07331628303496,
                "vg1": 0,
                "ig1": 0,
                "vg2": null,
                "ig2": 0,
                "ik": 0.14382978723404255
            }, {
                "va": 137.68115942028984,
                "vg1": 0,
                "ig1": 0,
                "vg2": null,
                "ig2": 0,
                "ik": 0.17617021276595746
            }, {
                "va": 155.15771526001706,
                "vg1": 0,
                "ig1": 0,
                "vg2": null,
                "ig2": 0,
                "ik": 0.2076595744680851
            }, {
                "va": 172.63427109974424,
                "vg1": 0,
                "ig1": 0,
                "vg2": null,
                "ig2": 0,
                "ik": 0.2425531914893617
            }, {
                "va": 184.14322250639387,
                "vg1": 0,
                "ig1": 0,
                "vg2": null,
                "ig2": 0,
                "ik": 0.26893617021276595
            }, {
                "va": 199.0622335890878,
                "vg1": 0,
                "ig1": 0,
                "vg2": null,
                "ig2": 0,
                "ik": 0.2982978723404255
            }],
            "vg1": 0
        }],
        "vg2": null,
        "logX": false,
        "logY": false,
        "name": "KT88 - Pseudo triode",
        "raw": false,
        "unit": null,
        "triode": true
    }
}
