{
    "filename": "pentode ecf.json",
    "tubeGraph": {
        "c": [{
            "p": [{
                "va": 0,
                "vg1": -4,
                "ig1": 0,
                "vg2": 200,
                "ig2": 0,
                "ik": 0
            }, {
                "va": 3.640776699029126,
                "vg1": -4,
                "ig1": 0,
                "vg2": 200,
                "ig2": 0,
                "ik": 0.000860655737704918
            }, {
                "va": 10.436893203883495,
                "vg1": -4,
                "ig1": 0,
                "vg2": 200,
                "ig2": 0,
                "ik": 0.0015778688524590164
            }, {
                "va": 17.718446601941746,
                "vg1": -4,
                "ig1": 0,
                "vg2": 200,
                "ig2": 0,
                "ik": 0.0021038251366120217
            }, {
                "va": 31.067961165048544,
                "vg1": -4,
                "ig1": 0,
                "vg2": 200,
                "ig2": 0,
                "ik": 0.002725409836065574
            }, {
                "va": 41.019417475728154,
                "vg1": -4,
                "ig1": 0,
                "vg2": 200,
                "ig2": 0,
                "ik": 0.0029166666666666664
            }, {
                "va": 47.81553398058252,
                "vg1": -4,
                "ig1": 0,
                "vg2": 200,
                "ig2": 0,
                "ik": 0.00296448087431694
            }, {
                "va": 54.36893203883495,
                "vg1": -4,
                "ig1": 0,
                "vg2": 200,
                "ig2": 0,
                "ik": 0.0031079234972677594
            }, {
                "va": 99.51456310679612,
                "vg1": -4,
                "ig1": 0,
                "vg2": 200,
                "ig2": 0,
                "ik": 0.003203551912568306
            }, {
                "va": 149.75728155339806,
                "vg1": -4,
                "ig1": 0,
                "vg2": 200,
                "ig2": 0,
                "ik": 0.003251366120218579
            }, {
                "va": 183.7378640776699,
                "vg1": -4,
                "ig1": 0,
                "vg2": 200,
                "ig2": 0,
                "ik": 0.003394808743169399
            }, {
                "va": 212.8640776699029,
                "vg1": -4,
                "ig1": 0,
                "vg2": 200,
                "ig2": 0,
                "ik": 0.003442622950819672
            }, {
                "va": 249.51456310679612,
                "vg1": -4,
                "ig1": 0,
                "vg2": 200,
                "ig2": 0,
                "ik": 0.0035382513661202184
            }],
            "vg1": -4
        }, {
            "p": [{
                "va": 0,
                "vg1": -3.5,
                "ig1": 0,
                "vg2": 200,
                "ig2": 0,
                "ik": 0
            }, {
                "va": 1.941747572815534,
                "vg1": -3.5,
                "ig1": 0,
                "vg2": 200,
                "ig2": 0,
                "ik": 0.001290983606557377
            }, {
                "va": 5.097087378640777,
                "vg1": -3.5,
                "ig1": 0,
                "vg2": 200,
                "ig2": 0,
                "ik": 0.0022472677595628413
            }, {
                "va": 11.16504854368932,
                "vg1": -3.5,
                "ig1": 0,
                "vg2": 200,
                "ig2": 0,
                "ik": 0.003155737704918033
            }, {
                "va": 16.504854368932037,
                "vg1": -3.5,
                "ig1": 0,
                "vg2": 200,
                "ig2": 0,
                "ik": 0.0037295081967213114
            }, {
                "va": 20.87378640776699,
                "vg1": -3.5,
                "ig1": 0,
                "vg2": 200,
                "ig2": 0,
                "ik": 0.0041598360655737705
            }, {
                "va": 31.553398058252426,
                "vg1": -3.5,
                "ig1": 0,
                "vg2": 200,
                "ig2": 0,
                "ik": 0.0046379781420765025
            }, {
                "va": 39.80582524271845,
                "vg1": -3.5,
                "ig1": 0,
                "vg2": 200,
                "ig2": 0,
                "ik": 0.004877049180327869
            }, {
                "va": 47.0873786407767,
                "vg1": -3.5,
                "ig1": 0,
                "vg2": 200,
                "ig2": 0,
                "ik": 0.0051161202185792355
            }, {
                "va": 62.13592233009709,
                "vg1": -3.5,
                "ig1": 0,
                "vg2": 200,
                "ig2": 0,
                "ik": 0.005163934426229508
            }, {
                "va": 71.84466019417475,
                "vg1": -3.5,
                "ig1": 0,
                "vg2": 200,
                "ig2": 0,
                "ik": 0.005163934426229508
            }, {
                "va": 85.4368932038835,
                "vg1": -3.5,
                "ig1": 0,
                "vg2": 200,
                "ig2": 0,
                "ik": 0.005163934426229508
            }, {
                "va": 153.88349514563106,
                "vg1": -3.5,
                "ig1": 0,
                "vg2": 200,
                "ig2": 0,
                "ik": 0.005307377049180328
            }, {
                "va": 220.14563106796115,
                "vg1": -3.5,
                "ig1": 0,
                "vg2": 200,
                "ig2": 0,
                "ik": 0.005450819672131148
            }, {
                "va": 249.02912621359224,
                "vg1": -3.5,
                "ig1": 0,
                "vg2": 200,
                "ig2": 0,
                "ik": 0.00564207650273224
            }],
            "vg1": -3.5
        }, {
            "p": [{
                "va": 0,
                "vg1": -3,
                "ig1": 0,
                "vg2": 200,
                "ig2": 0,
                "ik": 0
            }, {
                "va": 2.912621359223301,
                "vg1": -3,
                "ig1": 0,
                "vg2": 200,
                "ig2": 0,
                "ik": 0.003394808743169399
            }, {
                "va": 7.038834951456311,
                "vg1": -3,
                "ig1": 0,
                "vg2": 200,
                "ig2": 0,
                "ik": 0.004685792349726776
            }, {
                "va": 12.135922330097086,
                "vg1": -3,
                "ig1": 0,
                "vg2": 200,
                "ig2": 0,
                "ik": 0.005737704918032787
            }, {
                "va": 18.932038834951456,
                "vg1": -3,
                "ig1": 0,
                "vg2": 200,
                "ig2": 0,
                "ik": 0.006502732240437158
            }, {
                "va": 27.427184466019416,
                "vg1": -3,
                "ig1": 0,
                "vg2": 200,
                "ig2": 0,
                "ik": 0.007172131147540983
            }, {
                "va": 38.349514563106794,
                "vg1": -3,
                "ig1": 0,
                "vg2": 200,
                "ig2": 0,
                "ik": 0.007459016393442623
            }, {
                "va": 47.33009708737864,
                "vg1": -3,
                "ig1": 0,
                "vg2": 200,
                "ig2": 0,
                "ik": 0.007554644808743169
            }, {
                "va": 60.43689320388349,
                "vg1": -3,
                "ig1": 0,
                "vg2": 200,
                "ig2": 0,
                "ik": 0.007698087431693989
            }, {
                "va": 73.54368932038835,
                "vg1": -3,
                "ig1": 0,
                "vg2": 200,
                "ig2": 0,
                "ik": 0.007793715846994536
            }, {
                "va": 90.29126213592232,
                "vg1": -3,
                "ig1": 0,
                "vg2": 200,
                "ig2": 0,
                "ik": 0.007889344262295083
            }, {
                "va": 105.58252427184466,
                "vg1": -3,
                "ig1": 0,
                "vg2": 200,
                "ig2": 0,
                "ik": 0.007937158469945355
            }, {
                "va": 117.71844660194175,
                "vg1": -3,
                "ig1": 0,
                "vg2": 200,
                "ig2": 0,
                "ik": 0.007984972677595629
            }, {
                "va": 146.84466019417476,
                "vg1": -3,
                "ig1": 0,
                "vg2": 200,
                "ig2": 0,
                "ik": 0.008128415300546449
            }, {
                "va": 180.8252427184466,
                "vg1": -3,
                "ig1": 0,
                "vg2": 200,
                "ig2": 0,
                "ik": 0.008224043715846995
            }, {
                "va": 216.2621359223301,
                "vg1": -3,
                "ig1": 0,
                "vg2": 200,
                "ig2": 0,
                "ik": 0.008367486338797815
            }, {
                "va": 233.98058252427185,
                "vg1": -3,
                "ig1": 0,
                "vg2": 200,
                "ig2": 0,
                "ik": 0.008510928961748635
            }, {
                "va": 244.17475728155338,
                "vg1": -3,
                "ig1": 0,
                "vg2": 200,
                "ig2": 0,
                "ik": 0.008606557377049179
            }],
            "vg1": -3
        }, {
            "p": [{
                "va": 0,
                "vg1": -2.5,
                "ig1": 0,
                "vg2": 200,
                "ig2": 0,
                "ik": 0
            }, {
                "va": 5.097087378640777,
                "vg1": -2.5,
                "ig1": 0,
                "vg2": 200,
                "ig2": 0,
                "ik": 0.006168032786885246
            }, {
                "va": 8.495145631067961,
                "vg1": -2.5,
                "ig1": 0,
                "vg2": 200,
                "ig2": 0,
                "ik": 0.007363387978142076
            }, {
                "va": 13.592233009708737,
                "vg1": -2.5,
                "ig1": 0,
                "vg2": 200,
                "ig2": 0,
                "ik": 0.008367486338797815
            }, {
                "va": 20.631067961165048,
                "vg1": -2.5,
                "ig1": 0,
                "vg2": 200,
                "ig2": 0,
                "ik": 0.009036885245901639
            }, {
                "va": 28.883495145631066,
                "vg1": -2.5,
                "ig1": 0,
                "vg2": 200,
                "ig2": 0,
                "ik": 0.009562841530054645
            }, {
                "va": 41.262135922330096,
                "vg1": -2.5,
                "ig1": 0,
                "vg2": 200,
                "ig2": 0,
                "ik": 0.010136612021857923
            }, {
                "va": 49.029126213592235,
                "vg1": -2.5,
                "ig1": 0,
                "vg2": 200,
                "ig2": 0,
                "ik": 0.010280054644808743
            }, {
                "va": 61.165048543689316,
                "vg1": -2.5,
                "ig1": 0,
                "vg2": 200,
                "ig2": 0,
                "ik": 0.01051912568306011
            }, {
                "va": 73.54368932038835,
                "vg1": -2.5,
                "ig1": 0,
                "vg2": 200,
                "ig2": 0,
                "ik": 0.010614754098360655
            }, {
                "va": 81.55339805825243,
                "vg1": -2.5,
                "ig1": 0,
                "vg2": 200,
                "ig2": 0,
                "ik": 0.010710382513661201
            }, {
                "va": 88.3495145631068,
                "vg1": -2.5,
                "ig1": 0,
                "vg2": 200,
                "ig2": 0,
                "ik": 0.010758196721311475
            }, {
                "va": 95.63106796116504,
                "vg1": -2.5,
                "ig1": 0,
                "vg2": 200,
                "ig2": 0,
                "ik": 0.010806010928961749
            }, {
                "va": 120.14563106796116,
                "vg1": -2.5,
                "ig1": 0,
                "vg2": 200,
                "ig2": 0,
                "ik": 0.010997267759562841
            }, {
                "va": 134.2233009708738,
                "vg1": -2.5,
                "ig1": 0,
                "vg2": 200,
                "ig2": 0,
                "ik": 0.011045081967213115
            }, {
                "va": 149.51456310679612,
                "vg1": -2.5,
                "ig1": 0,
                "vg2": 200,
                "ig2": 0,
                "ik": 0.01114071038251366
            }, {
                "va": 168.6893203883495,
                "vg1": -2.5,
                "ig1": 0,
                "vg2": 200,
                "ig2": 0,
                "ik": 0.011236338797814207
            }, {
                "va": 187.62135922330097,
                "vg1": -2.5,
                "ig1": 0,
                "vg2": 200,
                "ig2": 0,
                "ik": 0.011188524590163935
            }, {
                "va": 208.7378640776699,
                "vg1": -2.5,
                "ig1": 0,
                "vg2": 200,
                "ig2": 0,
                "ik": 0.011331967213114753
            }, {
                "va": 227.18446601941747,
                "vg1": -2.5,
                "ig1": 0,
                "vg2": 200,
                "ig2": 0,
                "ik": 0.011379781420765027
            }, {
                "va": 241.01941747572815,
                "vg1": -2.5,
                "ig1": 0,
                "vg2": 200,
                "ig2": 0,
                "ik": 0.011379781420765027
            }, {
                "va": 245.3883495145631,
                "vg1": -2.5,
                "ig1": 0,
                "vg2": 200,
                "ig2": 0,
                "ik": 0.011427595628415301
            }],
            "vg1": -2.5
        }, {
            "p": [{
                "va": 0,
                "vg1": -2,
                "ig1": 0,
                "vg2": 200,
                "ig2": 0,
                "ik": 0
            }, {
                "va": 5.825242718446602,
                "vg1": -2,
                "ig1": 0,
                "vg2": 200,
                "ig2": 0,
                "ik": 0.007745901639344262
            }, {
                "va": 7.038834951456311,
                "vg1": -2,
                "ig1": 0,
                "vg2": 200,
                "ig2": 0,
                "ik": 0.00875
            }, {
                "va": 10.679611650485437,
                "vg1": -2,
                "ig1": 0,
                "vg2": 200,
                "ig2": 0,
                "ik": 0.009897540983606557
            }, {
                "va": 15.291262135922329,
                "vg1": -2,
                "ig1": 0,
                "vg2": 200,
                "ig2": 0,
                "ik": 0.010997267759562841
            }, {
                "va": 21.844660194174757,
                "vg1": -2,
                "ig1": 0,
                "vg2": 200,
                "ig2": 0,
                "ik": 0.01200136612021858
            }, {
                "va": 28.398058252427184,
                "vg1": -2,
                "ig1": 0,
                "vg2": 200,
                "ig2": 0,
                "ik": 0.012622950819672131
            }, {
                "va": 36.407766990291265,
                "vg1": -2,
                "ig1": 0,
                "vg2": 200,
                "ig2": 0,
                "ik": 0.013053278688524591
            }, {
                "va": 48.05825242718446,
                "vg1": -2,
                "ig1": 0,
                "vg2": 200,
                "ig2": 0,
                "ik": 0.013531420765027322
            }, {
                "va": 59.95145631067961,
                "vg1": -2,
                "ig1": 0,
                "vg2": 200,
                "ig2": 0,
                "ik": 0.013818306010928962
            }, {
                "va": 71.35922330097087,
                "vg1": -2,
                "ig1": 0,
                "vg2": 200,
                "ig2": 0,
                "ik": 0.013913934426229508
            }, {
                "va": 84.22330097087378,
                "vg1": -2,
                "ig1": 0,
                "vg2": 200,
                "ig2": 0,
                "ik": 0.014009562841530055
            }, {
                "va": 92.23300970873787,
                "vg1": -2,
                "ig1": 0,
                "vg2": 200,
                "ig2": 0,
                "ik": 0.014009562841530055
            }, {
                "va": 111.16504854368932,
                "vg1": -2,
                "ig1": 0,
                "vg2": 200,
                "ig2": 0,
                "ik": 0.014105191256830601
            }, {
                "va": 128.88349514563106,
                "vg1": -2,
                "ig1": 0,
                "vg2": 200,
                "ig2": 0,
                "ik": 0.014248633879781421
            }, {
                "va": 146.35922330097088,
                "vg1": -2,
                "ig1": 0,
                "vg2": 200,
                "ig2": 0,
                "ik": 0.014248633879781421
            }, {
                "va": 172.5728155339806,
                "vg1": -2,
                "ig1": 0,
                "vg2": 200,
                "ig2": 0,
                "ik": 0.014439890710382514
            }, {
                "va": 202.18446601941747,
                "vg1": -2,
                "ig1": 0,
                "vg2": 200,
                "ig2": 0,
                "ik": 0.014487704918032786
            }, {
                "va": 221.60194174757282,
                "vg1": -2,
                "ig1": 0,
                "vg2": 200,
                "ig2": 0,
                "ik": 0.01467896174863388
            }, {
                "va": 246.84466019417476,
                "vg1": -2,
                "ig1": 0,
                "vg2": 200,
                "ig2": 0,
                "ik": 0.014726775956284152
            }],
            "vg1": -2
        }, {
            "p": [{
                "va": 0,
                "vg1": -1.5,
                "ig1": 0,
                "vg2": 200,
                "ig2": 0,
                "ik": 0
            }, {
                "va": 3.883495145631068,
                "vg1": -1.5,
                "ig1": 0,
                "vg2": 200,
                "ig2": 0,
                "ik": 0.004064207650273224
            }, {
                "va": 6.067961165048543,
                "vg1": -1.5,
                "ig1": 0,
                "vg2": 200,
                "ig2": 0,
                "ik": 0.008224043715846995
            }, {
                "va": 8.737864077669903,
                "vg1": -1.5,
                "ig1": 0,
                "vg2": 200,
                "ig2": 0,
                "ik": 0.010758196721311475
            }, {
                "va": 13.106796116504855,
                "vg1": -1.5,
                "ig1": 0,
                "vg2": 200,
                "ig2": 0,
                "ik": 0.012479508196721311
            }, {
                "va": 18.446601941747574,
                "vg1": -1.5,
                "ig1": 0,
                "vg2": 200,
                "ig2": 0,
                "ik": 0.013961748633879782
            }, {
                "va": 23.058252427184467,
                "vg1": -1.5,
                "ig1": 0,
                "vg2": 200,
                "ig2": 0,
                "ik": 0.014918032786885246
            }, {
                "va": 29.126213592233007,
                "vg1": -1.5,
                "ig1": 0,
                "vg2": 200,
                "ig2": 0,
                "ik": 0.015683060109289618
            }, {
                "va": 41.019417475728154,
                "vg1": -1.5,
                "ig1": 0,
                "vg2": 200,
                "ig2": 0,
                "ik": 0.01659153005464481
            }, {
                "va": 53.398058252427184,
                "vg1": -1.5,
                "ig1": 0,
                "vg2": 200,
                "ig2": 0,
                "ik": 0.017117486338797814
            }, {
                "va": 63.83495145631068,
                "vg1": -1.5,
                "ig1": 0,
                "vg2": 200,
                "ig2": 0,
                "ik": 0.0175
            }, {
                "va": 74.27184466019418,
                "vg1": -1.5,
                "ig1": 0,
                "vg2": 200,
                "ig2": 0,
                "ik": 0.017547814207650274
            }, {
                "va": 91.99029126213593,
                "vg1": -1.5,
                "ig1": 0,
                "vg2": 200,
                "ig2": 0,
                "ik": 0.01769125683060109
            }, {
                "va": 111.16504854368932,
                "vg1": -1.5,
                "ig1": 0,
                "vg2": 200,
                "ig2": 0,
                "ik": 0.017834699453551914
            }, {
                "va": 134.95145631067962,
                "vg1": -1.5,
                "ig1": 0,
                "vg2": 200,
                "ig2": 0,
                "ik": 0.01797814207650273
            }, {
                "va": 157.76699029126212,
                "vg1": -1.5,
                "ig1": 0,
                "vg2": 200,
                "ig2": 0,
                "ik": 0.018073770491803278
            }, {
                "va": 181.31067961165047,
                "vg1": -1.5,
                "ig1": 0,
                "vg2": 200,
                "ig2": 0,
                "ik": 0.018217213114754098
            }, {
                "va": 200.48543689320388,
                "vg1": -1.5,
                "ig1": 0,
                "vg2": 200,
                "ig2": 0,
                "ik": 0.01826502732240437
            }, {
                "va": 223.3009708737864,
                "vg1": -1.5,
                "ig1": 0,
                "vg2": 200,
                "ig2": 0,
                "ik": 0.018360655737704918
            }, {
                "va": 242.4757281553398,
                "vg1": -1.5,
                "ig1": 0,
                "vg2": 200,
                "ig2": 0,
                "ik": 0.018504098360655738
            }, {
                "va": 247.33009708737865,
                "vg1": -1.5,
                "ig1": 0,
                "vg2": 200,
                "ig2": 0,
                "ik": 0.018504098360655738
            }],
            "vg1": -1.5
        }, {
            "p": [{
                "va": 0,
                "vg1": -1,
                "ig1": 0,
                "vg2": 200,
                "ig2": 0,
                "ik": 0
            }, {
                "va": 3.1553398058252426,
                "vg1": -1,
                "ig1": 0,
                "vg2": 200,
                "ig2": 0,
                "ik": 0.003633879781420765
            }, {
                "va": 5.097087378640777,
                "vg1": -1,
                "ig1": 0,
                "vg2": 200,
                "ig2": 0,
                "ik": 0.006646174863387979
            }, {
                "va": 8.009708737864077,
                "vg1": -1,
                "ig1": 0,
                "vg2": 200,
                "ig2": 0,
                "ik": 0.010136612021857923
            }, {
                "va": 10.922330097087379,
                "vg1": -1,
                "ig1": 0,
                "vg2": 200,
                "ig2": 0,
                "ik": 0.01334016393442623
            }, {
                "va": 14.563106796116504,
                "vg1": -1,
                "ig1": 0,
                "vg2": 200,
                "ig2": 0,
                "ik": 0.015013661202185792
            }, {
                "va": 16.74757281553398,
                "vg1": -1,
                "ig1": 0,
                "vg2": 200,
                "ig2": 0,
                "ik": 0.016065573770491802
            }, {
                "va": 22.815533980582522,
                "vg1": -1,
                "ig1": 0,
                "vg2": 200,
                "ig2": 0,
                "ik": 0.017643442622950818
            }, {
                "va": 26.941747572815533,
                "vg1": -1,
                "ig1": 0,
                "vg2": 200,
                "ig2": 0,
                "ik": 0.018504098360655738
            }, {
                "va": 33.737864077669904,
                "vg1": -1,
                "ig1": 0,
                "vg2": 200,
                "ig2": 0,
                "ik": 0.019460382513661202
            }, {
                "va": 41.019417475728154,
                "vg1": -1,
                "ig1": 0,
                "vg2": 200,
                "ig2": 0,
                "ik": 0.020081967213114754
            }, {
                "va": 49.271844660194176,
                "vg1": -1,
                "ig1": 0,
                "vg2": 200,
                "ig2": 0,
                "ik": 0.020512295081967214
            }, {
                "va": 56.55339805825243,
                "vg1": -1,
                "ig1": 0,
                "vg2": 200,
                "ig2": 0,
                "ik": 0.020846994535519126
            }, {
                "va": 66.74757281553399,
                "vg1": -1,
                "ig1": 0,
                "vg2": 200,
                "ig2": 0,
                "ik": 0.021133879781420763
            }, {
                "va": 76.69902912621359,
                "vg1": -1,
                "ig1": 0,
                "vg2": 200,
                "ig2": 0,
                "ik": 0.02122950819672131
            }, {
                "va": 87.86407766990291,
                "vg1": -1,
                "ig1": 0,
                "vg2": 200,
                "ig2": 0,
                "ik": 0.021420765027322403
            }, {
                "va": 106.55339805825243,
                "vg1": -1,
                "ig1": 0,
                "vg2": 200,
                "ig2": 0,
                "ik": 0.021612021857923498
            }, {
                "va": 128.64077669902912,
                "vg1": -1,
                "ig1": 0,
                "vg2": 200,
                "ig2": 0,
                "ik": 0.02165983606557377
            }, {
                "va": 147.0873786407767,
                "vg1": -1,
                "ig1": 0,
                "vg2": 200,
                "ig2": 0,
                "ik": 0.021851092896174863
            }, {
                "va": 166.2621359223301,
                "vg1": -1,
                "ig1": 0,
                "vg2": 200,
                "ig2": 0,
                "ik": 0.02194672131147541
            }, {
                "va": 180.58252427184465,
                "vg1": -1,
                "ig1": 0,
                "vg2": 200,
                "ig2": 0,
                "ik": 0.021994535519125682
            }, {
                "va": 209.46601941747574,
                "vg1": -1,
                "ig1": 0,
                "vg2": 200,
                "ig2": 0,
                "ik": 0.022137978142076502
            }, {
                "va": 239.07766990291262,
                "vg1": -1,
                "ig1": 0,
                "vg2": 200,
                "ig2": 0,
                "ik": 0.022472677595628415
            }, {
                "va": 246.1165048543689,
                "vg1": -1,
                "ig1": 0,
                "vg2": 200,
                "ig2": 0,
                "ik": 0.02256830601092896
            }],
            "vg1": -1
        }, {
            "p": [{
                "va": 0,
                "vg1": -0.5,
                "ig1": 0,
                "vg2": 200,
                "ig2": 0,
                "ik": 0
            }, {
                "va": 3.640776699029126,
                "vg1": -0.5,
                "ig1": 0,
                "vg2": 200,
                "ig2": 0,
                "ik": 0.0043510928961748635
            }, {
                "va": 6.553398058252427,
                "vg1": -0.5,
                "ig1": 0,
                "vg2": 200,
                "ig2": 0,
                "ik": 0.008080601092896173
            }, {
                "va": 9.951456310679612,
                "vg1": -0.5,
                "ig1": 0,
                "vg2": 200,
                "ig2": 0,
                "ik": 0.012240437158469945
            }, {
                "va": 12.37864077669903,
                "vg1": -0.5,
                "ig1": 0,
                "vg2": 200,
                "ig2": 0,
                "ik": 0.015109289617486338
            }, {
                "va": 16.262135922330096,
                "vg1": -0.5,
                "ig1": 0,
                "vg2": 200,
                "ig2": 0,
                "ik": 0.017308743169398906
            }, {
                "va": 21.601941747572816,
                "vg1": -0.5,
                "ig1": 0,
                "vg2": 200,
                "ig2": 0,
                "ik": 0.01969945355191257
            }, {
                "va": 26.699029126213592,
                "vg1": -0.5,
                "ig1": 0,
                "vg2": 200,
                "ig2": 0,
                "ik": 0.021277322404371586
            }, {
                "va": 31.553398058252426,
                "vg1": -0.5,
                "ig1": 0,
                "vg2": 200,
                "ig2": 0,
                "ik": 0.022329234972677598
            }, {
                "va": 36.89320388349515,
                "vg1": -0.5,
                "ig1": 0,
                "vg2": 200,
                "ig2": 0,
                "ik": 0.023189890710382514
            }, {
                "va": 42.4757281553398,
                "vg1": -0.5,
                "ig1": 0,
                "vg2": 200,
                "ig2": 0,
                "ik": 0.023907103825136614
            }, {
                "va": 51.45631067961165,
                "vg1": -0.5,
                "ig1": 0,
                "vg2": 200,
                "ig2": 0,
                "ik": 0.02448087431693989
            }, {
                "va": 62.13592233009709,
                "vg1": -0.5,
                "ig1": 0,
                "vg2": 200,
                "ig2": 0,
                "ik": 0.024911202185792347
            }, {
                "va": 73.54368932038835,
                "vg1": -0.5,
                "ig1": 0,
                "vg2": 200,
                "ig2": 0,
                "ik": 0.02534153005464481
            }, {
                "va": 92.71844660194175,
                "vg1": -0.5,
                "ig1": 0,
                "vg2": 200,
                "ig2": 0,
                "ik": 0.025532786885245903
            }, {
                "va": 112.37864077669903,
                "vg1": -0.5,
                "ig1": 0,
                "vg2": 200,
                "ig2": 0,
                "ik": 0.025819672131147543
            }, {
                "va": 131.79611650485435,
                "vg1": -0.5,
                "ig1": 0,
                "vg2": 200,
                "ig2": 0,
                "ik": 0.026106557377049183
            }, {
                "va": 150.48543689320388,
                "vg1": -0.5,
                "ig1": 0,
                "vg2": 200,
                "ig2": 0,
                "ik": 0.026154371584699455
            }, {
                "va": 165.7766990291262,
                "vg1": -0.5,
                "ig1": 0,
                "vg2": 200,
                "ig2": 0,
                "ik": 0.02625
            }, {
                "va": 184.46601941747574,
                "vg1": -0.5,
                "ig1": 0,
                "vg2": 200,
                "ig2": 0,
                "ik": 0.02639344262295082
            }, {
                "va": 210.4368932038835,
                "vg1": -0.5,
                "ig1": 0,
                "vg2": 200,
                "ig2": 0,
                "ik": 0.026584699453551915
            }, {
                "va": 228.39805825242718,
                "vg1": -0.5,
                "ig1": 0,
                "vg2": 200,
                "ig2": 0,
                "ik": 0.026584699453551915
            }, {
                "va": 245.14563106796115,
                "vg1": -0.5,
                "ig1": 0,
                "vg2": 200,
                "ig2": 0,
                "ik": 0.026823770491803275
            }],
            "vg1": -0.5
        }, {
            "p": [{
                "va": 0,
                "vg1": 0,
                "ig1": 0,
                "vg2": 200,
                "ig2": 0,
                "ik": 0
            }, {
                "va": 2.1844660194174756,
                "vg1": 0,
                "ig1": 0,
                "vg2": 200,
                "ig2": 0,
                "ik": 0.0028688524590163933
            }, {
                "va": 5.58252427184466,
                "vg1": 0,
                "ig1": 0,
                "vg2": 200,
                "ig2": 0,
                "ik": 0.007028688524590164
            }, {
                "va": 9.223300970873787,
                "vg1": 0,
                "ig1": 0,
                "vg2": 200,
                "ig2": 0,
                "ik": 0.011331967213114753
            }, {
                "va": 11.407766990291261,
                "vg1": 0,
                "ig1": 0,
                "vg2": 200,
                "ig2": 0,
                "ik": 0.014487704918032786
            }, {
                "va": 15.533980582524272,
                "vg1": 0,
                "ig1": 0,
                "vg2": 200,
                "ig2": 0,
                "ik": 0.018025956284153002
            }, {
                "va": 17.961165048543688,
                "vg1": 0,
                "ig1": 0,
                "vg2": 200,
                "ig2": 0,
                "ik": 0.02065573770491803
            }, {
                "va": 24.271844660194173,
                "vg1": 0,
                "ig1": 0,
                "vg2": 200,
                "ig2": 0,
                "ik": 0.02362021857923497
            }, {
                "va": 29.126213592233007,
                "vg1": 0,
                "ig1": 0,
                "vg2": 200,
                "ig2": 0,
                "ik": 0.025389344262295083
            }, {
                "va": 35.43689320388349,
                "vg1": 0,
                "ig1": 0,
                "vg2": 200,
                "ig2": 0,
                "ik": 0.026775956284153003
            }, {
                "va": 41.74757281553398,
                "vg1": 0,
                "ig1": 0,
                "vg2": 200,
                "ig2": 0,
                "ik": 0.027588797814207647
            }, {
                "va": 48.78640776699029,
                "vg1": 0,
                "ig1": 0,
                "vg2": 200,
                "ig2": 0,
                "ik": 0.02835382513661202
            }, {
                "va": 55.33980582524272,
                "vg1": 0,
                "ig1": 0,
                "vg2": 200,
                "ig2": 0,
                "ik": 0.028831967213114755
            }, {
                "va": 63.10679611650485,
                "vg1": 0,
                "ig1": 0,
                "vg2": 200,
                "ig2": 0,
                "ik": 0.029262295081967215
            }, {
                "va": 71.84466019417475,
                "vg1": 0,
                "ig1": 0,
                "vg2": 200,
                "ig2": 0,
                "ik": 0.029596994535519127
            }, {
                "va": 83.98058252427184,
                "vg1": 0,
                "ig1": 0,
                "vg2": 200,
                "ig2": 0,
                "ik": 0.02993169398907104
            }, {
                "va": 96.60194174757281,
                "vg1": 0,
                "ig1": 0,
                "vg2": 200,
                "ig2": 0,
                "ik": 0.030170765027322403
            }, {
                "va": 108.7378640776699,
                "vg1": 0,
                "ig1": 0,
                "vg2": 200,
                "ig2": 0,
                "ik": 0.03040983606557377
            }, {
                "va": 123.7864077669903,
                "vg1": 0,
                "ig1": 0,
                "vg2": 200,
                "ig2": 0,
                "ik": 0.030505464480874316
            }, {
                "va": 141.9902912621359,
                "vg1": 0,
                "ig1": 0,
                "vg2": 200,
                "ig2": 0,
                "ik": 0.03069672131147541
            }, {
                "va": 158.00970873786406,
                "vg1": 0,
                "ig1": 0,
                "vg2": 200,
                "ig2": 0,
                "ik": 0.030792349726775955
            }, {
                "va": 171.11650485436894,
                "vg1": 0,
                "ig1": 0,
                "vg2": 200,
                "ig2": 0,
                "ik": 0.030983606557377048
            }, {
                "va": 182.0388349514563,
                "vg1": 0,
                "ig1": 0,
                "vg2": 200,
                "ig2": 0,
                "ik": 0.031079234972677595
            }, {
                "va": 195.3883495145631,
                "vg1": 0,
                "ig1": 0,
                "vg2": 200,
                "ig2": 0,
                "ik": 0.031174863387978143
            }, {
                "va": 208.7378640776699,
                "vg1": 0,
                "ig1": 0,
                "vg2": 200,
                "ig2": 0,
                "ik": 0.031222677595628415
            }, {
                "va": 222.0873786407767,
                "vg1": 0,
                "ig1": 0,
                "vg2": 200,
                "ig2": 0,
                "ik": 0.031222677595628415
            }, {
                "va": 236.16504854368932,
                "vg1": 0,
                "ig1": 0,
                "vg2": 200,
                "ig2": 0,
                "ik": 0.03141393442622951
            }, {
                "va": 247.5728155339806,
                "vg1": 0,
                "ig1": 0,
                "vg2": 200,
                "ig2": 0,
                "ik": 0.03146174863387978
            }],
            "vg1": 0
        }],
        "vg2": 200,
        "logX": false,
        "logY": false,
        "name": "pentode ECF",
        "raw": false,
        "unit": 1,
        "triode": false
    }
}
