{
    "filename": "t110-1 bb.json",
    "tubeGraph": {
        "c": [{
            "p": [{
                "va": 0,
                "vg1": -250,
                "ig1": 0,
                "vg2": null,
                "ig2": 0,
                "ik": 0
            }, {
                "va": 1273.5376044568245,
                "vg1": -250,
                "ig1": 0,
                "vg2": null,
                "ig2": 0,
                "ik": 0.003125
            }, {
                "va": 1489.1364902506962,
                "vg1": -250,
                "ig1": 0,
                "vg2": null,
                "ig2": 0,
                "ik": 0.05375
            }, {
                "va": 1597.7715877437324,
                "vg1": -250,
                "ig1": 0,
                "vg2": null,
                "ig2": 0,
                "ik": 0.1025
            }, {
                "va": 1691.3649025069637,
                "vg1": -250,
                "ig1": 0,
                "vg2": null,
                "ig2": 0,
                "ik": 0.1525
            }, {
                "va": 1793.3147632311977,
                "vg1": -250,
                "ig1": 0,
                "vg2": null,
                "ig2": 0,
                "ik": 0.21375
            }],
            "vg1": -250
        }, {
            "p": [{
                "va": 0,
                "vg1": -200,
                "ig1": 0,
                "vg2": null,
                "ig2": 0,
                "ik": 0
            }, {
                "va": 994.4289693593314,
                "vg1": -200,
                "ig1": 0,
                "vg2": null,
                "ig2": 0,
                "ik": 0.00125
            }, {
                "va": 1198.3286908077994,
                "vg1": -200,
                "ig1": 0,
                "vg2": null,
                "ig2": 0,
                "ik": 0.043125
            }, {
                "va": 1335.376044568245,
                "vg1": -200,
                "ig1": 0,
                "vg2": null,
                "ig2": 0,
                "ik": 0.10375
            }, {
                "va": 1497.493036211699,
                "vg1": -200,
                "ig1": 0,
                "vg2": null,
                "ig2": 0,
                "ik": 0.201875
            }, {
                "va": 1661.2813370473536,
                "vg1": -200,
                "ig1": 0,
                "vg2": null,
                "ig2": 0,
                "ik": 0.345625
            }],
            "vg1": -200
        }, {
            "p": [{
                "va": 0,
                "vg1": -150,
                "ig1": 0,
                "vg2": null,
                "ig2": 0,
                "ik": 0
            }, {
                "va": 785.5153203342618,
                "vg1": -150,
                "ig1": 0,
                "vg2": null,
                "ig2": 0,
                "ik": 0.00375
            }, {
                "va": 962.6740947075208,
                "vg1": -150,
                "ig1": 0,
                "vg2": null,
                "ig2": 0,
                "ik": 0.051875
            }, {
                "va": 1136.4902506963788,
                "vg1": -150,
                "ig1": 0,
                "vg2": null,
                "ig2": 0,
                "ik": 0.15125
            }, {
                "va": 1335.376044568245,
                "vg1": -150,
                "ig1": 0,
                "vg2": null,
                "ig2": 0,
                "ik": 0.303125
            }, {
                "va": 1522.5626740947073,
                "vg1": -150,
                "ig1": 0,
                "vg2": null,
                "ig2": 0,
                "ik": 0.46125
            }],
            "vg1": -150
        }, {
            "p": [{
                "va": 0,
                "vg1": -100,
                "ig1": 0,
                "vg2": null,
                "ig2": 0,
                "ik": 0
            }, {
                "va": 544.8467966573816,
                "vg1": -100,
                "ig1": 0,
                "vg2": null,
                "ig2": 0,
                "ik": 0.001875
            }, {
                "va": 698.6072423398329,
                "vg1": -100,
                "ig1": 0,
                "vg2": null,
                "ig2": 0,
                "ik": 0.049375
            }, {
                "va": 800.5571030640668,
                "vg1": -100,
                "ig1": 0,
                "vg2": null,
                "ig2": 0,
                "ik": 0.10125
            }, {
                "va": 947.6323119777157,
                "vg1": -100,
                "ig1": 0,
                "vg2": null,
                "ig2": 0,
                "ik": 0.201875
            }, {
                "va": 1126.4623955431755,
                "vg1": -100,
                "ig1": 0,
                "vg2": null,
                "ig2": 0,
                "ik": 0.351875
            }, {
                "va": 1310.3064066852367,
                "vg1": -100,
                "ig1": 0,
                "vg2": null,
                "ig2": 0,
                "ik": 0.52
            }],
            "vg1": -100
        }, {
            "p": [{
                "va": 0,
                "vg1": -50,
                "ig1": 0,
                "vg2": null,
                "ig2": 0,
                "ik": 0
            }, {
                "va": 249.02506963788298,
                "vg1": -50,
                "ig1": 0,
                "vg2": null,
                "ig2": 0,
                "ik": 0.000625
            }, {
                "va": 416.15598885793867,
                "vg1": -50,
                "ig1": 0,
                "vg2": null,
                "ig2": 0,
                "ik": 0.04
            }, {
                "va": 544.8467966573816,
                "vg1": -50,
                "ig1": 0,
                "vg2": null,
                "ig2": 0,
                "ik": 0.10125
            }, {
                "va": 698.6072423398329,
                "vg1": -50,
                "ig1": 0,
                "vg2": null,
                "ig2": 0,
                "ik": 0.2
            }, {
                "va": 832.3119777158773,
                "vg1": -50,
                "ig1": 0,
                "vg2": null,
                "ig2": 0,
                "ik": 0.30125
            }, {
                "va": 1006.1281337047353,
                "vg1": -50,
                "ig1": 0,
                "vg2": null,
                "ig2": 0,
                "ik": 0.45125
            }, {
                "va": 1166.5738161559887,
                "vg1": -50,
                "ig1": 0,
                "vg2": null,
                "ig2": 0,
                "ik": 0.5975
            }],
            "vg1": -50
        }, {
            "p": [{
                "va": 35.097493036211695,
                "vg1": 0,
                "ig1": 0,
                "vg2": null,
                "ig2": 0,
                "ik": 0.001875
            }, {
                "va": 198.88579387186627,
                "vg1": 0,
                "ig1": 0,
                "vg2": null,
                "ig2": 0,
                "ik": 0.061875
            }, {
                "va": 429.52646239554315,
                "vg1": 0,
                "ig1": 0,
                "vg2": null,
                "ig2": 0,
                "ik": 0.2
            }, {
                "va": 635.0974930362116,
                "vg1": 0,
                "ig1": 0,
                "vg2": null,
                "ig2": 0,
                "ik": 0.350625
            }, {
                "va": 797.2144846796657,
                "vg1": 0,
                "ig1": 0,
                "vg2": null,
                "ig2": 0,
                "ik": 0.50125
            }, {
                "va": 1027.8551532033425,
                "vg1": 0,
                "ig1": 0,
                "vg2": null,
                "ig2": 0,
                "ik": 0.7425
            }],
            "vg1": 0
        }, {
            "p": [{
                "va": 0,
                "vg1": 50,
                "ig1": 0,
                "vg2": null,
                "ig2": 0,
                "ik": 0
            }, {
                "va": 10.027855153203342,
                "vg1": 50,
                "ig1": 0,
                "vg2": null,
                "ig2": 0,
                "ik": 0.049375
            }, {
                "va": 96.9359331476323,
                "vg1": 50,
                "ig1": 0,
                "vg2": null,
                "ig2": 0,
                "ik": 0.15
            }, {
                "va": 218.94150417827296,
                "vg1": 50,
                "ig1": 0,
                "vg2": null,
                "ig2": 0,
                "ik": 0.250625
            }, {
                "va": 352.6462395543175,
                "vg1": 50,
                "ig1": 0,
                "vg2": null,
                "ig2": 0,
                "ik": 0.350625
            }, {
                "va": 591.6434540389972,
                "vg1": 50,
                "ig1": 0,
                "vg2": null,
                "ig2": 0,
                "ik": 0.5525
            }, {
                "va": 838.9972144846796,
                "vg1": 50,
                "ig1": 0,
                "vg2": null,
                "ig2": 0,
                "ik": 0.79625
            }],
            "vg1": 50
        }, {
            "p": [{
                "va": 0,
                "vg1": 100,
                "ig1": 0,
                "vg2": null,
                "ig2": 0,
                "ik": 0
            }, {
                "va": 16.71309192200557,
                "vg1": 100,
                "ig1": 0,
                "vg2": null,
                "ig2": 0,
                "ik": 0.148125
            }, {
                "va": 138.71866295264624,
                "vg1": 100,
                "ig1": 0,
                "vg2": null,
                "ig2": 0,
                "ik": 0.350625
            }, {
                "va": 262.39554317548743,
                "vg1": 100,
                "ig1": 0,
                "vg2": null,
                "ig2": 0,
                "ik": 0.500625
            }, {
                "va": 406.1281337047353,
                "vg1": 100,
                "ig1": 0,
                "vg2": null,
                "ig2": 0,
                "ik": 0.65125
            }, {
                "va": 558.217270194986,
                "vg1": 100,
                "ig1": 0,
                "vg2": null,
                "ig2": 0,
                "ik": 0.795
            }],
            "vg1": 100
        }, {
            "p": [{
                "va": 0,
                "vg1": 150,
                "ig1": 0,
                "vg2": null,
                "ig2": 0,
                "ik": 0
            }, {
                "va": 36.768802228412255,
                "vg1": 150,
                "ig1": 0,
                "vg2": null,
                "ig2": 0,
                "ik": 0.250625
            }, {
                "va": 113.64902506963787,
                "vg1": 150,
                "ig1": 0,
                "vg2": null,
                "ig2": 0,
                "ik": 0.501875
            }, {
                "va": 185.51532033426182,
                "vg1": 150,
                "ig1": 0,
                "vg2": null,
                "ig2": 0,
                "ik": 0.650625
            }, {
                "va": 299.1643454038997,
                "vg1": 150,
                "ig1": 0,
                "vg2": null,
                "ig2": 0,
                "ik": 0.796875
            }],
            "vg1": 150
        }],
        "vg2": null,
        "logX": false,
        "logY": false,
        "name": "T110-1 BB",
        "raw": false,
        "unit": null,
        "triode": false
    }
}
