{
    "filename": "triode ok.json",
    "tubeGraph": {
        "c": [{
            "p": [{
                "va": 0,
                "vg1": -240,
                "ig1": 0,
                "vg2": null,
                "ig2": 0,
                "ik": 0
            }, {
                "va": 961.344537815126,
                "vg1": -240,
                "ig1": 0,
                "vg2": null,
                "ig2": 0,
                "ik": 0.0003458498023715415
            }, {
                "va": 1095.5582232893157,
                "vg1": -240,
                "ig1": 0,
                "vg2": null,
                "ig2": 0,
                "ik": 0.01383399209486166
            }, {
                "va": 1172.0288115246099,
                "vg1": -240,
                "ig1": 0,
                "vg2": null,
                "ig2": 0,
                "ik": 0.03838932806324111
            }],
            "vg1": -240
        }, {
            "p": [{
                "va": 0,
                "vg1": -220,
                "ig1": 0,
                "vg2": null,
                "ig2": 0,
                "ik": 0
            }, {
                "va": 873.9495798319327,
                "vg1": -220,
                "ig1": 0,
                "vg2": null,
                "ig2": 0,
                "ik": 0.0010375494071146246
            }, {
                "va": 995.6782713085234,
                "vg1": -220,
                "ig1": 0,
                "vg2": null,
                "ig2": 0,
                "ik": 0.010375494071146244
            }, {
                "va": 1095.5582232893157,
                "vg1": -220,
                "ig1": 0,
                "vg2": null,
                "ig2": 0,
                "ik": 0.04011857707509881
            }],
            "vg1": -220
        }, {
            "p": [{
                "va": 0,
                "vg1": -200,
                "ig1": 0,
                "vg2": null,
                "ig2": 0,
                "ik": 0
            }, {
                "va": 788.1152460984393,
                "vg1": -200,
                "ig1": 0,
                "vg2": null,
                "ig2": 0,
                "ik": 0.0003458498023715415
            }, {
                "va": 884.8739495798319,
                "vg1": -200,
                "ig1": 0,
                "vg2": null,
                "ig2": 0,
                "ik": 0.007608695652173913
            }, {
                "va": 1011.2845138055222,
                "vg1": -200,
                "ig1": 0,
                "vg2": null,
                "ig2": 0,
                "ik": 0.04357707509881423
            }],
            "vg1": -200
        }, {
            "p": [{
                "va": 0,
                "vg1": -180,
                "ig1": 0,
                "vg2": null,
                "ig2": 0,
                "ik": 0
            }, {
                "va": 725.6902761104442,
                "vg1": -180,
                "ig1": 0,
                "vg2": null,
                "ig2": 0,
                "ik": 0.000691699604743083
            }, {
                "va": 825.5702280912365,
                "vg1": -180,
                "ig1": 0,
                "vg2": null,
                "ig2": 0,
                "ik": 0.010721343873517787
            }, {
                "va": 917.6470588235294,
                "vg1": -180,
                "ig1": 0,
                "vg2": null,
                "ig2": 0,
                "ik": 0.04599802371541502
            }],
            "vg1": -180
        }, {
            "p": [{
                "va": 0,
                "vg1": -160,
                "ig1": 0,
                "vg2": null,
                "ig2": 0,
                "ik": 0
            }, {
                "va": 616.4465786314526,
                "vg1": -160,
                "ig1": 0,
                "vg2": null,
                "ig2": 0,
                "ik": 0.0003458498023715415
            }, {
                "va": 722.5690276110445,
                "vg1": -160,
                "ig1": 0,
                "vg2": null,
                "ig2": 0,
                "ik": 0.007608695652173913
            }, {
                "va": 836.4945978391356,
                "vg1": -160,
                "ig1": 0,
                "vg2": null,
                "ig2": 0,
                "ik": 0.051877470355731224
            }],
            "vg1": -160
        }, {
            "p": [{
                "va": 0,
                "vg1": -140,
                "ig1": 0,
                "vg2": null,
                "ig2": 0,
                "ik": 0
            }, {
                "va": 529.0516206482594,
                "vg1": -140,
                "ig1": 0,
                "vg2": null,
                "ig2": 0,
                "ik": 0.0003458498023715415
            }, {
                "va": 622.6890756302521,
                "vg1": -140,
                "ig1": 0,
                "vg2": null,
                "ig2": 0,
                "ik": 0.004841897233201581
            }, {
                "va": 750.6602641056422,
                "vg1": -140,
                "ig1": 0,
                "vg2": null,
                "ig2": 0,
                "ik": 0.056719367588932805
            }],
            "vg1": -140
        }, {
            "p": [{
                "va": 0,
                "vg1": -120,
                "ig1": 0,
                "vg2": null,
                "ig2": 0,
                "ik": 0
            }, {
                "va": 432.29291716686674,
                "vg1": -120,
                "ig1": 0,
                "vg2": null,
                "ig2": 0,
                "ik": 0.0003458498023715415
            }, {
                "va": 552.4609843937575,
                "vg1": -120,
                "ig1": 0,
                "vg2": null,
                "ig2": 0,
                "ik": 0.007608695652173913
            }, {
                "va": 667.9471788715487,
                "vg1": -120,
                "ig1": 0,
                "vg2": null,
                "ig2": 0,
                "ik": 0.0650197628458498
            }],
            "vg1": -120
        }, {
            "p": [{
                "va": 0,
                "vg1": -100,
                "ig1": 0,
                "vg2": null,
                "ig2": 0,
                "ik": 0
            }, {
                "va": 388.5954381752701,
                "vg1": -100,
                "ig1": 0,
                "vg2": null,
                "ig2": 0,
                "ik": 0.000691699604743083
            }, {
                "va": 477.55102040816325,
                "vg1": -100,
                "ig1": 0,
                "vg2": null,
                "ig2": 0,
                "ik": 0.012450592885375493
            }, {
                "va": 589.9159663865546,
                "vg1": -100,
                "ig1": 0,
                "vg2": null,
                "ig2": 0,
                "ik": 0.07193675889328062
            }],
            "vg1": -100
        }, {
            "p": [{
                "va": 0,
                "vg1": -80,
                "ig1": 0,
                "vg2": null,
                "ig2": 0,
                "ik": 0
            }, {
                "va": 321.48859543817525,
                "vg1": -80,
                "ig1": 0,
                "vg2": null,
                "ig2": 0,
                "ik": 0.000691699604743083
            }, {
                "va": 412.00480192076833,
                "vg1": -80,
                "ig1": 0,
                "vg2": null,
                "ig2": 0,
                "ik": 0.019367588932806323
            }, {
                "va": 508.7635054021609,
                "vg1": -80,
                "ig1": 0,
                "vg2": null,
                "ig2": 0,
                "ik": 0.0850790513833992
            }],
            "vg1": -80
        }, {
            "p": [{
                "va": 0,
                "vg1": -60,
                "ig1": 0,
                "vg2": null,
                "ig2": 0,
                "ik": 0
            }, {
                "va": 260.62424969987995,
                "vg1": -60,
                "ig1": 0,
                "vg2": null,
                "ig2": 0,
                "ik": 0.001383399209486166
            }, {
                "va": 430.7322929171669,
                "vg1": -60,
                "ig1": 0,
                "vg2": null,
                "ig2": 0,
                "ik": 0.10098814229249012
            }],
            "vg1": -60
        }, {
            "p": [{
                "va": 0,
                "vg1": -40,
                "ig1": 0,
                "vg2": null,
                "ig2": 0,
                "ik": 0
            }, {
                "va": 140.4561824729892,
                "vg1": -40,
                "ig1": 0,
                "vg2": null,
                "ig2": 0,
                "ik": 0.000691699604743083
            }, {
                "va": 241.8967587034814,
                "vg1": -40,
                "ig1": 0,
                "vg2": null,
                "ig2": 0,
                "ik": 0.02559288537549407
            }, {
                "va": 349.5798319327731,
                "vg1": -40,
                "ig1": 0,
                "vg2": null,
                "ig2": 0,
                "ik": 0.12450592885375494
            }],
            "vg1": -40
        }, {
            "p": [{
                "va": 0,
                "vg1": -20,
                "ig1": 0,
                "vg2": null,
                "ig2": 0,
                "ik": 0
            }, {
                "va": 92.07683073229292,
                "vg1": -20,
                "ig1": 0,
                "vg2": null,
                "ig2": 0,
                "ik": 0.002075098814229249
            }, {
                "va": 271.5486194477791,
                "vg1": -20,
                "ig1": 0,
                "vg2": null,
                "ig2": 0,
                "ik": 0.16151185770750986
            }],
            "vg1": -20
        }, {
            "p": [{
                "va": 0,
                "vg1": -10,
                "ig1": 0,
                "vg2": null,
                "ig2": 0,
                "ik": 0
            }, {
                "va": 35.89435774309724,
                "vg1": -10,
                "ig1": 0,
                "vg2": null,
                "ig2": 0,
                "ik": 0.0017292490118577075
            }, {
                "va": 221.60864345738295,
                "vg1": -10,
                "ig1": 0,
                "vg2": null,
                "ig2": 0,
                "ik": 0.17223320158102765
            }],
            "vg1": -10
        }, {
            "p": [{
                "va": 0,
                "vg1": 0,
                "ig1": 0,
                "vg2": null,
                "ig2": 0,
                "ik": 0
            }, {
                "va": 35.89435774309724,
                "vg1": 0,
                "ig1": 0,
                "vg2": null,
                "ig2": 0,
                "ik": 0.02282608695652174
            }, {
                "va": 112.36494597839136,
                "vg1": 0,
                "ig1": 0,
                "vg2": null,
                "ig2": 0,
                "ik": 0.10133399209486166
            }, {
                "va": 162.3049219687875,
                "vg1": 0,
                "ig1": 0,
                "vg2": null,
                "ig2": 0,
                "ik": 0.17292490118577075
            }],
            "vg1": 0
        }, {
            "p": [{
                "va": 6.24249699879952,
                "vg1": 10,
                "ig1": 0,
                "vg2": null,
                "ig2": 0,
                "ik": 0.000691699604743083
            }, {
                "va": 6.24249699879952,
                "vg1": 10,
                "ig1": 0,
                "vg2": null,
                "ig2": 0,
                "ik": 0.02040513833992095
            }, {
                "va": 59.30372148859544,
                "vg1": 10,
                "ig1": 0,
                "vg2": null,
                "ig2": 0,
                "ik": 0.10755928853754941
            }, {
                "va": 113.92557022809123,
                "vg1": 10,
                "ig1": 0,
                "vg2": null,
                "ig2": 0,
                "ik": 0.1732707509881423
            }],
            "vg1": 10
        }, {
            "p": [{
                "va": 0,
                "vg1": 60,
                "ig1": 0,
                "vg2": null,
                "ig2": 0,
                "ik": 0
            }, {
                "va": 0,
                "vg1": 60,
                "ig1": 0,
                "vg2": null,
                "ig2": 0,
                "ik": 0.021442687747035574
            }, {
                "va": 6.24249699879952,
                "vg1": 60,
                "ig1": 0,
                "vg2": null,
                "ig2": 0,
                "ik": 0.15736166007905136
            }],
            "vg1": 60
        }],
        "vg2": null,
        "logX": false,
        "logY": false,
        "name": "triode ok",
        "raw": false,
        "unit": null,
        "triode": true
    }
}
