{
    "filename": "vg2 150v.json",
    "tubeGraph": {
        "c": [{
            "p": [{
                "va": 0,
                "vg1": -20,
                "ig1": 0,
                "vg2": 150,
                "ig2": 0,
                "ik": 0
            }, {
                "va": 2.6703967446592065,
                "vg1": -20,
                "ig1": 0,
                "vg2": 150,
                "ig2": 0,
                "ik": 0.016516516516516516
            }, {
                "va": 9.918616480162767,
                "vg1": -20,
                "ig1": 0,
                "vg2": 150,
                "ig2": 0,
                "ik": 0.024024024024024024
            }, {
                "va": 55.31536113936928,
                "vg1": -20,
                "ig1": 0,
                "vg2": 150,
                "ig2": 0,
                "ik": 0.016516516516516516
            }, {
                "va": 134.2828077314344,
                "vg1": -20,
                "ig1": 0,
                "vg2": 150,
                "ig2": 0,
                "ik": 0.028528528528528524
            }, {
                "va": 297.558494404883,
                "vg1": -20,
                "ig1": 0,
                "vg2": 150,
                "ig2": 0,
                "ik": 0.025525525525525523
            }],
            "vg1": -20
        }, {
            "p": [{
                "va": 0,
                "vg1": -18,
                "ig1": 0,
                "vg2": 150,
                "ig2": 0,
                "ik": 0
            }, {
                "va": 1.5259409969481181,
                "vg1": -18,
                "ig1": 0,
                "vg2": 150,
                "ig2": 0,
                "ik": 0.02102102102102102
            }, {
                "va": 8.774160732451678,
                "vg1": -18,
                "ig1": 0,
                "vg2": 150,
                "ig2": 0,
                "ik": 0.04204204204204204
            }, {
                "va": 51.50050864699898,
                "vg1": -18,
                "ig1": 0,
                "vg2": 150,
                "ig2": 0,
                "ik": 0.03153153153153153
            }, {
                "va": 125.89013224821974,
                "vg1": -18,
                "ig1": 0,
                "vg2": 150,
                "ig2": 0,
                "ik": 0.04504504504504504
            }, {
                "va": 190.36113936927774,
                "vg1": -18,
                "ig1": 0,
                "vg2": 150,
                "ig2": 0,
                "ik": 0.05405405405405405
            }, {
                "va": 297.558494404883,
                "vg1": -18,
                "ig1": 0,
                "vg2": 150,
                "ig2": 0,
                "ik": 0.051051051051051045
            }],
            "vg1": -18
        }, {
            "p": [{
                "va": 0,
                "vg1": -16,
                "ig1": 0,
                "vg2": 150,
                "ig2": 0,
                "ik": 0
            }, {
                "va": 6.1037639877924725,
                "vg1": -16,
                "ig1": 0,
                "vg2": 150,
                "ig2": 0,
                "ik": 0.06456456456456457
            }, {
                "va": 14.496439471007122,
                "vg1": -16,
                "ig1": 0,
                "vg2": 150,
                "ig2": 0,
                "ik": 0.07207207207207207
            }, {
                "va": 51.11902339776196,
                "vg1": -16,
                "ig1": 0,
                "vg2": 150,
                "ig2": 0,
                "ik": 0.05405405405405405
            }, {
                "va": 115.20854526958291,
                "vg1": -16,
                "ig1": 0,
                "vg2": 150,
                "ig2": 0,
                "ik": 0.07657657657657657
            }, {
                "va": 165.56459816887082,
                "vg1": -16,
                "ig1": 0,
                "vg2": 150,
                "ig2": 0,
                "ik": 0.08558558558558557
            }, {
                "va": 297.177009155646,
                "vg1": -16,
                "ig1": 0,
                "vg2": 150,
                "ig2": 0,
                "ik": 0.0945945945945946
            }],
            "vg1": -16
        }, {
            "p": [{
                "va": 0,
                "vg1": -14,
                "ig1": 0,
                "vg2": 150,
                "ig2": 0,
                "ik": 0
            }, {
                "va": 3.4333672431332656,
                "vg1": -14,
                "ig1": 0,
                "vg2": 150,
                "ig2": 0,
                "ik": 0.09309309309309309
            }, {
                "va": 8.01119023397762,
                "vg1": -14,
                "ig1": 0,
                "vg2": 150,
                "ig2": 0,
                "ik": 0.1111111111111111
            }, {
                "va": 56.078331637843334,
                "vg1": -14,
                "ig1": 0,
                "vg2": 150,
                "ig2": 0,
                "ik": 0.09159159159159158
            }, {
                "va": 113.68260427263479,
                "vg1": -14,
                "ig1": 0,
                "vg2": 150,
                "ig2": 0,
                "ik": 0.12462462462462462
            }, {
                "va": 296.79552390640896,
                "vg1": -14,
                "ig1": 0,
                "vg2": 150,
                "ig2": 0,
                "ik": 0.15315315315315314
            }],
            "vg1": -14
        }, {
            "p": [{
                "va": 0,
                "vg1": -12,
                "ig1": 0,
                "vg2": 150,
                "ig2": 0,
                "ik": 0
            }, {
                "va": 3.814852492370295,
                "vg1": -12,
                "ig1": 0,
                "vg2": 150,
                "ig2": 0,
                "ik": 0.09159159159159158
            }, {
                "va": 10.300101729399797,
                "vg1": -12,
                "ig1": 0,
                "vg2": 150,
                "ig2": 0,
                "ik": 0.14864864864864866
            }, {
                "va": 31.663275686673447,
                "vg1": -12,
                "ig1": 0,
                "vg2": 150,
                "ig2": 0,
                "ik": 0.14864864864864866
            }, {
                "va": 120.93082400813836,
                "vg1": -12,
                "ig1": 0,
                "vg2": 150,
                "ig2": 0,
                "ik": 0.1816816816816817
            }, {
                "va": 296.41403865717194,
                "vg1": -12,
                "ig1": 0,
                "vg2": 150,
                "ig2": 0,
                "ik": 0.21171171171171171
            }],
            "vg1": -12
        }, {
            "p": [{
                "va": 0,
                "vg1": -10,
                "ig1": 0,
                "vg2": 150,
                "ig2": 0,
                "ik": 0
            }, {
                "va": 6.485249237029501,
                "vg1": -10,
                "ig1": 0,
                "vg2": 150,
                "ig2": 0,
                "ik": 0.08858858858858858
            }, {
                "va": 9.918616480162767,
                "vg1": -10,
                "ig1": 0,
                "vg2": 150,
                "ig2": 0,
                "ik": 0.19369369369369369
            }, {
                "va": 19.074262461851475,
                "vg1": -10,
                "ig1": 0,
                "vg2": 150,
                "ig2": 0,
                "ik": 0.20420420420420418
            }, {
                "va": 45.01525940996948,
                "vg1": -10,
                "ig1": 0,
                "vg2": 150,
                "ig2": 0,
                "ik": 0.2222222222222222
            }, {
                "va": 173.95727365208546,
                "vg1": -10,
                "ig1": 0,
                "vg2": 150,
                "ig2": 0,
                "ik": 0.27927927927927926
            }, {
                "va": 297.177009155646,
                "vg1": -10,
                "ig1": 0,
                "vg2": 150,
                "ig2": 0,
                "ik": 0.2912912912912913
            }],
            "vg1": -10
        }, {
            "p": [{
                "va": 0,
                "vg1": -8,
                "ig1": 0,
                "vg2": 150,
                "ig2": 0,
                "ik": 0
            }, {
                "va": 14.114954221770091,
                "vg1": -8,
                "ig1": 0,
                "vg2": 150,
                "ig2": 0,
                "ik": 0.2072072072072072
            }, {
                "va": 19.837232960325533,
                "vg1": -8,
                "ig1": 0,
                "vg2": 150,
                "ig2": 0,
                "ik": 0.27927927927927926
            }, {
                "va": 26.703967446592067,
                "vg1": -8,
                "ig1": 0,
                "vg2": 150,
                "ig2": 0,
                "ik": 0.30330330330330324
            }, {
                "va": 54.55239064089522,
                "vg1": -8,
                "ig1": 0,
                "vg2": 150,
                "ig2": 0,
                "ik": 0.3108108108108108
            }, {
                "va": 125.89013224821974,
                "vg1": -8,
                "ig1": 0,
                "vg2": 150,
                "ig2": 0,
                "ik": 0.3468468468468468
            }, {
                "va": 298.3214649033571,
                "vg1": -8,
                "ig1": 0,
                "vg2": 150,
                "ig2": 0,
                "ik": 0.3903903903903904
            }],
            "vg1": -8
        }, {
            "p": [{
                "va": 0,
                "vg1": -6,
                "ig1": 0,
                "vg2": 150,
                "ig2": 0,
                "ik": 0
            }, {
                "va": 20.218718209562564,
                "vg1": -6,
                "ig1": 0,
                "vg2": 150,
                "ig2": 0,
                "ik": 0.28678678678678676
            }, {
                "va": 24.41505595116989,
                "vg1": -6,
                "ig1": 0,
                "vg2": 150,
                "ig2": 0,
                "ik": 0.38888888888888884
            }, {
                "va": 28.992878942014244,
                "vg1": -6,
                "ig1": 0,
                "vg2": 150,
                "ig2": 0,
                "ik": 0.4039039039039039
            }, {
                "va": 103.76398779247202,
                "vg1": -6,
                "ig1": 0,
                "vg2": 150,
                "ig2": 0,
                "ik": 0.4369369369369369
            }, {
                "va": 169.76093591047814,
                "vg1": -6,
                "ig1": 0,
                "vg2": 150,
                "ig2": 0,
                "ik": 0.4684684684684684
            }, {
                "va": 298.3214649033571,
                "vg1": -6,
                "ig1": 0,
                "vg2": 150,
                "ig2": 0,
                "ik": 0.4984984984984985
            }],
            "vg1": -6
        }, {
            "p": [{
                "va": 0,
                "vg1": -4,
                "ig1": 0,
                "vg2": 150,
                "ig2": 0,
                "ik": 0
            }, {
                "va": 25.55951169888098,
                "vg1": -4,
                "ig1": 0,
                "vg2": 150,
                "ig2": 0,
                "ik": 0.36786786786786785
            }, {
                "va": 33.18921668362157,
                "vg1": -4,
                "ig1": 0,
                "vg2": 150,
                "ig2": 0,
                "ik": 0.4924924924924925
            }, {
                "va": 37.00406917599186,
                "vg1": -4,
                "ig1": 0,
                "vg2": 150,
                "ig2": 0,
                "ik": 0.518018018018018
            }, {
                "va": 86.97863682604273,
                "vg1": -4,
                "ig1": 0,
                "vg2": 150,
                "ig2": 0,
                "ik": 0.5345345345345345
            }, {
                "va": 184.6388606307223,
                "vg1": -4,
                "ig1": 0,
                "vg2": 150,
                "ig2": 0,
                "ik": 0.581081081081081
            }, {
                "va": 298.3214649033571,
                "vg1": -4,
                "ig1": 0,
                "vg2": 150,
                "ig2": 0,
                "ik": 0.6156156156156156
            }],
            "vg1": -4
        }, {
            "p": [{
                "va": 0,
                "vg1": -2,
                "ig1": 0,
                "vg2": 150,
                "ig2": 0,
                "ik": 0
            }, {
                "va": 41.20040691759919,
                "vg1": -2,
                "ig1": 0,
                "vg2": 150,
                "ig2": 0,
                "ik": 0.5345345345345345
            }, {
                "va": 45.77822990844354,
                "vg1": -2,
                "ig1": 0,
                "vg2": 150,
                "ig2": 0,
                "ik": 0.6201201201201201
            }, {
                "va": 49.974567650050865,
                "vg1": -2,
                "ig1": 0,
                "vg2": 150,
                "ig2": 0,
                "ik": 0.6486486486486487
            }, {
                "va": 93.84537131230925,
                "vg1": -2,
                "ig1": 0,
                "vg2": 150,
                "ig2": 0,
                "ik": 0.6606606606606606
            }, {
                "va": 174.72024415055952,
                "vg1": -2,
                "ig1": 0,
                "vg2": 150,
                "ig2": 0,
                "ik": 0.6996996996996996
            }, {
                "va": 299.4659206510682,
                "vg1": -2,
                "ig1": 0,
                "vg2": 150,
                "ig2": 0,
                "ik": 0.7312312312312311
            }],
            "vg1": -2
        }, {
            "p": [{
                "va": 0,
                "vg1": 0,
                "ig1": 0,
                "vg2": 150,
                "ig2": 0,
                "ik": 0
            }, {
                "va": 34.33367243133266,
                "vg1": 0,
                "ig1": 0,
                "vg2": 150,
                "ig2": 0,
                "ik": 0.3468468468468468
            }, {
                "va": 61.41912512716175,
                "vg1": 0,
                "ig1": 0,
                "vg2": 150,
                "ig2": 0,
                "ik": 0.7612612612612613
            }, {
                "va": 64.47100712105798,
                "vg1": 0,
                "ig1": 0,
                "vg2": 150,
                "ig2": 0,
                "ik": 0.8018018018018017
            }, {
                "va": 92.70091556459818,
                "vg1": 0,
                "ig1": 0,
                "vg2": 150,
                "ig2": 0,
                "ik": 0.8093093093093092
            }, {
                "va": 150.30518819938962,
                "vg1": 0,
                "ig1": 0,
                "vg2": 150,
                "ig2": 0,
                "ik": 0.8303303303303303
            }, {
                "va": 297.93997965412007,
                "vg1": 0,
                "ig1": 0,
                "vg2": 150,
                "ig2": 0,
                "ik": 0.8813813813813813
            }],
            "vg1": 0
        }],
        "vg2": 150,
        "logX": false,
        "logY": false,
        "name": "vg2 150V",
        "raw": false,
        "unit": null,
        "triode": false
    }
}
