{
    "filename": "vg2=170v.json",
    "tubeGraph": {
        "c": [{
            "p": [{
                "va": 0,
                "vg1": -12,
                "ig1": 0,
                "vg2": 170,
                "ig2": 0,
                "ik": 0
            }, {
                "va": 50,
                "vg1": -12,
                "ig1": 0,
                "vg2": 170,
                "ig2": 0,
                "ik": 0.021145374449339206
            }, {
                "va": 112.35632183908046,
                "vg1": -12,
                "ig1": 0,
                "vg2": 170,
                "ig2": 0,
                "ik": 0.02408223201174743
            }, {
                "va": 283.04597701149424,
                "vg1": -12,
                "ig1": 0,
                "vg2": 170,
                "ig2": 0,
                "ik": 0.025550660792951544
            }],
            "vg1": -12
        }, {
            "p": [{
                "va": 0,
                "vg1": -10,
                "ig1": 0,
                "vg2": 170,
                "ig2": 0,
                "ik": 0
            }, {
                "va": 25.57471264367816,
                "vg1": -10,
                "ig1": 0,
                "vg2": 170,
                "ig2": 0,
                "ik": 0.0276064610866373
            }, {
                "va": 62.93103448275862,
                "vg1": -10,
                "ig1": 0,
                "vg2": 170,
                "ig2": 0,
                "ik": 0.037885462555066085
            }, {
                "va": 137.35632183908046,
                "vg1": -10,
                "ig1": 0,
                "vg2": 170,
                "ig2": 0,
                "ik": 0.0419970631424376
            }, {
                "va": 275,
                "vg1": -10,
                "ig1": 0,
                "vg2": 170,
                "ig2": 0,
                "ik": 0.044640234948605
            }],
            "vg1": -10
        }, {
            "p": [{
                "va": 0,
                "vg1": -8,
                "ig1": 0,
                "vg2": 170,
                "ig2": 0,
                "ik": 0
            }, {
                "va": 16.95402298850575,
                "vg1": -8,
                "ig1": 0,
                "vg2": 170,
                "ig2": 0,
                "ik": 0.032011747430249635
            }, {
                "va": 37.64367816091954,
                "vg1": -8,
                "ig1": 0,
                "vg2": 170,
                "ig2": 0,
                "ik": 0.05051395007342144
            }, {
                "va": 74.42528735632185,
                "vg1": -8,
                "ig1": 0,
                "vg2": 170,
                "ig2": 0,
                "ik": 0.061967694566813517
            }, {
                "va": 149.13793103448276,
                "vg1": -8,
                "ig1": 0,
                "vg2": 170,
                "ig2": 0,
                "ik": 0.0631424375917768
            }, {
                "va": 273.5632183908046,
                "vg1": -8,
                "ig1": 0,
                "vg2": 170,
                "ig2": 0,
                "ik": 0.06607929515418504
            }],
            "vg1": -8
        }, {
            "p": [{
                "va": 0,
                "vg1": -6,
                "ig1": 0,
                "vg2": 170,
                "ig2": 0,
                "ik": 0
            }, {
                "va": 18.67816091954023,
                "vg1": -6,
                "ig1": 0,
                "vg2": 170,
                "ig2": 0,
                "ik": 0.04434654919236417
            }, {
                "va": 47.12643678160919,
                "vg1": -6,
                "ig1": 0,
                "vg2": 170,
                "ig2": 0,
                "ik": 0.07283406754772394
            }, {
                "va": 91.0919540229885,
                "vg1": -6,
                "ig1": 0,
                "vg2": 170,
                "ig2": 0,
                "ik": 0.08663729809104259
            }, {
                "va": 148.8505747126437,
                "vg1": -6,
                "ig1": 0,
                "vg2": 170,
                "ig2": 0,
                "ik": 0.08898678414096917
            }, {
                "va": 270.97701149425285,
                "vg1": -6,
                "ig1": 0,
                "vg2": 170,
                "ig2": 0,
                "ik": 0.09221732745961822
            }],
            "vg1": -6
        }, {
            "p": [{
                "va": 0,
                "vg1": -4,
                "ig1": 0,
                "vg2": 170,
                "ig2": 0,
                "ik": 0
            }, {
                "va": 30.74712643678161,
                "vg1": -4,
                "ig1": 0,
                "vg2": 170,
                "ig2": 0,
                "ik": 0.07488986784140969
            }, {
                "va": 60.632183908045974,
                "vg1": -4,
                "ig1": 0,
                "vg2": 170,
                "ig2": 0,
                "ik": 0.09985315712187959
            }, {
                "va": 97.41379310344827,
                "vg1": -4,
                "ig1": 0,
                "vg2": 170,
                "ig2": 0,
                "ik": 0.11218795888399413
            }, {
                "va": 147.98850574712642,
                "vg1": -4,
                "ig1": 0,
                "vg2": 170,
                "ig2": 0,
                "ik": 0.11483113069016153
            }, {
                "va": 271.8390804597701,
                "vg1": -4,
                "ig1": 0,
                "vg2": 170,
                "ig2": 0,
                "ik": 0.11747430249632893
            }],
            "vg1": -4
        }, {
            "p": [{
                "va": 0,
                "vg1": -2,
                "ig1": 0,
                "vg2": 170,
                "ig2": 0,
                "ik": 0
            }, {
                "va": 35.91954022988506,
                "vg1": -2,
                "ig1": 0,
                "vg2": 170,
                "ig2": 0,
                "ik": 0.09397944199706315
            }, {
                "va": 66.0919540229885,
                "vg1": -2,
                "ig1": 0,
                "vg2": 170,
                "ig2": 0,
                "ik": 0.1274596182085169
            }, {
                "va": 98.85057471264368,
                "vg1": -2,
                "ig1": 0,
                "vg2": 170,
                "ig2": 0,
                "ik": 0.14185022026431718
            }, {
                "va": 147.1264367816092,
                "vg1": -2,
                "ig1": 0,
                "vg2": 170,
                "ig2": 0,
                "ik": 0.14654919236417036
            }, {
                "va": 266.0919540229885,
                "vg1": -2,
                "ig1": 0,
                "vg2": 170,
                "ig2": 0,
                "ik": 0.15095447870778267
            }],
            "vg1": -2
        }, {
            "p": [{
                "va": 0,
                "vg1": 0,
                "ig1": 0,
                "vg2": 170,
                "ig2": 0,
                "ik": 0
            }, {
                "va": 22.701149425287355,
                "vg1": 0,
                "ig1": 0,
                "vg2": 170,
                "ig2": 0,
                "ik": 0.055506607929515416
            }, {
                "va": 53.735632183908045,
                "vg1": 0,
                "ig1": 0,
                "vg2": 170,
                "ig2": 0,
                "ik": 0.1380323054331865
            }, {
                "va": 101.4367816091954,
                "vg1": 0,
                "ig1": 0,
                "vg2": 170,
                "ig2": 0,
                "ik": 0.17562408223201176
            }, {
                "va": 147.1264367816092,
                "vg1": 0,
                "ig1": 0,
                "vg2": 170,
                "ig2": 0,
                "ik": 0.18149779735682822
            }, {
                "va": 261.7816091954023,
                "vg1": 0,
                "ig1": 0,
                "vg2": 170,
                "ig2": 0,
                "ik": 0.18296622613803232
            }],
            "vg1": 0
        }],
        "vg2": 170,
        "logX": false,
        "logY": false,
        "name": "VG2=170V",
        "raw": false,
        "unit": 1,
        "triode": false
    }
}
