<?xml version="1.0" standalone="no"?>
<!DOCTYPE svg PUBLIC "-//W3C//DTD SVG 20010904//EN" "http://www.w3.org/TR/2001/REC-SVG-20010904/DTD/svg10.dtd">
<svg version="1.0" xmlns="http://www.w3.org/2000/svg" width="257.482328pt" height="243.602304pt" viewBox="0 0 257.482328 243.602304" preserveAspectRatio="xMidYMid meet">
	<metadata>
		Created by potrace 1.13, written by Peter Selinger 2001-2015
	</metadata>
	<g transform="translate(-3.000000,246.978620) scale(0.010000,-0.010000)" fill="#222" stroke="none">
		<path d="M18900 24600 c0 -55 45 -100 100 -100 55 0 100 -200 100 -444 0 -244
-45 -472 -100 -506 -218 -135 -80 -250 300 -250 289 0 400 42 400 150 0 83
-89 150 -200 150 -110 0 -200 45 -200 100 0 55 106 100 235 100 424 0 715 510
445 780 -145 145 -1080 162 -1080 20z m887 -234 c61 -74 82 -164 45 -200 -120
-120 -532 -68 -532 67 0 281 297 362 487 133z" />
		<path d="M15950 24040 c-491 -269 -763 -561 -1012 -1090 -390 -827 -250 -1853
341 -2489 222 -240 235 -278 71 -213 -906 358 -1564 478 -2650 480 -977 3
-1270 -36 -1950 -260 -1053 -346 -1935 -874 -2771 -1656 -685 -642 -1452
-1683 -1731 -2352 -83 -198 -167 -360 -187 -360 -19 0 -40 197 -44 438 -20
978 -700 1857 -1582 2045 -1921 410 -3210 -2055 -1903 -3640 748 -908 1936
-975 2793 -159 206 196 374 336 373 311 -1 -25 -67 -405 -146 -845 -214 -1181
-167 -2646 115 -3600 49 -167 17 -156 -190 65 -389 415 -872 623 -1430 618
-1128 -10 -1983 -953 -1980 -2183 2 -731 193 -1204 674 -1671 976 -948 2439
-656 3084 615 151 298 275 679 275 847 0 271 49 221 448 -460 510 -872 1336
-1805 2081 -2352 l511 -375 -433 -74 c-1410 -241 -2135 -1881 -1445 -3267 380
-761 873 -1063 1738 -1063 554 0 732 45 1070 268 997 660 1245 2437 461 3303
-198 219 -197 219 586 12 976 -258 2536 -217 3495 92 l761 245 -303 -488
c-734 -1181 -314 -2753 879 -3296 758 -344 1526 -187 2121 431 929 967 837
2580 -196 3415 -284 230 -505 311 -975 358 l-608 60 605 440 c823 598 1597
1522 2217 2647 l283 513 2 -455 c1 -289 99 -650 267 -987 693 -1392 2475
-1513 3376 -230 238 339 308 557 340 1064 51 790 -100 1268 -560 1777 -797
882 -1912 902 -2808 51 -263 -251 -323 -277 -276 -120 353 1181 352 3466 -3
4600 -45 146 21 111 243 -127 373 -398 884 -623 1413 -623 1115 0 2006 977
2006 2200 0 1693 -1677 2758 -3011 1912 -583 -370 -897 -884 -974 -1593 l-61
-561 -394 675 c-564 965 -1326 1847 -2043 2367 l-622 450 608 60 c469 47 692
128 979 359 1186 953 1156 2820 -58 3674 -520 365 -1393 457 -1870 197z m1520
-350 c1493 -722 1200 -3297 -405 -3557 -1573 -255 -2645 1580 -1730 2962 499
755 1328 986 2135 595z m-3023 -3707 c2363 -686 4177 -2637 4865 -5233 296
-1115 296 -2887 1 -3988 -713 -2659 -2658 -4700 -5059 -5310 -779 -198 -2309
-195 -3090 7 -1967 508 -3817 2167 -4649 4172 -2375 5723 2403 11958 7932
10352z m7521 -1690 c1263 -478 1521 -2412 443 -3318 -786 -662 -2063 -354
-2553 615 -757 1498 623 3267 2110 2703z m-17166 -178 c1092 -581 1275 -2156
356 -3080 -1268 -1276 -3172 12 -2816 1906 75 404 459 902 904 1173 392 239
1106 240 1556 1z m-9 -7261 c1341 -694 1316 -2796 -40 -3453 -671 -324 -1223
-223 -1798 331 -767 739 -851 1706 -226 2603 434 622 1396 864 2064 519z
m17579 -320 c518 -420 728 -873 728 -1574 0 -1080 -713 -1860 -1701 -1860
-477 0 -843 170 -1218 566 -351 371 -481 735 -481 1344 0 1501 1584 2404 2672
1524z m-12804 -5240 c695 -263 1132 -956 1132 -1794 0 -653 -182 -1075 -633
-1472 -846 -742 -2190 -414 -2632 642 -162 387 -176 1208 -29 1598 324 857
1337 1337 2162 1026z m7901 -60 c405 -192 812 -758 934 -1299 299 -1325 -898
-2608 -2099 -2248 -802 240 -1298 938 -1302 1831 -3 775 279 1279 948 1695
374 232 1054 242 1519 21z" />
		<path d="M16525 22597 c-280 -113 -301 -340 -25 -268 180 47 200 3 200 -438 0
-424 -27 -491 -200 -491 -110 0 -200 -45 -200 -100 0 -55 225 -100 500 -100
275 0 500 45 500 100 0 55 -90 100 -200 100 -179 0 -200 67 -200 650 0 679
-10 694 -375 547z" />
		<path d="M21175 17292 c-96 -56 -175 -197 -175 -312 0 -203 7 -205 196 -33
187 168 504 154 504 -24 0 -45 -180 -258 -400 -473 -539 -527 -520 -650 100
-650 378 0 500 37 500 150 0 101 -101 150 -308 150 l-307 0 307 259 c365 307
422 773 115 937 -237 127 -308 126 -532 -4z" />
		<path d="M3500 16906 c0 -165 51 -185 350 -137 400 65 409 39 189 -607 -155
-455 -130 -700 52 -505 89 96 409 1137 409 1333 0 65 -204 110 -500 110 -428
0 -500 -28 -500 -194z" />
		<path d="M3923 9833 c-229 -92 -440 -629 -371 -944 142 -644 948 -734 948
-105 0 343 -164 515 -495 519 l-255 4 230 191 c126 106 295 167 375 136 90
-34 145 6 145 105 0 159 -297 207 -577 94z m377 -997 c0 -188 -284 -292 -422
-154 -79 79 -75 151 14 258 142 172 408 105 408 -104z" />
		<path d="M21067 9633 c-37 -36 -67 -128 -67 -203 0 -108 44 -113 208 -26 237
127 538 51 438 -110 -37 -60 -163 -145 -281 -190 -209 -79 -207 -85 64 -210
409 -190 313 -447 -161 -432 -236 7 -362 -30 -339 -100 51 -155 654 -200 822
-61 159 132 176 1078 23 1274 -104 132 -594 172 -707 58z" />
		<path d="M8600 3800 c0 -391 8 -400 325 -375 267 20 330 -14 356 -191 38 -269
-281 -394 -586 -231 -184 98 -208 88 -178 -70 24 -125 139 -193 365 -215 408
-39 618 122 618 474 0 329 -166 508 -470 508 -138 0 -230 60 -230 150 0 100
100 150 300 150 165 0 300 45 300 100 0 55 -180 100 -400 100 l-400 0 0 -400z" />
		<path d="M16454 3866 c-335 -571 -329 -764 21 -774 151 -4 219 -30 150 -58
-247 -100 -118 -234 225 -234 193 0 350 45 350 100 0 55 -51 100 -112 100 -81
0 -80 40 5 141 80 97 84 162 12 206 -58 36 -105 265 -105 509 0 584 -207 588
-546 10z m346 -266 c0 -111 -67 -200 -150 -200 -181 0 -193 117 -30 280 161
161 180 153 180 -80z" />
		<path d="M23600 18691 c0 -61 90 -133 200 -162 162 -42 200 -136 200 -491 0
-371 -30 -438 -200 -438 -110 0 -200 -45 -200 -100 0 -55 225 -100 500 -100
275 0 500 45 500 100 0 55 -90 100 -200 100 -170 0 -200 67 -200 450 0 383 30
450 200 450 111 0 200 67 200 150 0 113 -122 150 -500 150 -295 0 -500 -45
-500 -109z" />
		<path d="M25055 18577 c-246 -352 -198 -829 108 -1070 145 -114 315 -207 378
-207 195 0 566 308 499 416 -42 68 -99 65 -171 -7 -145 -145 -499 -139 -649
11 -178 178 -146 526 66 717 181 164 514 133 514 -48 0 -49 45 -89 100 -89 55
0 100 105 100 234 0 202 -52 235 -395 249 -305 12 -430 -35 -550 -206z" />
		<path d="M354 18507 c-31 -51 -12 -121 44 -156 132 -81 133 -951 2 -951 -55 0
-100 -45 -100 -100 0 -55 135 -100 300 -100 295 0 414 145 182 223 -137 45
-38 377 112 377 56 0 171 -135 256 -300 147 -284 550 -430 550 -200 0 55 -37
100 -81 100 -45 0 -187 143 -316 317 l-234 317 286 228 c246 197 262 238 116
294 -208 80 -505 -20 -428 -144 72 -118 -227 -363 -320 -263 -40 43 -17 98 52
123 69 25 125 108 125 186 0 159 -453 199 -546 49z" />
		<path d="M457 9180 c-163 -233 -204 -642 -93 -929 146 -381 1036 -420 1036
-46 0 101 46 211 102 246 173 107 1 249 -302 249 -351 0 -501 -192 -210 -268
303 -80 259 -251 -55 -214 -333 40 -484 274 -398 617 49 195 130 265 309 265
133 0 270 -45 304 -100 109 -177 250 -107 250 125 0 191 -60 229 -393 252
-312 21 -425 -19 -550 -197z" />
		<path d="M24177 8901 c29 -293 2 -556 -63 -635 -141 -169 -49 -266 253 -266
238 0 312 139 133 250 -199 123 -101 350 150 350 251 0 349 -227 150 -350
-183 -113 -103 -250 144 -250 266 0 420 149 258 249 -132 81 -133 951 -2 951
55 0 100 45 100 100 0 55 -135 100 -300 100 -165 0 -300 -45 -300 -100 0 -55
45 -100 100 -100 55 0 100 -67 100 -150 0 -93 -94 -150 -250 -150 -156 0 -250
57 -250 150 0 83 45 150 100 150 55 0 100 45 100 100 0 55 -106 100 -235 100
-222 0 -233 -28 -188 -499z" />
		<path d="M5900 1700 c0 -55 45 -100 100 -100 131 0 130 -870 -2 -951 -184
-114 8 -249 352 -249 390 0 571 187 260 268 -299 79 -260 176 115 286 355 105
485 442 270 702 -137 165 -1095 204 -1095 44z m888 -190 c179 -114 56 -310
-194 -310 -127 0 -194 69 -194 200 0 211 158 255 388 110z" />
		<path d="M18763 1720 c-28 -44 -8 -145 42 -225 123 -195 120 -768 -5 -845
-202 -125 -91 -250 220 -250 249 0 293 27 200 120 -190 190 -146 480 74 480
253 0 354 -172 206 -350 -144 -174 -56 -341 163 -308 131 19 165 162 176 741
14 683 4 717 -212 717 -235 0 -320 -252 -109 -323 176 -58 -1 -277 -224 -277
-203 0 -267 243 -92 351 56 35 75 105 44 156 -71 114 -416 123 -483 13z" />
	</g>
</svg>
