<?xml version="1.0" standalone="no"?>
<!DOCTYPE svg PUBLIC "-//W3C//DTD SVG 20010904//EN" "http://www.w3.org/TR/2001/REC-SVG-20010904/DTD/svg10.dtd">
<svg version="1.0" xmlns="http://www.w3.org/2000/svg" width="295.251517pt" height="270.658570pt" viewBox="0 0 295.251517 270.658570" preserveAspectRatio="xMidYMid meet">
	<metadata>
		Created by potrace 1.13, written by Peter Selinger 2001-2015
	</metadata>
	<g transform="translate(-2.500000,272.000000) scale(0.010000,-0.010000)" fill="#222" stroke="none">
		<path d="M27400 27162 c0 -89 405 -136 456 -53 31 50 -59 91 -200 91 -141 0
-256 -17 -256 -38z" />
		<path d="M8525 27034 c-69 -28 -125 -113 -125 -190 0 -100 81 -123 288 -81
375 75 508 -131 168 -261 -322 -122 -322 -182 2 -305 358 -136 252 -341 -197
-378 -458 -39 -437 -255 28 -301 498 -49 610 109 574 801 -36 707 -249 912
-738 715z" />
		<path d="M19212 26922 c-129 -241 -12 -413 347 -508 194 -52 291 -143 291
-271 0 -250 -371 -308 -588 -91 -149 150 -162 148 -162 -23 0 -153 76 -185
425 -183 387 4 428 28 456 275 27 232 -15 282 -300 356 -230 60 -331 144 -331
278 0 257 351 315 518 87 125 -171 132 -170 132 18 0 279 -645 330 -788 62z" />
		<path d="M24800 26900 c0 -110 -56 -201 -125 -202 -93 -1 -95 -20 -8 -75 64
-41 132 -232 150 -424 28 -296 75 -354 305 -380 150 -18 353 14 450 70 136 78
92 89 -184 46 -439 -69 -498 9 -503 665 -2 275 -22 500 -45 500 -22 0 -40 -90
-40 -200z" />
		<path d="M4049 26899 c-29 -47 -7 -113 49 -148 56 -35 102 -260 102 -501 0
-241 -46 -466 -102 -501 -160 -99 -9 -249 252 -249 261 0 412 150 252 249
-134 82 -132 451 1 451 57 0 197 -157 310 -350 209 -354 329 -425 432 -258 32
51 -80 243 -248 425 l-305 333 260 225 c143 124 235 264 206 312 -69 112
-1140 123 -1209 12z m751 -188 c0 -49 -67 -116 -150 -147 -152 -59 -205 48
-83 169 95 96 233 83 233 -22z" />
		<path d="M7137 26857 c-426 -302 -342 -1202 123 -1318 406 -102 711 30 770
335 66 335 -32 454 -336 409 -294 -43 -381 -283 -102 -283 114 0 208 -48 208
-106 0 -193 -645 -61 -683 139 -71 376 75 667 335 667 136 0 248 -45 248 -100
0 -55 68 -100 150 -100 83 0 150 89 150 200 0 110 -56 201 -125 201 -69 1
-215 25 -325 54 -110 29 -296 -15 -413 -98z" />
		<path d="M21844 26687 c-162 -35 -238 -69 -169 -75 73 -7 125 -153 125 -354 0
-188 -56 -364 -125 -392 -69 -28 -34 -54 78 -58 177 -7 197 42 164 392 -40
418 110 533 363 280 93 -93 120 -93 120 0 0 66 68 120 150 120 108 0 150 -111
150 -400 0 -315 37 -400 175 -398 116 1 135 26 57 76 -64 41 -132 254 -150
473 -30 371 -53 399 -338 399 -168 0 -438 -28 -600 -63z" />
		<path d="M23300 26600 c-241 -241 -254 -432 -43 -643 169 -169 795 -216 887
-67 32 52 -109 69 -323 40 -279 -37 -416 -6 -519 118 -209 251 -8 502 401 502
507 0 489 -231 -22 -276 l-431 -39 475 -18 c535 -19 639 157 253 427 -294 206
-437 197 -678 -44z" />
		<path d="M26150 26700 c-160 -69 -126 -87 175 -93 434 -8 518 -207 87 -207
-323 0 -563 -223 -478 -443 40 -105 205 -142 583 -134 290 7 473 30 405 53
-67 22 -122 193 -122 379 0 232 -61 370 -193 441 -220 118 -192 118 -457 4z
m550 -539 c0 -153 -210 -261 -508 -261 -213 0 -264 254 -67 334 257 103 575
63 575 -73z" />
		<path d="M20800 26600 c0 -55 45 -100 100 -100 55 0 100 45 100 100 0 55 -45
100 -100 100 -55 0 -100 -45 -100 -100z" />
		<path d="M25127 26631 c97 -26 232 -24 300 3 68 28 -12 49 -177 47 -165 -3
-220 -25 -123 -50z" />
		<path d="M22264 25950 c-35 -90 -1 -150 86 -150 87 0 121 60 86 150 -31 83
-70 150 -86 150 -16 0 -55 -67 -86 -150z" />
		<path d="M20800 25900 c0 -55 45 -100 100 -100 55 0 100 45 100 100 0 55 -45
100 -100 100 -55 0 -100 -45 -100 -100z" />
		<path d="M5948 25593 c-92 -421 5 -475 195 -107 193 373 194 414 15 414 -78 0
-172 -138 -210 -307z" />
		<path d="M27525 25828 c151 -23 399 -23 550 0 151 23 27 42 -275 42 -302 0
-426 -19 -275 -42z" />
		<path d="M24925 25231 c142 -37 175 -158 175 -631 0 -528 -22 -590 -225 -629
-124 -24 23 -43 325 -42 303 0 423 20 267 43 -282 43 -283 47 -250 686 32 630
28 642 -217 631 -170 -8 -194 -27 -75 -58z" />
		<path d="M19051 25098 c35 -56 95 -82 134 -57 39 24 45 -223 14 -549 -56 -584
-53 -592 197 -580 170 7 196 26 79 57 -129 34 -175 148 -175 438 0 445 101
495 341 168 90 -124 62 -34 -63 199 -139 258 -299 425 -409 425 -99 1 -153
-45 -118 -101z" />
		<path d="M19878 25075 c57 -69 124 -215 149 -325 26 -110 38 -74 26 79 -14
197 20 264 114 228 73 -28 133 -7 133 46 0 53 -118 97 -262 97 -198 0 -237
-31 -160 -125z" />
		<path d="M20721 25076 c-214 -259 -248 -670 -76 -932 137 -209 233 -250 528
-225 199 17 381 91 405 164 35 107 6 109 -152 10 -505 -315 -1012 258 -678
768 183 280 413 305 669 74 171 -155 183 -154 183 25 0 149 -83 196 -387 216
-221 16 -431 -28 -492 -100z" />
		<path d="M7950 24743 c-1585 -821 -1679 -3094 -167 -4017 258 -159 524 -225
898 -225 l531 -1 -628 -475 c-777 -589 -1647 -1615 -2106 -2484 l-348 -660
-63 461 c-161 1170 -979 1979 -2014 1993 -1758 24 -2700 -2262 -1521 -3692
782 -949 2264 -968 2992 -39 l258 330 -149 -592 c-211 -840 -210 -2904 2
-3777 214 -879 602 -1847 1042 -2597 397 -678 1577 -1962 2101 -2285 l353
-219 -493 -160 c-605 -198 -877 -383 -1195 -813 -1112 -1508 33 -3766 1808
-3566 1521 171 2357 2200 1439 3490 -267 375 -245 396 235 221 235 -86 917
-179 1527 -209 1058 -51 1979 86 2898 430 188 71 187 61 -20 -167 -743 -817
-719 -2308 50 -3128 345 -367 972 -658 1420 -658 736 0 1539 589 1865 1368
173 413 173 1343 0 1756 -335 799 -1126 1365 -1915 1370 l-400 3 350 211 c644
389 1827 1709 2325 2594 l475 844 0 -478 c0 -1153 936 -2168 2000 -2168 731 0
1534 574 1845 1318 210 503 195 1431 -31 1929 -610 1341 -2339 1630 -3252 545
-144 -171 -262 -297 -262 -279 0 18 67 348 148 733 237 1119 184 3017 -112
4000 -52 173 -22 165 227 -64 851 -782 2008 -792 2776 -25 1094 1093 759 3124
-611 3703 -802 339 -1799 50 -2322 -672 -285 -393 -563 -1319 -451 -1500 31
-51 16 -92 -34 -92 -50 0 -176 191 -281 425 -612 1369 -2337 3009 -3719 3536
-369 140 -941 312 -1271 381 l-600 125 -30 666 -29 667 -746 0 -745 0 0 -700
c0 -673 -9 -700 -241 -700 -215 0 -1062 -239 -1609 -454 -192 -75 -192 -69 13
163 1274 1439 369 3782 -1463 3788 -247 1 -585 -68 -750 -154z m1592 -383
c1122 -658 1228 -2438 193 -3228 -352 -269 -1032 -405 -1471 -294 -664 166
-1260 1047 -1260 1862 0 1438 1378 2340 2538 1660z m5138 -3710 c3214 -1015
5289 -4430 4912 -8080 -459 -4432 -4385 -7482 -8331 -6473 -1183 303 -2086
827 -3021 1752 -919 909 -1507 1836 -1884 2969 -693 2079 -559 4186 390 6132
775 1590 1918 2723 3490 3458 1341 628 2947 715 4444 242z m7388 -1657 c1490
-564 1490 -3022 0 -3586 -1128 -428 -2315 491 -2315 1793 0 1314 1176 2225
2315 1793z m-17275 -139 c591 -306 1005 -1050 1006 -1809 1 -168 -115 -538
-256 -822 -444 -890 -1306 -1225 -2171 -843 -1352 598 -1430 2639 -131 3431
375 228 1152 250 1552 43z m17239 -7399 c1651 -589 1577 -3157 -107 -3660
-1100 -328 -2125 573 -2125 1867 0 888 501 1603 1291 1842 369 112 510 105
941 -49z m-4700 -5500 c210 -75 475 -219 589 -320 324 -288 575 -937 575
-1485 0 -1719 -1772 -2540 -2909 -1347 -908 952 -621 2573 551 3106 487 221
683 228 1194 46z m-7539 -101 c591 -306 1005 -1050 1006 -1809 1 -168 -115
-538 -256 -822 -444 -890 -1306 -1225 -2171 -843 -1352 598 -1430 2639 -131
3431 375 228 1152 250 1552 43z" />
		<path d="M8398 23298 c-162 -162 -181 -243 -96 -402 66 -124 72 -260 15 -362
-140 -251 -20 -529 260 -600 431 -108 571 69 592 751 16 510 -12 631 -168 715
-269 144 -375 126 -603 -102z m577 -273 c55 -164 -259 -281 -393 -147 -58 58
-73 156 -34 219 88 143 371 95 427 -72z m-18 -636 c85 -137 -140 -289 -323
-219 -74 28 -134 114 -134 191 0 165 358 187 457 28z" />
		<path d="M21196 17896 c-255 -255 -153 -479 110 -240 179 161 494 141 494 -33
0 -45 -180 -258 -400 -473 -539 -527 -520 -650 100 -650 378 0 500 37 500 150
0 101 -101 150 -308 150 l-307 0 307 259 c365 307 422 773 115 937 -276 148
-380 131 -611 -100z" />
		<path d="M3500 17606 c0 -225 157 -356 249 -208 76 123 451 137 451 18 0 -46
-67 -305 -149 -575 -180 -593 -177 -541 -26 -541 118 0 475 1012 475 1346 0
118 -116 154 -500 154 -428 0 -500 -28 -500 -194z" />
		<path d="M21225 10334 c-69 -28 -125 -113 -125 -190 0 -100 81 -123 288 -81
375 75 508 -131 168 -261 -322 -122 -322 -182 2 -305 356 -135 252 -341 -191
-378 -202 -17 -367 -72 -367 -123 0 -154 499 -228 754 -112 215 98 239 169
228 687 -6 319 -55 635 -109 704 -98 125 -413 154 -648 59z" />
		<path d="M16475 4410 c-151 -269 -275 -517 -275 -550 0 -33 144 -60 320 -60
249 0 293 -27 200 -120 -194 -194 -140 -280 174 -280 300 0 457 116 330 243
-81 81 -88 128 -109 782 -21 650 -270 644 -640 -15z m425 -154 c0 -150 -180
-310 -259 -230 -70 69 68 374 170 374 49 0 89 -65 89 -144z" />
		<path d="M8642 4765 c-31 -82 -42 -276 -24 -432 27 -241 77 -283 332 -283 240
0 307 -48 334 -239 32 -226 11 -237 -375 -185 -421 57 -497 2 -289 -206 296
-296 980 -8 980 413 0 231 -384 594 -558 528 -83 -32 -142 6 -142 92 0 98 104
147 308 147 441 0 319 242 -142 281 -254 22 -385 -15 -424 -116z" />
		<path d="M16150 24643 c-767 -399 -1144 -1057 -1148 -2002 -3 -854 291 -1383
1004 -1809 971 -579 1950 -342 2544 618 260 420 300 579 300 1200 0 623 -39
780 -304 1207 -386 624 -920 939 -1596 941 -275 0 -635 -69 -800 -155z m1566
-203 c678 -346 1164 -1394 994 -2143 -231 -1021 -888 -1597 -1821 -1597 -467
0 -834 172 -1209 566 -612 645 -734 1486 -331 2295 493 988 1455 1345 2367
879z" />
		<path d="M16700 23290 c-122 -87 -109 -98 67 -60 200 43 219 3 250 -537 32
-563 25 -583 -192 -528 -132 33 -225 11 -225 -54 0 -65 189 -111 456 -111 278
0 432 39 394 100 -34 55 -127 100 -206 100 -109 0 -144 144 -144 600 0 616
-82 717 -400 490z" />
		<path d="M22300 24700 c0 -55 45 -100 100 -100 55 0 100 45 100 100 0 55 -45
100 -100 100 -55 0 -100 -45 -100 -100z" />
		<path d="M23420 24680 c-140 -140 -155 -470 -30 -668 56 -88 201 -121 399 -92
449 66 437 -278 -14 -408 -237 -69 -266 -96 -108 -103 457 -19 533 80 533 693
0 372 45 600 125 632 69 28 -80 54 -330 58 -250 4 -509 -46 -575 -112z m630
-330 c0 -266 -33 -300 -299 -300 -208 0 -309 55 -333 181 -63 324 64 484 356
451 233 -27 276 -79 276 -332z" />
		<path d="M26475 24728 c179 -23 325 -99 325 -170 0 -83 -86 -114 -234 -85
-275 52 -584 -210 -501 -426 32 -84 170 -141 321 -133 235 12 240 18 39 57
-345 66 -282 329 79 329 233 0 298 -41 275 -171 -18 -109 45 -182 171 -199
110 -14 144 -1 75 30 -69 31 -125 232 -125 448 0 389 -3 392 -375 376 -369
-16 -370 -17 -50 -56z" />
		<path d="M27545 24691 c-37 -60 -14 -161 51 -225 90 -88 111 -80 86 34 -23
109 56 150 293 149 179 0 325 33 325 75 0 119 -680 89 -755 -33z" />
		<path d="M28947 24696 c-94 -154 131 -379 413 -415 374 -47 284 -231 -112
-231 -192 0 -348 -34 -348 -75 0 -116 780 -89 853 29 96 157 -133 380 -428
415 -143 17 -280 93 -305 168 -34 105 42 128 318 95 199 -23 362 -6 362 38 0
119 -678 97 -753 -24z" />
		<path d="M27993 24312 c133 -37 262 -128 287 -201 34 -102 -56 -125 -368 -95
-226 22 -412 4 -412 -38 0 -43 181 -78 403 -78 278 0 422 50 465 160 71 185
-128 341 -418 329 -165 -7 -158 -21 43 -77z" />
		<path d="M19926 24096 c67 -108 155 -196 195 -196 121 0 -26 281 -177 339
-116 44 -120 19 -18 -143z" />
		<path d="M22300 24000 c0 -55 45 -100 100 -100 55 0 100 45 100 100 0 55 -45
100 -100 100 -55 0 -100 -45 -100 -100z" />
		<path d="M24049 18700 c0 -667 11 -700 233 -700 208 0 227 34 168 300 -57 261
-38 300 150 300 188 0 207 -39 150 -300 -59 -266 -40 -300 168 -300 222 0 233
33 233 700 -1 661 -14 700 -228 700 -192 0 -217 -38 -164 -250 53 -210 28
-250 -159 -250 -187 0 -212 40 -159 250 53 212 28 250 -164 250 -214 0 -227
-39 -228 -700z" />
		<path d="M250 18300 c0 -666 11 -700 233 -700 207 0 225 34 167 300 -57 261
-38 300 150 300 188 0 207 -39 150 -300 -58 -266 -40 -300 167 -300 222 0 233
34 233 700 0 661 -13 700 -227 700 -192 0 -217 -38 -164 -250 53 -210 28 -250
-159 -250 -187 0 -212 40 -159 250 53 212 28 250 -164 250 -214 0 -227 -39
-227 -700z" />
		<path d="M24138 8981 c-40 -66 -20 -137 44 -158 66 -22 118 -230 118 -473 0
-243 -52 -451 -118 -473 -64 -21 -84 -92 -44 -158 87 -141 550 -155 759 -23
116 74 86 117 -150 211 l-297 118 281 81 c559 159 734 515 412 837 -185 185
-897 212 -1005 38z m912 -381 c0 -82 -101 -164 -225 -182 -173 -25 -225 17
-225 182 0 165 52 207 225 182 124 -18 225 -99 225 -182z" />
		<path d="M5897 1517 c-187 -151 -242 -292 -242 -616 0 -472 210 -702 639 -699
343 2 462 95 543 423 63 261 48 275 -285 275 -395 0 -471 -143 -127 -240 204
-57 209 -73 51 -166 -408 -241 -803 439 -456 786 169 169 447 149 519 -36 33
-86 105 -129 160 -94 144 89 125 450 -24 451 -69 1 -218 27 -331 57 -124 33
-302 -23 -447 -141z" />
		<path d="M7225 1634 c-196 -79 -146 -234 75 -234 170 0 200 -67 200 -438 0
-355 -38 -449 -200 -491 -390 -102 -203 -271 300 -271 378 0 500 37 500 150 0
83 -89 150 -200 150 -178 0 -200 67 -200 600 0 615 -72 696 -475 534z" />
		<path d="M19120 1580 c-123 -123 -165 -380 -63 -380 32 0 123 66 203 146 164
164 440 102 440 -99 0 -72 -180 -285 -400 -474 -545 -466 -516 -573 156 -573
345 0 532 38 494 100 -34 55 -205 101 -381 103 l-319 3 264 233 c145 127 311
322 370 431 221 414 -427 847 -764 510z" />
		<path d="M17703 1403 c-231 -231 -271 -773 -78 -1033 170 -228 683 -315 893
-151 92 72 182 244 200 381 27 210 -14 255 -255 283 -369 42 -607 -164 -286
-248 303 -79 283 -235 -30 -235 -433 0 -541 689 -141 903 131 70 224 52 343
-67 184 -183 416 -50 326 186 -87 226 -740 213 -972 -19z" />
	</g>
</svg>
