<?xml version="1.0" standalone="no"?>
<!DOCTYPE svg PUBLIC "-//W3C//DTD SVG 20010904//EN" "http://www.w3.org/TR/2001/REC-SVG-20010904/DTD/svg10.dtd">
<svg version="1.0" xmlns="http://www.w3.org/2000/svg" width="259.218783pt" height="256.967779pt" viewBox="0 0 259.218783 256.967779" preserveAspectRatio="xMidYMid meet">
	<metadata>
		Created by potrace 1.13, written by Peter Selinger 2001-2015
	</metadata>
	<g transform="translate(-2.545455,259.967779) scale(0.010000,-0.010000)" fill="#222" stroke="none">
		<path d="M23598 25848 c-173 -209 -62 -289 204 -147 147 79 253 84 320 17 125
-125 16 -318 -178 -318 -230 0 -167 -157 114 -285 354 -162 251 -364 -191
-372 -455 -9 -548 -93 -270 -242 275 -146 780 -38 839 181 63 231 9 1064 -77
1204 -103 165 -613 140 -761 -38z" />
		<path d="M19200 25750 c0 -82 45 -150 100 -150 55 0 100 -177 100 -394 0 -217
-45 -422 -100 -456 -197 -122 -95 -250 200 -250 165 0 300 45 300 100 0 55
-45 100 -100 100 -55 0 -100 90 -100 200 0 301 274 240 450 -100 146 -283 450
-418 450 -200 0 55 -34 100 -75 101 -41 0 -158 145 -258 322 l-184 322 261
209 c287 228 249 346 -111 346 -164 0 -233 -57 -233 -194 0 -205 -171 -369
-275 -264 -34 34 -8 115 57 180 193 193 137 278 -182 278 -200 0 -300 -50
-300 -150z" />
		<path d="M22158 25681 c-189 -270 -206 -778 -33 -1011 170 -228 684 -316 888
-151 90 72 192 255 227 406 60 259 44 275 -282 275 -396 0 -582 -186 -268
-268 289 -76 265 -232 -36 -232 -464 0 -579 673 -154 900 138 74 228 58 349
-64 116 -116 195 -132 271 -56 194 194 11 379 -401 403 -321 19 -435 -22 -561
-202z" />
		<path d="M16500 24841 c-1399 -606 -1791 -2471 -763 -3632 205 -232 206 -238
13 -168 -1036 377 -1724 480 -2895 435 -988 -39 -1337 -96 -1937 -319 -1843
-684 -3327 -1995 -4190 -3702 l-297 -586 -62 526 c-211 1780 -2063 2594 -3343
1470 -741 -650 -938 -1756 -486 -2727 602 -1292 2070 -1586 3115 -623 l436
402 -96 -333 c-222 -769 -308 -2063 -201 -3001 58 -513 135 -1045 170 -1183
62 -244 56 -243 -275 69 -418 393 -769 531 -1349 531 -1133 0 -1981 -940
-1986 -2200 -3 -771 275 -1354 875 -1837 313 -252 489 -311 1021 -345 558 -35
703 -6 1094 223 535 314 940 947 1044 1631 l73 478 231 -450 c534 -1036 1545
-2216 2458 -2869 l300 -215 -300 -67 c-603 -136 -687 -179 -1109 -568 -1179
-1087 -861 -3123 582 -3726 1801 -753 3452 1341 2494 3163 l-283 538 708 -185
c939 -245 2714 -192 3640 107 l631 205 -159 -216 c-751 -1020 -691 -2307 146
-3144 860 -860 2110 -799 2884 139 1202 1457 215 3734 -1620 3737 -268 1 -248
29 309 439 777 572 1464 1371 2052 2384 l475 820 2 -496 c7 -1549 1540 -2579
2875 -1933 1240 600 1579 2401 655 3481 -818 955 -1969 1038 -2845 205 -213
-203 -387 -364 -387 -358 0 5 67 324 148 709 239 1126 185 3110 -111 4100 -47
157 13 131 276 -120 655 -622 1409 -777 2137 -440 1694 784 1694 3336 0 4120
-491 228 -940 239 -1428 35 -760 -318 -1311 -1094 -1346 -1895 -11 -248 -30
-450 -42 -450 -12 0 -164 267 -338 593 -555 1040 -1488 2055 -2600 2828 l-246
171 307 -55 c745 -133 1701 430 2057 1212 241 532 240 1475 -4 2001 -467 1010
-1580 1493 -2510 1091z m1362 -332 c1560 -709 1373 -3169 -275 -3613 -867
-233 -1836 397 -2076 1350 -250 996 178 1899 1090 2295 463 201 765 193 1261
-32z m-3262 -3665 c2463 -578 4489 -2677 5209 -5394 293 -1109 292 -2879 -2
-4000 -718 -2735 -2614 -4700 -5164 -5352 -2969 -759 -6051 765 -7558 3739
-1958 3863 -458 8663 3300 10558 1120 565 2911 756 4215 449z m8105 -1897
c386 -199 752 -706 893 -1234 354 -1331 -887 -2687 -2123 -2318 -926 276
-1526 1368 -1273 2318 322 1211 1462 1773 2503 1234z m-17661 -44 c436 -211
900 -819 1011 -1324 247 -1129 -601 -2279 -1681 -2279 -1009 0 -1687 674
-1756 1745 -59 926 302 1557 1085 1897 474 205 859 194 1341 -39z m49 -7378
c1079 -550 1364 -2118 550 -3019 -443 -491 -820 -643 -1440 -584 -865 83
-1468 750 -1580 1747 -37 328 14 554 221 977 457 934 1410 1307 2249 879z
m17620 -183 c637 -326 1064 -1219 944 -1973 -85 -532 -282 -882 -700 -1249
-1106 -971 -2757 -76 -2757 1494 0 1460 1295 2350 2513 1728z m-4600 -5590
c464 -305 787 -964 787 -1602 0 -1295 -1193 -2248 -2257 -1803 -1602 669
-1658 2828 -93 3569 494 233 1048 175 1563 -164z m-8033 107 c653 -341 1020
-960 1020 -1719 0 -1144 -862 -2027 -1869 -1913 -1750 197 -2222 2650 -690
3584 371 226 1152 250 1539 48z" />
		<path d="M17025 23397 c-254 -102 -303 -297 -75 -297 111 0 150 -115 150 -438
0 -362 -37 -448 -210 -494 -347 -90 -109 -268 360 -268 469 0 707 178 360 268
-186 49 -210 129 -210 694 0 667 -10 681 -375 535z" />
		<path d="M21620 17980 c-123 -123 -165 -380 -63 -380 32 0 123 66 203 146 164
164 440 102 440 -99 0 -72 -180 -285 -400 -474 -544 -465 -516 -573 150 -573
303 0 550 45 550 100 0 55 -166 100 -370 100 l-369 0 369 338 c418 383 431
430 214 740 -169 242 -533 293 -724 102z" />
		<path d="M3800 17600 c0 -211 145 -269 250 -100 74 120 450 135 450 18 0 -45
-71 -319 -157 -610 -152 -511 -132 -743 48 -551 89 96 409 1137 409 1333 0 65
-204 110 -500 110 -433 0 -500 -27 -500 -200z" />
		<path d="M4138 10365 c-232 -200 -283 -321 -274 -654 12 -475 171 -711 478
-711 295 0 458 184 458 516 0 295 -305 542 -553 447 -90 -35 -117 -2 -79 97
31 83 188 176 349 208 160 32 274 109 254 170 -69 206 -346 174 -633 -73z
m443 -891 c23 -119 -30 -174 -168 -174 -229 0 -356 149 -260 306 98 157 390
67 428 -132z" />
		<path d="M21625 10334 c-69 -28 -125 -113 -125 -190 0 -100 81 -123 288 -81
375 75 508 -131 168 -261 -320 -122 -322 -182 -6 -302 409 -155 317 -400 -150
-400 -404 0 -533 -128 -242 -239 522 -201 1077 200 854 616 -56 105 -76 288
-45 407 101 388 -298 629 -742 450z" />
		<path d="M16866 4411 c-146 -268 -266 -516 -266 -550 0 -33 144 -61 320 -61
249 0 293 -27 200 -120 -193 -193 -140 -280 168 -280 264 0 286 27 261 325
-15 179 -32 516 -38 750 -16 608 -295 580 -645 -64z m293 -385 c-108 -108
-165 43 -89 235 71 180 76 180 111 6 20 -100 10 -209 -22 -241z" />
		<path d="M8993 4860 c-27 -27 -32 -230 -11 -450 36 -378 54 -398 314 -346 200
40 293 9 340 -113 98 -255 -22 -366 -371 -348 -467 25 -501 11 -365 -153 163
-196 644 -192 843 7 236 237 195 614 -89 799 -135 89 -292 132 -350 97 -57
-36 -104 5 -104 91 0 108 96 156 308 156 429 0 326 241 -119 280 -191 16 -368
7 -396 -20z" />
		<path d="M21170 24725 c-108 -191 -164 -625 -82 -625 73 0 312 509 312 665 0
67 -189 34 -230 -40z" />
		<path d="M25507 20402 c-276 -65 -406 -302 -165 -302 120 0 158 -105 158 -438
0 -362 -37 -448 -210 -494 -347 -90 -109 -268 360 -268 466 0 708 177 364 267
-175 46 -210 146 -235 673 -28 600 -37 618 -272 562z" />
		<path d="M23900 20200 c-261 -261 -271 -905 -17 -1135 226 -204 616 -213 873
-18 107 81 159 148 115 150 -43 2 -30 93 29 203 112 208 93 222 -300 222 -339
0 -400 -18 -400 -122 0 -55 90 -100 200 -100 110 0 200 -45 200 -100 0 -55
-134 -100 -298 -100 -235 0 -312 53 -361 250 -119 476 203 796 571 566 251
-157 288 -147 288 72 0 111 -93 214 -225 249 -359 96 -463 75 -675 -137z" />
		<path d="M1700 20206 c0 -52 45 -122 100 -156 55 -34 100 -236 100 -450 0
-214 -45 -416 -100 -450 -218 -135 -80 -250 300 -250 417 0 549 180 200 271
-280 73 -250 229 44 229 139 0 312 96 400 222 194 277 194 326 -1 521 -171
171 -1043 224 -1043 63z m865 -260 c71 -185 46 -217 -215 -261 -144 -25 -209
27 -232 190 -24 172 18 225 178 225 116 0 237 -69 269 -154z" />
		<path d="M1857 8043 c-177 -177 -199 -305 -67 -387 49 -30 115 12 146 95 66
170 420 201 516 46 35 -57 -148 -299 -408 -537 -273 -251 -442 -482 -402 -547
38 -62 292 -113 564 -113 372 0 494 37 494 150 0 102 -102 150 -320 150 l-319
0 319 330 c176 181 320 403 320 493 0 219 -271 477 -500 477 -102 0 -256 -71
-343 -157z" />
		<path d="M497 7917 c-187 -151 -242 -292 -242 -616 0 -472 210 -702 639 -699
363 2 486 107 523 449 30 271 6 299 -259 299 -160 0 -310 -56 -333 -125 -24
-73 44 -125 167 -125 114 0 208 -48 208 -106 0 -60 -142 -93 -325 -75 -307 29
-325 53 -325 431 0 362 26 403 275 432 151 17 275 -17 275 -75 0 -59 68 -107
150 -107 83 0 150 89 150 200 0 110 -56 201 -125 201 -69 1 -218 27 -331 57
-124 33 -302 -23 -447 -141z" />
		<path d="M24149 7400 c1 -659 14 -700 226 -700 246 0 287 98 114 271 -147 147
-27 329 217 329 220 0 264 -290 74 -480 -93 -93 -54 -120 175 -120 l295 0 0
700 c0 654 -15 700 -219 700 -246 0 -388 -153 -233 -249 175 -108 111 -351
-92 -351 -223 0 -400 219 -224 277 211 71 126 323 -108 323 -212 0 -225 -40
-225 -700z" />
		<path d="M7575 1775 c-320 -107 -366 -275 -75 -275 170 0 200 -67 200 -450 0
-383 -30 -450 -200 -450 -111 0 -200 -67 -200 -150 0 -113 122 -150 500 -150
500 0 691 169 304 270 -163 43 -200 154 -225 674 l-29 623 -275 -92z" />
		<path d="M6068 1596 c-515 -405 -265 -1297 363 -1294 407 1 522 82 606 423 64
266 53 275 -335 275 -221 0 -402 -45 -402 -100 0 -55 90 -100 200 -100 220 0
273 -159 75 -225 -400 -135 -698 309 -480 716 117 217 448 283 555 109 109
-176 350 -107 350 100 0 130 -67 200 -192 200 -105 0 -255 24 -332 54 -77 29
-260 -42 -408 -158z" />
		<path d="M18300 1600 c0 -55 45 -100 100 -100 131 0 130 -870 -2 -951 -162
-100 -8 -249 258 -249 247 0 327 137 144 250 -199 123 -101 350 150 350 251 0
349 -227 150 -350 -183 -113 -103 -250 144 -250 266 0 420 149 258 249 -132
81 -133 951 -2 951 55 0 100 45 100 100 0 55 -135 100 -300 100 -165 0 -300
-45 -300 -100 0 -55 45 -100 100 -100 55 0 100 -67 100 -150 0 -93 -94 -150
-250 -150 -156 0 -250 57 -250 150 0 83 45 150 100 150 55 0 100 45 100 100 0
55 -135 100 -300 100 -165 0 -300 -45 -300 -100z" />
	</g>
</svg>
