<?xml version="1.0" standalone="no"?>
<!DOCTYPE svg PUBLIC "-//W3C//DTD SVG 20010904//EN" "http://www.w3.org/TR/2001/REC-SVG-20010904/DTD/svg10.dtd">
<svg version="1.0" xmlns="http://www.w3.org/2000/svg" width="293.191378pt" height="248.000359pt" viewBox="0 0 293.191378 248.000359" preserveAspectRatio="xMidYMid meet">
	<metadata>
		Created by potrace 1.13, written by Peter Selinger 2001-2015
	</metadata>
	<g transform="translate(-2.808622,253.000000) scale(0.010000,-0.010000)" fill="#222" stroke="none">
		<path d="M6009 25109 c-223 -223 -276 -697 -112 -1004 204 -380 1003 -325
1003 69 0 129 -27 139 -120 46 -341 -341 -881 4 -720 460 115 328 389 397 647
163 186 -168 193 -164 193 92 0 146 -56 266 -125 266 -69 1 -222 28 -341 60
-143 38 -286 -13 -425 -152z" />
		<path d="M25920 25180 c-127 -127 -164 -380 -56 -380 35 0 115 70 178 155 117
161 458 107 458 -73 0 -53 -180 -258 -400 -456 -544 -488 -522 -626 100 -626
378 0 500 37 500 150 0 96 -97 150 -269 150 l-268 0 268 280 c412 430 315 920
-181 920 -116 0 -264 -54 -330 -120z" />
		<path d="M4300 25100 c0 -55 51 -100 112 -100 75 0 98 -183 67 -550 -45 -548
-44 -550 238 -550 156 0 283 45 283 100 0 55 -45 100 -100 100 -55 0 -100 146
-99 325 l1 325 255 -425 c140 -234 297 -425 349 -425 52 0 94 222 94 494 0
272 45 522 100 556 197 122 95 250 -200 250 -165 0 -300 -45 -300 -100 0 -55
45 -100 100 -100 55 0 99 -146 98 -325 l-1 -325 -274 424 c-187 292 -343 425
-498 425 -124 1 -225 -44 -225 -99z" />
		<path d="M23054 25107 c-31 -51 -12 -121 44 -156 56 -35 102 -237 102 -451 0
-214 -46 -416 -102 -451 -184 -114 8 -249 352 -249 390 0 571 187 260 268
-299 79 -260 176 115 286 386 114 504 504 215 715 -205 150 -900 177 -986 38z
m878 -273 c91 -90 -125 -334 -294 -334 -76 0 -138 90 -138 200 0 195 284 283
432 134z" />
		<path d="M24629 25025 c-35 -96 -113 -212 -172 -258 -74 -57 -69 -98 18 -133
69 -28 125 -173 125 -322 0 -150 54 -326 120 -392 174 -174 633 -147 793 46
125 150 103 159 -238 95 -367 -68 -375 -63 -375 234 0 259 38 305 250 305 138
0 250 45 250 100 0 55 -112 100 -250 100 -183 0 -250 53 -250 200 0 246 -183
263 -271 25z" />
		<path d="M19750 24516 c-1048 -500 -1549 -1808 -1102 -2877 82 -195 115 -338
75 -317 -1784 901 -2389 1078 -3678 1078 -1383 0 -2578 -355 -3719 -1106
l-325 -213 197 435 c351 771 181 1899 -378 2518 -593 655 -1807 753 -2493 201
-559 -449 -847 -1031 -852 -1716 -8 -1375 902 -2303 2148 -2190 l584 53 -359
-397 c-440 -488 -987 -1333 -1269 -1962 l-211 -473 -79 494 c-101 637 -520
1227 -1089 1531 -1304 698 -2800 -360 -2800 -1979 0 -1751 1891 -2743 3159
-1658 l391 335 0 -1525 0 -1525 -369 333 c-610 550 -1677 600 -2321 108 -556
-424 -786 -892 -834 -1701 -37 -610 -9 -777 194 -1155 360 -669 867 -1032
1518 -1086 297 -25 694 6 883 68 482 160 975 706 1178 1309 l174 511 348 -730
c191 -401 575 -1026 852 -1387 l505 -658 -534 45 c-736 61 -985 -22 -1501
-497 -1704 -1570 -50 -4531 2008 -3597 1060 482 1543 1807 1052 2889 -106 234
-170 425 -141 425 28 0 195 -107 370 -239 656 -492 2147 -1061 2779 -1061 159
0 289 -45 289 -100 0 -55 -52 -100 -116 -100 -270 0 -824 -563 -1059 -1076
-566 -1238 63 -2650 1350 -3030 778 -230 1615 164 2100 988 536 912 299 2246
-509 2862 -184 141 -387 256 -450 256 -64 0 -116 45 -116 100 0 55 124 101
275 101 641 3 2219 597 2929 1102 l291 207 -196 -430 c-585 -1289 179 -2912
1437 -3054 686 -77 1135 48 1564 436 525 474 735 1054 682 1880 -33 531 -98
730 -351 1079 -553 763 -1506 1067 -2281 727 -124 -55 -28 108 252 429 544
623 1037 1418 1340 2162 l223 550 130 -508 c150 -584 683 -1240 1177 -1446
386 -162 1010 -175 1396 -29 802 302 1409 1376 1300 2300 -211 1783 -2040
2573 -3264 1409 l-396 -377 55 906 c31 498 13 1165 -38 1481 -103 623 -59 690
235 361 423 -475 1364 -630 1970 -324 1310 662 1646 2329 693 3442 -609 712
-1453 893 -2286 490 -488 -237 -978 -897 -1084 -1463 l-69 -368 -299 603
c-164 332 -537 916 -827 1297 l-529 694 511 1 c1694 1 2612 2080 1554 3519
-526 714 -1502 993 -2244 639z m1165 -219 c212 -58 514 -266 720 -493 760
-841 701 -2035 -135 -2738 -1132 -953 -2700 -120 -2700 1434 0 816 390 1433
1103 1742 417 181 538 187 1012 55z m-10673 -224 c735 -417 1077 -1556 723
-2403 -161 -385 -767 -942 -1123 -1031 -417 -105 -1028 26 -1382 296 -470 359
-710 898 -706 1586 7 1354 1358 2196 2488 1552z m6782 -2496 c957 -357 1717
-835 2430 -1527 2392 -2321 2930 -6078 1318 -9197 -610 -1181 -1835 -2386
-2976 -2930 -1105 -526 -1740 -671 -2896 -661 -2914 26 -5476 2174 -6310 5291
-160 595 -215 1100 -219 1997 -6 1476 168 2255 795 3547 392 808 593 1079
1372 1852 977 969 1707 1415 2883 1763 932 275 2680 210 3603 -135z m-9959
-2270 c715 -325 1148 -1312 932 -2124 -250 -937 -886 -1434 -1748 -1362 -962
80 -1549 773 -1549 1830 0 621 143 967 566 1368 536 508 1111 600 1799 288z
m17215 53 c1819 -947 960 -3890 -1027 -3517 -975 183 -1630 1512 -1246 2525
341 900 1488 1400 2273 992z m390 -5773 c997 -613 1092 -2273 176 -3077 -836
-734 -2076 -426 -2558 636 -758 1668 891 3357 2382 2441z m-17462 -114 c1204
-812 1104 -2703 -176 -3361 -382 -196 -1165 -137 -1541 116 -1049 707 -1050
2549 -1 3246 469 312 1254 311 1718 -1z m3065 -5154 c899 -640 958 -2200 112
-2987 -980 -912 -2551 -234 -2746 1184 -104 761 238 1483 902 1901 418 262
1296 213 1732 -98z m11070 82 c1029 -502 1320 -1915 593 -2876 -331 -437 -727
-625 -1316 -625 -946 0 -1615 757 -1618 1830 -2 641 138 985 564 1389 540 512
1119 604 1777 282z m-5521 -2162 c153 -80 399 -326 546 -548 811 -1226 16
-2929 -1368 -2929 -1272 0 -2090 1470 -1497 2693 249 515 471 723 965 903 417
152 913 109 1354 -119z" />
		<path d="M20219 23095 c-128 -52 -202 -142 -165 -201 36 -59 129 -83 206 -54
107 41 140 -50 140 -381 0 -359 -37 -445 -210 -491 -349 -91 -108 -268 366
-268 455 0 612 175 244 271 -171 45 -200 136 -200 641 0 617 -11 631 -381 483z" />
		<path d="M9120 22980 c-155 -155 -155 -605 0 -760 66 -66 212 -121 325 -123
197 -3 198 -9 20 -143 -101 -77 -248 -116 -325 -86 -84 32 -140 -10 -140 -107
0 -231 455 -206 700 39 246 246 271 914 43 1143 -187 187 -457 203 -623 37z
m480 -230 c97 -117 98 -182 5 -294 -149 -180 -405 -93 -405 138 0 320 199 398
400 156z" />
		<path d="M6026 18275 c-54 -69 -99 -350 -99 -625 0 -594 100 -750 482 -750
338 0 550 303 403 578 -55 103 -59 242 -8 333 207 370 -513 800 -778 464z
m574 -314 c0 -195 -263 -276 -392 -121 -127 154 -42 260 209 260 101 0 183
-63 183 -139z m-25 -636 c55 -164 -259 -281 -393 -147 -58 58 -73 156 -34 219
88 143 371 95 427 -72z" />
		<path d="M23320 18380 c-146 -146 -158 -380 -20 -380 55 0 100 45 100 100 0
55 113 100 250 100 369 0 310 -242 -150 -612 -548 -440 -523 -588 100 -588
349 0 500 40 500 133 0 92 -99 119 -325 88 l-325 -45 325 342 c464 488 401
982 -125 982 -115 0 -264 -54 -330 -120z" />
		<path d="M23467 12633 c-181 -180 -55 -326 233 -268 235 47 300 25 300 -102 0
-96 -82 -163 -200 -163 -279 0 -249 -145 58 -285 360 -164 248 -367 -193 -354
-247 8 -365 -32 -365 -125 0 -176 734 -186 879 -11 110 133 93 1077 -22 1264
-74 120 -582 153 -690 44z" />
		<path d="M5900 12230 c0 -210 27 -243 120 -150 66 66 221 120 345 120 l224 0
-188 -548 c-120 -349 -152 -570 -88 -610 134 -83 138 -76 325 573 244 852 234
885 -288 885 -422 0 -450 -17 -450 -270z" />
		<path d="M9022 7273 c-547 -582 62 -1675 621 -1116 86 87 157 222 157 300 0
212 -393 567 -558 504 -78 -30 -142 -13 -142 39 0 112 354 313 486 276 52 -14
100 19 107 74 28 211 -453 156 -671 -77z m478 -773 c0 -133 -67 -200 -200
-200 -193 0 -271 196 -133 333 137 138 333 60 333 -133z" />
		<path d="M20366 7011 c-146 -268 -266 -516 -266 -550 0 -33 144 -61 320 -61
249 0 293 -27 200 -120 -193 -193 -140 -280 168 -280 256 0 287 33 274 293 -8
161 -48 326 -88 367 -41 40 -74 246 -74 457 0 534 -208 493 -534 -106z m293
-385 c-108 -108 -165 43 -89 235 71 180 76 180 111 6 20 -100 10 -209 -22
-241z" />
		<path d="M14600 4900 c0 -391 8 -400 325 -375 267 20 325 -11 325 -175 0 -166
-63 -198 -375 -189 -440 14 -525 -220 -118 -322 398 -100 743 104 743 439 0
345 -162 522 -478 522 -326 0 -231 241 111 282 416 49 314 218 -133 218 l-400
0 0 -400z" />
		<path d="M28520 20180 c-146 -146 -158 -380 -20 -380 55 0 100 45 100 100 0
55 113 100 250 100 369 0 310 -242 -150 -612 -548 -440 -523 -588 100 -588
275 0 500 45 500 100 0 55 -144 100 -320 100 l-319 0 319 330 c460 474 393
970 -130 970 -116 0 -264 -54 -330 -120z" />
		<path d="M3619 20095 c-128 -52 -202 -142 -165 -201 36 -59 129 -83 206 -54
107 41 140 -50 140 -381 0 -352 -39 -446 -200 -488 -390 -102 -203 -271 300
-271 503 0 690 169 300 271 -171 45 -200 136 -200 641 0 617 -11 631 -381 483z" />
		<path d="M25800 20000 c-255 -255 -265 -811 -17 -1035 100 -91 322 -165 493
-165 242 0 341 63 456 294 171 343 134 406 -243 406 -342 0 -486 -193 -199
-268 289 -76 265 -232 -36 -232 -329 0 -515 337 -366 663 109 240 447 322 562
137 109 -177 250 -107 250 125 0 186 -62 229 -350 250 -241 17 -412 -37 -550
-175z" />
		<path d="M27300 20061 c0 -83 -79 -196 -175 -250 -164 -93 -164 -108 -6 -230
93 -72 183 -266 200 -431 29 -277 61 -300 423 -300 234 0 409 53 435 132 34
100 -42 115 -316 63 -352 -66 -361 -59 -361 244 0 265 37 311 250 311 138 0
250 45 250 100 0 55 -112 100 -250 100 -151 0 -250 57 -250 144 0 79 -45 172
-100 206 -55 34 -100 -6 -100 -89z" />
		<path d="M600 20006 c0 -52 45 -122 100 -156 130 -80 130 -820 0 -900 -197
-122 -95 -250 200 -250 295 0 397 128 200 250 -153 95 -119 350 47 350 82 0
218 -135 303 -300 85 -165 221 -300 303 -300 203 0 187 61 -117 460 l-265 347
215 228 c277 295 270 365 -36 365 -146 0 -250 -57 -250 -138 0 -76 -67 -194
-150 -262 -95 -79 -150 -85 -150 -18 0 58 45 134 100 168 197 122 95 250 -200
250 -165 0 -300 -42 -300 -94z" />
		<path d="M2225 19830 c-72 -155 -86 -292 -33 -325 51 -31 107 -213 125 -405
36 -375 201 -467 641 -357 356 89 295 262 -83 232 -288 -22 -329 7 -357 250
-28 247 0 275 275 275 169 0 307 45 307 100 0 55 -117 100 -259 100 -176 0
-277 65 -312 200 -71 270 -155 251 -304 -70z" />
		<path d="M3275 10775 c-320 -107 -366 -275 -75 -275 170 0 200 -67 200 -450 0
-383 -30 -450 -200 -450 -110 0 -200 -45 -200 -100 0 -55 225 -100 500 -100
275 0 500 45 500 100 0 55 -88 100 -195 100 -171 0 -200 82 -225 634 l-30 633
-275 -92z" />
		<path d="M28781 10681 c-167 -167 -186 -229 -80 -265 77 -25 156 6 177 69 51
151 390 148 483 -3 45 -72 -89 -259 -344 -478 -555 -479 -538 -604 83 -604
275 0 500 45 500 100 0 55 -144 100 -320 100 l-319 0 319 330 c355 366 398
578 163 813 -215 215 -403 197 -662 -62z" />
		<path d="M525 10648 c-337 -239 -322 -980 24 -1207 330 -215 729 -113 855 220
127 332 51 439 -310 439 -195 0 -294 -51 -294 -150 0 -88 91 -150 220 -150
158 0 189 -31 112 -108 -163 -163 -575 -69 -615 141 -71 375 75 667 335 667
136 0 248 -45 248 -100 0 -55 68 -100 150 -100 83 0 150 89 150 200 0 110 -56
201 -125 201 -69 1 -215 25 -325 54 -110 29 -301 -19 -425 -107z" />
		<path d="M1900 10608 c0 -105 -56 -212 -125 -237 -100 -37 -100 -72 0 -178 69
-73 125 -257 125 -409 0 -352 285 -523 643 -386 377 143 315 299 -93 233 -324
-53 -350 -38 -350 199 0 200 56 264 253 288 139 18 253 77 253 132 0 55 -114
114 -253 132 -173 21 -253 93 -253 225 0 106 -45 193 -100 193 -55 0 -100 -86
-100 -192z" />
		<path d="M26025 10723 c-219 -36 -324 -223 -125 -223 55 0 100 -202 100 -450
0 -247 -45 -450 -100 -450 -55 0 -100 -45 -100 -100 0 -55 135 -100 300 -100
295 0 414 145 182 223 -137 45 -38 377 112 377 56 0 171 -135 256 -300 103
-199 230 -299 378 -297 191 3 201 20 71 125 -84 67 -236 253 -339 414 l-186
291 271 198 c185 135 233 221 152 271 -169 104 -497 0 -497 -158 0 -158 -186
-291 -279 -199 -36 36 1 107 81 156 198 122 14 270 -277 222z" />
		<path d="M27532 10631 c-37 -99 -115 -213 -174 -252 -73 -49 -68 -109 18 -195
68 -68 124 -248 124 -400 0 -331 284 -517 648 -426 376 95 331 353 -48 277
-271 -54 -300 -35 -300 196 0 185 59 264 217 287 320 47 355 282 41 282 -158
0 -258 56 -258 144 0 226 -194 289 -268 87z" />
		<path d="M7025 4691 c-254 -95 -304 -291 -75 -291 111 0 150 -117 150 -450 0
-333 -39 -450 -150 -450 -82 0 -150 -45 -150 -100 0 -55 203 -100 450 -100
247 0 450 45 450 100 0 55 -67 100 -150 100 -117 0 -150 133 -150 594 0 654
-43 723 -375 597z" />
		<path d="M4054 4607 c-31 -51 -12 -121 44 -156 132 -81 133 -951 2 -951 -55 0
-100 -45 -100 -100 0 -55 180 -100 400 -100 220 0 400 45 400 100 0 55 -67
100 -150 100 -82 0 -150 67 -150 150 0 90 92 150 230 150 475 0 633 475 248
744 -244 171 -832 211 -924 63z m878 -273 c91 -90 -125 -334 -294 -334 -76 0
-138 90 -138 200 0 195 284 283 432 134z" />
		<path d="M5632 4531 c-37 -99 -116 -218 -175 -264 -74 -57 -69 -98 18 -133 69
-28 126 -171 127 -317 0 -147 41 -330 90 -407 89 -141 614 -180 808 -60 195
121 -8 243 -304 184 -278 -55 -296 -39 -296 254 0 266 37 312 250 312 138 0
250 45 250 100 0 55 -112 100 -250 100 -151 0 -250 57 -250 144 0 226 -194
289 -268 87z" />
		<path d="M22467 4025 c15 -611 37 -678 234 -708 196 -30 212 -2 151 275 -60
270 -41 308 148 308 189 0 208 -38 148 -308 -61 -277 -45 -305 151 -275 197
30 219 97 234 708 16 640 5 675 -210 675 -192 0 -217 -38 -164 -250 53 -210
28 -250 -159 -250 -187 0 -212 40 -159 250 53 212 28 250 -164 250 -215 0
-226 -35 -210 -675z" />
		<path d="M14492 1875 c-4 -14 -15 -329 -25 -700 -16 -636 -4 -675 206 -675
193 0 214 39 162 300 -52 262 -32 300 165 300 197 0 217 -38 165 -300 -54
-269 -34 -300 188 -300 240 0 316 98 180 233 -85 86 -86 684 -1 905 75 196
-145 317 -399 219 -127 -48 -139 -91 -50 -180 184 -184 137 -377 -91 -377
-179 0 -199 42 -142 300 57 258 37 300 -142 300 -114 0 -211 -11 -216 -25z" />
	</g>
</svg>
