[{
        "label": "4D",
        "id": 2
    },
    {
        "label": "9CV",
        "id": 3
    },
    {
        "label": "B5-3",
        "id": 4
    },
    {
        "label": "6BT",
        "id": 5
    },
    {
        "label": "9HE",
        "id": 6
    },
    {
        "label": "9QD",
        "id": 7
    },
    {
        "label": "9QZ",
        "id": 8
    },
    {
        "label": "9DX",
        "id": 9
    },
    {
        "label": "6R",
        "id": 10
    },
    {
        "label": "12EZ",
        "id": 11
    },
    {
        "label": "8AO",
        "id": 12
    },
    {
        "label": "5AA",
        "id": 13
    },
    {
        "label": "9EX",
        "id": 14
    },
    {
        "label": "12DM",
        "id": 15
    },
    {
        "label": "6AM",
        "id": 16
    },
    {
        "label": "10L",
        "id": 17
    },
    {
        "label": "7AC",
        "id": 18
    },
    {
        "label": "9EU",
        "id": 19
    },
    {
        "label": "12FE",
        "id": 20
    },
    {
        "label": "7BK",
        "id": 21
    },
    {
        "label": "9A",
        "id": 22
    },
    {
        "label": "7BT",
        "id": 23
    },
    {
        "label": "8BE",
        "id": 24
    },
    {
        "label": "7BZ",
        "id": 25
    },
    {
        "label": "7CV",
        "id": 26
    },
    {
        "label": "4CG",
        "id": 27
    },
    {
        "label": "9AG",
        "id": 28
    },
    {
        "label": "8CT",
        "id": 29
    },
    {
        "label": "7CH",
        "id": 30
    },
    {
        "label": "9BF",
        "id": 31
    },
    {
        "label": "7CM",
        "id": 32
    },
    {
        "label": "8E",
        "id": 33
    },
    {
        "label": "9CK",
        "id": 34
    },
    {
        "label": "B9A-36",
        "id": 35
    },
    {
        "label": "9HR",
        "id": 36
    },
    {
        "label": "9DE",
        "id": 37
    },
    {
        "label": "6Q",
        "id": 38
    },
    {
        "label": "9LP",
        "id": 39
    },
    {
        "label": "7R",
        "id": 40
    },
    {
        "label": "9QL",
        "id": 41
    },
    {
        "label": "7FD",
        "id": 42
    },
    {
        "label": "7V",
        "id": 43
    },
    {
        "label": "8R",
        "id": 44
    },
    {
        "label": "8N",
        "id": 45
    },
    {
        "label": "8BD",
        "id": 46
    },
    {
        "label": "5BS",
        "id": 47
    },
    {
        "label": "B7A-2",
        "id": 48
    },
    {
        "label": "12EJ",
        "id": 49
    },
    {
        "label": "9NH",
        "id": 50
    },
    {
        "label": "12DZ",
        "id": 51
    },
    {
        "label": "8AC",
        "id": 52
    },
    {
        "label": "8W",
        "id": 53
    },
    {
        "label": "12GL",
        "id": 54
    },
    {
        "label": "8V",
        "id": 55
    },
    {
        "label": "10N",
        "id": 56
    },
    {
        "label": "7T",
        "id": 57
    },
    {
        "label": "5AZ",
        "id": 58
    },
    {
        "label": "9HP",
        "id": 59
    },
    {
        "label": "9AJ",
        "id": 60
    },
    {
        "label": "9QU",
        "id": 61
    },
    {
        "label": "9CB",
        "id": 62
    },
    {
        "label": "7CC",
        "id": 63
    },
    {
        "label": "5BT",
        "id": 64
    },
    {
        "label": "9DB",
        "id": 65
    },
    {
        "label": "9FX",
        "id": 66
    },
    {
        "label": "9AE",
        "id": 67
    },
    {
        "label": "B9A-18",
        "id": 68
    },
    {
        "label": "5AP",
        "id": 69
    },
    {
        "label": "4M",
        "id": 70
    },
    {
        "label": "4K",
        "id": 71
    },
    {
        "label": "6X",
        "id": 72
    },
    {
        "label": "6L",
        "id": 73
    },
    {
        "label": "7Z",
        "id": 74
    },
    {
        "label": "5BF",
        "id": 75
    },
    {
        "label": "8CP",
        "id": 76
    },
    {
        "label": "12GV",
        "id": 77
    },
    {
        "label": "6AR",
        "id": 78
    },
    {
        "label": "6AU",
        "id": 79
    },
    {
        "label": "12EL",
        "id": 80
    },
    {
        "label": "7AT",
        "id": 81
    },
    {
        "label": "6BW",
        "id": 82
    },
    {
        "label": "9U",
        "id": 83
    },
    {
        "label": "3C",
        "id": 84
    },
    {
        "label": "9Y",
        "id": 85
    },
    {
        "label": "6M",
        "id": 86
    },
    {
        "label": "8AW",
        "id": 87
    },
    {
        "label": "9RG",
        "id": 88
    },
    {
        "label": "12HZ",
        "id": 89
    },
    {
        "label": "5CF",
        "id": 90
    },
    {
        "label": "8CN",
        "id": 91
    },
    {
        "label": "8DN",
        "id": 92
    },
    {
        "label": "B5-8",
        "id": 93
    },
    {
        "label": "5Y",
        "id": 94
    },
    {
        "label": "5R",
        "id": 95
    },
    {
        "label": "8AJ",
        "id": 96
    },
    {
        "label": "8ND",
        "id": 97
    },
    {
        "label": "7DK",
        "id": 98
    },
    {
        "label": "5S",
        "id": 99
    },
    {
        "label": "8C",
        "id": 100
    },
    {
        "label": "5K",
        "id": 101
    },
    {
        "label": "6W",
        "id": 102
    },
    {
        "label": "7AF",
        "id": 103
    },
    {
        "label": "7AB",
        "id": 104
    },
    {
        "label": "5Z",
        "id": 105
    },
    {
        "label": "7AA",
        "id": 106
    },
    {
        "label": "7DC",
        "id": 107
    },
    {
        "label": "5AD",
        "id": 108
    },
    {
        "label": "7AK",
        "id": 109
    },
    {
        "label": "8AX",
        "id": 110
    },
    {
        "label": "7AO",
        "id": 111
    },
    {
        "label": "6AX",
        "id": 112
    },
    {
        "label": "4AA",
        "id": 113
    },
    {
        "label": "5AG",
        "id": 114
    },
    {
        "label": "7AM",
        "id": 115
    },
    {
        "label": "6BX",
        "id": 116
    },
    {
        "label": "6AF",
        "id": 117
    },
    {
        "label": "8CO",
        "id": 118
    },
    {
        "label": "4AH",
        "id": 119
    },
    {
        "label": "9DT",
        "id": 120
    },
    {
        "label": "7AV",
        "id": 121
    },
    {
        "label": "8DA",
        "id": 122
    },
    {
        "label": "6BD",
        "id": 123
    },
    {
        "label": "6BE",
        "id": 124
    },
    {
        "label": "4G",
        "id": 125
    },
    {
        "label": "5BZ",
        "id": 126
    },
    {
        "label": "4P",
        "id": 127
    },
    {
        "label": "7CB",
        "id": 128
    },
    {
        "label": "4AZ",
        "id": 129
    },
    {
        "label": "9AS",
        "id": 130
    },
    {
        "label": "8GT",
        "id": 131
    },
    {
        "label": "6E",
        "id": 132
    },
    {
        "label": "7Q",
        "id": 133
    },
    {
        "label": "8NC",
        "id": 134
    },
    {
        "label": "5A",
        "id": 135
    },
    {
        "label": "5L",
        "id": 136
    },
    {
        "label": "6B",
        "id": 137
    },
    {
        "label": "6G",
        "id": 138
    },
    {
        "label": "7C",
        "id": 139
    },
    {
        "label": "12DG",
        "id": 140
    },
    {
        "label": "12EW",
        "id": 141
    },
    {
        "label": "B3G-1",
        "id": 142
    },
    {
        "label": "9RT",
        "id": 143
    },
    {
        "label": "2C40",
        "id": 144
    },
    {
        "label": "6AA",
        "id": 145
    },
    {
        "label": "8CJ",
        "id": 146
    },
    {
        "label": "9JL",
        "id": 147
    },
    {
        "label": "7CL",
        "id": 148
    },
    {
        "label": "7CK",
        "id": 149
    },
    {
        "label": "7FP",
        "id": 150
    },
    {
        "label": "4AB",
        "id": 151
    },
    {
        "label": "9AQ",
        "id": 152
    },
    {
        "label": "9FC",
        "id": 153
    },
    {
        "label": "B9A-27",
        "id": 154
    },
    {
        "label": "9LY",
        "id": 155
    },
    {
        "label": "5BQ",
        "id": 156
    },
    {
        "label": "5AL",
        "id": 157
    },
    {
        "label": "4Z",
        "id": 158
    },
    {
        "label": "6AD",
        "id": 159
    },
    {
        "label": "8EZ",
        "id": 160
    },
    {
        "label": "3G",
        "id": 161
    },
    {
        "label": "5DE",
        "id": 162
    },
    {
        "label": "B7A-1",
        "id": 163
    },
    {
        "label": "9PM",
        "id": 164
    },
    {
        "label": "7BA",
        "id": 165
    },
    {
        "label": "7AP",
        "id": 166
    },
    {
        "label": "9RJ",
        "id": 167
    },
    {
        "label": "5B",
        "id": 168
    },
    {
        "label": "9BJ",
        "id": 169
    },
    {
        "label": "B7-23",
        "id": 170
    },
    {
        "label": "9GA",
        "id": 171
    },
    {
        "label": "B7G-79",
        "id": 172
    },
    {
        "label": "7GM",
        "id": 173
    },
    {
        "label": "9GF",
        "id": 174
    },
    {
        "label": "8KB",
        "id": 175
    },
    {
        "label": "7BD",
        "id": 176
    },
    {
        "label": "9H",
        "id": 177
    },
    {
        "label": "6F",
        "id": 178
    },
    {
        "label": "7BN",
        "id": 179
    },
    {
        "label": "9K",
        "id": 180
    },
    {
        "label": "9V",
        "id": 181
    },
    {
        "label": "9AD",
        "id": 182
    },
    {
        "label": "5AW",
        "id": 183
    },
    {
        "label": "9DA",
        "id": 184
    },
    {
        "label": "5T",
        "id": 185
    },
    {
        "label": "5Q",
        "id": 186
    },
    {
        "label": "9AK",
        "id": 187
    },
    {
        "label": "10K",
        "id": 188
    },
    {
        "label": "4C",
        "id": 189
    },
    {
        "label": "4AX",
        "id": 190
    },
    {
        "label": "7BF",
        "id": 191
    },
    {
        "label": "9BC",
        "id": 192
    },
    {
        "label": "9AM",
        "id": 193
    },
    {
        "label": "6BQ",
        "id": 194
    },
    {
        "label": "6BG",
        "id": 195
    },
    {
        "label": "8DG",
        "id": 196
    },
    {
        "label": "9BV",
        "id": 197
    },
    {
        "label": "8FO",
        "id": 198
    },
    {
        "label": "9CQ",
        "id": 199
    },
    {
        "label": "9CZ",
        "id": 200
    },
    {
        "label": "B9A-30",
        "id": 201
    },
    {
        "label": "B5B-1",
        "id": 202
    },
    {
        "label": "8FY",
        "id": 203
    },
    {
        "label": "9EQ",
        "id": 204
    },
    {
        "label": "7EQ",
        "id": 205
    },
    {
        "label": "9GB",
        "id": 206
    },
    {
        "label": "7B",
        "id": 207
    },
    {
        "label": "8A",
        "id": 208
    },
    {
        "label": "5CE",
        "id": 209
    },
    {
        "label": "B9A-13",
        "id": 210
    },
    {
        "label": "7W",
        "id": 211
    },
    {
        "label": "12GN",
        "id": 212
    },
    {
        "label": "8DK",
        "id": 213
    },
    {
        "label": "7AG",
        "id": 214
    },
    {
        "label": "8AY",
        "id": 215
    },
    {
        "label": "7AH",
        "id": 216
    },
    {
        "label": "12DA",
        "id": 217
    },
    {
        "label": "9CA",
        "id": 218
    },
    {
        "label": "9E",
        "id": 219
    },
    {
        "label": "B7G-25",
        "id": 220
    },
    {
        "label": "6CK",
        "id": 221
    },
    {
        "label": "12BY",
        "id": 222
    },
    {
        "label": "12BL",
        "id": 223
    },
    {
        "label": "6S",
        "id": 224
    },
    {
        "label": "9ED",
        "id": 225
    },
    {
        "label": "12BF",
        "id": 226
    },
    {
        "label": "9AX",
        "id": 227
    },
    {
        "label": "9BQ",
        "id": 228
    },
    {
        "label": "9ER",
        "id": 229
    },
    {
        "label": "9FA",
        "id": 230
    },
    {
        "label": "9FG",
        "id": 231
    },
    {
        "label": "9FJ",
        "id": 232
    },
    {
        "label": "9DJ",
        "id": 233
    },
    {
        "label": "6CN",
        "id": 234
    },
    {
        "label": "12FX",
        "id": 235
    },
    {
        "label": "9M",
        "id": 236
    },
    {
        "label": "8EP",
        "id": 237
    },
    {
        "label": "8GD",
        "id": 238
    },
    {
        "label": "9FT",
        "id": 239
    },
    {
        "label": "9SD",
        "id": 240
    },
    {
        "label": "8JB",
        "id": 241
    },
    {
        "label": "B9A-14",
        "id": 242
    },
    {
        "label": "9ES",
        "id": 243
    },
    {
        "label": "9FZ",
        "id": 244
    },
    {
        "label": "9EN",
        "id": 245
    },
    {
        "label": "9GJ",
        "id": 246
    },
    {
        "label": "9EF",
        "id": 247
    },
    {
        "label": "7EW",
        "id": 248
    },
    {
        "label": "9LG",
        "id": 249
    },
    {
        "label": "9HN",
        "id": 250
    },
    {
        "label": "9GR",
        "id": 251
    },
    {
        "label": "9NY",
        "id": 252
    },
    {
        "label": "7DQ",
        "id": 253
    },
    {
        "label": "8JC",
        "id": 254
    },
    {
        "label": "9HX",
        "id": 255
    },
    {
        "label": "8JP",
        "id": 256
    },
    {
        "label": "9JG",
        "id": 257
    },
    {
        "label": "9LS",
        "id": 258
    },
    {
        "label": "8G",
        "id": 259
    },
    {
        "label": "9HF",
        "id": 260
    },
    {
        "label": "12EB",
        "id": 261
    },
    {
        "label": "8JX",
        "id": 262
    },
    {
        "label": "9LC",
        "id": 263
    },
    {
        "label": "9NM",
        "id": 264
    },
    {
        "label": "9GK",
        "id": 265
    },
    {
        "label": "9NZ",
        "id": 266
    },
    {
        "label": "9LZ",
        "id": 267
    },
    {
        "label": "12DR",
        "id": 268
    },
    {
        "label": "9NW",
        "id": 269
    },
    {
        "label": "12FB",
        "id": 270
    },
    {
        "label": "12FL",
        "id": 271
    },
    {
        "label": "12GY",
        "id": 272
    },
    {
        "label": "9NJ",
        "id": 273
    },
    {
        "label": "12BT",
        "id": 274
    },
    {
        "label": "12FJ",
        "id": 275
    },
    {
        "label": "12FK",
        "id": 276
    },
    {
        "label": "12FY",
        "id": 277
    },
    {
        "label": "5U",
        "id": 278
    },
    {
        "label": "12GW",
        "id": 279
    },
    {
        "label": "12GJ",
        "id": 280
    },
    {
        "label": "12HL",
        "id": 281
    },
    {
        "label": "7CA",
        "id": 282
    },
    {
        "label": "8B",
        "id": 283
    },
    {
        "label": "7U",
        "id": 284
    },
    {
        "label": "9AC",
        "id": 285
    },
    {
        "label": "8S",
        "id": 286
    },
    {
        "label": "8Q",
        "id": 287
    },
    {
        "label": "12FM",
        "id": 288
    },
    {
        "label": "8HY",
        "id": 289
    },
    {
        "label": "9LE",
        "id": 290
    },
    {
        "label": "9JT",
        "id": 291
    },
    {
        "label": "9FR",
        "id": 292
    },
    {
        "label": "9KE",
        "id": 293
    },
    {
        "label": "9KS",
        "id": 294
    },
    {
        "label": "8KQ",
        "id": 295
    },
    {
        "label": "9PX",
        "id": 296
    },
    {
        "label": "9RW",
        "id": 297
    },
    {
        "label": "8BL",
        "id": 298
    },
    {
        "label": "5AB",
        "id": 299
    },
    {
        "label": "2P",
        "id": 300
    },
    {
        "label": "9PZ",
        "id": 301
    },
    {
        "label": "9QB",
        "id": 302
    },
    {
        "label": "4AD",
        "id": 303
    },
    {
        "label": "7BQ",
        "id": 304
    },
    {
        "label": "B7-5",
        "id": 305
    },
    {
        "label": "B7-6",
        "id": 306
    },
    {
        "label": "9QA",
        "id": 307
    },
    {
        "label": "7BS",
        "id": 308
    },
    {
        "label": "9DC",
        "id": 309
    },
    {
        "label": "7DB",
        "id": 310
    },
    {
        "label": "B7G-24",
        "id": 311
    },
    {
        "label": "MO-11",
        "id": 312
    },
    {
        "label": "B4-1",
        "id": 313
    },
    {
        "label": "B4-8",
        "id": 314
    },
    {
        "label": "B5-6",
        "id": 315
    },
    {
        "label": "B7-24",
        "id": 316
    },
    {
        "label": "B7-37",
        "id": 317
    },
    {
        "label": "B5-2",
        "id": 318
    },
    {
        "label": "B4-2",
        "id": 319
    },
    {
        "label": "B4-5",
        "id": 320
    },
    {
        "label": "B4-6",
        "id": 321
    },
    {
        "label": "UX4-20",
        "id": 322
    },
    {
        "label": "B7-15",
        "id": 323
    },
    {
        "label": "B4-4",
        "id": 324
    },
    {
        "label": "B4-14",
        "id": 325
    },
    {
        "label": "B8A-14",
        "id": 326
    },
    {
        "label": "B8A-7",
        "id": 327
    },
    {
        "label": "B8A-9",
        "id": 328
    },
    {
        "label": "B8A-23",
        "id": 329
    },
    {
        "label": "IO-138",
        "id": 330
    },
    {
        "label": "IO-48",
        "id": 331
    },
    {
        "label": "DA100",
        "id": 332
    },
    {
        "label": "DA250",
        "id": 333
    },
    {
        "label": "B7-9",
        "id": 334
    },
    {
        "label": "B8B-62",
        "id": 335
    },
    {
        "label": "B9A-86",
        "id": 336
    },
    {
        "label": "IO-129A",
        "id": 337
    },
    {
        "label": "B9D-2",
        "id": 338
    },
    {
        "label": "B5-5",
        "id": 339
    },
    {
        "label": "TT100",
        "id": 340
    },
    {
        "label": "B8A-1",
        "id": 341
    },
    {
        "label": "B8B-42",
        "id": 342
    },
    {
        "label": "B8A-8",
        "id": 343
    },
    {
        "label": "7BH",
        "id": 344
    }
]
