<?xml version="1.0" standalone="no"?>
<!DOCTYPE svg PUBLIC "-//W3C//DTD SVG 20010904//EN" "http://www.w3.org/TR/2001/REC-SVG-20010904/DTD/svg10.dtd">
<svg version="1.0" xmlns="http://www.w3.org/2000/svg" width="213.250261pt" height="213.142296pt" viewBox="0 0 213.250261 213.142296" preserveAspectRatio="xMidYMid meet">
	<metadata>
		Created by potrace 1.13, written by Peter Selinger 2001-2015
	</metadata>
	<g transform="translate(-5.543396,216.893277) scale(0.010000,-0.010000)" fill="#222" stroke="none">
		<path d="M9208 21591 c-2455 -481 -4986 -2106 -6608 -4241 -781 -1028 -1593
-2899 -1887 -4351 -357 -1758 -90 -4454 591 -5963 571 -1265 734 -1542 1463
-2486 856 -1108 1900 -2071 2774 -2558 1014 -564 1683 -892 1819 -892 81 0
247 -64 369 -143 586 -378 3726 -727 4671 -520 138 30 453 79 700 108 550 64
1713 412 2234 667 212 103 425 188 474 188 155 0 1518 909 2084 1390 1858
1576 3203 3743 3719 5992 593 2586 197 5282 -1130 7684 -592 1071 -2006 2612
-3081 3357 -1191 825 -2711 1487 -3968 1727 -858 164 -3468 190 -4224 41z
m3792 -528 c1442 -322 2763 -840 3750 -1469 165 -105 394 -233 509 -284 186
-83 686 -539 1008 -921 65 -76 268 -283 450 -459 1191 -1147 2210 -3104 2583
-4960 147 -731 149 -3059 4 -3720 -554 -2516 -1846 -4676 -3659 -6119 -875
-695 -950 -742 -2071 -1304 -700 -351 -1832 -735 -1917 -651 -29 29 -110 7
-180 -49 -284 -225 -1513 -356 -2769 -295 -1204 58 -2691 386 -3358 740 -110
59 -492 251 -850 428 -1425 705 -2929 2030 -3767 3319 -507 780 -1133 2049
-1133 2297 0 95 -37 195 -83 224 -46 28 -144 312 -219 630 -75 319 -142 603
-150 630 -7 28 -43 253 -79 500 -452 3056 597 6307 2737 8489 427 435 1288
1211 1344 1211 29 0 289 157 577 348 289 191 907 500 1374 685 467 185 939
374 1049 420 110 46 268 93 350 104 83 12 374 74 647 138 273 64 768 140 1100
169 332 29 618 68 636 86 75 74 1517 -53 2117 -187z" />
		<path d="M10859 20001 c-600 -629 -640 -854 -173 -966 145 -35 381 -122 524
-194 219 -110 294 -107 475 20 228 159 287 483 108 593 -59 36 -99 208 -90
381 48 883 -127 918 -844 166z" />
		<path d="M4875 18192 c-278 -162 -215 -392 108 -392 350 0 450 -89 302 -268
-85 -103 -73 -179 51 -317 232 -256 206 -315 -139 -315 -370 0 -502 -251 -235
-447 229 -168 736 -93 917 134 192 242 87 1418 -142 1585 -209 152 -619 162
-862 20z" />
		<path d="M10717 18069 c-272 -291 -275 -568 -10 -906 261 -331 680 -348 964
-38 324 354 359 610 123 909 -272 347 -768 363 -1077 35z m683 -530 c0 -181
-263 -180 -332 1 -30 77 -30 164 -1 193 92 92 333 -48 333 -194z" />
		<path d="M17126 18180 c-59 -72 -122 -287 -141 -480 -31 -311 1 -367 288 -500
393 -183 421 -376 60 -418 -370 -44 -401 -243 -64 -408 345 -170 610 -119 845
162 252 301 228 634 -64 905 -289 268 -313 359 -93 359 106 0 146 74 125 225
-26 185 -104 230 -441 255 -247 18 -451 -21 -515 -100z" />
		<path d="M6353 16269 c-96 -147 -153 -396 -135 -587 26 -272 101 -366 417
-520 l385 -188 260 280 c274 296 355 851 152 1054 -59 59 -289 132 -510 162
-351 47 -423 21 -569 -201z m628 -444 c-19 -96 -100 -175 -181 -175 -81 0
-162 79 -181 175 -24 123 30 175 181 175 151 0 205 -52 181 -175z" />
		<path d="M15100 16200 c-225 -225 -252 -476 -89 -834 310 -681 1189 -394 1189
388 0 589 -681 865 -1100 446z m644 -390 c30 -49 -16 -116 -103 -150 -223 -85
-241 -78 -241 90 0 162 253 207 344 60z" />
		<path d="M2210 12309 c-212 -135 -57 -391 258 -427 441 -50 413 -336 -54 -575
-364 -186 -614 -540 -477 -677 92 -92 890 -213 1036 -157 161 61 127 377 -41
377 -63 0 -149 34 -190 75 -42 41 -27 75 33 75 60 0 203 153 318 339 165 267
190 394 113 594 -152 401 -656 591 -996 376z" />
		<path d="M19450 12140 c-550 -593 -521 -1303 67 -1632 225 -127 306 -129 514
-18 504 269 547 954 77 1206 -162 87 -184 154 -111 346 165 435 -178 497 -547
98z m450 -1096 c0 -79 -67 -144 -150 -144 -151 0 -206 211 -86 331 93 93 236
-20 236 -187z" />
		<path d="M4317 12069 c-433 -462 -179 -1169 420 -1169 478 0 921 618 686 956
-124 179 -559 444 -728 444 -88 0 -258 -104 -378 -231z m683 -581 c0 -127
-376 -108 -457 23 -98 159 173 300 329 171 70 -59 128 -146 128 -194z" />
		<path d="M17269 12089 c-297 -173 -387 -552 -223 -944 126 -302 189 -345 499
-345 708 0 1026 772 492 1193 -292 229 -495 254 -768 96z m581 -646 c0 -105
-79 -205 -175 -224 -222 -43 -354 270 -165 389 199 126 340 57 340 -165z" />
		<path d="M5707 7637 c-319 -406 -222 -888 227 -1128 470 -252 1066 169 1066
752 0 81 -110 259 -245 394 -334 334 -777 326 -1048 -18z m600 -341 c253 -135
257 -496 5 -496 -245 0 -432 232 -353 437 73 192 94 195 348 59z" />
		<path d="M15720 7680 c-66 -66 -120 -204 -120 -307 0 -140 49 -171 196 -124
108 34 294 10 412 -53 l216 -116 -206 -207 c-172 -172 -233 -185 -361 -79
-192 160 -473 65 -397 -133 69 -181 510 -332 823 -282 310 49 555 609 421 960
-155 409 -720 605 -984 341z" />
		<path d="M17553 6505 c-107 -174 42 -305 347 -305 402 0 441 -127 205 -662
-471 -1064 -63 -1167 450 -114 487 1001 454 1118 -321 1156 -354 16 -644 -15
-681 -75z" />
		<path d="M4767 6033 c-37 -36 -67 -422 -67 -857 0 -699 20 -787 175 -757 139
26 187 175 236 732 34 384 40 755 14 824 -50 134 -250 167 -358 58z" />
	</g>
</svg>
