<?xml version="1.0" standalone="no"?>
<!DOCTYPE svg PUBLIC "-//W3C//DTD SVG 20010904//EN" "http://www.w3.org/TR/2001/REC-SVG-20010904/DTD/svg10.dtd">
<svg version="1.0" xmlns="http://www.w3.org/2000/svg" width="211.431700pt" height="232.932887pt" viewBox="0 0 211.431700 232.932887" preserveAspectRatio="xMidYMid meet">
	<metadata>
		Created by potrace 1.13, written by Peter Selinger 2001-2015
	</metadata>
	<g transform="translate(-8.417264,235.711796) scale(0.010000,-0.010000)" fill="#222" stroke="none">
		<path d="M10400 23530 c-747 -74 -1979 -356 -2600 -595 -357 -138 -783 -301
-945 -363 -652 -249 -2152 -1343 -2960 -2159 -1414 -1426 -2339 -3062 -2862
-5063 -231 -882 -260 -3786 -48 -4650 642 -2606 2062 -4872 3965 -6327 897
-686 2655 -1570 3411 -1715 800 -155 1018 -266 1137 -584 455 -1216 825 -1650
1517 -1777 769 -140 1554 498 1836 1496 100 352 119 363 1450 815 1525 517
2611 1002 2899 1293 28 27 230 183 450 345 344 253 1271 1168 1954 1928 1247
1388 2132 3709 2317 6076 102 1306 94 1470 -113 2436 -238 1112 -760 2769
-949 3014 -63 83 -223 353 -354 600 -584 1099 -2064 2692 -3205 3449 -1964
1305 -4671 2004 -6900 1781z m3537 -785 c502 -147 1048 -328 1213 -401 165
-74 557 -245 872 -382 314 -136 629 -296 700 -355 70 -58 399 -305 729 -547
691 -507 1761 -1603 2199 -2253 535 -794 752 -1152 852 -1407 54 -137 147
-335 207 -438 670 -1156 1008 -3959 705 -5841 -344 -2137 -1559 -4280 -3275
-5777 -1510 -1316 -2534 -1858 -4439 -2351 -826 -213 -1000 -308 -1067 -581
-35 -144 -94 -284 -131 -312 -37 -27 -198 -291 -357 -586 -294 -545 -537 -714
-1027 -714 -330 0 -818 402 -818 674 0 111 -67 258 -150 326 -82 68 -150 202
-150 297 0 387 -297 781 -627 830 -860 130 -2417 760 -3478 1406 -196 120
-691 507 -1100 861 -695 602 -1018 959 -1568 1740 -123 174 -270 371 -327 439
-589 698 -1275 2472 -1598 4133 -196 1011 -11 3760 279 4126 51 65 121 276
156 470 35 193 153 519 263 724 110 206 200 433 200 506 0 288 1170 1863 1987
2676 1303 1295 1961 1728 3713 2440 1723 702 4239 825 6037 297z" />
		<path d="M7721 21087 c-291 -337 -512 -664 -492 -725 21 -62 169 -151 329
-198 161 -47 446 -159 634 -249 264 -127 351 -136 384 -38 23 70 105 190 183
268 183 182 179 399 -9 555 -92 76 -150 295 -150 562 0 623 -230 577 -879
-175z" />
		<path d="M14343 21588 c-118 -189 -230 -805 -175 -950 31 -80 197 -138 393
-138 186 0 339 -45 339 -100 0 -105 -128 -136 -431 -104 -119 12 -221 -87
-297 -289 -89 -235 -177 -307 -378 -307 -431 0 -666 -394 -610 -1022 20 -221
494 -464 808 -413 436 70 533 231 486 805 l-44 527 335 63 c648 122 892 783
465 1257 -121 134 -127 210 -32 387 94 176 91 239 -17 307 -195 124 -761 109
-842 -23z m-244 -2437 c68 -82 97 -217 65 -300 -75 -196 -553 -196 -628 0 -67
173 127 449 314 449 69 0 181 -67 249 -149z" />
		<path d="M8409 19459 c-495 -526 -42 -1472 624 -1304 319 80 595 658 471 984
-104 275 -193 343 -599 459 -233 68 -327 41 -496 -139z m691 -409 c154 -186
-25 -450 -306 -450 -249 0 -325 156 -195 398 128 239 328 260 501 52z" />
		<path d="M3053 16864 c-245 -178 -133 -508 148 -435 241 63 357 -89 206 -270
-81 -98 -71 -165 42 -258 231 -192 181 -290 -130 -251 -375 48 -556 -76 -476
-327 67 -213 327 -319 783 -322 348 -1 719 528 568 810 -52 97 -94 334 -94
527 0 555 -598 855 -1047 526z" />
		<path d="M19212 16737 c-266 -186 -512 -709 -512 -1088 0 -334 417 -749 753
-749 350 0 556 227 617 678 39 293 5 414 -160 563 -120 108 -210 313 -210 474
0 325 -147 361 -488 122z m369 -1112 c-19 -96 -100 -175 -181 -175 -81 0 -162
79 -181 175 -24 123 30 175 181 175 151 0 205 -52 181 -175z" />
		<path d="M4900 16100 c-278 -278 -258 -752 45 -1055 458 -457 1007 -227 1117
468 104 655 -692 1057 -1162 587z m746 -475 c81 -211 -165 -450 -378 -368
-192 74 -222 349 -56 515 139 139 352 66 434 -147z" />
		<path d="M16992 15908 c-363 -364 -377 -732 -39 -1070 206 -206 311 -240 575
-186 416 86 572 295 572 769 0 324 -50 412 -325 580 -419 255 -436 253 -783
-93z m701 -433 c113 -293 -90 -521 -382 -429 -232 74 -279 346 -91 534 185
185 378 143 473 -105z" />
		<path d="M4911 11136 c-201 -141 -227 -225 -184 -605 81 -721 686 -957 1148
-448 260 287 260 286 114 704 -177 509 -638 658 -1078 349z m641 -475 c159
-116 169 -165 62 -294 -131 -158 -405 -120 -533 72 -69 104 82 361 212 361 38
0 154 -63 259 -139z" />
		<path d="M16844 10994 c-243 -269 -228 -959 26 -1151 479 -364 1130 -14 1130
607 0 659 -737 1006 -1156 544z m792 -444 c130 -338 -235 -659 -499 -439 -169
140 -175 311 -17 469 166 166 447 150 516 -30z" />
		<path d="M3057 10342 c-217 -216 -53 -483 300 -488 377 -6 416 -211 74 -388
-422 -218 -659 -521 -587 -748 106 -334 920 -439 1204 -156 149 149 148 176
-7 348 -119 132 -139 223 -66 313 56 70 131 265 167 434 134 624 -651 1119
-1085 685z" />
		<path d="M18715 10312 c-254 -162 -88 -446 285 -489 193 -22 365 -55 383 -73
19 -18 -60 -245 -175 -504 -243 -551 -266 -846 -65 -846 292 0 857 1097 857
1663 0 214 -43 237 -442 237 -243 0 -502 22 -575 49 -73 27 -194 10 -268 -37z" />
		<path d="M13600 7733 c-428 -159 -546 -887 -200 -1233 456 -456 1200 -140
1200 511 0 483 -558 886 -1000 722z m447 -569 c246 -179 132 -464 -186 -464
-278 0 -376 169 -244 425 108 211 186 218 430 39z" />
		<path d="M8600 7631 c-252 -90 -400 -352 -400 -707 0 -329 213 -677 338 -553
34 34 62 8 62 -58 0 -247 547 -52 768 274 182 269 201 371 115 620 -145 416
-469 571 -883 424z m569 -595 c75 -195 -221 -448 -429 -368 -145 55 -191 348
-73 465 127 127 440 66 502 -97z" />
		<path d="M14353 5865 c-264 -193 -340 -1463 -102 -1701 250 -250 650 -314 942
-151 234 132 258 206 274 841 21 862 -128 1146 -600 1146 -181 0 -412 -61
-514 -135z m597 -465 c34 -55 -8 -100 -94 -100 -86 0 -156 45 -156 100 0 55
42 100 94 100 52 0 122 -45 156 -100z m25 -825 c-23 -69 -102 -125 -175 -125
-73 0 -152 56 -175 125 -25 74 46 125 175 125 129 0 200 -51 175 -125z" />
		<path d="M7885 5525 c-8 -151 -24 -432 -34 -625 -27 -494 49 -800 199 -800
191 0 250 239 250 1008 0 625 -19 692 -200 692 -148 0 -204 -72 -215 -275z" />
	</g>
</svg>
