<?xml version="1.0" standalone="no"?>
<!DOCTYPE svg PUBLIC "-//W3C//DTD SVG 20010904//EN" "http://www.w3.org/TR/2001/REC-SVG-20010904/DTD/svg10.dtd">
<svg version="1.0" xmlns="http://www.w3.org/2000/svg" width="213.017694pt" height="213.083199pt" viewBox="0 0 213.017694 213.083199" preserveAspectRatio="xMidYMid meet">
	<metadata>
		Created by potrace 1.13, written by Peter Selinger 2001-2015
	</metadata>
	<g transform="translate(-4.191106,215.452752) scale(0.100000,-0.100000)" fill="#fff" stroke="none">
		<path d="M1080 2154 c-105 -5 -198 -23 -310 -60 -319 -106 -562 -350 -673
-674 -45 -133 -60 -239 -54 -385 4 -71 11 -143 16 -160 5 -16 15 -50 22 -75
33 -124 138 -328 180 -351 10 -5 19 -17 19 -25 0 -20 144 -164 200 -200 25
-15 63 -38 85 -49 23 -11 54 -30 70 -41 56 -41 205 -82 372 -104 226 -30 533
52 698 185 22 17 63 49 90 70 119 90 243 266 303 431 99 273 99 514 -2 771
-76 194 -223 375 -405 497 -46 31 -87 56 -92 56 -4 0 -36 13 -71 29 -80 37
-259 81 -328 80 -8 0 -24 1 -35 4 -11 2 -49 2 -85 1z m124 -41 c4 -5 38 -15
74 -25 67 -16 67 -16 15 -17 -28 -1 -55 -6 -59 -12 -10 -17 13 -33 51 -33 40
0 40 -4 2 -84 -15 -34 -17 -46 -8 -55 10 -9 16 -7 28 8 22 29 63 123 65 151 3
28 9 29 74 8 116 -37 261 -124 361 -214 153 -140 270 -351 313 -565 20 -97 15
-296 -10 -403 -12 -51 -26 -95 -32 -98 -5 -3 -24 8 -42 25 -40 39 -60 39 -97
2 -40 -40 -41 -102 -2 -143 15 -15 37 -28 50 -28 34 0 29 -23 -22 -100 -64
-97 -197 -228 -295 -291 -72 -46 -202 -110 -275 -134 -110 -36 -376 -47 -490
-21 -116 27 -141 35 -216 69 -79 37 -160 85 -222 135 -41 33 -35 42 29 42 27
0 34 4 34 20 0 14 -7 20 -21 20 -21 0 -21 0 0 34 25 40 26 64 5 94 -18 26 -65
30 -85 6 -10 -13 -10 -17 2 -25 8 -5 22 -9 31 -9 35 0 28 -23 -21 -70 -50 -48
-50 -48 -90 -2 -23 26 -51 58 -63 72 -12 14 -39 53 -60 88 -155 255 -189 558
-94 852 34 106 43 124 109 225 58 88 235 275 261 275 7 0 21 9 33 19 28 26
146 89 221 117 76 29 206 54 327 64 50 4 95 7 101 8 6 1 14 -1 18 -5z m810
-1349 c19 -18 20 -38 6 -65 -23 -43 -78 -11 -65 38 10 43 33 53 59 27z" />
		<path d="M937 2059 c-22 -13 -47 -68 -47 -103 0 -13 12 -38 26 -55 26 -31 26
-31 -1 -43 -28 -13 -55 -55 -55 -87 0 -23 44 -78 69 -86 10 -3 34 2 54 10 69
29 86 117 29 152 -15 9 -29 18 -31 20 -2 1 8 15 22 29 35 35 35 77 2 106 -18
15 -23 28 -19 45 5 18 2 23 -12 23 -11 0 -27 -5 -37 -11z m42 -103 c9 -10 9
-16 1 -21 -16 -10 -40 2 -40 20 0 19 24 20 39 1z m19 -138 c17 -17 15 -64 -4
-82 -36 -36 -94 -9 -94 44 0 17 7 33 18 39 23 14 65 14 80 -1z" />
		<path d="M501 1851 c-24 -44 -9 -76 39 -83 14 -1 26 -11 28 -20 3 -15 -4 -18
-32 -18 -43 0 -49 -24 -11 -42 18 -8 24 -16 19 -27 -32 -72 0 -141 66 -141 21
0 46 3 55 6 20 8 45 56 45 87 0 34 -35 74 -71 82 -28 6 -30 10 -25 39 7 35
-15 76 -40 76 -22 0 -17 17 7 23 34 9 16 32 -29 35 -32 2 -43 -1 -51 -17z
m159 -211 c24 -24 25 -38 4 -68 -9 -14 -26 -22 -43 -22 -32 0 -46 13 -56 51
-5 21 -2 30 16 43 31 21 55 20 79 -4z" />
		<path d="M1246 1835 c-52 -48 -27 -134 45 -150 39 -9 69 6 92 46 24 43 21 71
-11 102 -37 36 -89 37 -126 2z m92 -21 c57 -39 -6 -127 -64 -90 -30 20 -32 58
-4 86 24 24 38 25 68 4z" />
		<path d="M1653 1852 c-39 -6 -51 -35 -46 -110 5 -67 5 -67 -26 -79 -43 -16
-69 -71 -52 -112 21 -49 49 -66 102 -62 9 0 28 13 43 27 20 21 26 37 26 70 0
23 -5 46 -11 50 -7 4 1 14 21 27 33 21 33 21 26 91 -8 89 -24 107 -83 98z m21
-63 c-3 -5 -10 -7 -15 -3 -5 3 -7 10 -3 15 3 5 10 7 15 3 5 -3 7 -10 3 -15z
m24 -66 c5 -17 -26 -29 -40 -15 -6 6 -7 15 -3 22 9 14 37 9 43 -7z m-50 -99
c31 -21 30 -69 -2 -90 -22 -13 -29 -14 -53 -2 -33 16 -41 49 -19 84 19 28 42
31 74 8z" />
		<path d="M232 1417 c-29 -29 -52 -60 -52 -69 0 -16 28 -28 66 -28 12 0 24 -7
28 -15 8 -21 21 -19 53 10 28 26 28 26 6 42 -19 12 -23 25 -23 64 0 33 -4 49
-13 49 -7 0 -36 -24 -65 -53z m38 -42 c0 -3 -2 -5 -5 -5 -3 0 -5 2 -5 5 0 3 2
5 5 5 3 0 5 -2 5 -5z" />
		<path d="M1906 1434 c-25 -24 -20 -78 9 -105 17 -17 22 -31 18 -46 -8 -33 17
-29 51 6 35 37 46 100 22 136 -19 29 -75 35 -100 9z m72 -57 c3 -14 -1 -18
-20 -15 -12 2 -24 11 -26 21 -3 14 1 18 20 15 12 -2 24 -11 26 -21z" />
		<path d="M1020 1415 c-211 -59 -314 -305 -209 -498 28 -52 107 -123 151 -137
57 -18 78 -37 78 -70 0 -33 17 -49 62 -56 40 -7 54 6 65 60 8 35 13 40 61 58
67 25 161 114 190 180 69 157 18 324 -131 424 -59 40 -72 45 -138 49 -50 3
-92 0 -129 -10z m228 -54 c143 -73 207 -257 137 -396 -35 -69 -86 -117 -165
-158 -66 -33 -75 -43 -85 -90 -5 -24 -10 -28 -33 -25 -18 2 -28 10 -30 23 -8
56 -12 61 -69 85 -67 28 -142 94 -174 153 -18 34 -22 59 -23 127 0 74 3 93 28
142 29 59 85 118 111 118 8 0 15 4 15 9 0 8 35 25 75 35 46 11 172 -2 213 -23z" />
		<path d="M415 1372 c-11 -2 -31 -14 -43 -25 -52 -48 -2 -147 73 -147 35 0 67
29 80 72 17 53 -49 113 -110 100z m65 -51 c14 -28 12 -57 -6 -75 -29 -30 -75
-13 -89 31 -14 47 72 87 95 44z" />
		<path d="M1748 1337 c-14 -12 -31 -31 -37 -43 -22 -45 18 -109 76 -120 62 -12
118 66 92 128 -12 30 -54 58 -86 58 -10 0 -30 -10 -45 -23z m93 -38 c20 -20
20 -61 0 -82 -16 -16 -74 -11 -87 8 -45 61 33 128 87 74z" />
		<path d="M1738 983 c-35 -22 -46 -50 -37 -93 11 -52 50 -77 109 -71 8 1 27 15
43 32 37 40 36 82 -2 120 -34 33 -72 37 -113 12z m106 -56 c17 -26 -13 -71
-48 -75 -33 -4 -66 22 -66 52 1 64 78 80 114 23z" />
		<path d="M361 964 c-56 -47 -30 -136 45 -150 74 -14 129 101 74 156 -29 29
-81 26 -119 -6z m103 -36 c17 -27 -4 -70 -38 -79 -18 -5 -35 -4 -43 3 -17 13
-17 70 -1 86 17 17 69 11 82 -10z" />
		<path d="M195 854 c-22 -22 -4 -42 35 -36 31 4 42 -11 15 -22 -20 -7 -19 -33
1 -44 24 -13 9 -30 -22 -24 -22 4 -25 2 -22 -19 2 -20 10 -25 40 -27 30 -3 40
1 53 21 22 34 11 132 -19 152 -27 20 -61 19 -81 -1z" />
		<path d="M1840 731 c0 -58 4 -80 14 -84 23 -9 26 2 26 85 0 71 -2 78 -20 78
-18 0 -20 -7 -20 -79z" />
		<path d="M1581 691 c-30 -8 -59 -46 -67 -88 -6 -28 -2 -37 29 -68 42 -42 74
-45 115 -10 55 46 46 127 -18 160 -16 8 -30 15 -32 14 -2 -1 -14 -4 -27 -8z
m63 -57 c20 -19 21 -61 2 -80 -18 -17 -68 -18 -84 -2 -7 7 -12 23 -12 37 0 51
60 80 94 45z" />
		<path d="M546 648 c-36 -32 -42 -75 -17 -115 24 -39 60 -50 102 -32 39 15 63
67 50 102 -12 32 -58 67 -87 67 -12 0 -34 -10 -48 -22z m86 -35 c25 -22 23
-59 -5 -77 -49 -33 -104 21 -72 70 18 28 51 31 77 7z" />
		<path d="M1283 502 c-13 -2 -32 -15 -43 -29 -38 -48 -18 -123 37 -144 24 -9
25 -10 8 -23 -23 -17 -10 -38 19 -30 14 3 27 -1 36 -12 15 -17 18 -14 -57 -75
-18 -14 -16 -26 7 -49 26 -26 107 -28 117 -4 7 19 -12 33 -37 27 -23 -6 -34
12 -17 29 32 31 38 57 23 87 -8 15 -25 31 -38 34 -22 6 -22 7 10 38 34 33 42
72 22 110 -14 24 -59 46 -87 41z m55 -54 c18 -18 15 -59 -5 -74 -40 -30 -83
-7 -83 45 0 35 62 55 88 29z" />
		<path d="M872 493 c-17 -6 -42 -57 -42 -83 0 -12 13 -35 29 -51 54 -54 131
-29 147 47 9 46 -35 94 -84 93 -21 0 -43 -3 -50 -6z m96 -82 c3 -25 -2 -33
-22 -43 -40 -18 -78 6 -74 46 7 67 89 64 96 -3z" />
		<path d="M1597 474 c-10 -11 -8 -162 2 -168 20 -13 32 25 29 95 -3 66 -13 91
-31 73z" />
		<path d="M1682 468 c-7 -7 -12 -42 -12 -85 0 -58 3 -75 16 -80 24 -9 33 14 31
88 -2 72 -14 98 -35 77z" />
		<path d="M1202 298 c-17 -17 -16 -143 1 -157 22 -18 27 -2 27 80 0 79 -7 98
-28 77z" />
		<path d="M816 263 c-13 -81 -5 -133 20 -133 11 0 14 19 14 85 0 65 -3 85 -14
85 -8 0 -16 -15 -20 -37z" />
	</g>
</svg>
