<?xml version="1.0" standalone="no"?>
<!DOCTYPE svg PUBLIC "-//W3C//DTD SVG 20010904//EN"
 "http://www.w3.org/TR/2001/REC-SVG-20010904/DTD/svg10.dtd">
<svg version="1.0" xmlns="http://www.w3.org/2000/svg"
 width="363.118757pt" height="363.416319pt" viewBox="0 0 363.118757 363.416319"
 preserveAspectRatio="xMidYMid meet">
<metadata>
Created by potrace 1.13, written by Peter Selinger 2001-2015
</metadata>
<g transform="translate(-0.049265,364.229584) scale(0.010000,-0.010000)"
fill="#fff" stroke="none">
<path d="M16907 36388 c-684 -41 -1404 -98 -1600 -125 -701 -98 -2375 -548
-3307 -888 -1728 -631 -1762 -647 -3150 -1417 -1496 -831 -4352 -3377 -5225
-4658 -206 -302 -517 -739 -690 -970 -174 -231 -451 -706 -616 -1055 -165
-349 -371 -694 -459 -767 -88 -73 -160 -193 -160 -267 0 -74 -108 -373 -239
-663 -703 -1552 -943 -2348 -1246 -4128 -253 -1489 -283 -4180 -60 -5350 225
-1186 339 -1849 440 -2579 47 -345 135 -687 194 -758 60 -72 178 -327 262
-567 85 -241 263 -664 395 -942 132 -277 378 -796 546 -1154 398 -845 628
-1225 1166 -1925 243 -316 442 -616 442 -667 0 -50 207 -309 460 -575 253
-265 590 -658 749 -872 754 -1013 4211 -3761 4732 -3761 81 0 172 -41 203 -91
152 -245 3124 -1362 4406 -1655 385 -88 857 -201 1050 -250 1041 -268 4448
-302 5754 -58 1329 248 2160 448 2932 707 405 136 788 247 850 247 293 0 3519
1755 3760 2045 70 85 174 155 229 155 353 0 3489 3013 3935 3781 150 258 428
649 617 869 340 395 1689 3049 1919 3774 65 205 160 399 211 431 51 31 93 170
93 307 0 138 43 331 95 428 154 289 487 2077 607 3260 185 1829 145 3610 -114
5050 -173 960 -614 2633 -812 3082 -106 238 -214 553 -240 700 -27 146 -107
334 -177 417 -147 171 -505 827 -657 1201 -126 311 -163 370 -1196 1900 -639
948 -1160 1564 -2157 2550 -1242 1229 -2417 2254 -2680 2338 -65 21 -186 94
-269 162 -158 130 -1754 945 -2718 1388 -750 345 -2643 962 -2951 962 -134 0
-325 43 -424 96 -451 242 -3120 401 -4900 292z m4393 -931 c468 -84 1008 -194
1200 -245 1185 -313 3258 -1152 4181 -1692 347 -204 752 -438 900 -520 1330
-744 3449 -2777 4600 -4414 451 -640 819 -1185 819 -1212 0 -27 238 -470 529
-986 291 -516 588 -1095 659 -1288 71 -192 188 -462 259 -600 72 -137 163
-407 203 -600 41 -192 141 -481 223 -641 82 -160 185 -520 230 -800 198 -1248
413 -2404 460 -2480 28 -46 51 -904 50 -1906 -2 -1545 -40 -2009 -251 -3041
-464 -2271 -1161 -4118 -2187 -5795 -206 -337 -375 -642 -375 -676 0 -35 -191
-307 -425 -604 -234 -297 -569 -735 -744 -974 -876 -1188 -2736 -2817 -4448
-3895 -1319 -830 -3004 -1588 -3529 -1588 -133 0 -266 -39 -295 -86 -29 -47
-336 -141 -681 -210 -345 -68 -830 -185 -1078 -259 -469 -141 -2848 -315
-3800 -278 -2903 112 -5146 713 -7750 2077 -1316 689 -2464 1515 -3528 2539
-153 147 -479 451 -725 676 -246 225 -593 585 -772 800 -710 853 -1038 1280
-1142 1481 -59 115 -278 435 -487 710 -859 1136 -2049 4106 -2356 5883 -465
2697 -412 5466 154 8017 123 556 227 852 572 1628 129 290 234 599 234 685 0
86 209 546 465 1022 256 476 533 1000 616 1165 541 1074 3186 4017 4143 4610
235 145 539 366 676 490 293 266 1493 991 2353 1422 725 364 2543 1028 2814
1028 106 0 247 54 313 120 66 66 120 91 120 55 0 -36 146 -5 325 69 286 117
1658 371 2675 495 733 89 3981 -34 4800 -182z"/>
<path d="M17606 34222 c-587 -323 -750 -1378 -284 -1844 277 -277 973 -499
1347 -430 392 72 783 517 872 991 77 408 -212 1085 -537 1259 -398 213 -1036
224 -1398 24z m1001 -626 c221 -118 268 -681 73 -876 -168 -168 -731 -150
-879 29 -147 177 -56 812 127 886 209 84 477 69 679 -39z"/>
<path d="M18126 30875 c-55 -69 -125 -764 -157 -1546 -51 -1265 -38 -1445 120
-1640 134 -166 240 -203 438 -154 322 81 340 207 269 1901 -46 1112 -79 1304
-244 1425 -234 171 -300 173 -426 14z"/>
<path d="M6637 29608 c-634 -386 -762 -793 -474 -1510 118 -297 271 -462 563
-612 357 -182 450 -191 837 -82 239 67 548 234 686 372 453 453 295 1417 -307
1872 -272 206 -935 186 -1305 -40z m941 -564 c464 -325 156 -1044 -447 -1044
-439 0 -594 774 -209 1044 122 86 270 156 328 156 58 0 206 -70 328 -156z"/>
<path d="M28530 29350 c-117 -82 -312 -309 -432 -504 -298 -482 -206 -924 304
-1460 379 -398 409 -410 904 -363 680 65 978 358 1054 1032 50 442 23 539
-251 907 -399 535 -1117 712 -1579 388z m1114 -772 c321 -457 82 -878 -498
-878 -577 0 -670 462 -190 942 223 223 506 196 688 -64z"/>
<path d="M7476 26418 c-338 -38 -620 -395 -463 -584 76 -92 272 -112 683 -69
378 40 600 22 645 -51 38 -61 -113 -424 -336 -805 -223 -382 -405 -737 -405
-789 0 -53 -67 -152 -150 -220 -197 -164 -192 -562 8 -639 391 -150 842 89
842 447 0 164 499 1134 845 1644 249 368 244 663 -19 966 -140 163 -773 201
-1650 100z"/>
<path d="M26821 26278 c-206 -54 -373 -182 -446 -344 -104 -226 -89 -281 118
-448 218 -177 252 -179 479 -31 533 349 740 -177 225 -572 -689 -530 -790
-648 -850 -988 -46 -266 -14 -413 128 -589 160 -198 306 -241 952 -283 762
-49 763 -48 831 223 90 360 -149 594 -607 594 -221 0 -351 48 -351 130 0 72
56 131 125 133 69 1 277 129 463 283 281 232 346 364 385 772 37 393 5 545
-160 754 -252 318 -839 485 -1292 366z"/>
<path d="M9950 17442 c-427 -222 -645 -440 -858 -858 -570 -1116 -169 -2484
728 -2484 621 0 990 475 1015 1305 19 618 -213 895 -750 895 -212 0 -385 43
-385 96 0 139 345 304 633 304 378 0 510 520 192 761 -221 168 -217 168 -575
-19z m200 -2042 c136 -429 -217 -835 -513 -589 -141 117 -189 604 -70 722 146
147 521 61 583 -133z"/>
<path d="M25958 17302 c-406 -79 -658 -314 -658 -614 0 -222 333 -331 590
-194 108 59 245 106 303 106 202 0 107 -204 -148 -320 -369 -169 -308 -609 94
-680 400 -69 540 -316 364 -643 -175 -328 -465 -327 -770 2 -199 215 -266 238
-392 134 -414 -344 226 -1093 934 -1093 262 0 430 85 699 354 342 342 351 370
279 875 -41 286 -106 786 -144 1109 -55 469 -124 636 -344 825 -152 130 -307
232 -346 226 -38 -7 -245 -46 -461 -87z"/>
<path d="M29106 17128 c-79 -32 -292 -193 -475 -359 -283 -257 -331 -368 -331
-760 1 -1213 1366 -1929 2137 -1122 362 380 444 1150 169 1589 -349 557 -1010
845 -1500 652z m767 -810 c68 -43 152 -216 185 -385 50 -249 17 -339 -170
-470 -297 -208 -574 -207 -805 2 -503 455 209 1223 790 853z"/>
<path d="M6204 16852 c-598 -432 -729 -860 -460 -1503 212 -507 689 -770 1300
-717 575 49 906 350 1013 918 212 1133 -954 1953 -1853 1302z m1038 -513 c255
-98 210 -791 -64 -983 -285 -200 -467 -197 -695 9 -208 188 -245 733 -63 915
128 128 561 159 822 59z"/>
<path d="M13986 10020 c-282 -18 -521 -97 -610 -200 -201 -234 -488 -1171
-416 -1359 86 -226 415 -296 746 -159 160 67 353 97 429 68 210 -81 273 -586
105 -845 -201 -312 -495 -282 -704 72 -212 359 -382 438 -538 251 -88 -107
-88 -225 1 -496 151 -456 555 -673 1181 -632 463 30 474 39 754 599 328 654
304 1002 -101 1483 -173 205 -342 298 -542 298 -160 0 -291 45 -291 100 0 55
154 100 343 100 489 0 817 352 532 572 -192 149 -384 181 -889 148z"/>
<path d="M22737 9871 c-417 -238 -1137 -1286 -1137 -1655 0 -310 269 -561 716
-670 370 -90 441 -149 484 -401 39 -228 111 -302 313 -325 230 -27 271 13 329
323 38 200 152 400 262 459 195 104 278 498 106 498 -140 0 -310 583 -310
1065 0 302 -61 496 -200 635 -231 231 -274 236 -563 71z m63 -1330 c0 -232
-240 -435 -365 -309 -82 82 193 663 286 605 44 -27 79 -160 79 -296z"/>
<path d="M11010 5347 c-260 -297 -310 -436 -310 -864 0 -455 38 -546 357 -846
296 -279 434 -337 805 -337 646 0 988 213 1189 740 211 551 87 1026 -365 1407
-240 201 -410 253 -833 253 -484 0 -560 -32 -843 -353z m1226 -398 c410 -409
208 -1049 -331 -1049 -564 0 -807 598 -405 1000 238 238 528 257 736 49z"/>
<path d="M23350 5405 c-353 -144 -555 -465 -616 -979 -55 -470 -37 -524 279
-855 256 -269 447 -369 793 -416 398 -54 506 -24 860 232 336 243 415 366 463
723 68 508 -106 993 -441 1227 -246 173 -991 211 -1338 68z m967 -670 c375
-340 99 -1035 -410 -1035 -466 0 -674 441 -437 925 158 321 556 373 847 110z"/>
</g>
</svg>
