<?xml version="1.0" standalone="no"?>
<!DOCTYPE svg PUBLIC "-//W3C//DTD SVG 20010904//EN"
 "http://www.w3.org/TR/2001/REC-SVG-20010904/DTD/svg10.dtd">
<svg version="1.0" xmlns="http://www.w3.org/2000/svg"
 width="336.100356pt" height="335.404281pt" viewBox="0 0 336.100356 335.404281"
 preserveAspectRatio="xMidYMid meet">
<metadata>
Created by potrace 1.13, written by Peter Selinger 2001-2015
</metadata>
<g transform="translate(-7.268691,341.278251) scale(0.010000,-0.010000)"
fill="#fff" stroke="none">
<path d="M16600 34092 c-1157 -63 -3057 -371 -3908 -632 -977 -299 -3314
-1388 -3700 -1723 -87 -75 -199 -138 -250 -139 -109 -2 -614 -344 -1642 -1112
-987 -737 -2484 -2309 -3323 -3489 -752 -1058 -1855 -3205 -2157 -4197 -382
-1258 -600 -2052 -605 -2200 -3 -82 -76 -577 -163 -1100 -282 -1699 -74 -4377
493 -6327 140 -482 255 -926 255 -987 0 -61 130 -387 289 -724 700 -1484 811
-1739 811 -1858 0 -70 114 -268 254 -440 140 -173 461 -629 714 -1014 791
-1202 2701 -3255 3357 -3607 151 -82 275 -191 275 -243 0 -53 326 -309 725
-569 399 -260 748 -497 775 -527 146 -157 1794 -1033 2500 -1329 2023 -846
3973 -1260 6055 -1285 1708 -21 2927 82 3845 325 1152 305 2706 814 2762 904
27 45 117 81 199 81 279 0 1906 870 3005 1608 953 640 1667 1238 2417 2025
312 327 688 713 836 856 298 289 1158 1546 1666 2435 181 315 382 608 447 650
136 87 366 697 371 983 2 106 69 279 148 384 201 266 800 2204 1054 3409 162
768 214 1406 228 2750 21 2105 -19 2457 -529 4751 -110 496 -447 1429 -765
2118 -131 285 -239 548 -239 585 0 147 -1152 2118 -1416 2424 -156 181 -284
367 -284 413 0 96 -912 1174 -1473 1740 -848 858 -2477 2134 -3455 2708 -809
475 -2012 1061 -2178 1061 -100 0 -208 41 -239 92 -58 93 -1653 638 -2205 753
-642 134 -2728 437 -3250 473 -302 20 -1067 9 -1700 -26z m2500 -593 c3088
-318 5931 -1438 8363 -3295 499 -380 1520 -1369 2386 -2311 837 -910 1829
-2406 2315 -3493 86 -192 265 -579 396 -860 132 -280 240 -566 240 -634 0 -69
63 -245 141 -391 140 -264 553 -1894 623 -2464 21 -164 61 -371 89 -460 28
-89 72 -879 97 -1756 66 -2320 -246 -4296 -991 -6272 -142 -378 -259 -802
-259 -943 0 -142 -81 -350 -181 -464 -99 -113 -425 -588 -723 -1056 -556 -870
-997 -1486 -1666 -2327 -554 -696 -665 -805 -1015 -994 -174 -94 -356 -274
-404 -400 -133 -348 -1027 -1006 -2911 -2145 -1114 -673 -2762 -1312 -4107
-1592 -2593 -539 -4384 -605 -6593 -240 -3009 496 -5923 2021 -8600 4500 -657
608 -1769 2016 -2248 2848 -159 275 -348 559 -420 632 -73 73 -132 191 -132
263 0 72 -67 186 -149 254 -82 69 -198 306 -258 527 -60 222 -194 520 -299
664 -214 291 -694 1603 -694 1896 0 104 -66 347 -147 540 -153 368 -169 445
-353 1699 -198 1351 -137 4718 94 5171 43 85 105 379 138 654 64 541 608 2293
962 3100 286 650 1127 2085 1535 2620 1085 1419 1361 1738 2069 2390 432 398
1042 896 1357 1106 1184 794 1913 1243 2471 1523 316 158 631 332 700 385 110
87 969 403 2124 780 220 72 828 201 1350 286 523 86 1175 196 1450 246 688
124 2112 130 3250 13z"/>
<path d="M13205 30256 c-173 -208 -237 -1606 -79 -1731 68 -55 282 -127 475
-162 289 -52 400 -18 625 191 319 296 338 457 101 858 -145 245 -152 325 -44
498 99 159 102 238 10 348 -155 188 -932 187 -1088 -2z"/>
<path d="M24812 28097 c-707 -774 -288 -1927 637 -1754 557 105 699 798 264
1293 -90 102 -163 305 -163 450 0 403 -375 408 -738 11z"/>
<path d="M14050 27646 c-680 -345 -906 -1047 -558 -1729 290 -570 545 -717
1242 -717 551 0 615 25 978 388 233 233 388 483 387 625 -2 861 -618 1587
-1347 1586 -221 0 -537 -69 -702 -153z m1119 -663 c272 -256 306 -732 75
-1061 -186 -266 -689 -299 -1022 -66 -276 193 -310 881 -57 1161 226 249 720
232 1004 -34z"/>
<path d="M22653 26003 c-627 -413 -783 -898 -551 -1703 307 -1062 2089 -1011
2483 72 224 614 45 1129 -531 1525 -517 356 -970 390 -1401 106z m1265 -598
c175 -164 198 -264 141 -622 -38 -235 -141 -508 -229 -605 -217 -240 -644
-224 -976 36 -249 196 -267 255 -206 675 36 254 139 517 228 586 246 190 803
152 1042 -70z"/>
<path d="M7800 22864 c-609 -201 -778 -348 -1058 -921 -255 -522 -265 -591
-155 -1070 157 -677 507 -1116 1060 -1327 1115 -426 2350 286 2412 1389 47
847 -470 1615 -1301 1932 -378 144 -512 144 -958 -3z m1146 -702 c431 -282
585 -610 511 -1087 -144 -927 -964 -1345 -1727 -879 -483 294 -666 634 -601
1117 120 892 1072 1337 1817 849z"/>
<path d="M5540 22223 c-271 -180 -1049 -1252 -1020 -1404 23 -117 170 -187
476 -228 244 -33 458 -100 475 -150 106 -300 228 -388 396 -283 250 155 319
527 240 1288 -75 731 -259 983 -567 777z"/>
<path d="M29500 19426 c-330 -123 -287 -526 56 -526 234 0 262 -194 98 -687
-168 -505 -136 -760 106 -853 142 -54 539 459 540 698 0 59 140 320 312 579
293 442 302 482 146 654 -165 182 -915 263 -1258 135z"/>
<path d="M26850 19331 c-752 -96 -1219 -721 -1106 -1479 115 -766 997 -1314
1792 -1114 372 93 864 822 864 1279 0 614 -641 1411 -1100 1367 -82 -8 -285
-31 -450 -53z m589 -644 c136 -62 300 -241 365 -397 256 -617 -496 -1255
-1106 -939 -471 244 -543 813 -153 1204 270 269 514 305 894 132z"/>
<path d="M27917 13569 c-297 -317 -278 -722 48 -1024 145 -135 307 -245 359
-245 247 0 762 336 815 532 86 320 84 326 -198 660 -317 378 -713 407 -1024
77z"/>
<path d="M9174 12884 c-386 -405 -395 -430 -352 -1015 45 -632 150 -777 851
-1185 239 -138 344 -143 762 -35 618 159 964 502 1034 1024 124 923 -512 1627
-1468 1627 -377 0 -483 -53 -827 -416z m1381 -429 c269 -270 308 -577 119
-945 -169 -327 -468 -416 -854 -254 -290 122 -320 175 -320 567 0 816 544
1142 1055 632z"/>
<path d="M23425 11229 c-364 -70 -923 -662 -936 -991 -22 -570 33 -793 274
-1112 318 -419 567 -546 1091 -554 1081 -18 1701 1160 1086 2064 -363 534
-844 723 -1515 593z m677 -680 c309 -160 498 -426 498 -702 0 -240 -580 -747
-853 -747 -314 0 -647 445 -647 865 0 274 62 375 325 536 389 237 321 232 677
48z"/>
<path d="M8135 10604 c-283 -119 -376 -284 -248 -438 57 -69 135 -316 172
-549 53 -334 29 -464 -117 -625 -375 -415 289 -807 919 -544 383 160 526 532
351 915 -62 136 -86 416 -53 622 42 263 17 410 -84 494 -202 168 -685 233
-940 125z"/>
<path d="M15921 9593 c-812 -172 -1261 -1139 -875 -1886 81 -156 293 -406 472
-557 284 -239 383 -266 800 -216 609 72 1036 390 1240 923 152 397 150 446
-34 857 -107 240 -288 519 -402 620 -267 236 -783 348 -1201 259z m678 -692
c102 -55 239 -262 304 -461 105 -317 95 -395 -77 -626 -259 -349 -702 -395
-1013 -104 -193 180 -226 288 -183 608 29 215 107 456 173 536 140 168 526
191 796 47z"/>
<path d="M24908 8415 c-78 -145 -92 -1323 -21 -1740 27 -158 402 -66 459 113
84 264 147 1515 84 1677 -75 197 -407 165 -522 -50z"/>
<path d="M15240 6367 l-279 -240 269 -250 c333 -308 335 -384 20 -658 -502
-437 -203 -845 587 -799 l513 30 5 400 c3 220 41 525 86 677 106 358 -93 846
-377 928 -118 33 -288 81 -379 107 -91 25 -291 -63 -445 -195z"/>
</g>
</svg>
