<?xml version="1.0" standalone="no"?>
<!DOCTYPE svg PUBLIC "-//W3C//DTD SVG 20010904//EN"
 "http://www.w3.org/TR/2001/REC-SVG-20010904/DTD/svg10.dtd">
<svg version="1.0" xmlns="http://www.w3.org/2000/svg"
 width="209.911449pt" height="208.759901pt" viewBox="0 0 209.911449 208.759901"
 preserveAspectRatio="xMidYMid meet">
<metadata>
Created by potrace 1.13, written by Peter Selinger 2001-2015
</metadata>
<g transform="translate(-7.349670,213.225479) scale(0.010000,-0.010000)"
fill="#fff" stroke="none">
<path d="M10450 21291 c-1063 -75 -1663 -190 -2550 -487 -3920 -1314 -6777
-4957 -7146 -9112 -39 -435 -16 -1202 54 -1800 68 -573 130 -1134 139 -1247 9
-113 41 -248 71 -300 31 -52 157 -410 282 -795 124 -385 286 -769 359 -854 73
-84 203 -309 289 -500 174 -389 300 -603 627 -1064 124 -175 225 -357 225
-404 0 -113 1174 -1437 1441 -1625 115 -81 311 -249 437 -373 519 -516 1680
-1184 2904 -1670 1742 -693 4788 -823 6251 -267 154 59 409 107 568 107 158 0
313 42 344 92 32 51 198 124 370 161 535 118 1889 902 2478 1436 189 171 382
311 430 311 114 0 826 720 1336 1350 590 730 997 1446 1620 2853 808 1827 984
4559 414 6447 -290 960 -617 1777 -940 2348 -2135 3763 -5724 5698 -10003
5393z m1330 -420 c334 26 847 -2 1139 -63 807 -168 2281 -639 2281 -729 0 -43
56 -80 125 -80 111 -1 638 -255 1518 -731 494 -267 2171 -1886 2523 -2436 182
-285 375 -546 429 -579 207 -128 993 -1946 1189 -2753 279 -1145 371 -2730
224 -3833 -162 -1214 -1022 -3532 -1577 -4251 -1638 -2119 -3301 -3334 -5481
-4003 -2324 -713 -5146 -568 -6950 358 -137 70 -281 128 -320 128 -85 1 -1247
678 -1469 856 -787 632 -1511 1272 -1511 1335 0 43 -189 271 -421 508 -685
699 -985 1227 -1620 2854 -471 1207 -660 2164 -678 3438 -26 1867 589 4004
1559 5410 532 772 1365 1736 1796 2080 228 181 461 390 517 464 57 74 372 279
700 456 329 176 668 383 755 460 87 77 213 140 280 140 67 0 254 68 415 152
162 83 418 166 570 184 153 18 412 99 577 180 653 323 2104 590 2561 473 143
-37 534 -45 869 -18z"/>
<path d="M10913 20465 c-62 -74 -140 -273 -174 -443 -56 -283 -29 -325 318
-491 487 -233 560 -431 157 -431 -369 0 -462 -126 -293 -396 160 -256 549
-261 874 -11 341 262 342 854 3 1129 -220 178 -226 204 -70 292 241 135 214
351 -53 423 -366 98 -643 72 -762 -72z"/>
<path d="M10830 18175 c-331 -235 -630 -745 -630 -1075 0 -620 635 -1200 1313
-1200 363 0 937 517 1043 938 116 462 -210 1135 -661 1365 -496 253 -676 248
-1065 -28z m987 -740 c227 -206 233 -414 18 -652 -304 -336 -1035 -124 -1035
300 0 444 662 673 1017 352z"/>
<path d="M5136 17796 c-593 -627 -629 -899 -136 -1018 193 -47 452 -136 576
-199 189 -95 250 -82 371 78 80 106 118 281 85 389 -32 108 -87 420 -121 692
-33 273 -112 513 -175 533 -62 21 -332 -193 -600 -475z"/>
<path d="M16975 18025 c-386 -405 -498 -770 -374 -1228 82 -306 169 -405 436
-493 416 -137 630 -58 817 303 208 403 184 540 -149 855 -204 192 -266 315
-199 396 119 142 18 442 -148 442 -66 0 -239 -124 -383 -275z m385 -1185 c-48
-126 -97 -143 -177 -63 -60 60 -80 188 -43 283 48 126 97 143 177 63 60 -60
80 -188 43 -283z"/>
<path d="M15082 16771 c-369 -219 -682 -711 -682 -1071 0 -620 635 -1200 1313
-1200 363 0 937 517 1043 938 109 436 -217 1156 -593 1310 -590 241 -709 244
-1081 23z m828 -778 c333 -237 357 -354 125 -610 -207 -228 -611 -236 -852
-18 -227 206 -233 414 -18 652 214 236 387 231 745 -24z"/>
<path d="M15300 15350 c0 -27 23 -50 50 -50 28 0 50 23 50 50 0 28 -22 50 -50
50 -27 0 -50 -22 -50 -50z"/>
<path d="M6382 16671 c-369 -219 -682 -711 -682 -1071 0 -620 635 -1200 1313
-1200 363 0 937 517 1043 938 109 436 -217 1156 -593 1310 -590 241 -709 244
-1081 23z m935 -736 c227 -206 233 -414 18 -652 -304 -336 -1035 -124 -1035
300 0 444 662 673 1017 352z"/>
<path d="M18972 13475 c-86 -239 128 -475 432 -475 163 0 296 -25 296 -56 0
-32 -97 -282 -215 -557 -200 -464 -203 -511 -50 -665 144 -144 182 -147 298
-18 266 292 686 1406 624 1653 -56 226 -107 243 -701 243 -421 0 -655 -43
-684 -125z"/>
<path d="M2089 13311 c-189 -153 -210 -215 -110 -336 73 -87 223 -128 371 -99
230 44 245 24 190 -250 -43 -218 -17 -313 100 -358 307 -118 172 -279 -179
-214 -396 75 -523 -57 -340 -350 141 -225 378 -275 381 -79 1 92 24 89 87 -11
127 -200 505 -44 619 256 134 355 5 1178 -224 1424 -239 257 -591 264 -895 17z"/>
<path d="M4234 13266 c-875 -598 -819 -1710 108 -2173 393 -196 482 -207 752
-95 428 177 906 749 904 1080 -1 150 -87 457 -189 684 -157 345 -266 438 -666
575 -568 194 -514 198 -909 -71z m983 -731 c227 -206 233 -414 18 -652 -304
-336 -1035 -124 -1035 300 0 444 662 673 1017 352z"/>
<path d="M16982 13271 c-369 -219 -682 -711 -682 -1071 0 -620 635 -1200 1313
-1200 363 0 937 517 1043 938 109 436 -217 1156 -593 1310 -590 241 -709 244
-1081 23z m935 -736 c227 -206 233 -414 18 -652 -304 -336 -1035 -124 -1035
300 0 444 662 673 1017 352z"/>
<path d="M10656 12927 c-355 -90 -954 -550 -1168 -897 -269 -434 -361 -1453
-172 -1887 286 -656 989 -1240 1672 -1390 719 -158 1856 581 2173 1413 244
637 156 1512 -198 1976 -501 656 -1490 993 -2307 785z m994 -446 c220 -64 435
-109 478 -98 43 10 104 -49 135 -132 32 -83 114 -151 183 -151 138 0 412 -588
490 -1054 64 -382 -211 -1002 -610 -1377 -214 -201 -437 -295 -787 -334 -269
-29 -506 -70 -527 -90 -78 -77 -773 276 -1033 525 -296 284 -541 1170 -437
1583 98 393 897 1128 1276 1174 182 23 355 48 382 56 28 9 230 -37 450 -102z"/>
<path d="M16282 9072 c-369 -220 -682 -712 -682 -1072 0 -372 322 -873 666
-1037 871 -416 1741 75 1732 977 -1 115 -87 395 -189 622 -157 345 -266 438
-666 575 -263 90 -482 161 -486 159 -4 -3 -172 -103 -375 -224z m935 -737
c227 -206 233 -414 18 -652 -304 -336 -1035 -124 -1035 300 0 444 662 673
1017 352z"/>
<path d="M5182 8671 c-369 -219 -682 -711 -682 -1071 0 -620 635 -1200 1313
-1200 363 0 937 517 1043 938 109 436 -217 1156 -593 1310 -590 241 -709 244
-1081 23z m935 -736 c227 -206 233 -414 18 -652 -304 -336 -1035 -124 -1035
300 0 444 662 673 1017 352z"/>
<path d="M3215 7911 c-248 -157 -89 -459 261 -492 384 -37 424 -241 79 -398
-134 -62 -323 -231 -418 -377 -170 -259 -168 -270 70 -452 290 -224 920 -250
1089 -46 152 182 53 354 -202 354 -225 0 -257 154 -55 270 77 44 185 245 240
447 88 323 74 392 -121 575 -226 213 -701 273 -943 119z"/>
<path d="M18230 7775 c-131 -145 -227 -431 -268 -804 -69 -616 18 -900 326
-1065 275 -147 903 57 1002 325 118 317 109 1497 -12 1644 -175 214 -818 153
-1048 -100z m515 -1284 c-32 -52 -101 -68 -154 -36 -52 32 -68 101 -36 154 32
52 101 68 154 36 52 -32 68 -101 36 -154z"/>
<path d="M8482 6071 c-369 -219 -682 -711 -682 -1071 0 -330 310 -863 602
-1035 470 -278 967 -216 1352 169 441 441 513 763 296 1331 -129 337 -256 489
-487 583 -590 241 -709 244 -1081 23z m935 -736 c227 -206 233 -414 18 -652
-304 -336 -1035 -124 -1035 300 0 444 662 673 1017 352z"/>
<path d="M13282 6071 c-369 -219 -682 -711 -682 -1071 0 -414 333 -898 760
-1105 385 -186 454 -192 765 -62 377 158 747 571 839 938 101 402 -242 1130
-601 1277 -590 241 -709 244 -1081 23z m935 -736 c227 -206 233 -414 18 -652
-304 -336 -1035 -124 -1035 300 0 444 662 673 1017 352z"/>
<path d="M14488 3811 c-177 -144 -233 -290 -233 -605 0 -255 56 -451 144 -505
126 -78 155 -195 193 -776 13 -206 358 -141 574 107 235 271 434 793 434 1141
0 266 -496 827 -731 827 -81 0 -252 -85 -381 -189z m412 -561 c0 -27 -22 -50
-50 -50 -27 0 -50 23 -50 50 0 28 23 50 50 50 28 0 50 -22 50 -50z"/>
<path d="M7707 3713 c-163 -304 -136 -1464 36 -1607 235 -195 369 209 336
1013 -30 739 -173 966 -372 594z"/>
</g>
</svg>
