<?xml version="1.0" standalone="no"?>
<!DOCTYPE svg PUBLIC "-//W3C//DTD SVG 20010904//EN"
 "http://www.w3.org/TR/2001/REC-SVG-20010904/DTD/svg10.dtd">
<svg version="1.0" xmlns="http://www.w3.org/2000/svg"
 width="251.010257pt" height="234.472808pt" viewBox="0 0 251.010257 234.472808"
 preserveAspectRatio="xMidYMid meet">
<metadata>
Created by potrace 1.13, written by Peter Selinger 2001-2015
</metadata>
<g transform="translate(-4.000000,237.595005) scale(0.010000,-0.010000)"
fill="#fff" stroke="none">
<path d="M12141 23657 c-892 -147 -825 -131 -2086 -515 -925 -281 -1695 -650
-2697 -1291 -764 -489 -950 -647 -1956 -1654 -1839 -1840 -3000 -4221 -3311
-6792 -97 -797 -155 -1006 -281 -1011 -383 -14 -1171 -102 -1285 -143 -84 -30
-125 -275 -125 -744 l0 -699 823 -29 822 -29 169 -900 c480 -2569 2084 -5324
3886 -6676 303 -227 566 -452 586 -501 34 -85 1368 -973 1462 -973 25 0 404
-175 841 -389 438 -214 1036 -443 1329 -510 292 -66 792 -186 1109 -266 1553
-394 4096 -253 5855 323 3144 1030 5455 2993 6977 5925 242 468 442 922 443
1009 1 87 97 361 213 608 116 248 249 675 296 949 46 275 131 515 187 534 130
43 141 4117 11 4117 -49 0 -121 236 -159 525 -38 289 -174 773 -303 1075 -129
303 -263 663 -299 800 -124 476 -883 1853 -1433 2600 -733 996 -2131 2378
-2817 2785 -1174 697 -2731 1378 -3698 1618 -1417 351 -3329 457 -4559 254z
m3509 -494 c1100 -115 3967 -1251 4363 -1729 61 -74 173 -134 249 -134 76 0
138 -45 138 -100 0 -55 44 -100 97 -100 91 0 950 -750 1488 -1300 587 -600
1442 -1883 1949 -2924 466 -956 597 -1360 870 -2676 376 -1810 369 -2589 -41
-4506 -508 -2382 -1619 -4348 -3363 -5952 -923 -848 -1034 -942 -1126 -942
-48 0 -231 -108 -406 -239 -722 -542 -1894 -1037 -3618 -1527 -1114 -316
-5150 -249 -5150 86 0 51 -42 66 -93 34 -126 -78 -1513 396 -2255 770 -2698
1359 -4648 3567 -5677 6426 -1101 3059 -754 6540 936 9400 521 881 1468 2034
2053 2500 207 165 491 418 631 561 572 587 2504 1634 3657 1983 1339 404 2112
501 3598 449 770 -26 1535 -62 1700 -80z m-13669 -11588 l31 -375 -656 0 -656
0 0 405 0 405 625 -30 625 -30 31 -375z"/>
<path d="M7928 17687 c-919 -822 -918 -858 50 -1807 l822 -806 456 51 c759 86
1181 695 936 1350 -104 279 -1199 1461 -1514 1634 -136 75 -294 -14 -750 -422z
m1054 -324 c19 -92 -32 -163 -116 -163 -177 0 -666 -556 -666 -758 0 -190
-193 -180 -417 23 -264 239 -236 325 287 855 430 437 488 466 675 342 113 -75
220 -209 237 -299z m743 -778 c479 -566 -143 -1368 -837 -1080 -327 135 -535
620 -385 900 272 510 868 597 1222 180z"/>
<path d="M18154 17558 c-343 -353 -680 -780 -750 -948 -182 -439 -58 -947 307
-1254 578 -486 1067 -315 2214 776 427 407 631 868 384 868 -50 0 -350 270
-667 600 -317 330 -641 600 -721 600 -79 0 -424 -289 -767 -642z m1325 -287
c232 -236 421 -475 421 -532 0 -57 -107 -205 -239 -328 l-238 -224 -187 381
c-110 226 -322 450 -517 547 l-331 166 225 209 c123 116 274 210 335 210 61 0
300 -193 531 -429z m-664 -670 c227 -227 283 -354 232 -525 -127 -424 -451
-631 -922 -588 -222 21 -525 405 -525 667 0 309 412 745 703 745 117 0 347
-135 512 -299z"/>
<path d="M9050 8509 c-283 -126 -1650 -1554 -1650 -1723 0 -78 308 -447 686
-822 l685 -680 759 664 c1092 957 1313 1642 744 2303 -244 285 -868 416 -1224
258z m993 -466 c255 -256 200 -795 -106 -1036 -358 -281 -680 -261 -930 56
-262 334 -263 639 -3 918 243 262 806 295 1039 62z m-1456 -994 c114 -193 332
-404 485 -470 153 -66 297 -133 321 -150 72 -52 -523 -629 -649 -629 -123 0
-944 841 -944 967 0 63 503 633 559 633 12 0 114 -158 228 -351z"/>
<path d="M17253 8173 c-275 -275 -353 -434 -353 -717 0 -311 98 -469 671
-1085 761 -817 821 -868 1029 -867 173 0 1400 1145 1400 1305 0 59 -330 446
-733 859 -663 681 -778 758 -1197 805 -430 48 -491 26 -817 -300z m1051 -125
c562 -291 471 -1097 -143 -1261 -598 -160 -1085 373 -867 948 171 448 531 560
1010 313z m1088 -990 l227 -241 -422 -459 c-456 -494 -630 -550 -914 -293
-252 229 -234 285 169 523 193 114 394 321 447 460 120 314 206 316 493 10z"/>
<path d="M7200 7850 c0 -28 22 -50 50 -50 28 0 50 22 50 50 0 28 -22 50 -50
50 -28 0 -50 -22 -50 -50z"/>
</g>
</svg>
