<?xml version="1.0" standalone="no"?>
<!DOCTYPE svg PUBLIC "-//W3C//DTD SVG 20010904//EN"
 "http://www.w3.org/TR/2001/REC-SVG-20010904/DTD/svg10.dtd">
<svg version="1.0" xmlns="http://www.w3.org/2000/svg"
 width="212.773717pt" height="212.544362pt" viewBox="0 0 212.773717 212.544362"
 preserveAspectRatio="xMidYMid meet">
<metadata>
Created by potrace 1.13, written by Peter Selinger 2001-2015
</metadata>
<g transform="translate(-6.088690,215.682578) scale(0.010000,-0.010000)"
fill="#fff" stroke="none">
<path d="M9250 21409 c-1927 -443 -2224 -566 -3850 -1595 -961 -609 -2397
-2019 -3018 -2964 -1849 -2812 -2268 -6167 -1181 -9467 705 -2144 2062 -3879
4149 -5308 1609 -1102 3404 -1671 5500 -1746 1075 -39 1464 -10 2250 164 523
116 1084 237 1247 268 434 85 1896 794 2703 1313 1041 669 2073 1684 2897
2849 715 1009 1004 1594 1358 2745 515 1673 628 2437 566 3829 -31 689 -102
1388 -157 1553 -55 165 -201 660 -325 1100 -298 1061 -875 2278 -1430 3017
-1078 1434 -1959 2220 -3409 3044 -890 505 -1073 581 -2150 891 -412 119 -862
264 -1000 321 -137 58 -947 119 -1800 137 -1235 26 -1713 -5 -2350 -151z
m3648 -328 c1594 -298 1671 -323 3187 -1069 405 -199 787 -429 850 -512 63
-82 273 -236 465 -342 539 -295 1746 -1517 2271 -2299 1157 -1725 1829 -3785
1829 -5608 0 -2371 -497 -4059 -1754 -5951 -568 -856 -1885 -2294 -1998 -2182
-24 25 -63 346 -85 715 -23 368 -96 737 -164 818 -173 208 -830 191 -1025 -26
-211 -236 -183 -1192 45 -1513 151 -215 256 -254 781 -299 182 -16 -715 -677
-1200 -885 -193 -82 -643 -287 -1000 -455 -357 -169 -943 -362 -1300 -429
-357 -68 -920 -178 -1250 -245 -667 -136 -2497 -84 -3275 93 -261 59 -689 155
-950 212 -899 197 -2700 1185 -3691 2025 -506 429 -935 817 -952 863 -18 46
-233 319 -478 606 -542 634 -567 677 -1237 2052 -576 1181 -816 1990 -920
3100 -220 2341 254 4513 1416 6497 603 1027 2167 2647 3171 3283 408 259 809
470 892 470 82 0 203 64 268 143 147 177 1832 747 2706 915 726 140 2703 153
3398 23z m4259 -16792 c38 -61 7 -151 -69 -199 -214 -135 -288 -107 -288 110
0 213 243 274 357 89z m23 -709 c186 -186 143 -280 -130 -280 -235 0 -335 182
-183 333 96 97 177 83 313 -53z"/>
<path d="M6159 18389 c-590 -657 -588 -931 9 -942 120 -2 301 -79 402 -170
102 -92 233 -135 292 -97 200 130 328 474 233 625 -51 80 -93 359 -93 620 -2
400 -32 475 -193 475 -105 0 -397 -230 -650 -511z m341 -439 c0 -27 -22 -50
-50 -50 -28 0 -50 23 -50 50 0 28 22 50 50 50 28 0 50 -22 50 -50z"/>
<path d="M15426 18780 c-59 -72 -122 -260 -141 -419 -38 -309 68 -407 547
-509 429 -90 319 -394 -158 -433 -604 -50 -467 -458 147 -440 341 9 564 170
687 492 108 284 -65 702 -323 784 -247 78 -234 209 26 277 115 30 191 114 167
186 -59 179 -816 228 -952 62z"/>
<path d="M8416 18094 c-1080 -433 -743 -2098 424 -2092 574 3 1061 447 1059
966 -2 916 -695 1441 -1483 1126z m909 -574 c278 -240 220 -665 -132 -961
-346 -290 -528 -250 -878 195 -163 207 -183 309 -103 538 165 474 702 584
1113 228z"/>
<path d="M13139 18102 c-300 -121 -639 -585 -639 -875 0 -494 588 -1127 1045
-1127 334 0 773 319 919 667 180 433 110 806 -222 1163 -261 281 -673 346
-1103 172z m936 -569 c200 -274 145 -602 -138 -826 -332 -260 -581 -263 -837
-7 -246 246 -258 670 -26 926 210 233 803 177 1001 -93z"/>
<path d="M2600 15211 c-365 -102 -317 -355 75 -392 291 -28 319 -58 264 -277
-34 -135 -8 -309 58 -389 170 -204 41 -353 -303 -353 -339 0 -371 -99 -110
-335 203 -184 732 -136 914 82 224 270 61 1400 -231 1605 -228 160 -286 165
-667 59z"/>
<path d="M19091 15091 c-237 -237 -491 -792 -491 -1074 0 -351 383 -717 752
-717 618 0 860 697 401 1156 -193 193 -234 313 -188 546 74 366 -154 409 -474
89z m413 -1045 c92 -112 97 -185 18 -264 -157 -157 -422 -23 -422 215 0 240
222 267 404 49z"/>
<path d="M4700 14979 c-486 -328 -636 -673 -506 -1158 154 -571 485 -836 1005
-806 942 56 1373 1141 718 1808 -386 394 -787 445 -1217 156z m1025 -490 c329
-396 162 -885 -372 -1088 -689 -262 -1139 698 -586 1251 213 214 716 128 958
-163z"/>
<path d="M16490 14789 c-429 -459 -371 -1266 113 -1568 298 -186 927 -242
1101 -98 394 326 620 789 562 1149 -92 564 -408 828 -993 828 -422 0 -534 -44
-783 -311z m1265 -254 c288 -310 293 -352 93 -739 -183 -354 -534 -461 -916
-279 -396 189 -440 684 -93 1031 323 323 608 319 916 -13z"/>
<path d="M10473 13697 c-1187 -298 -2020 -1434 -2015 -2747 5 -1140 468 -1908
1499 -2486 330 -185 402 -284 448 -617 79 -563 249 -821 588 -895 402 -89 777
174 905 633 55 201 101 415 101 476 1 61 271 277 600 480 1349 833 1815 2326
1145 3665 -247 495 -839 1083 -1359 1352 -386 200 -1382 272 -1912 139z m1943
-606 c202 -102 520 -379 708 -614 1015 -1271 605 -2983 -899 -3747 -549 -279
-577 -313 -628 -736 -63 -538 -151 -694 -391 -694 -256 0 -377 186 -430 661
-52 461 -135 639 -300 639 -61 0 -350 165 -642 366 -635 437 -929 973 -1007
1835 -49 532 -19 671 267 1253 318 645 866 1146 1254 1146 84 0 152 42 152 94
0 130 774 175 1200 70 193 -48 515 -170 716 -273z"/>
<path d="M4550 10526 c-277 -64 -611 -390 -755 -738 -175 -423 90 -1082 529
-1313 180 -94 394 -160 476 -146 720 122 1177 677 1063 1287 -110 589 -758
1037 -1313 910z m763 -641 c402 -463 94 -1185 -506 -1185 -329 0 -707 391
-707 732 0 565 843 880 1213 453z"/>
<path d="M17212 10312 c-591 -316 -776 -953 -441 -1520 172 -292 668 -592 979
-592 266 0 707 301 886 604 282 477 215 930 -189 1286 -195 170 -416 310 -492
310 -76 0 -199 21 -272 46 -73 25 -285 -35 -471 -134z m797 -367 c706 -365
506 -1345 -274 -1345 -698 0 -988 775 -470 1255 311 288 352 293 744 90z"/>
<path d="M2484 9227 c-183 -42 -316 -294 -230 -433 29 -48 187 -61 350 -28
267 53 296 34 296 -199 0 -197 -84 -297 -359 -428 -427 -202 -659 -602 -435
-747 79 -52 369 -82 643 -68 367 19 507 69 530 188 19 98 -60 190 -199 232
-142 43 -181 90 -103 122 209 86 432 614 367 870 -32 131 -180 298 -327 371
-332 166 -332 166 -533 120z"/>
<path d="M19325 9134 c-69 -28 -125 -114 -125 -192 0 -99 121 -142 394 -142
217 0 421 -44 455 -98 33 -54 -50 -330 -186 -613 -233 -487 -253 -789 -51
-789 149 0 825 1460 757 1637 -43 113 -185 163 -458 163 -217 0 -455 19 -528
42 -73 23 -189 19 -258 -8z"/>
<path d="M7053 6627 c-108 -28 -344 -163 -525 -300 -275 -210 -328 -316 -328
-652 0 -1289 1577 -1783 2151 -674 321 621 62 1278 -615 1561 -344 144 -363
146 -683 65z m872 -741 c240 -285 220 -490 -79 -812 -485 -523 -1195 -290
-1175 386 19 696 803 963 1254 426z"/>
<path d="M14442 6586 c-518 -252 -696 -1089 -338 -1592 468 -657 1457 -531
1831 235 227 464 166 755 -243 1163 -327 327 -818 403 -1250 194z m968 -493
c332 -236 377 -567 128 -947 -191 -292 -619 -329 -992 -84 -477 313 -206 1238
364 1238 115 0 340 -93 500 -207z"/>
<path d="M5569 4535 c-117 -116 -79 -1617 42 -1692 201 -124 291 196 265 949
-24 679 -126 925 -307 743z"/>
</g>
</svg>
